PSPTOA0001	0
PSPTOA0002	0
PSPTOA0003	0
PSPTOA0004	0
PSPTOA0005	2
PSPTOA0006	0
PSPTOA0007	4
PSPTOA0008	2
PSPTOA0009	1
PSPTOA0010	0
PSPTOA0011	0
PSPTOA0012	1
PSPTOA0013	0
PSPTOA0014	0
PSPTOA0015	0
PSPTOA0016	1
PSPTOA0017	0
PSPTOA0018	5
PSPTOA0019	0
PSPTOA0020	0
PSPTOA0021	0
PSPTOA0022	0
PSPTOA0023	0
PSPTOA0024	0
PSPTOA0025	0
PSPTOA0026	0
PSPTOA0027	1
PSPTOA0028	0
PSPTOA0029	0
PSPTOA0030	12
PSPTOA0031	4
PSPTOA0032	1
PSPTOA0033	0
PSPTOA0034	0
PSPTOA0035	1
PSPTOA0036	4
PSPTOA0037	4
PSPTOA0038	0
PSPTOA0039	9
PSPTOA0040	0
PSPTOA0041	0
PSPTOA0042	0
PSPTOA0043	0
PSPTOA0044	0
PSPTOA0045	1
PSPTOA0046	0
PSPTOA0047	0
PSPTOA0048	0
PSPTOA0049	0
PSPTOA0050	0
PSPTOA0051	0
PSPTOA0052	0
PSPTOA0053	0
PSPTOA0054	0
PSPTOA0055	0
PSPTOA0056	0
PSPTOA0057	1
PSPTOA0058	0
PSPTOA0059	0
PSPTOA0060	0
PSPTOA0061	0
PSPTOA0062	0
PSPTOA0063	0
PSPTOA0064	0
PSPTOA0065	3
PSPTOA0066	0
PSPTOA0067	0
PSPTOA0068	0
PSPTOA0069	0
PSPTOA0070	0
PSPTOA0071	0
PSPTO_0001	0
PSPTO_0002	0
PSPTO_0003	0
PSPTO_0004	1
PSPTO_0005	1
PSPTO_0006	0
PSPTO_0007	0
PSPTO_0008	0
PSPTO_0009	0
PSPTO_0011	0
PSPTO_0012	0
PSPTO_0013	0
PSPTO_0014	0
PSPTO_0015	0
PSPTO_0016	1
PSPTO_0017	0
PSPTO_0018	0
PSPTO_0019	0
PSPTO_0020	0
PSPTO_0021	0
PSPTO_0022	0
PSPTO_0023	0
PSPTO_0024	0
PSPTO_0025	0
PSPTO_0026	0
PSPTO_0027	0
PSPTO_0028	1
PSPTO_0029	0
PSPTO_0030	0
PSPTO_0031	0
PSPTO_0032	1
PSPTO_0033	0
PSPTO_0034	0
PSPTO_0035	0
PSPTO_0036	0
PSPTO_0037	8
PSPTO_0038	0
PSPTO_0039	1
PSPTO_0040	0
PSPTO_0041	0
PSPTO_0042	0
PSPTO_0043	1
PSPTO_0044	1
PSPTO_0045	0
PSPTO_0046	0
PSPTO_0047	0
PSPTO_0048	0
PSPTO_0049	0
PSPTO_0050	0
PSPTO_0051	0
PSPTO_0052	0
PSPTO_0053	0
PSPTO_0054	0
PSPTO_0055	0
PSPTO_0056	0
PSPTO_0057	0
PSPTO_0058	0
PSPTO_0059	0
PSPTO_0060	0
PSPTO_0061	0
PSPTO_0062	0
PSPTO_0063	0
PSPTO_0064	0
PSPTO_0065	0
PSPTO_0066	0
PSPTO_0067	0
PSPTO_0068	0
PSPTO_0069	0
PSPTO_0070	0
PSPTO_0071	0
PSPTO_0072	0
PSPTO_0073	0
PSPTO_0074	2
PSPTO_0075	0
PSPTO_0076	0
PSPTO_0077	0
PSPTO_0078	1
PSPTO_0079	0
PSPTO_0080	0
PSPTO_0081	0
PSPTO_0082	1
PSPTO_0083	1
PSPTO_0084	1
PSPTO_0085	0
PSPTO_0086	0
PSPTO_0087	1
PSPTO_0088	0
PSPTO_0089	2
PSPTO_0090	4
PSPTO_0091	0
PSPTO_0092	0
PSPTO_0093	0
PSPTO_0094	0
PSPTO_0095	0
PSPTO_0096	0
PSPTO_0097	0
PSPTO_0098	0
PSPTO_0099	0
PSPTO_0100	0
PSPTO_0101	0
PSPTO_0102	0
PSPTO_0103	0
PSPTO_0104	0
PSPTO_0105	0
PSPTO_0106	0
PSPTO_0107	1
PSPTO_0108	0
PSPTO_0109	0
PSPTO_0110	0
PSPTO_0111	0
PSPTO_0112	0
PSPTO_0113	0
PSPTO_0114	0
PSPTO_0115	0
PSPTO_0116	0
PSPTO_0117	1
PSPTO_0118	0
PSPTO_0119	0
PSPTO_0120	0
PSPTO_0121	0
PSPTO_0123	0
PSPTO_0124	0
PSPTO_0125	0
PSPTO_0126	0
PSPTO_0127	0
PSPTO_0128	0
PSPTO_0129	0
PSPTO_0130	0
PSPTO_0131	0
PSPTO_0132	0
PSPTO_0133	0
PSPTO_0134	0
PSPTO_0135	0
PSPTO_0136	0
PSPTO_0137	0
PSPTO_0138	0
PSPTO_0139	0
PSPTO_0140	0
PSPTO_0141	0
PSPTO_0142	0
PSPTO_0143	0
PSPTO_0144	0
PSPTO_0145	0
PSPTO_0146	0
PSPTO_0147	0
PSPTO_0148	0
PSPTO_0149	0
PSPTO_0150	1
PSPTO_0151	0
PSPTO_0152	0
PSPTO_0153	0
PSPTO_0154	0
PSPTO_0155	0
PSPTO_0156	1
PSPTO_0157	0
PSPTO_0158	0
PSPTO_0159	0
PSPTO_0161	0
PSPTO_0162	0
PSPTO_0163	0
PSPTO_0164	0
PSPTO_0165	0
PSPTO_0166	0
PSPTO_0167	1
PSPTO_0168	0
PSPTO_0169	0
PSPTO_0170	0
PSPTO_0171	0
PSPTO_0172	0
PSPTO_0173	0
PSPTO_0174	0
PSPTO_0175	0
PSPTO_0176	0
PSPTO_0177	0
PSPTO_0178	0
PSPTO_0179	0
PSPTO_0180	0
PSPTO_0181	0
PSPTO_0182	0
PSPTO_0183	0
PSPTO_0184	0
PSPTO_0185	0
PSPTO_0186	0
PSPTO_0187	0
PSPTO_0188	0
PSPTO_0189	0
PSPTO_0190	0
PSPTO_0191	0
PSPTO_0192	0
PSPTO_0193	0
PSPTO_0194	0
PSPTO_0196	0
PSPTO_0197	0
PSPTO_0200	30
PSPTO_0201	15
PSPTO_0202	16
PSPTO_0203	22
PSPTO_0205	0
PSPTO_0206	0
PSPTO_0207	0
PSPTO_0208	0
PSPTO_0209	0
PSPTO_0210	0
PSPTO_0211	0
PSPTO_0212	0
PSPTO_0213	0
PSPTO_0214	0
PSPTO_0215	0
PSPTO_0216	0
PSPTO_0217	2
PSPTO_0218	0
PSPTO_0219	0
PSPTO_0220	0
PSPTO_0221	0
PSPTO_0222	0
PSPTO_0223	0
PSPTO_0224	0
PSPTO_0225	0
PSPTO_0226	0
PSPTO_0227	0
PSPTO_0228	0
PSPTO_0229	0
PSPTO_0230	0
PSPTO_0231	0
PSPTO_0232	0
PSPTO_0233	0
PSPTO_0234	0
PSPTO_0235	0
PSPTO_0236	0
PSPTO_0237	0
PSPTO_0238	0
PSPTO_0239	0
PSPTO_0240	1
PSPTO_0241	0
PSPTO_0242	0
PSPTO_0243	0
PSPTO_0244	0
PSPTO_0245	0
PSPTO_0246	0
PSPTO_0247	0
PSPTO_0248	0
PSPTO_0249	0
PSPTO_0250	0
PSPTO_0251	0
PSPTO_0252	0
PSPTO_0253	0
PSPTO_0254	0
PSPTO_0255	0
PSPTO_0256	0
PSPTO_0257	0
PSPTO_0258	0
PSPTO_0259	0
PSPTO_0260	0
PSPTO_0261	0
PSPTO_0262	0
PSPTO_0263	0
PSPTO_0264	0
PSPTO_0265	0
PSPTO_0266	0
PSPTO_0267	0
PSPTO_0268	0
PSPTO_0269	0
PSPTO_0270	0
PSPTO_0271	0
PSPTO_0272	0
PSPTO_0273	0
PSPTO_0274	0
PSPTO_0275	0
PSPTO_0276	0
PSPTO_0277	0
PSPTO_0278	1
PSPTO_0279	0
PSPTO_0280	0
PSPTO_0281	0
PSPTO_0282	0
PSPTO_0283	0
PSPTO_0284	0
PSPTO_0285	0
PSPTO_0286	1
PSPTO_0287	0
PSPTO_0288	0
PSPTO_0289	0
PSPTO_0290	0
PSPTO_0291	0
PSPTO_0292	0
PSPTO_0293	0
PSPTO_0294	0
PSPTO_0295	0
PSPTO_0296	0
PSPTO_0297	0
PSPTO_0298	0
PSPTO_0299	0
PSPTO_0300	0
PSPTO_0301	0
PSPTO_0302	0
PSPTO_0303	0
PSPTO_0304	0
PSPTO_0305	0
PSPTO_0306	0
PSPTO_0307	0
PSPTO_0308	0
PSPTO_0309	0
PSPTO_0310	0
PSPTO_0311	0
PSPTO_0312	0
PSPTO_0313	0
PSPTO_0314	0
PSPTO_0315	0
PSPTO_0316	0
PSPTO_0317	0
PSPTO_0318	1
PSPTO_0319	0
PSPTO_0320	0
PSPTO_0321	0
PSPTO_0322	0
PSPTO_0323	0
PSPTO_0324	0
PSPTO_0325	0
PSPTO_0326	0
PSPTO_0327	0
PSPTO_0328	0
PSPTO_0329	0
PSPTO_0330	0
PSPTO_0331	0
PSPTO_0332	0
PSPTO_0333	0
PSPTO_0334	1
PSPTO_0335	0
PSPTO_0336	0
PSPTO_0337	0
PSPTO_0338	1
PSPTO_0339	0
PSPTO_0340	0
PSPTO_0341	0
PSPTO_0342	0
PSPTO_0343	0
PSPTO_0344	0
PSPTO_0345	0
PSPTO_0346	0
PSPTO_0347	0
PSPTO_0348	0
PSPTO_0349	0
PSPTO_0350	0
PSPTO_0351	0
PSPTO_0352	0
PSPTO_0353	0
PSPTO_0354	0
PSPTO_0355	0
PSPTO_0356	0
PSPTO_0357	0
PSPTO_0358	0
PSPTO_0359	0
PSPTO_0360	0
PSPTO_0361	0
PSPTO_0362	0
PSPTO_0363	0
PSPTO_0364	0
PSPTO_0365	0
PSPTO_0366	0
PSPTO_0367	0
PSPTO_0368	0
PSPTO_0369	0
PSPTO_0370	0
PSPTO_0371	0
PSPTO_0372	0
PSPTO_0373	0
PSPTO_0374	0
PSPTO_0375	0
PSPTO_0376	0
PSPTO_0377	0
PSPTO_0378	0
PSPTO_0379	0
PSPTO_0380	0
PSPTO_0381	0
PSPTO_0382	0
PSPTO_0383	0
PSPTO_0384	0
PSPTO_0385	0
PSPTO_0386	0
PSPTO_0387	0
PSPTO_0388	0
PSPTO_0389	0
PSPTO_0390	0
PSPTO_0391	0
PSPTO_0393	0
PSPTO_0394	0
PSPTO_0395	0
PSPTO_0396	0
PSPTO_0397	0
PSPTO_0398	0
PSPTO_0399	0
PSPTO_0400	0
PSPTO_0401	0
PSPTO_0402	0
PSPTO_0403	0
PSPTO_0404	0
PSPTO_0405	0
PSPTO_0406	0
PSPTO_0407	0
PSPTO_0408	0
PSPTO_0409	0
PSPTO_0410	0
PSPTO_0411	0
PSPTO_0412	0
PSPTO_0413	1
PSPTO_0414	0
PSPTO_0415	0
PSPTO_0416	0
PSPTO_0417	0
PSPTO_0418	0
PSPTO_0419	0
PSPTO_0420	0
PSPTO_0421	0
PSPTO_0422	0
PSPTO_0423	0
PSPTO_0424	0
PSPTO_0425	0
PSPTO_0426	0
PSPTO_0427	0
PSPTO_0428	0
PSPTO_0429	0
PSPTO_0430	0
PSPTO_0431	0
PSPTO_0432	0
PSPTO_0433	0
PSPTO_0434	0
PSPTO_0435	0
PSPTO_0436	0
PSPTO_0437	0
PSPTO_0438	0
PSPTO_0439	0
PSPTO_0440	0
PSPTO_0441	0
PSPTO_0442	0
PSPTO_0443	1
PSPTO_0444	0
PSPTO_0445	0
PSPTO_0446	0
PSPTO_0447	0
PSPTO_0448	0
PSPTO_0449	0
PSPTO_0450	0
PSPTO_0451	0
PSPTO_0452	0
PSPTO_0453	0
PSPTO_0454	0
PSPTO_0455	0
PSPTO_0456	0
PSPTO_0457	0
PSPTO_0458	0
PSPTO_0459	0
PSPTO_0460	0
PSPTO_0461	0
PSPTO_0462	0
PSPTO_0463	0
PSPTO_0464	0
PSPTO_0465	0
PSPTO_0466	0
PSPTO_0467	0
PSPTO_0468	0
PSPTO_0469	0
PSPTO_0470	0
PSPTO_0471	0
PSPTO_0472	0
PSPTO_0473	0
PSPTO_0474	0
PSPTO_0475	0
PSPTO_0476	0
PSPTO_0477	0
PSPTO_0478	0
PSPTO_0479	0
PSPTO_0480	0
PSPTO_0481	0
PSPTO_0482	0
PSPTO_0483	0
PSPTO_0484	0
PSPTO_0485	0
PSPTO_0486	0
PSPTO_0487	0
PSPTO_0488	0
PSPTO_0489	0
PSPTO_0490	0
PSPTO_0491	0
PSPTO_0492	0
PSPTO_0493	0
PSPTO_0494	0
PSPTO_0495	0
PSPTO_0496	0
PSPTO_0497	0
PSPTO_0498	0
PSPTO_0499	0
PSPTO_0500	0
PSPTO_0501	0
PSPTO_0502	0
PSPTO_0503	0
PSPTO_0505	0
PSPTO_0506	0
PSPTO_0507	0
PSPTO_0508	0
PSPTO_0509	0
PSPTO_0510	0
PSPTO_0511	0
PSPTO_0512	0
PSPTO_0513	8
PSPTO_0514	0
PSPTO_0515	0
PSPTO_0516	0
PSPTO_0517	0
PSPTO_0518	0
PSPTO_0519	0
PSPTO_0520	0
PSPTO_0521	0
PSPTO_0522	0
PSPTO_0523	0
PSPTO_0524	0
PSPTO_0525	0
PSPTO_0526	0
PSPTO_0527	0
PSPTO_0528	0
PSPTO_0529	0
PSPTO_0530	0
PSPTO_0531	0
PSPTO_0532	0
PSPTO_0533	0
PSPTO_0534	0
PSPTO_0535	0
PSPTO_0536	0
PSPTO_0537	1
PSPTO_0538	0
PSPTO_0539	0
PSPTO_0540	0
PSPTO_0541	0
PSPTO_0542	0
PSPTO_0543	0
PSPTO_0544	0
PSPTO_0545	0
PSPTO_0546	0
PSPTO_0547	1
PSPTO_0548	0
PSPTO_0549	0
PSPTO_0550	0
PSPTO_0551	0
PSPTO_0552	0
PSPTO_0553	0
PSPTO_0554	2
PSPTO_0555	0
PSPTO_0556	0
PSPTO_0557	0
PSPTO_0558	0
PSPTO_0559	0
PSPTO_0560	0
PSPTO_0561	0
PSPTO_0562	0
PSPTO_0563	0
PSPTO_0564	0
PSPTO_0565	0
PSPTO_0566	0
PSPTO_0567	0
PSPTO_0568	0
PSPTO_0569	0
PSPTO_0570	0
PSPTO_0571	0
PSPTO_0572	0
PSPTO_0573	0
PSPTO_0574	0
PSPTO_0575	0
PSPTO_0576	0
PSPTO_0577	0
PSPTO_0578	0
PSPTO_0579	0
PSPTO_0580	0
PSPTO_0581	0
PSPTO_0582	0
PSPTO_0583	0
PSPTO_0584	0
PSPTO_0585	0
PSPTO_0586	0
PSPTO_0587	0
PSPTO_0588	0
PSPTO_0589	0
PSPTO_0591	0
PSPTO_0592	1
PSPTO_0593	0
PSPTO_0594	0
PSPTO_0595	0
PSPTO_0596	0
PSPTO_0597	0
PSPTO_0598	0
PSPTO_0599	0
PSPTO_0600	0
PSPTO_0601	0
PSPTO_0602	0
PSPTO_0603	0
PSPTO_0604	0
PSPTO_0605	0
PSPTO_0606	0
PSPTO_0607	0
PSPTO_0608	0
PSPTO_0609	0
PSPTO_0610	0
PSPTO_0611	0
PSPTO_0612	0
PSPTO_0613	0
PSPTO_0614	1
PSPTO_0615	2
PSPTO_0616	2
PSPTO_0617	4
PSPTO_0618	16
PSPTO_0619	4
PSPTO_0620	5
PSPTO_0621	2
PSPTO_0622	3
PSPTO_0623	9
PSPTO_0624	26
PSPTO_0625	0
PSPTO_0626	4
PSPTO_0627	7
PSPTO_0628	1
PSPTO_0629	4
PSPTO_0630	2
PSPTO_0631	0
PSPTO_0632	4
PSPTO_0633	4
PSPTO_0634	0
PSPTO_0635	1
PSPTO_0636	0
PSPTO_0637	3
PSPTO_0638	8
PSPTO_0639	2
PSPTO_0640	3
PSPTO_0641	1
PSPTO_0642	0
PSPTO_0643	3
PSPTO_0644	1
PSPTO_0645	1
PSPTO_0646	9
PSPTO_0647	0
PSPTO_0648	2
PSPTO_0649	0
PSPTO_0650	3
PSPTO_0651	4
PSPTO_0652	0
PSPTO_0653	0
PSPTO_0654	0
PSPTO_0655	0
PSPTO_0656	0
PSPTO_0657	0
PSPTO_0658	1
PSPTO_0659	0
PSPTO_0660	0
PSPTO_0661	0
PSPTO_0662	0
PSPTO_0663	0
PSPTO_0664	0
PSPTO_0665	0
PSPTO_0666	0
PSPTO_0667	0
PSPTO_0668	0
PSPTO_0669	0
PSPTO_0670	1
PSPTO_0671	0
PSPTO_0672	0
PSPTO_0673	0
PSPTO_0674	0
PSPTO_0675	0
PSPTO_0676	0
PSPTO_0677	0
PSPTO_0678	0
PSPTO_0679	0
PSPTO_0680	1
PSPTO_0681	0
PSPTO_0682	0
PSPTO_0683	0
PSPTO_0684	0
PSPTO_0685	0
PSPTO_0686	0
PSPTO_0687	0
PSPTO_0688	0
PSPTO_0689	1
PSPTO_0690	0
PSPTO_0691	0
PSPTO_0692	0
PSPTO_0693	0
PSPTO_0694	0
PSPTO_0695	0
PSPTO_0696	0
PSPTO_0697	0
PSPTO_0698	0
PSPTO_0699	0
PSPTO_0700	0
PSPTO_0701	0
PSPTO_0702	0
PSPTO_0703	0
PSPTO_0704	0
PSPTO_0705	0
PSPTO_0706	0
PSPTO_0707	0
PSPTO_0708	0
PSPTO_0709	0
PSPTO_0710	0
PSPTO_0711	0
PSPTO_0712	0
PSPTO_0713	0
PSPTO_0714	0
PSPTO_0715	0
PSPTO_0716	0
PSPTO_0717	0
PSPTO_0718	0
PSPTO_0719	0
PSPTO_0720	1
PSPTO_0721	0
PSPTO_0722	0
PSPTO_0723	0
PSPTO_0724	0
PSPTO_0725	0
PSPTO_0726	0
PSPTO_0727	0
PSPTO_0728	0
PSPTO_0729	0
PSPTO_0730	0
PSPTO_0731	0
PSPTO_0732	0
PSPTO_0733	0
PSPTO_0734	0
PSPTO_0735	0
PSPTO_0736	0
PSPTO_0737	0
PSPTO_0738	0
PSPTO_0739	0
PSPTO_0740	0
PSPTO_0741	0
PSPTO_0742	0
PSPTO_0743	0
PSPTO_0744	0
PSPTO_0745	0
PSPTO_0746	0
PSPTO_0747	0
PSPTO_0748	0
PSPTO_0749	0
PSPTO_0750	0
PSPTO_0751	0
PSPTO_0752	0
PSPTO_0753	0
PSPTO_0754	0
PSPTO_0755	0
PSPTO_0756	0
PSPTO_0757	0
PSPTO_0758	0
PSPTO_0759	0
PSPTO_0760	0
PSPTO_0761	0
PSPTO_0762	0
PSPTO_0763	0
PSPTO_0764	0
PSPTO_0765	0
PSPTO_0766	0
PSPTO_0767	0
PSPTO_0768	0
PSPTO_0769	0
PSPTO_0770	0
PSPTO_0771	0
PSPTO_0772	0
PSPTO_0773	0
PSPTO_0774	0
PSPTO_0775	0
PSPTO_0776	0
PSPTO_0777	0
PSPTO_0778	0
PSPTO_0779	0
PSPTO_0780	0
PSPTO_0781	0
PSPTO_0782	0
PSPTO_0783	0
PSPTO_0784	0
PSPTO_0785	0
PSPTO_0786	0
PSPTO_0787	0
PSPTO_0788	0
PSPTO_0789	0
PSPTO_0790	0
PSPTO_0791	0
PSPTO_0792	0
PSPTO_0793	0
PSPTO_0794	0
PSPTO_0795	0
PSPTO_0796	0
PSPTO_0797	0
PSPTO_0798	1
PSPTO_0799	0
PSPTO_0800	0
PSPTO_0801	0
PSPTO_0802	0
PSPTO_0803	0
PSPTO_0804	0
PSPTO_0805	0
PSPTO_0806	0
PSPTO_0807	0
PSPTO_0808	0
PSPTO_0809	0
PSPTO_0810	0
PSPTO_0811	0
PSPTO_0812	0
PSPTO_0813	0
PSPTO_0814	0
PSPTO_0815	0
PSPTO_0816	0
PSPTO_0817	0
PSPTO_0818	0
PSPTO_0819	0
PSPTO_0820	0
PSPTO_0821	0
PSPTO_0822	0
PSPTO_0823	0
PSPTO_0824	0
PSPTO_0825	0
PSPTO_0826	0
PSPTO_0827	0
PSPTO_0828	0
PSPTO_0829	1
PSPTO_0830	1
PSPTO_0831	0
PSPTO_0832	0
PSPTO_0833	0
PSPTO_0834	2
PSPTO_0835	0
PSPTO_0836	1
PSPTO_0837	1
PSPTO_0838	0
PSPTO_0840	1
PSPTO_0841	0
PSPTO_0842	0
PSPTO_0844	0
PSPTO_0846	0
PSPTO_0847	0
PSPTO_0848	0
PSPTO_0849	0
PSPTO_0850	0
PSPTO_0851	0
PSPTO_0852	0
PSPTO_0853	0
PSPTO_0854	0
PSPTO_0855	1
PSPTO_0856	0
PSPTO_0857	0
PSPTO_0858	0
PSPTO_0859	0
PSPTO_0860	0
PSPTO_0861	0
PSPTO_0862	0
PSPTO_0863	0
PSPTO_0864	0
PSPTO_0865	0
PSPTO_0866	0
PSPTO_0867	0
PSPTO_0868	0
PSPTO_0869	0
PSPTO_0871	0
PSPTO_0873	0
PSPTO_0874	1
PSPTO_0875	0
PSPTO_0876	0
PSPTO_0877	0
PSPTO_0878	0
PSPTO_0879	0
PSPTO_0880	0
PSPTO_0881	0
PSPTO_0882	0
PSPTO_0883	0
PSPTO_0884	0
PSPTO_0885	0
PSPTO_0886	0
PSPTO_0887	0
PSPTO_0888	0
PSPTO_0889	0
PSPTO_0890	0
PSPTO_0891	0
PSPTO_0892	0
PSPTO_0893	0
PSPTO_0894	1
PSPTO_0895	0
PSPTO_0896	0
PSPTO_0897	0
PSPTO_0898	0
PSPTO_0899	0
PSPTO_0900	0
PSPTO_0901	0
PSPTO_0902	0
PSPTO_0903	0
PSPTO_0904	0
PSPTO_0905	0
PSPTO_0906	0
PSPTO_0907	0
PSPTO_0908	0
PSPTO_0909	0
PSPTO_0910	0
PSPTO_0911	0
PSPTO_0912	0
PSPTO_0913	0
PSPTO_0914	0
PSPTO_0915	0
PSPTO_0916	0
PSPTO_0917	0
PSPTO_0918	0
PSPTO_0919	0
PSPTO_0920	0
PSPTO_0921	0
PSPTO_0922	0
PSPTO_0923	0
PSPTO_0924	0
PSPTO_0925	2
PSPTO_0926	0
PSPTO_0927	3
PSPTO_0928	0
PSPTO_0929	0
PSPTO_0930	0
PSPTO_0931	0
PSPTO_0932	0
PSPTO_0933	0
PSPTO_0934	0
PSPTO_0935	0
PSPTO_0936	0
PSPTO_0937	0
PSPTO_0938	0
PSPTO_0939	0
PSPTO_0940	1
PSPTO_0941	0
PSPTO_0942	0
PSPTO_0943	0
PSPTO_0944	0
PSPTO_0945	1
PSPTO_0946	0
PSPTO_0947	0
PSPTO_0948	0
PSPTO_0949	0
PSPTO_0950	0
PSPTO_0951	0
PSPTO_0952	0
PSPTO_0953	0
PSPTO_0954	0
PSPTO_0955	0
PSPTO_0956	0
PSPTO_0957	0
PSPTO_0958	0
PSPTO_0959	0
PSPTO_0960	0
PSPTO_0961	0
PSPTO_0962	0
PSPTO_0963	0
PSPTO_0964	0
PSPTO_0965	0
PSPTO_0966	0
PSPTO_0967	0
PSPTO_0968	0
PSPTO_0969	0
PSPTO_0970	0
PSPTO_0971	0
PSPTO_0972	0
PSPTO_0973	0
PSPTO_0974	0
PSPTO_0975	0
PSPTO_0976	0
PSPTO_0977	0
PSPTO_0978	0
PSPTO_0979	0
PSPTO_0980	0
PSPTO_0981	0
PSPTO_0982	0
PSPTO_0983	1
PSPTO_0984	0
PSPTO_0985	0
PSPTO_0986	0
PSPTO_0987	0
PSPTO_0988	0
PSPTO_0989	0
PSPTO_0990	0
PSPTO_0991	0
PSPTO_0992	0
PSPTO_0993	0
PSPTO_0994	0
PSPTO_0995	0
PSPTO_0996	0
PSPTO_0997	0
PSPTO_0998	0
PSPTO_0999	0
PSPTO_1000	0
PSPTO_1001	0
PSPTO_1002	0
PSPTO_1003	0
PSPTO_1004	0
PSPTO_1005	1
PSPTO_1006	0
PSPTO_1007	0
PSPTO_1008	0
PSPTO_1009	0
PSPTO_1010	0
PSPTO_1011	0
PSPTO_1012	0
PSPTO_1013	0
PSPTO_1014	0
PSPTO_1015	0
PSPTO_1016	0
PSPTO_1017	0
PSPTO_1018	0
PSPTO_1019	0
PSPTO_1020	0
PSPTO_1021	0
PSPTO_1022	4
PSPTO_1023	0
PSPTO_1024	0
PSPTO_1025	0
PSPTO_1026	0
PSPTO_1027	0
PSPTO_1028	0
PSPTO_1029	0
PSPTO_1030	0
PSPTO_1031	0
PSPTO_1032	1
PSPTO_1033	0
PSPTO_1034	0
PSPTO_1035	3
PSPTO_1036	0
PSPTO_1037	0
PSPTO_1038	0
PSPTO_1039	0
PSPTO_1040	0
PSPTO_1041	0
PSPTO_1042	0
PSPTO_1043	0
PSPTO_1044	0
PSPTO_1045	0
PSPTO_1046	0
PSPTO_1047	0
PSPTO_1048	0
PSPTO_1049	0
PSPTO_1050	0
PSPTO_1051	0
PSPTO_1052	0
PSPTO_1053	0
PSPTO_1054	0
PSPTO_1055	0
PSPTO_1056	0
PSPTO_1057	0
PSPTO_1058	0
PSPTO_1059	0
PSPTO_1060	0
PSPTO_1061	0
PSPTO_1062	0
PSPTO_1064	0
PSPTO_1065	0
PSPTO_1066	0
PSPTO_1067	0
PSPTO_1068	0
PSPTO_1069	0
PSPTO_1070	0
PSPTO_1071	0
PSPTO_1072	1
PSPTO_1073	0
PSPTO_1074	1
PSPTO_1075	0
PSPTO_1076	0
PSPTO_1077	0
PSPTO_1078	1
PSPTO_1079	0
PSPTO_1080	0
PSPTO_1081	0
PSPTO_1082	0
PSPTO_1083	0
PSPTO_1084	0
PSPTO_1085	0
PSPTO_1086	0
PSPTO_1087	1
PSPTO_1088	0
PSPTO_1089	0
PSPTO_1090	45
PSPTO_1091	3
PSPTO_1092	0
PSPTO_1093	0
PSPTO_1094	0
PSPTO_1095	0
PSPTO_1096	0
PSPTO_1097	1
PSPTO_1098	0
PSPTO_1099	0
PSPTO_1100	0
PSPTO_1101	0
PSPTO_1102	1
PSPTO_1103	1
PSPTO_1104	2
PSPTO_1105	8
PSPTO_1106	0
PSPTO_1107	1
PSPTO_1108	0
PSPTO_1109	1
PSPTO_1110	0
PSPTO_1111	0
PSPTO_1112	0
PSPTO_1114	0
PSPTO_1115	0
PSPTO_1116	0
PSPTO_1117	0
PSPTO_1118	0
PSPTO_1119	0
PSPTO_1120	0
PSPTO_1121	0
PSPTO_1122	0
PSPTO_1123	0
PSPTO_1124	0
PSPTO_1125	0
PSPTO_1126	0
PSPTO_1127	0
PSPTO_1128	0
PSPTO_1129	0
PSPTO_1130	0
PSPTO_1131	0
PSPTO_1132	0
PSPTO_1133	0
PSPTO_1134	0
PSPTO_1135	0
PSPTO_1136	0
PSPTO_1137	0
PSPTO_1138	0
PSPTO_1139	0
PSPTO_1140	0
PSPTO_1141	0
PSPTO_1142	0
PSPTO_1143	0
PSPTO_1144	0
PSPTO_1145	0
PSPTO_1146	0
PSPTO_1147	0
PSPTO_1148	0
PSPTO_1149	1
PSPTO_1150	0
PSPTO_1151	0
PSPTO_1152	0
PSPTO_1153	0
PSPTO_1154	0
PSPTO_1155	0
PSPTO_1156	0
PSPTO_1157	0
PSPTO_1158	0
PSPTO_1159	0
PSPTO_1160	0
PSPTO_1161	0
PSPTO_1162	0
PSPTO_1163	0
PSPTO_1164	0
PSPTO_1165	0
PSPTO_1166	0
PSPTO_1167	1
PSPTO_1168	0
PSPTO_1169	0
PSPTO_1170	0
PSPTO_1171	0
PSPTO_1172	0
PSPTO_1173	0
PSPTO_1174	0
PSPTO_1175	0
PSPTO_1176	0
PSPTO_1177	0
PSPTO_1178	0
PSPTO_1179	0
PSPTO_1180	0
PSPTO_1181	0
PSPTO_1182	0
PSPTO_1183	0
PSPTO_1184	0
PSPTO_1185	0
PSPTO_1186	0
PSPTO_1187	0
PSPTO_1188	0
PSPTO_1189	0
PSPTO_1190	0
PSPTO_1191	0
PSPTO_1192	0
PSPTO_1193	0
PSPTO_1194	0
PSPTO_1195	0
PSPTO_1196	0
PSPTO_1197	0
PSPTO_1198	0
PSPTO_1199	0
PSPTO_1200	0
PSPTO_1201	0
PSPTO_1202	0
PSPTO_1203	0
PSPTO_1204	0
PSPTO_1205	2
PSPTO_1206	0
PSPTO_1207	0
PSPTO_1208	0
PSPTO_1209	0
PSPTO_1210	0
PSPTO_1211	0
PSPTO_1212	0
PSPTO_1213	0
PSPTO_1214	0
PSPTO_1215	0
PSPTO_1216	0
PSPTO_1217	0
PSPTO_1218	0
PSPTO_1219	0
PSPTO_1220	0
PSPTO_1221	0
PSPTO_1222	0
PSPTO_1223	1
PSPTO_1224	0
PSPTO_1225	0
PSPTO_1226	0
PSPTO_1227	0
PSPTO_1228	0
PSPTO_1229	0
PSPTO_1230	0
PSPTO_1231	1
PSPTO_1232	0
PSPTO_1233	0
PSPTO_1234	0
PSPTO_1235	0
PSPTO_1236	0
PSPTO_1237	0
PSPTO_1238	0
PSPTO_1239	0
PSPTO_1240	0
PSPTO_1241	0
PSPTO_1242	0
PSPTO_1243	3
PSPTO_1244	0
PSPTO_1245	0
PSPTO_1246	0
PSPTO_1247	0
PSPTO_1248	0
PSPTO_1249	0
PSPTO_1250	0
PSPTO_1251	0
PSPTO_1252	0
PSPTO_1253	0
PSPTO_1254	0
PSPTO_1255	0
PSPTO_1256	0
PSPTO_1257	0
PSPTO_1258	0
PSPTO_1259	0
PSPTO_1260	0
PSPTO_1261	0
PSPTO_1262	0
PSPTO_1263	0
PSPTO_1264	0
PSPTO_1265	0
PSPTO_1266	0
PSPTO_1267	0
PSPTO_1268	0
PSPTO_1269	0
PSPTO_1270	0
PSPTO_1271	0
PSPTO_1272	0
PSPTO_1273	0
PSPTO_1274	8
PSPTO_1275	0
PSPTO_1276	0
PSPTO_1277	0
PSPTO_1278	0
PSPTO_1279	0
PSPTO_1280	0
PSPTO_1281	0
PSPTO_1282	0
PSPTO_1283	0
PSPTO_1284	0
PSPTO_1285	0
PSPTO_1286	0
PSPTO_1287	1
PSPTO_1288	0
PSPTO_1289	0
PSPTO_1290	0
PSPTO_1291	0
PSPTO_1292	0
PSPTO_1293	0
PSPTO_1294	0
PSPTO_1295	0
PSPTO_1296	0
PSPTO_1297	0
PSPTO_1298	0
PSPTO_1299	0
PSPTO_1300	0
PSPTO_1301	0
PSPTO_1302	0
PSPTO_1303	0
PSPTO_1304	0
PSPTO_1305	0
PSPTO_1306	0
PSPTO_1307	0
PSPTO_1308	0
PSPTO_1309	0
PSPTO_1310	0
PSPTO_1311	0
PSPTO_1312	0
PSPTO_1313	0
PSPTO_1314	0
PSPTO_1315	0
PSPTO_1316	0
PSPTO_1317	0
PSPTO_1318	0
PSPTO_1319	0
PSPTO_1320	0
PSPTO_1321	0
PSPTO_1322	0
PSPTO_1323	0
PSPTO_1324	0
PSPTO_1325	0
PSPTO_1326	4
PSPTO_1327	0
PSPTO_1328	0
PSPTO_1329	2
PSPTO_1330	0
PSPTO_1331	0
PSPTO_1332	0
PSPTO_1333	0
PSPTO_1334	0
PSPTO_1335	0
PSPTO_1336	0
PSPTO_1337	0
PSPTO_1338	0
PSPTO_1339	0
PSPTO_1340	1
PSPTO_1341	0
PSPTO_1342	0
PSPTO_1343	0
PSPTO_1344	0
PSPTO_1345	0
PSPTO_1346	0
PSPTO_1347	0
PSPTO_1348	0
PSPTO_1349	0
PSPTO_1350	0
PSPTO_1351	0
PSPTO_1352	0
PSPTO_1353	0
PSPTO_1354	0
PSPTO_1355	0
PSPTO_1356	0
PSPTO_1357	0
PSPTO_1358	0
PSPTO_1359	0
PSPTO_1360	0
PSPTO_1361	0
PSPTO_1362	0
PSPTO_1363	0
PSPTO_1364	0
PSPTO_1365	0
PSPTO_1366	0
PSPTO_1367	0
PSPTO_1368	0
PSPTO_1369	0
PSPTO_1370	0
PSPTO_1371	0
PSPTO_1372	0
PSPTO_1373	0
PSPTO_1374	0
PSPTO_1375	0
PSPTO_1376	0
PSPTO_1377	0
PSPTO_1378	0
PSPTO_1379	0
PSPTO_1380	0
PSPTO_1381	0
PSPTO_1382	0
PSPTO_1383	0
PSPTO_1384	0
PSPTO_1385	0
PSPTO_1386	0
PSPTO_1387	0
PSPTO_1388	0
PSPTO_1389	0
PSPTO_1390	0
PSPTO_1391	0
PSPTO_1392	0
PSPTO_1393	0
PSPTO_1394	0
PSPTO_1395	0
PSPTO_1396	0
PSPTO_1397	0
PSPTO_1398	0
PSPTO_1399	0
PSPTO_1400	0
PSPTO_1401	0
PSPTO_1402	0
PSPTO_1403	0
PSPTO_1404	0
PSPTO_1405	0
PSPTO_1406	0
PSPTO_1407	0
PSPTO_1408	0
PSPTO_1409	0
PSPTO_1410	0
PSPTO_1411	1
PSPTO_1412	0
PSPTO_1413	0
PSPTO_1414	1
PSPTO_1415	0
PSPTO_1416	0
PSPTO_1417	1
PSPTO_1418	0
PSPTO_1419	0
PSPTO_1420	0
PSPTO_1421	0
PSPTO_1422	0
PSPTO_1423	0
PSPTO_1424	0
PSPTO_1425	0
PSPTO_1426	0
PSPTO_1427	0
PSPTO_1428	0
PSPTO_1429	0
PSPTO_1430	5
PSPTO_1431	1
PSPTO_1432	0
PSPTO_1433	0
PSPTO_1434	1
PSPTO_1435	1
PSPTO_1436	0
PSPTO_1437	1
PSPTO_1438	0
PSPTO_1439	0
PSPTO_1440	0
PSPTO_1441	0
PSPTO_1443	0
PSPTO_1444	0
PSPTO_1445	0
PSPTO_1446	0
PSPTO_1447	0
PSPTO_1448	0
PSPTO_1449	1
PSPTO_1450	0
PSPTO_1451	3
PSPTO_1452	0
PSPTO_1453	0
PSPTO_1454	0
PSPTO_1455	0
PSPTO_1456	0
PSPTO_1457	0
PSPTO_1458	0
PSPTO_1459	2
PSPTO_1460	0
PSPTO_1461	0
PSPTO_1462	0
PSPTO_1463	0
PSPTO_1464	0
PSPTO_1465	0
PSPTO_1466	0
PSPTO_1467	0
PSPTO_1468	0
PSPTO_1469	0
PSPTO_1470	0
PSPTO_1471	0
PSPTO_1472	0
PSPTO_1473	3
PSPTO_1474	1
PSPTO_1475	3
PSPTO_1476	6
PSPTO_1477	0
PSPTO_1478	0
PSPTO_1479	0
PSPTO_1480	0
PSPTO_1481	0
PSPTO_1482	0
PSPTO_1483	0
PSPTO_1484	0
PSPTO_1485	0
PSPTO_1486	0
PSPTO_1487	0
PSPTO_1488	0
PSPTO_1489	0
PSPTO_1490	0
PSPTO_1491	0
PSPTO_1492	0
PSPTO_1493	0
PSPTO_1494	0
PSPTO_1495	0
PSPTO_1496	0
PSPTO_1497	0
PSPTO_1498	0
PSPTO_1499	0
PSPTO_1500	0
PSPTO_1501	0
PSPTO_1502	0
PSPTO_1503	0
PSPTO_1504	0
PSPTO_1505	0
PSPTO_1506	0
PSPTO_1507	0
PSPTO_1508	0
PSPTO_1509	1
PSPTO_1510	0
PSPTO_1511	0
PSPTO_1512	0
PSPTO_1513	0
PSPTO_1514	0
PSPTO_1515	0
PSPTO_1516	0
PSPTO_1517	0
PSPTO_1518	0
PSPTO_1519	0
PSPTO_1520	0
PSPTO_1521	0
PSPTO_1522	0
PSPTO_1523	0
PSPTO_1524	0
PSPTO_1525	0
PSPTO_1526	0
PSPTO_1527	0
PSPTO_1528	0
PSPTO_1529	0
PSPTO_1530	0
PSPTO_1531	0
PSPTO_1532	0
PSPTO_1533	0
PSPTO_1534	3
PSPTO_1535	1
PSPTO_1536	0
PSPTO_1537	0
PSPTO_1538	0
PSPTO_1539	0
PSPTO_1540	0
PSPTO_1541	1
PSPTO_1542	0
PSPTO_1543	0
PSPTO_1544	1
PSPTO_1545	0
PSPTO_1546	0
PSPTO_1547	0
PSPTO_1548	0
PSPTO_1549	0
PSPTO_1550	0
PSPTO_1551	0
PSPTO_1552	0
PSPTO_1553	0
PSPTO_1554	0
PSPTO_1555	0
PSPTO_1556	0
PSPTO_1557	0
PSPTO_1558	0
PSPTO_1559	0
PSPTO_1560	0
PSPTO_1561	0
PSPTO_1562	0
PSPTO_1563	0
PSPTO_1564	4
PSPTO_1565	0
PSPTO_1566	0
PSPTO_1567	0
PSPTO_1568	0
PSPTO_1570	0
PSPTO_1571	1
PSPTO_1572	0
PSPTO_1573	0
PSPTO_1574	0
PSPTO_1575	0
PSPTO_1576	0
PSPTO_1577	0
PSPTO_1578	0
PSPTO_1579	0
PSPTO_1580	0
PSPTO_1581	0
PSPTO_1582	0
PSPTO_1583	0
PSPTO_1584	0
PSPTO_1585	0
PSPTO_1586	0
PSPTO_1587	1
PSPTO_1588	0
PSPTO_1589	0
PSPTO_1590	0
PSPTO_1591	0
PSPTO_1592	1
PSPTO_1593	0
PSPTO_1594	0
PSPTO_1595	0
PSPTO_1596	0
PSPTO_1597	0
PSPTO_1598	0
PSPTO_1599	0
PSPTO_1600	0
PSPTO_1601	0
PSPTO_1602	0
PSPTO_1603	0
PSPTO_1604	0
PSPTO_1605	0
PSPTO_1606	0
PSPTO_1607	0
PSPTO_1608	0
PSPTO_1609	0
PSPTO_1610	0
PSPTO_1611	0
PSPTO_1612	0
PSPTO_1613	2
PSPTO_1614	0
PSPTO_1615	0
PSPTO_1616	0
PSPTO_1617	0
PSPTO_1618	0
PSPTO_1619	0
PSPTO_1620	0
PSPTO_1621	0
PSPTO_1622	0
PSPTO_1623	0
PSPTO_1624	0
PSPTO_1625	0
PSPTO_1626	0
PSPTO_1627	0
PSPTO_1628	0
PSPTO_1629	0
PSPTO_1630	0
PSPTO_1631	0
PSPTO_1632	0
PSPTO_1633	0
PSPTO_1634	0
PSPTO_1635	0
PSPTO_1636	0
PSPTO_1637	0
PSPTO_1638	0
PSPTO_1639	0
PSPTO_1640	0
PSPTO_1641	0
PSPTO_1642	0
PSPTO_1643	0
PSPTO_1644	0
PSPTO_1645	0
PSPTO_1646	0
PSPTO_1647	0
PSPTO_1648	0
PSPTO_1649	0
PSPTO_1650	0
PSPTO_1651	0
PSPTO_1652	0
PSPTO_1653	0
PSPTO_1654	0
PSPTO_1655	0
PSPTO_1656	0
PSPTO_1657	0
PSPTO_1658	0
PSPTO_1659	0
PSPTO_1660	0
PSPTO_1661	0
PSPTO_1662	0
PSPTO_1663	0
PSPTO_1664	0
PSPTO_1665	0
PSPTO_1666	0
PSPTO_1667	0
PSPTO_1668	0
PSPTO_1669	0
PSPTO_1670	0
PSPTO_1671	0
PSPTO_1672	0
PSPTO_1673	0
PSPTO_1674	0
PSPTO_1675	0
PSPTO_1676	0
PSPTO_1677	0
PSPTO_1678	0
PSPTO_1679	0
PSPTO_1680	0
PSPTO_1681	0
PSPTO_1682	0
PSPTO_1683	0
PSPTO_1684	0
PSPTO_1685	0
PSPTO_1686	0
PSPTO_1687	0
PSPTO_1688	0
PSPTO_1689	0
PSPTO_1690	0
PSPTO_1691	0
PSPTO_1692	0
PSPTO_1693	0
PSPTO_1694	0
PSPTO_1695	0
PSPTO_1696	0
PSPTO_1697	0
PSPTO_1698	0
PSPTO_1699	0
PSPTO_1700	1
PSPTO_1701	0
PSPTO_1702	0
PSPTO_1703	0
PSPTO_1704	0
PSPTO_1705	0
PSPTO_1706	0
PSPTO_1707	0
PSPTO_1708	0
PSPTO_1709	0
PSPTO_1710	0
PSPTO_1711	0
PSPTO_1712	0
PSPTO_1713	0
PSPTO_1714	0
PSPTO_1715	0
PSPTO_1716	0
PSPTO_1717	0
PSPTO_1718	1
PSPTO_1719	0
PSPTO_1720	1
PSPTO_1721	1
PSPTO_1722	0
PSPTO_1723	0
PSPTO_1724	0
PSPTO_1725	2
PSPTO_1726	0
PSPTO_1727	0
PSPTO_1728	0
PSPTO_1729	0
PSPTO_1730	0
PSPTO_1731	0
PSPTO_1732	0
PSPTO_1733	0
PSPTO_1734	0
PSPTO_1735	0
PSPTO_1736	0
PSPTO_1737	0
PSPTO_1738	0
PSPTO_1739	0
PSPTO_1740	0
PSPTO_1741	0
PSPTO_1742	0
PSPTO_1743	0
PSPTO_1744	0
PSPTO_1745	0
PSPTO_1746	0
PSPTO_1747	1
PSPTO_1748	0
PSPTO_1749	0
PSPTO_1750	6
PSPTO_1751	0
PSPTO_1752	0
PSPTO_1753	0
PSPTO_1754	1
PSPTO_1755	0
PSPTO_1756	1
PSPTO_1757	0
PSPTO_1758	0
PSPTO_1759	0
PSPTO_1760	1
PSPTO_1761	0
PSPTO_1762	0
PSPTO_1763	0
PSPTO_1764	0
PSPTO_1765	0
PSPTO_1766	0
PSPTO_1767	0
PSPTO_1768	0
PSPTO_1769	0
PSPTO_1770	0
PSPTO_1771	0
PSPTO_1772	0
PSPTO_1773	0
PSPTO_1774	0
PSPTO_1775	0
PSPTO_1776	0
PSPTO_1777	0
PSPTO_1778	0
PSPTO_1779	0
PSPTO_1780	0
PSPTO_1781	0
PSPTO_1782	0
PSPTO_1783	0
PSPTO_1784	0
PSPTO_1785	0
PSPTO_1786	0
PSPTO_1787	0
PSPTO_1788	0
PSPTO_1789	0
PSPTO_1790	0
PSPTO_1791	0
PSPTO_1792	0
PSPTO_1793	0
PSPTO_1794	0
PSPTO_1795	0
PSPTO_1796	0
PSPTO_1797	0
PSPTO_1798	0
PSPTO_1799	0
PSPTO_1800	0
PSPTO_1801	0
PSPTO_1802	0
PSPTO_1803	0
PSPTO_1804	0
PSPTO_1805	0
PSPTO_1806	0
PSPTO_1807	0
PSPTO_1808	0
PSPTO_1809	0
PSPTO_1810	0
PSPTO_1811	0
PSPTO_1812	0
PSPTO_1813	0
PSPTO_1814	0
PSPTO_1815	0
PSPTO_1816	0
PSPTO_1817	0
PSPTO_1818	1
PSPTO_1819	0
PSPTO_1820	0
PSPTO_1821	0
PSPTO_1822	0
PSPTO_1823	1
PSPTO_1824	0
PSPTO_1825	0
PSPTO_1826	1
PSPTO_1827	0
PSPTO_1828	0
PSPTO_1829	0
PSPTO_1830	0
PSPTO_1831	0
PSPTO_1832	0
PSPTO_1833	0
PSPTO_1834	0
PSPTO_1835	0
PSPTO_1836	0
PSPTO_1838	0
PSPTO_1839	1
PSPTO_1840	0
PSPTO_1841	0
PSPTO_1842	1
PSPTO_1843	0
PSPTO_1844	1
PSPTO_1845	0
PSPTO_1846	0
PSPTO_1847	1
PSPTO_1848	0
PSPTO_1849	0
PSPTO_1850	1
PSPTO_1851	0
PSPTO_1852	0
PSPTO_1853	0
PSPTO_1854	0
PSPTO_1855	0
PSPTO_1856	1
PSPTO_1857	0
PSPTO_1858	0
PSPTO_1859	0
PSPTO_1860	0
PSPTO_1861	0
PSPTO_1862	0
PSPTO_1863	0
PSPTO_1864	0
PSPTO_1865	0
PSPTO_1866	0
PSPTO_1867	0
PSPTO_1868	0
PSPTO_1869	0
PSPTO_1870	0
PSPTO_1871	0
PSPTO_1872	0
PSPTO_1873	0
PSPTO_1874	0
PSPTO_1875	0
PSPTO_1876	0
PSPTO_1877	0
PSPTO_1878	0
PSPTO_1879	0
PSPTO_1880	0
PSPTO_1881	0
PSPTO_1882	0
PSPTO_1883	0
PSPTO_1884	0
PSPTO_1885	0
PSPTO_1886	0
PSPTO_1887	0
PSPTO_1888	0
PSPTO_1889	0
PSPTO_1890	0
PSPTO_1891	0
PSPTO_1892	0
PSPTO_1893	0
PSPTO_1894	0
PSPTO_1895	0
PSPTO_1896	0
PSPTO_1897	0
PSPTO_1898	0
PSPTO_1899	0
PSPTO_1900	0
PSPTO_1901	0
PSPTO_1902	0
PSPTO_1903	0
PSPTO_1904	0
PSPTO_1905	0
PSPTO_1906	0
PSPTO_1907	0
PSPTO_1908	0
PSPTO_1909	0
PSPTO_1910	0
PSPTO_1911	0
PSPTO_1912	0
PSPTO_1913	0
PSPTO_1914	0
PSPTO_1915	0
PSPTO_1916	0
PSPTO_1917	0
PSPTO_1918	0
PSPTO_1919	0
PSPTO_1920	0
PSPTO_1921	0
PSPTO_1922	0
PSPTO_1923	0
PSPTO_1924	0
PSPTO_1925	1
PSPTO_1926	0
PSPTO_1927	0
PSPTO_1928	0
PSPTO_1929	0
PSPTO_1930	0
PSPTO_1931	0
PSPTO_1932	0
PSPTO_1933	0
PSPTO_1934	0
PSPTO_1935	0
PSPTO_1936	0
PSPTO_1937	0
PSPTO_1938	0
PSPTO_1939	1
PSPTO_1940	0
PSPTO_1941	0
PSPTO_1942	0
PSPTO_1943	0
PSPTO_1944	0
PSPTO_1945	0
PSPTO_1946	0
PSPTO_1947	0
PSPTO_1948	0
PSPTO_1949	3
PSPTO_1950	2
PSPTO_1951	0
PSPTO_1952	0
PSPTO_1953	0
PSPTO_1954	1
PSPTO_1955	1
PSPTO_1956	0
PSPTO_1957	0
PSPTO_1958	0
PSPTO_1959	0
PSPTO_1960	0
PSPTO_1961	0
PSPTO_1962	0
PSPTO_1963	0
PSPTO_1964	0
PSPTO_1965	0
PSPTO_1966	0
PSPTO_1967	0
PSPTO_1968	0
PSPTO_1969	0
PSPTO_1970	1
PSPTO_1971	0
PSPTO_1972	0
PSPTO_1973	0
PSPTO_1974	0
PSPTO_1975	0
PSPTO_1976	0
PSPTO_1977	0
PSPTO_1978	0
PSPTO_1979	1
PSPTO_1980	0
PSPTO_1981	0
PSPTO_1982	1
PSPTO_1983	0
PSPTO_1984	0
PSPTO_1985	0
PSPTO_1986	0
PSPTO_1987	1
PSPTO_1988	0
PSPTO_1989	0
PSPTO_1990	0
PSPTO_1991	0
PSPTO_1992	0
PSPTO_1993	0
PSPTO_1994	0
PSPTO_1995	0
PSPTO_1996	0
PSPTO_1997	0
PSPTO_1998	0
PSPTO_1999	0
PSPTO_2000	0
PSPTO_2001	0
PSPTO_2002	0
PSPTO_2003	0
PSPTO_2004	1
PSPTO_2005	0
PSPTO_2006	0
PSPTO_2007	0
PSPTO_2008	0
PSPTO_2009	0
PSPTO_2010	0
PSPTO_2011	1
PSPTO_2012	0
PSPTO_2013	0
PSPTO_2014	0
PSPTO_2015	0
PSPTO_2016	0
PSPTO_2017	0
PSPTO_2018	0
PSPTO_2019	0
PSPTO_2020	0
PSPTO_2021	0
PSPTO_2022	0
PSPTO_2023	0
PSPTO_2024	0
PSPTO_2025	0
PSPTO_2026	0
PSPTO_2027	0
PSPTO_2028	0
PSPTO_2029	1
PSPTO_2030	0
PSPTO_2031	0
PSPTO_2032	0
PSPTO_2033	0
PSPTO_2034	0
PSPTO_2035	1
PSPTO_2036	0
PSPTO_2037	0
PSPTO_2038	0
PSPTO_2039	0
PSPTO_2040	0
PSPTO_2041	0
PSPTO_2042	0
PSPTO_2043	0
PSPTO_2044	0
PSPTO_2045	0
PSPTO_2046	0
PSPTO_2047	0
PSPTO_2048	0
PSPTO_2049	0
PSPTO_2050	0
PSPTO_2051	0
PSPTO_2052	0
PSPTO_2053	0
PSPTO_2054	0
PSPTO_2055	1
PSPTO_2056	0
PSPTO_2057	0
PSPTO_2058	0
PSPTO_2059	0
PSPTO_2060	0
PSPTO_2061	0
PSPTO_2062	0
PSPTO_2063	0
PSPTO_2064	0
PSPTO_2065	0
PSPTO_2066	0
PSPTO_2067	0
PSPTO_2068	0
PSPTO_2069	0
PSPTO_2070	0
PSPTO_2071	0
PSPTO_2072	0
PSPTO_2073	0
PSPTO_2074	0
PSPTO_2075	0
PSPTO_2076	0
PSPTO_2077	0
PSPTO_2078	0
PSPTO_2079	0
PSPTO_2080	0
PSPTO_2081	0
PSPTO_2082	0
PSPTO_2083	1
PSPTO_2084	0
PSPTO_2085	0
PSPTO_2086	0
PSPTO_2087	0
PSPTO_2088	0
PSPTO_2089	0
PSPTO_2090	0
PSPTO_2091	0
PSPTO_2092	1
PSPTO_2093	0
PSPTO_2094	0
PSPTO_2095	0
PSPTO_2096	0
PSPTO_2097	0
PSPTO_2098	0
PSPTO_2099	0
PSPTO_2100	0
PSPTO_2101	0
PSPTO_2102	0
PSPTO_2103	0
PSPTO_2104	0
PSPTO_2105	0
PSPTO_2106	0
PSPTO_2107	0
PSPTO_2108	0
PSPTO_2109	0
PSPTO_2110	0
PSPTO_2111	0
PSPTO_2112	0
PSPTO_2113	0
PSPTO_2114	0
PSPTO_2115	0
PSPTO_2116	0
PSPTO_2117	1
PSPTO_2118	0
PSPTO_2119	0
PSPTO_2120	0
PSPTO_2121	0
PSPTO_2122	0
PSPTO_2123	0
PSPTO_2124	1
PSPTO_2125	0
PSPTO_2126	0
PSPTO_2127	0
PSPTO_2128	0
PSPTO_2129	0
PSPTO_2130	0
PSPTO_2131	0
PSPTO_2132	0
PSPTO_2133	0
PSPTO_2134	0
PSPTO_2135	0
PSPTO_2136	0
PSPTO_2137	0
PSPTO_2138	0
PSPTO_2139	0
PSPTO_2140	0
PSPTO_2141	0
PSPTO_2142	0
PSPTO_2143	0
PSPTO_2144	0
PSPTO_2145	0
PSPTO_2146	0
PSPTO_2147	0
PSPTO_2148	0
PSPTO_2149	0
PSPTO_2150	0
PSPTO_2151	0
PSPTO_2152	0
PSPTO_2153	0
PSPTO_2154	0
PSPTO_2155	0
PSPTO_2156	0
PSPTO_2158	0
PSPTO_2159	0
PSPTO_2160	0
PSPTO_2161	0
PSPTO_2162	0
PSPTO_2163	0
PSPTO_2164	0
PSPTO_2165	0
PSPTO_2166	0
PSPTO_2167	0
PSPTO_2168	0
PSPTO_2169	0
PSPTO_2170	0
PSPTO_2171	0
PSPTO_2172	0
PSPTO_2173	0
PSPTO_2174	1
PSPTO_2175	1
PSPTO_2176	0
PSPTO_2177	0
PSPTO_2178	0
PSPTO_2179	0
PSPTO_2180	0
PSPTO_2181	0
PSPTO_2182	0
PSPTO_2183	0
PSPTO_2184	0
PSPTO_2185	0
PSPTO_2186	0
PSPTO_2187	0
PSPTO_2188	0
PSPTO_2189	0
PSPTO_2190	0
PSPTO_2191	1
PSPTO_2192	0
PSPTO_2193	0
PSPTO_2194	0
PSPTO_2195	3
PSPTO_2196	0
PSPTO_2197	1
PSPTO_2198	0
PSPTO_2199	1
PSPTO_2200	2
PSPTO_2201	0
PSPTO_2202	0
PSPTO_2203	1
PSPTO_2204	0
PSPTO_2205	0
PSPTO_2206	0
PSPTO_2207	4
PSPTO_2208	4
PSPTO_2209	1
PSPTO_2210	0
PSPTO_2211	0
PSPTO_2212	0
PSPTO_2213	0
PSPTO_2214	0
PSPTO_2215	0
PSPTO_2216	0
PSPTO_2217	0
PSPTO_2218	0
PSPTO_2219	0
PSPTO_2220	0
PSPTO_2221	0
PSPTO_2222	0
PSPTO_2223	0
PSPTO_2224	1
PSPTO_2225	0
PSPTO_2226	0
PSPTO_2227	0
PSPTO_2228	0
PSPTO_2229	0
PSPTO_2230	0
PSPTO_2231	0
PSPTO_2232	0
PSPTO_2233	0
PSPTO_2234	0
PSPTO_2235	0
PSPTO_2236	0
PSPTO_2237	0
PSPTO_2238	0
PSPTO_2239	0
PSPTO_2240	0
PSPTO_2241	0
PSPTO_2242	0
PSPTO_2243	0
PSPTO_2244	0
PSPTO_2245	0
PSPTO_2246	0
PSPTO_2247	0
PSPTO_2248	0
PSPTO_2249	0
PSPTO_2250	0
PSPTO_2251	0
PSPTO_2252	0
PSPTO_2253	0
PSPTO_2254	1
PSPTO_2255	0
PSPTO_2256	0
PSPTO_2257	0
PSPTO_2258	0
PSPTO_2259	0
PSPTO_2260	0
PSPTO_2261	0
PSPTO_2262	0
PSPTO_2263	0
PSPTO_2264	0
PSPTO_2265	0
PSPTO_2266	0
PSPTO_2267	0
PSPTO_2268	0
PSPTO_2269	0
PSPTO_2270	0
PSPTO_2271	0
PSPTO_2272	3
PSPTO_2273	0
PSPTO_2274	0
PSPTO_2275	0
PSPTO_2276	0
PSPTO_2277	0
PSPTO_2278	0
PSPTO_2279	1
PSPTO_2280	0
PSPTO_2281	0
PSPTO_2282	0
PSPTO_2283	0
PSPTO_2284	0
PSPTO_2285	0
PSPTO_2286	1
PSPTO_2287	0
PSPTO_2288	0
PSPTO_2289	0
PSPTO_2290	0
PSPTO_2291	0
PSPTO_2292	1
PSPTO_2293	0
PSPTO_2294	0
PSPTO_2295	1
PSPTO_2296	0
PSPTO_2297	0
PSPTO_2298	18
PSPTO_2299	19
PSPTO_2300	0
PSPTO_2301	0
PSPTO_2302	0
PSPTO_2303	0
PSPTO_2304	0
PSPTO_2305	0
PSPTO_2306	0
PSPTO_2307	0
PSPTO_2308	0
PSPTO_2309	0
PSPTO_2310	2
PSPTO_2311	0
PSPTO_2312	0
PSPTO_2313	0
PSPTO_2314	0
PSPTO_2315	0
PSPTO_2316	0
PSPTO_2317	0
PSPTO_2318	1
PSPTO_2319	0
PSPTO_2320	0
PSPTO_2321	0
PSPTO_2322	0
PSPTO_2323	0
PSPTO_2324	0
PSPTO_2325	0
PSPTO_2326	0
PSPTO_2327	0
PSPTO_2328	0
PSPTO_2329	0
PSPTO_2330	0
PSPTO_2331	0
PSPTO_2332	0
PSPTO_2333	0
PSPTO_2334	0
PSPTO_2335	0
PSPTO_2336	0
PSPTO_2337	0
PSPTO_2338	0
PSPTO_2339	0
PSPTO_2340	0
PSPTO_2341	0
PSPTO_2342	0
PSPTO_2343	0
PSPTO_2344	0
PSPTO_2345	0
PSPTO_2346	0
PSPTO_2347	0
PSPTO_2348	0
PSPTO_2349	0
PSPTO_2350	1
PSPTO_2351	0
PSPTO_2352	0
PSPTO_2353	0
PSPTO_2354	0
PSPTO_2355	0
PSPTO_2356	0
PSPTO_2358	0
PSPTO_2359	0
PSPTO_2360	0
PSPTO_2361	0
PSPTO_2362	0
PSPTO_2363	0
PSPTO_2364	0
PSPTO_2365	0
PSPTO_2366	0
PSPTO_2367	0
PSPTO_2368	0
PSPTO_2369	0
PSPTO_2370	0
PSPTO_2371	0
PSPTO_2372	0
PSPTO_2373	0
PSPTO_2374	0
PSPTO_2375	0
PSPTO_2376	8
PSPTO_2377	0
PSPTO_2378	0
PSPTO_2379	3
PSPTO_2380	12
PSPTO_2381	1
PSPTO_2382	0
PSPTO_2383	0
PSPTO_2384	1
PSPTO_2385	1
PSPTO_2386	0
PSPTO_2387	0
PSPTO_2388	0
PSPTO_2389	0
PSPTO_2390	1
PSPTO_2391	0
PSPTO_2392	0
PSPTO_2394	1
PSPTO_2395	0
PSPTO_2396	0
PSPTO_2397	0
PSPTO_2398	0
PSPTO_2399	0
PSPTO_2400	0
PSPTO_2401	0
PSPTO_2402	0
PSPTO_2403	0
PSPTO_2404	0
PSPTO_2405	0
PSPTO_2406	0
PSPTO_2407	0
PSPTO_2408	0
PSPTO_2409	0
PSPTO_2410	0
PSPTO_2411	0
PSPTO_2412	0
PSPTO_2413	0
PSPTO_2414	0
PSPTO_2415	0
PSPTO_2416	0
PSPTO_2417	0
PSPTO_2418	0
PSPTO_2419	0
PSPTO_2420	0
PSPTO_2421	0
PSPTO_2422	0
PSPTO_2423	0
PSPTO_2424	0
PSPTO_2425	0
PSPTO_2426	0
PSPTO_2427	0
PSPTO_2428	0
PSPTO_2429	0
PSPTO_2430	0
PSPTO_2431	1
PSPTO_2432	0
PSPTO_2433	0
PSPTO_2434	0
PSPTO_2435	0
PSPTO_2436	0
PSPTO_2437	0
PSPTO_2438	0
PSPTO_2439	0
PSPTO_2440	0
PSPTO_2441	1
PSPTO_2442	0
PSPTO_2443	0
PSPTO_2444	0
PSPTO_2445	0
PSPTO_2446	0
PSPTO_2447	0
PSPTO_2448	0
PSPTO_2449	0
PSPTO_2450	0
PSPTO_2451	0
PSPTO_2452	0
PSPTO_2453	0
PSPTO_2454	0
PSPTO_2455	0
PSPTO_2456	0
PSPTO_2457	0
PSPTO_2458	2
PSPTO_2459	0
PSPTO_2460	0
PSPTO_2461	0
PSPTO_2462	0
PSPTO_2463	0
PSPTO_2464	0
PSPTO_2465	1
PSPTO_2466	0
PSPTO_2467	0
PSPTO_2468	0
PSPTO_2469	0
PSPTO_2470	0
PSPTO_2471	0
PSPTO_2472	0
PSPTO_2473	0
PSPTO_2474	0
PSPTO_2475	0
PSPTO_2476	0
PSPTO_2477	0
PSPTO_2478	0
PSPTO_2479	0
PSPTO_2480	0
PSPTO_2481	0
PSPTO_2482	0
PSPTO_2483	0
PSPTO_2484	0
PSPTO_2485	0
PSPTO_2486	0
PSPTO_2487	0
PSPTO_2488	0
PSPTO_2489	0
PSPTO_2490	0
PSPTO_2491	0
PSPTO_2492	0
PSPTO_2493	0
PSPTO_2494	0
PSPTO_2495	0
PSPTO_2496	0
PSPTO_2497	0
PSPTO_2498	0
PSPTO_2499	0
PSPTO_2500	0
PSPTO_2501	0
PSPTO_2502	0
PSPTO_2503	0
PSPTO_2504	0
PSPTO_2505	0
PSPTO_2506	0
PSPTO_2507	0
PSPTO_2508	0
PSPTO_2509	0
PSPTO_2510	0
PSPTO_2511	1
PSPTO_2513	0
PSPTO_2514	0
PSPTO_2515	0
PSPTO_2516	0
PSPTO_2517	0
PSPTO_2518	0
PSPTO_2519	0
PSPTO_2520	0
PSPTO_2521	0
PSPTO_2522	0
PSPTO_2523	0
PSPTO_2524	0
PSPTO_2525	0
PSPTO_2526	0
PSPTO_2527	1
PSPTO_2528	0
PSPTO_2529	0
PSPTO_2530	0
PSPTO_2531	0
PSPTO_2532	0
PSPTO_2533	0
PSPTO_2534	0
PSPTO_2535	0
PSPTO_2536	0
PSPTO_2537	0
PSPTO_2538	0
PSPTO_2539	0
PSPTO_2540	0
PSPTO_2541	0
PSPTO_2542	0
PSPTO_2543	0
PSPTO_2544	0
PSPTO_2545	0
PSPTO_2546	0
PSPTO_2547	0
PSPTO_2548	0
PSPTO_2549	0
PSPTO_2550	0
PSPTO_2551	0
PSPTO_2552	0
PSPTO_2553	0
PSPTO_2554	0
PSPTO_2555	0
PSPTO_2556	0
PSPTO_2557	0
PSPTO_2558	0
PSPTO_2559	0
PSPTO_2560	0
PSPTO_2561	0
PSPTO_2562	0
PSPTO_2563	0
PSPTO_2564	0
PSPTO_2565	0
PSPTO_2566	0
PSPTO_2567	0
PSPTO_2568	0
PSPTO_2569	0
PSPTO_2570	0
PSPTO_2571	0
PSPTO_2572	0
PSPTO_2573	0
PSPTO_2574	0
PSPTO_2575	0
PSPTO_2576	0
PSPTO_2577	0
PSPTO_2578	0
PSPTO_2579	0
PSPTO_2580	0
PSPTO_2581	0
PSPTO_2582	0
PSPTO_2583	0
PSPTO_2584	0
PSPTO_2585	0
PSPTO_2586	0
PSPTO_2587	0
PSPTO_2588	0
PSPTO_2589	0
PSPTO_2590	0
PSPTO_2591	0
PSPTO_2592	0
PSPTO_2593	0
PSPTO_2594	0
PSPTO_2595	0
PSPTO_2596	0
PSPTO_2597	0
PSPTO_2598	0
PSPTO_2599	0
PSPTO_2600	0
PSPTO_2601	0
PSPTO_2602	0
PSPTO_2603	0
PSPTO_2604	0
PSPTO_2605	0
PSPTO_2606	0
PSPTO_2607	0
PSPTO_2608	0
PSPTO_2609	0
PSPTO_2610	0
PSPTO_2611	0
PSPTO_2612	0
PSPTO_2613	0
PSPTO_2614	0
PSPTO_2615	0
PSPTO_2616	0
PSPTO_2617	0
PSPTO_2618	0
PSPTO_2620	0
PSPTO_2621	0
PSPTO_2622	0
PSPTO_2623	0
PSPTO_2624	0
PSPTO_2625	0
PSPTO_2626	0
PSPTO_2627	0
PSPTO_2628	0
PSPTO_2629	0
PSPTO_2630	0
PSPTO_2631	0
PSPTO_2632	0
PSPTO_2633	0
PSPTO_2634	0
PSPTO_2635	0
PSPTO_2636	0
PSPTO_2637	0
PSPTO_2638	1
PSPTO_2639	0
PSPTO_2640	0
PSPTO_2641	0
PSPTO_2642	0
PSPTO_2643	0
PSPTO_2644	0
PSPTO_2645	0
PSPTO_2646	0
PSPTO_2647	0
PSPTO_2648	0
PSPTO_2649	0
PSPTO_2650	0
PSPTO_2651	0
PSPTO_2652	0
PSPTO_2653	0
PSPTO_2654	0
PSPTO_2655	0
PSPTO_2656	0
PSPTO_2657	0
PSPTO_2658	0
PSPTO_2659	0
PSPTO_2660	0
PSPTO_2661	0
PSPTO_2662	0
PSPTO_2663	0
PSPTO_2664	0
PSPTO_2665	0
PSPTO_2666	0
PSPTO_2667	0
PSPTO_2668	0
PSPTO_2669	0
PSPTO_2670	0
PSPTO_2671	0
PSPTO_2672	0
PSPTO_2673	0
PSPTO_2674	0
PSPTO_2675	0
PSPTO_2676	0
PSPTO_2677	0
PSPTO_2678	0
PSPTO_2679	0
PSPTO_2680	0
PSPTO_2681	0
PSPTO_2683	0
PSPTO_2684	0
PSPTO_2685	1
PSPTO_2686	0
PSPTO_2687	0
PSPTO_2688	0
PSPTO_2689	0
PSPTO_2690	0
PSPTO_2691	0
PSPTO_2692	0
PSPTO_2693	0
PSPTO_2694	1
PSPTO_2695	0
PSPTO_2696	0
PSPTO_2697	0
PSPTO_2698	0
PSPTO_2699	0
PSPTO_2700	0
PSPTO_2701	0
PSPTO_2702	0
PSPTO_2703	0
PSPTO_2704	0
PSPTO_2705	0
PSPTO_2706	0
PSPTO_2707	0
PSPTO_2708	0
PSPTO_2709	0
PSPTO_2710	0
PSPTO_2711	0
PSPTO_2712	0
PSPTO_2713	0
PSPTO_2714	0
PSPTO_2715	0
PSPTO_2716	0
PSPTO_2717	0
PSPTO_2718	0
PSPTO_2719	0
PSPTO_2720	0
PSPTO_2721	0
PSPTO_2722	0
PSPTO_2723	0
PSPTO_2724	0
PSPTO_2725	0
PSPTO_2726	0
PSPTO_2727	0
PSPTO_2728	0
PSPTO_2729	0
PSPTO_2730	0
PSPTO_2731	0
PSPTO_2732	0
PSPTO_2733	0
PSPTO_2734	0
PSPTO_2735	0
PSPTO_2736	0
PSPTO_2737	0
PSPTO_2738	0
PSPTO_2739	0
PSPTO_2740	0
PSPTO_2741	0
PSPTO_2742	0
PSPTO_2743	0
PSPTO_2744	0
PSPTO_2745	0
PSPTO_2746	0
PSPTO_2747	0
PSPTO_2748	0
PSPTO_2749	0
PSPTO_2750	0
PSPTO_2751	0
PSPTO_2752	0
PSPTO_2753	0
PSPTO_2754	0
PSPTO_2755	0
PSPTO_2756	0
PSPTO_2757	0
PSPTO_2758	0
PSPTO_2759	0
PSPTO_2760	1
PSPTO_2761	0
PSPTO_2762	0
PSPTO_2763	0
PSPTO_2764	0
PSPTO_2765	0
PSPTO_2766	0
PSPTO_2767	1
PSPTO_2768	0
PSPTO_2769	0
PSPTO_2770	0
PSPTO_2771	1
PSPTO_2772	0
PSPTO_2773	1
PSPTO_2774	0
PSPTO_2775	0
PSPTO_2776	0
PSPTO_2777	0
PSPTO_2778	0
PSPTO_2779	0
PSPTO_2780	0
PSPTO_2781	0
PSPTO_2782	0
PSPTO_2783	0
PSPTO_2784	0
PSPTO_2785	0
PSPTO_2786	0
PSPTO_2787	0
PSPTO_2788	0
PSPTO_2789	0
PSPTO_2790	0
PSPTO_2791	0
PSPTO_2792	0
PSPTO_2793	0
PSPTO_2794	0
PSPTO_2795	0
PSPTO_2796	0
PSPTO_2797	0
PSPTO_2798	0
PSPTO_2799	0
PSPTO_2800	0
PSPTO_2801	0
PSPTO_2802	0
PSPTO_2803	0
PSPTO_2804	0
PSPTO_2805	1
PSPTO_2806	0
PSPTO_2807	0
PSPTO_2808	0
PSPTO_2809	0
PSPTO_2810	0
PSPTO_2811	0
PSPTO_2812	0
PSPTO_2813	0
PSPTO_2814	0
PSPTO_2815	0
PSPTO_2816	0
PSPTO_2817	0
PSPTO_2818	0
PSPTO_2819	0
PSPTO_2820	0
PSPTO_2821	0
PSPTO_2822	0
PSPTO_2823	0
PSPTO_2824	0
PSPTO_2825	0
PSPTO_2826	0
PSPTO_2827	0
PSPTO_2828	0
PSPTO_2829	0
PSPTO_2830	0
PSPTO_2831	0
PSPTO_2832	0
PSPTO_2833	0
PSPTO_2834	0
PSPTO_2835	0
PSPTO_2836	0
PSPTO_2837	0
PSPTO_2838	0
PSPTO_2839	0
PSPTO_2840	0
PSPTO_2841	0
PSPTO_2842	0
PSPTO_2843	0
PSPTO_2844	0
PSPTO_2845	0
PSPTO_2846	0
PSPTO_2847	0
PSPTO_2848	0
PSPTO_2849	3
PSPTO_2850	1
PSPTO_2851	1
PSPTO_2852	0
PSPTO_2853	0
PSPTO_2855	0
PSPTO_2856	4
PSPTO_2857	1
PSPTO_2858	0
PSPTO_2859	0
PSPTO_2860	0
PSPTO_2861	0
PSPTO_2862	0
PSPTO_2863	0
PSPTO_2864	0
PSPTO_2865	0
PSPTO_2866	0
PSPTO_2867	0
PSPTO_2868	0
PSPTO_2869	0
PSPTO_2870	0
PSPTO_2871	0
PSPTO_2872	0
PSPTO_2873	0
PSPTO_2874	0
PSPTO_2875	0
PSPTO_2876	0
PSPTO_2877	0
PSPTO_2878	0
PSPTO_2879	0
PSPTO_2880	0
PSPTO_2881	0
PSPTO_2882	0
PSPTO_2883	0
PSPTO_2885	0
PSPTO_2886	0
PSPTO_2887	0
PSPTO_2888	0
PSPTO_2889	0
PSPTO_2890	0
PSPTO_2891	0
PSPTO_2892	0
PSPTO_2893	0
PSPTO_2894	0
PSPTO_2895	0
PSPTO_2896	0
PSPTO_2897	0
PSPTO_2898	0
PSPTO_2899	0
PSPTO_2900	0
PSPTO_2901	0
PSPTO_2902	0
PSPTO_2903	0
PSPTO_2904	0
PSPTO_2905	0
PSPTO_2906	0
PSPTO_2907	0
PSPTO_2908	0
PSPTO_2909	0
PSPTO_2910	0
PSPTO_2911	0
PSPTO_2912	0
PSPTO_2913	0
PSPTO_2914	0
PSPTO_2915	0
PSPTO_2916	0
PSPTO_2917	0
PSPTO_2918	0
PSPTO_2919	0
PSPTO_2920	0
PSPTO_2921	0
PSPTO_2922	0
PSPTO_2923	0
PSPTO_2924	0
PSPTO_2925	0
PSPTO_2926	0
PSPTO_2927	0
PSPTO_2928	0
PSPTO_2929	0
PSPTO_2930	0
PSPTO_2931	0
PSPTO_2932	0
PSPTO_2933	0
PSPTO_2934	0
PSPTO_2935	0
PSPTO_2936	0
PSPTO_2937	0
PSPTO_2938	0
PSPTO_2939	0
PSPTO_2940	0
PSPTO_2941	0
PSPTO_2942	0
PSPTO_2943	0
PSPTO_2944	0
PSPTO_2945	0
PSPTO_2946	0
PSPTO_2947	0
PSPTO_2948	0
PSPTO_2949	0
PSPTO_2950	0
PSPTO_2951	0
PSPTO_2952	0
PSPTO_2953	0
PSPTO_2954	0
PSPTO_2955	0
PSPTO_2956	0
PSPTO_2957	0
PSPTO_2958	0
PSPTO_2959	0
PSPTO_2960	0
PSPTO_2961	0
PSPTO_2962	0
PSPTO_2963	0
PSPTO_2964	0
PSPTO_2965	0
PSPTO_2966	0
PSPTO_2967	0
PSPTO_2968	0
PSPTO_2969	0
PSPTO_2970	0
PSPTO_2971	0
PSPTO_2972	0
PSPTO_2973	0
PSPTO_2974	0
PSPTO_2975	0
PSPTO_2976	0
PSPTO_2977	0
PSPTO_2978	0
PSPTO_2979	0
PSPTO_2980	0
PSPTO_2981	0
PSPTO_2982	0
PSPTO_2983	0
PSPTO_2984	0
PSPTO_2985	0
PSPTO_2986	0
PSPTO_2987	0
PSPTO_2988	0
PSPTO_2989	0
PSPTO_2990	0
PSPTO_2991	0
PSPTO_2992	0
PSPTO_2993	0
PSPTO_2994	0
PSPTO_2995	0
PSPTO_2996	0
PSPTO_2997	0
PSPTO_2998	0
PSPTO_2999	0
PSPTO_3000	0
PSPTO_3001	0
PSPTO_3002	0
PSPTO_3003	0
PSPTO_3004	0
PSPTO_3005	0
PSPTO_3006	0
PSPTO_3007	0
PSPTO_3008	0
PSPTO_3009	0
PSPTO_3010	0
PSPTO_3011	0
PSPTO_3012	0
PSPTO_3013	0
PSPTO_3014	0
PSPTO_3015	0
PSPTO_3016	0
PSPTO_3017	0
PSPTO_3018	0
PSPTO_3019	0
PSPTO_3020	0
PSPTO_3021	0
PSPTO_3022	1
PSPTO_3023	0
PSPTO_3024	0
PSPTO_3025	1
PSPTO_3026	0
PSPTO_3027	0
PSPTO_3028	0
PSPTO_3029	0
PSPTO_3030	0
PSPTO_3031	0
PSPTO_3032	0
PSPTO_3033	0
PSPTO_3034	0
PSPTO_3035	0
PSPTO_3036	0
PSPTO_3037	0
PSPTO_3038	0
PSPTO_3039	0
PSPTO_3040	0
PSPTO_3041	1
PSPTO_3042	0
PSPTO_3043	0
PSPTO_3044	0
PSPTO_3045	0
PSPTO_3046	0
PSPTO_3047	0
PSPTO_3048	0
PSPTO_3049	0
PSPTO_3050	0
PSPTO_3051	0
PSPTO_3052	0
PSPTO_3053	0
PSPTO_3054	0
PSPTO_3055	0
PSPTO_3056	0
PSPTO_3057	0
PSPTO_3058	0
PSPTO_3059	0
PSPTO_3060	0
PSPTO_3061	0
PSPTO_3062	0
PSPTO_3063	0
PSPTO_3064	0
PSPTO_3065	0
PSPTO_3066	0
PSPTO_3067	0
PSPTO_3068	0
PSPTO_3069	0
PSPTO_3070	0
PSPTO_3071	0
PSPTO_3072	0
PSPTO_3073	0
PSPTO_3074	0
PSPTO_3075	0
PSPTO_3076	0
PSPTO_3077	0
PSPTO_3078	0
PSPTO_3079	0
PSPTO_3080	0
PSPTO_3081	0
PSPTO_3082	0
PSPTO_3083	0
PSPTO_3084	0
PSPTO_3085	0
PSPTO_3086	0
PSPTO_3087	0
PSPTO_3088	0
PSPTO_3089	0
PSPTO_3090	0
PSPTO_3091	0
PSPTO_3092	0
PSPTO_3094	0
PSPTO_3095	1
PSPTO_3096	0
PSPTO_3097	0
PSPTO_3098	0
PSPTO_3099	0
PSPTO_3100	0
PSPTO_3101	0
PSPTO_3102	0
PSPTO_3103	2
PSPTO_3104	0
PSPTO_3105	0
PSPTO_3106	0
PSPTO_3107	0
PSPTO_3108	0
PSPTO_3109	0
PSPTO_3110	0
PSPTO_3111	1
PSPTO_3112	0
PSPTO_3113	0
PSPTO_3114	0
PSPTO_3115	0
PSPTO_3116	0
PSPTO_3117	0
PSPTO_3118	0
PSPTO_3119	0
PSPTO_3120	0
PSPTO_3121	0
PSPTO_3122	1
PSPTO_3123	0
PSPTO_3124	0
PSPTO_3125	0
PSPTO_3126	0
PSPTO_3127	0
PSPTO_3128	2
PSPTO_3129	0
PSPTO_3130	0
PSPTO_3131	0
PSPTO_3132	0
PSPTO_3133	0
PSPTO_3134	0
PSPTO_3135	0
PSPTO_3136	0
PSPTO_3137	1
PSPTO_3138	0
PSPTO_3139	0
PSPTO_3140	0
PSPTO_3141	0
PSPTO_3142	0
PSPTO_3143	0
PSPTO_3144	0
PSPTO_3145	0
PSPTO_3146	0
PSPTO_3147	0
PSPTO_3148	0
PSPTO_3149	0
PSPTO_3150	0
PSPTO_3151	0
PSPTO_3152	0
PSPTO_3153	0
PSPTO_3154	0
PSPTO_3155	0
PSPTO_3156	0
PSPTO_3157	0
PSPTO_3158	0
PSPTO_3159	0
PSPTO_3160	0
PSPTO_3161	0
PSPTO_3162	0
PSPTO_3163	1
PSPTO_3164	0
PSPTO_3165	0
PSPTO_3166	0
PSPTO_3167	0
PSPTO_3168	0
PSPTO_3169	0
PSPTO_3170	0
PSPTO_3171	0
PSPTO_3172	0
PSPTO_3173	2
PSPTO_3174	0
PSPTO_3175	0
PSPTO_3176	0
PSPTO_3177	0
PSPTO_3178	0
PSPTO_3179	0
PSPTO_3180	0
PSPTO_3181	0
PSPTO_3182	0
PSPTO_3183	0
PSPTO_3184	0
PSPTO_3185	0
PSPTO_3186	0
PSPTO_3187	0
PSPTO_3188	0
PSPTO_3189	0
PSPTO_3190	0
PSPTO_3191	0
PSPTO_3192	0
PSPTO_3193	0
PSPTO_3194	0
PSPTO_3195	0
PSPTO_3196	0
PSPTO_3197	0
PSPTO_3198	0
PSPTO_3199	0
PSPTO_3200	0
PSPTO_3201	0
PSPTO_3202	0
PSPTO_3203	0
PSPTO_3204	0
PSPTO_3205	0
PSPTO_3206	0
PSPTO_3207	0
PSPTO_3208	1
PSPTO_3210	0
PSPTO_3211	0
PSPTO_3212	0
PSPTO_3213	0
PSPTO_3214	0
PSPTO_3215	0
PSPTO_3216	0
PSPTO_3217	0
PSPTO_3218	1
PSPTO_3219	0
PSPTO_3220	0
PSPTO_3221	0
PSPTO_3222	0
PSPTO_3223	0
PSPTO_3224	0
PSPTO_3225	0
PSPTO_3226	1
PSPTO_3227	0
PSPTO_3228	0
PSPTO_3229	0
PSPTO_3230	0
PSPTO_3231	0
PSPTO_3232	0
PSPTO_3233	0
PSPTO_3234	0
PSPTO_3235	0
PSPTO_3236	0
PSPTO_3237	0
PSPTO_3238	0
PSPTO_3239	0
PSPTO_3240	0
PSPTO_3241	0
PSPTO_3242	0
PSPTO_3243	0
PSPTO_3244	0
PSPTO_3245	0
PSPTO_3246	0
PSPTO_3247	0
PSPTO_3248	0
PSPTO_3249	0
PSPTO_3250	0
PSPTO_3251	0
PSPTO_3252	0
PSPTO_3253	0
PSPTO_3254	0
PSPTO_3255	0
PSPTO_3256	0
PSPTO_3257	0
PSPTO_3258	0
PSPTO_3259	0
PSPTO_3260	0
PSPTO_3261	0
PSPTO_3262	0
PSPTO_3263	0
PSPTO_3264	0
PSPTO_3265	0
PSPTO_3266	0
PSPTO_3267	0
PSPTO_3268	0
PSPTO_3269	0
PSPTO_3270	1
PSPTO_3271	0
PSPTO_3272	0
PSPTO_3273	0
PSPTO_3274	0
PSPTO_3275	0
PSPTO_3276	0
PSPTO_3277	0
PSPTO_3278	0
PSPTO_3279	0
PSPTO_3280	0
PSPTO_3281	0
PSPTO_3282	0
PSPTO_3283	0
PSPTO_3284	0
PSPTO_3285	0
PSPTO_3286	0
PSPTO_3287	0
PSPTO_3288	0
PSPTO_3289	0
PSPTO_3290	0
PSPTO_3291	0
PSPTO_3292	0
PSPTO_3293	0
PSPTO_3294	0
PSPTO_3295	0
PSPTO_3296	0
PSPTO_3297	0
PSPTO_3298	0
PSPTO_3299	0
PSPTO_3300	0
PSPTO_3301	0
PSPTO_3302	0
PSPTO_3303	0
PSPTO_3304	0
PSPTO_3305	0
PSPTO_3306	0
PSPTO_3307	0
PSPTO_3308	0
PSPTO_3309	0
PSPTO_3310	0
PSPTO_3311	0
PSPTO_3312	0
PSPTO_3313	1
PSPTO_3314	0
PSPTO_3315	0
PSPTO_3316	0
PSPTO_3317	0
PSPTO_3318	0
PSPTO_3319	0
PSPTO_3320	0
PSPTO_3321	0
PSPTO_3322	0
PSPTO_3323	0
PSPTO_3324	0
PSPTO_3325	0
PSPTO_3326	0
PSPTO_3327	0
PSPTO_3328	0
PSPTO_3329	1
PSPTO_3330	0
PSPTO_3331	0
PSPTO_3332	0
PSPTO_3333	0
PSPTO_3334	0
PSPTO_3335	0
PSPTO_3336	0
PSPTO_3337	0
PSPTO_3338	0
PSPTO_3339	0
PSPTO_3340	0
PSPTO_3341	0
PSPTO_3342	0
PSPTO_3343	0
PSPTO_3344	0
PSPTO_3345	0
PSPTO_3346	0
PSPTO_3347	0
PSPTO_3348	0
PSPTO_3349	0
PSPTO_3350	0
PSPTO_3351	0
PSPTO_3352	0
PSPTO_3353	0
PSPTO_3354	0
PSPTO_3355	1
PSPTO_3356	1
PSPTO_3357	0
PSPTO_3358	0
PSPTO_3359	0
PSPTO_3360	0
PSPTO_3361	0
PSPTO_3362	0
PSPTO_3363	0
PSPTO_3364	0
PSPTO_3365	0
PSPTO_3366	1
PSPTO_3367	1
PSPTO_3368	0
PSPTO_3369	0
PSPTO_3370	0
PSPTO_3371	1
PSPTO_3372	0
PSPTO_3373	0
PSPTO_3374	0
PSPTO_3375	0
PSPTO_3376	0
PSPTO_3377	0
PSPTO_3378	0
PSPTO_3379	0
PSPTO_3380	0
PSPTO_3381	0
PSPTO_3382	0
PSPTO_3383	0
PSPTO_3384	0
PSPTO_3385	0
PSPTO_3386	1
PSPTO_3387	21
PSPTO_3388	0
PSPTO_3389	0
PSPTO_3390	0
PSPTO_3391	0
PSPTO_3392	0
PSPTO_3393	0
PSPTO_3394	0
PSPTO_3395	0
PSPTO_3396	0
PSPTO_3397	0
PSPTO_3398	0
PSPTO_3399	0
PSPTO_3400	0
PSPTO_3401	0
PSPTO_3402	0
PSPTO_3403	0
PSPTO_3404	0
PSPTO_3405	0
PSPTO_3406	0
PSPTO_3407	0
PSPTO_3408	1
PSPTO_3409	0
PSPTO_3410	0
PSPTO_3411	0
PSPTO_3412	0
PSPTO_3413	0
PSPTO_3414	0
PSPTO_3415	0
PSPTO_3416	0
PSPTO_3417	0
PSPTO_3418	0
PSPTO_3419	0
PSPTO_3420	0
PSPTO_3421	2
PSPTO_3422	0
PSPTO_3423	0
PSPTO_3424	0
PSPTO_3425	0
PSPTO_3426	0
PSPTO_3427	0
PSPTO_3428	0
PSPTO_3429	0
PSPTO_3430	0
PSPTO_3432	0
PSPTO_3433	0
PSPTO_3435	0
PSPTO_3436	0
PSPTO_3437	0
PSPTO_3438	0
PSPTO_3439	0
PSPTO_3440	0
PSPTO_3441	0
PSPTO_3442	0
PSPTO_3443	0
PSPTO_3444	0
PSPTO_3445	0
PSPTO_3446	0
PSPTO_3447	0
PSPTO_3448	0
PSPTO_3449	0
PSPTO_3450	0
PSPTO_3451	0
PSPTO_3452	0
PSPTO_3453	0
PSPTO_3454	0
PSPTO_3455	0
PSPTO_3456	0
PSPTO_3457	0
PSPTO_3458	0
PSPTO_3459	0
PSPTO_3460	0
PSPTO_3461	0
PSPTO_3462	0
PSPTO_3463	0
PSPTO_3464	0
PSPTO_3465	0
PSPTO_3466	0
PSPTO_3467	0
PSPTO_3468	0
PSPTO_3469	0
PSPTO_3470	0
PSPTO_3471	0
PSPTO_3472	0
PSPTO_3473	0
PSPTO_3474	0
PSPTO_3475	0
PSPTO_3476	0
PSPTO_3477	0
PSPTO_3478	0
PSPTO_3479	1
PSPTO_3480	0
PSPTO_3481	1
PSPTO_3482	0
PSPTO_3483	0
PSPTO_3484	0
PSPTO_3485	0
PSPTO_3486	0
PSPTO_3487	0
PSPTO_3488	0
PSPTO_3489	0
PSPTO_3490	0
PSPTO_3491	0
PSPTO_3492	0
PSPTO_3493	0
PSPTO_3494	0
PSPTO_3495	0
PSPTO_3496	0
PSPTO_3497	0
PSPTO_3498	0
PSPTO_3499	0
PSPTO_3500	0
PSPTO_3501	0
PSPTO_3502	0
PSPTO_3503	0
PSPTO_3504	0
PSPTO_3505	0
PSPTO_3506	0
PSPTO_3507	0
PSPTO_3508	0
PSPTO_3509	0
PSPTO_3510	0
PSPTO_3511	0
PSPTO_3512	2
PSPTO_3513	0
PSPTO_3514	0
PSPTO_3515	0
PSPTO_3516	0
PSPTO_3517	0
PSPTO_3518	0
PSPTO_3519	0
PSPTO_3520	0
PSPTO_3521	0
PSPTO_3522	0
PSPTO_3523	0
PSPTO_3524	0
PSPTO_3525	0
PSPTO_3526	0
PSPTO_3527	0
PSPTO_3528	0
PSPTO_3529	0
PSPTO_3530	0
PSPTO_3531	0
PSPTO_3532	0
PSPTO_3533	0
PSPTO_3534	0
PSPTO_3535	0
PSPTO_3536	0
PSPTO_3537	0
PSPTO_3538	0
PSPTO_3539	1
PSPTO_3540	0
PSPTO_3541	0
PSPTO_3542	0
PSPTO_3543	0
PSPTO_3544	0
PSPTO_3545	0
PSPTO_3546	0
PSPTO_3547	0
PSPTO_3548	0
PSPTO_3549	0
PSPTO_3550	0
PSPTO_3551	0
PSPTO_3552	0
PSPTO_3553	0
PSPTO_3554	0
PSPTO_3555	0
PSPTO_3556	0
PSPTO_3557	0
PSPTO_3558	0
PSPTO_3559	0
PSPTO_3560	0
PSPTO_3561	0
PSPTO_3562	0
PSPTO_3563	0
PSPTO_3564	0
PSPTO_3565	0
PSPTO_3566	1
PSPTO_3567	1
PSPTO_3568	0
PSPTO_3569	7
PSPTO_3570	0
PSPTO_3571	0
PSPTO_3572	0
PSPTO_3573	0
PSPTO_3574	0
PSPTO_3575	0
PSPTO_3576	0
PSPTO_3577	0
PSPTO_3578	0
PSPTO_3579	0
PSPTO_3580	0
PSPTO_3581	0
PSPTO_3582	0
PSPTO_3583	0
PSPTO_3584	0
PSPTO_3585	0
PSPTO_3586	0
PSPTO_3587	0
PSPTO_3588	0
PSPTO_3589	0
PSPTO_3590	0
PSPTO_3591	0
PSPTO_3592	0
PSPTO_3593	0
PSPTO_3594	0
PSPTO_3595	0
PSPTO_3596	0
PSPTO_3597	0
PSPTO_3598	0
PSPTO_3599	0
PSPTO_3600	0
PSPTO_3601	0
PSPTO_3602	0
PSPTO_3603	0
PSPTO_3604	0
PSPTO_3605	0
PSPTO_3606	0
PSPTO_3607	0
PSPTO_3608	0
PSPTO_3609	0
PSPTO_3610	0
PSPTO_3611	0
PSPTO_3612	0
PSPTO_3613	1
PSPTO_3614	0
PSPTO_3615	0
PSPTO_3616	4
PSPTO_3617	0
PSPTO_3618	0
PSPTO_3619	0
PSPTO_3620	0
PSPTO_3621	0
PSPTO_3624	0
PSPTO_3625	0
PSPTO_3626	0
PSPTO_3627	0
PSPTO_3628	0
PSPTO_3629	0
PSPTO_3630	0
PSPTO_3631	0
PSPTO_3632	0
PSPTO_3633	0
PSPTO_3634	0
PSPTO_3635	0
PSPTO_3636	0
PSPTO_3637	0
PSPTO_3638	0
PSPTO_3639	0
PSPTO_3640	0
PSPTO_3641	0
PSPTO_3642	0
PSPTO_3643	0
PSPTO_3644	0
PSPTO_3645	0
PSPTO_3646	0
PSPTO_3647	0
PSPTO_3648	0
PSPTO_3649	0
PSPTO_3650	6
PSPTO_3651	0
PSPTO_3652	0
PSPTO_3653	0
PSPTO_3654	0
PSPTO_3655	0
PSPTO_3656	0
PSPTO_3657	1
PSPTO_3658	0
PSPTO_3659	0
PSPTO_3660	0
PSPTO_3661	0
PSPTO_3662	0
PSPTO_3663	0
PSPTO_3664	0
PSPTO_3665	0
PSPTO_3666	0
PSPTO_3667	0
PSPTO_3668	0
PSPTO_3669	0
PSPTO_3670	0
PSPTO_3671	0
PSPTO_3672	0
PSPTO_3673	0
PSPTO_3674	0
PSPTO_3675	0
PSPTO_3676	0
PSPTO_3677	0
PSPTO_3678	0
PSPTO_3679	0
PSPTO_3680	0
PSPTO_3681	0
PSPTO_3682	0
PSPTO_3683	0
PSPTO_3684	0
PSPTO_3685	0
PSPTO_3686	0
PSPTO_3687	0
PSPTO_3688	0
PSPTO_3689	1
PSPTO_3690	0
PSPTO_3691	1
PSPTO_3692	0
PSPTO_3693	0
PSPTO_3694	0
PSPTO_3695	0
PSPTO_3696	0
PSPTO_3697	0
PSPTO_3698	0
PSPTO_3699	1
PSPTO_3700	1
PSPTO_3701	0
PSPTO_3702	0
PSPTO_3703	0
PSPTO_3704	1
PSPTO_3705	0
PSPTO_3706	0
PSPTO_3707	1
PSPTO_3708	0
PSPTO_3709	0
PSPTO_3710	0
PSPTO_3711	0
PSPTO_3712	0
PSPTO_3713	0
PSPTO_3714	0
PSPTO_3715	0
PSPTO_3716	0
PSPTO_3717	0
PSPTO_3718	0
PSPTO_3719	0
PSPTO_3720	0
PSPTO_3721	0
PSPTO_3722	2
PSPTO_3723	4
PSPTO_3724	0
PSPTO_3725	1
PSPTO_3726	0
PSPTO_3727	0
PSPTO_3728	0
PSPTO_3729	1
PSPTO_3730	0
PSPTO_3731	0
PSPTO_3732	0
PSPTO_3733	0
PSPTO_3734	0
PSPTO_3735	0
PSPTO_3736	0
PSPTO_3737	0
PSPTO_3738	0
PSPTO_3739	0
PSPTO_3740	0
PSPTO_3741	0
PSPTO_3742	0
PSPTO_3743	0
PSPTO_3744	0
PSPTO_3745	0
PSPTO_3746	1
PSPTO_3747	0
PSPTO_3748	0
PSPTO_3749	0
PSPTO_3750	0
PSPTO_3751	0
PSPTO_3752	2
PSPTO_3753	0
PSPTO_3754	0
PSPTO_3755	0
PSPTO_3756	0
PSPTO_3757	1
PSPTO_3758	0
PSPTO_3759	0
PSPTO_3760	0
PSPTO_3761	0
PSPTO_3762	0
PSPTO_3763	0
PSPTO_3764	0
PSPTO_3765	1
PSPTO_3766	0
PSPTO_3767	0
PSPTO_3768	0
PSPTO_3769	0
PSPTO_3770	0
PSPTO_3771	0
PSPTO_3772	1
PSPTO_3773	0
PSPTO_3774	0
PSPTO_3775	0
PSPTO_3776	0
PSPTO_3777	0
PSPTO_3778	0
PSPTO_3779	0
PSPTO_3780	0
PSPTO_3781	0
PSPTO_3782	0
PSPTO_3783	0
PSPTO_3784	0
PSPTO_3785	0
PSPTO_3786	0
PSPTO_3787	0
PSPTO_3788	0
PSPTO_3789	0
PSPTO_3790	0
PSPTO_3791	0
PSPTO_3792	0
PSPTO_3793	0
PSPTO_3794	0
PSPTO_3795	0
PSPTO_3796	0
PSPTO_3797	0
PSPTO_3798	0
PSPTO_3799	0
PSPTO_3800	0
PSPTO_3801	0
PSPTO_3802	0
PSPTO_3803	0
PSPTO_3804	0
PSPTO_3805	0
PSPTO_3806	0
PSPTO_3807	0
PSPTO_3808	0
PSPTO_3809	0
PSPTO_3810	0
PSPTO_3811	0
PSPTO_3812	0
PSPTO_3813	0
PSPTO_3814	0
PSPTO_3815	0
PSPTO_3816	0
PSPTO_3817	0
PSPTO_3818	1
PSPTO_3819	0
PSPTO_3820	0
PSPTO_3821	0
PSPTO_3822	0
PSPTO_3823	0
PSPTO_3824	0
PSPTO_3825	0
PSPTO_3826	0
PSPTO_3827	0
PSPTO_3828	0
PSPTO_3829	0
PSPTO_3830	0
PSPTO_3831	13
PSPTO_3832	0
PSPTO_3833	0
PSPTO_3834	0
PSPTO_3835	2
PSPTO_3836	1
PSPTO_3837	0
PSPTO_3838	0
PSPTO_3839	0
PSPTO_3840	0
PSPTO_3841	0
PSPTO_3842	0
PSPTO_3843	0
PSPTO_3844	0
PSPTO_3845	0
PSPTO_3846	0
PSPTO_3847	0
PSPTO_3848	0
PSPTO_3849	0
PSPTO_3850	0
PSPTO_3851	0
PSPTO_3852	0
PSPTO_3853	0
PSPTO_3854	0
PSPTO_3855	0
PSPTO_3856	0
PSPTO_3857	0
PSPTO_3858	0
PSPTO_3859	0
PSPTO_3860	0
PSPTO_3861	0
PSPTO_3862	0
PSPTO_3863	0
PSPTO_3864	0
PSPTO_3865	0
PSPTO_3866	0
PSPTO_3867	0
PSPTO_3868	0
PSPTO_3869	0
PSPTO_3870	0
PSPTO_3871	0
PSPTO_3872	0
PSPTO_3873	1
PSPTO_3874	0
PSPTO_3875	0
PSPTO_3876	0
PSPTO_3877	0
PSPTO_3878	0
PSPTO_3879	0
PSPTO_3880	0
PSPTO_3881	0
PSPTO_3882	0
PSPTO_3883	0
PSPTO_3884	0
PSPTO_3885	0
PSPTO_3886	0
PSPTO_3887	0
PSPTO_3888	1
PSPTO_3889	0
PSPTO_3890	1
PSPTO_3891	0
PSPTO_3892	0
PSPTO_3893	0
PSPTO_3894	0
PSPTO_3895	0
PSPTO_3896	0
PSPTO_3897	0
PSPTO_3898	0
PSPTO_3899	0
PSPTO_3900	0
PSPTO_3901	0
PSPTO_3902	0
PSPTO_3903	0
PSPTO_3904	0
PSPTO_3905	0
PSPTO_3906	0
PSPTO_3907	0
PSPTO_3908	0
PSPTO_3909	0
PSPTO_3910	0
PSPTO_3911	0
PSPTO_3912	0
PSPTO_3913	1
PSPTO_3914	0
PSPTO_3915	0
PSPTO_3916	0
PSPTO_3917	0
PSPTO_3918	0
PSPTO_3919	0
PSPTO_3920	0
PSPTO_3921	0
PSPTO_3922	0
PSPTO_3923	0
PSPTO_3924	0
PSPTO_3925	1
PSPTO_3926	0
PSPTO_3927	0
PSPTO_3929	0
PSPTO_3930	3
PSPTO_3931	0
PSPTO_3932	0
PSPTO_3933	0
PSPTO_3934	0
PSPTO_3935	0
PSPTO_3936	0
PSPTO_3937	0
PSPTO_3938	0
PSPTO_3939	0
PSPTO_3940	0
PSPTO_3941	0
PSPTO_3942	0
PSPTO_3943	0
PSPTO_3944	0
PSPTO_3945	0
PSPTO_3946	0
PSPTO_3947	0
PSPTO_3948	0
PSPTO_3949	0
PSPTO_3950	0
PSPTO_3951	0
PSPTO_3952	0
PSPTO_3953	0
PSPTO_3954	0
PSPTO_3955	0
PSPTO_3956	0
PSPTO_3957	0
PSPTO_3958	0
PSPTO_3959	0
PSPTO_3960	0
PSPTO_3961	0
PSPTO_3962	0
PSPTO_3963	0
PSPTO_3965	0
PSPTO_3966	0
PSPTO_3968	0
PSPTO_3969	0
PSPTO_3970	1
PSPTO_3971	4
PSPTO_3972	0
PSPTO_3973	2
PSPTO_3974	0
PSPTO_3975	0
PSPTO_3976	0
PSPTO_3977	0
PSPTO_3978	0
PSPTO_3979	0
PSPTO_3980	1
PSPTO_3981	0
PSPTO_3982	0
PSPTO_3983	1
PSPTO_3984	0
PSPTO_3985	0
PSPTO_3986	0
PSPTO_3987	1
PSPTO_3988	0
PSPTO_3989	0
PSPTO_3990	0
PSPTO_3991	0
PSPTO_3992	0
PSPTO_3993	0
PSPTO_3994	0
PSPTO_3995	15
PSPTO_3996	0
PSPTO_3997	0
PSPTO_3998	0
PSPTO_3999	0
PSPTO_4001	0
PSPTO_4002	0
PSPTO_4003	0
PSPTO_4004	0
PSPTO_4005	0
PSPTO_4006	0
PSPTO_4007	0
PSPTO_4008	0
PSPTO_4009	0
PSPTO_4010	0
PSPTO_4011	0
PSPTO_4012	0
PSPTO_4013	0
PSPTO_4014	0
PSPTO_4015	0
PSPTO_4016	0
PSPTO_4017	0
PSPTO_4018	0
PSPTO_4019	0
PSPTO_4020	0
PSPTO_4021	0
PSPTO_4022	0
PSPTO_4023	0
PSPTO_4024	0
PSPTO_4025	0
PSPTO_4026	0
PSPTO_4027	0
PSPTO_4028	0
PSPTO_4029	0
PSPTO_4030	0
PSPTO_4031	0
PSPTO_4032	0
PSPTO_4033	1
PSPTO_4034	0
PSPTO_4035	0
PSPTO_4036	0
PSPTO_4037	0
PSPTO_4038	0
PSPTO_4039	0
PSPTO_4040	0
PSPTO_4041	0
PSPTO_4042	0
PSPTO_4043	0
PSPTO_4044	0
PSPTO_4045	0
PSPTO_4046	0
PSPTO_4047	0
PSPTO_4048	0
PSPTO_4049	0
PSPTO_4050	0
PSPTO_4051	0
PSPTO_4052	0
PSPTO_4053	0
PSPTO_4054	0
PSPTO_4055	0
PSPTO_4056	0
PSPTO_4057	0
PSPTO_4058	0
PSPTO_4059	0
PSPTO_4060	0
PSPTO_4061	0
PSPTO_4062	0
PSPTO_4063	0
PSPTO_4064	0
PSPTO_4065	0
PSPTO_4066	0
PSPTO_4067	0
PSPTO_4068	0
PSPTO_4069	0
PSPTO_4070	0
PSPTO_4071	0
PSPTO_4072	0
PSPTO_4073	0
PSPTO_4074	0
PSPTO_4075	0
PSPTO_4076	0
PSPTO_4077	0
PSPTO_4078	0
PSPTO_4079	0
PSPTO_4080	0
PSPTO_4081	1
PSPTO_4082	0
PSPTO_4083	0
PSPTO_4084	0
PSPTO_4087	0
PSPTO_4088	0
PSPTO_4089	0
PSPTO_4090	0
PSPTO_4091	0
PSPTO_4092	0
PSPTO_4093	0
PSPTO_4094	0
PSPTO_4095	0
PSPTO_4096	0
PSPTO_4097	0
PSPTO_4098	0
PSPTO_4099	0
PSPTO_4100	0
PSPTO_4101	0
PSPTO_4102	0
PSPTO_4103	0
PSPTO_4104	0
PSPTO_4105	0
PSPTO_4106	0
PSPTO_4107	0
PSPTO_4108	1
PSPTO_4109	0
PSPTO_4110	0
PSPTO_4111	0
PSPTO_4112	0
PSPTO_4113	0
PSPTO_4114	0
PSPTO_4115	0
PSPTO_4116	0
PSPTO_4117	0
PSPTO_4118	0
PSPTO_4119	0
PSPTO_4120	0
PSPTO_4121	0
PSPTO_4122	0
PSPTO_4123	0
PSPTO_4124	0
PSPTO_4125	0
PSPTO_4126	0
PSPTO_4127	0
PSPTO_4128	0
PSPTO_4129	0
PSPTO_4130	0
PSPTO_4131	0
PSPTO_4132	0
PSPTO_4133	0
PSPTO_4134	0
PSPTO_4135	0
PSPTO_4136	0
PSPTO_4137	0
PSPTO_4138	0
PSPTO_4139	0
PSPTO_4140	0
PSPTO_4141	0
PSPTO_4142	0
PSPTO_4143	1
PSPTO_4144	1
PSPTO_4145	19
PSPTO_4146	0
PSPTO_4147	0
PSPTO_4148	0
PSPTO_4149	0
PSPTO_4150	0
PSPTO_4151	0
PSPTO_4152	0
PSPTO_4153	0
PSPTO_4154	0
PSPTO_4155	0
PSPTO_4156	0
PSPTO_4157	0
PSPTO_4158	0
PSPTO_4159	0
PSPTO_4160	1
PSPTO_4161	0
PSPTO_4162	0
PSPTO_4163	0
PSPTO_4164	0
PSPTO_4165	0
PSPTO_4166	0
PSPTO_4167	0
PSPTO_4168	1
PSPTO_4169	0
PSPTO_4170	0
PSPTO_4171	0
PSPTO_4172	0
PSPTO_4173	0
PSPTO_4174	0
PSPTO_4175	0
PSPTO_4176	0
PSPTO_4177	0
PSPTO_4178	0
PSPTO_4179	0
PSPTO_4180	0
PSPTO_4181	0
PSPTO_4182	1
PSPTO_4183	0
PSPTO_4184	0
PSPTO_4185	0
PSPTO_4186	0
PSPTO_4187	0
PSPTO_4188	0
PSPTO_4189	2
PSPTO_4190	0
PSPTO_4191	0
PSPTO_4192	0
PSPTO_4193	0
PSPTO_4194	0
PSPTO_4195	1
PSPTO_4196	0
PSPTO_4197	0
PSPTO_4198	0
PSPTO_4199	0
PSPTO_4200	0
PSPTO_4201	0
PSPTO_4202	0
PSPTO_4203	0
PSPTO_4204	0
PSPTO_4205	0
PSPTO_4206	0
PSPTO_4207	0
PSPTO_4208	0
PSPTO_4209	0
PSPTO_4210	0
PSPTO_4211	0
PSPTO_4212	0
PSPTO_4213	0
PSPTO_4214	0
PSPTO_4215	0
PSPTO_4216	0
PSPTO_4217	0
PSPTO_4218	0
PSPTO_4219	0
PSPTO_4220	1
PSPTO_4221	0
PSPTO_4222	2
PSPTO_4223	3
PSPTO_4224	4
PSPTO_4225	0
PSPTO_4226	0
PSPTO_4227	0
PSPTO_4228	0
PSPTO_4229	0
PSPTO_4230	0
PSPTO_4231	0
PSPTO_4232	0
PSPTO_4233	0
PSPTO_4234	0
PSPTO_4235	0
PSPTO_4236	0
PSPTO_4237	0
PSPTO_4238	0
PSPTO_4239	0
PSPTO_4240	0
PSPTO_4241	0
PSPTO_4242	0
PSPTO_4243	0
PSPTO_4244	0
PSPTO_4245	0
PSPTO_4246	0
PSPTO_4247	0
PSPTO_4248	0
PSPTO_4249	0
PSPTO_4250	0
PSPTO_4251	0
PSPTO_4252	0
PSPTO_4253	0
PSPTO_4254	0
PSPTO_4255	0
PSPTO_4256	0
PSPTO_4257	0
PSPTO_4258	0
PSPTO_4259	0
PSPTO_4260	0
PSPTO_4261	0
PSPTO_4262	0
PSPTO_4263	0
PSPTO_4264	0
PSPTO_4265	0
PSPTO_4266	0
PSPTO_4267	1
PSPTO_4268	0
PSPTO_4269	0
PSPTO_4270	0
PSPTO_4271	0
PSPTO_4272	0
PSPTO_4273	0
PSPTO_4274	0
PSPTO_4275	0
PSPTO_4276	0
PSPTO_4277	0
PSPTO_4278	0
PSPTO_4279	0
PSPTO_4280	0
PSPTO_4281	0
PSPTO_4282	0
PSPTO_4283	0
PSPTO_4284	1
PSPTO_4285	1
PSPTO_4286	0
PSPTO_4287	0
PSPTO_4288	0
PSPTO_4289	0
PSPTO_4290	0
PSPTO_4291	0
PSPTO_4292	0
PSPTO_4293	0
PSPTO_4294	0
PSPTO_4295	0
PSPTO_4296	0
PSPTO_4297	1
PSPTO_4298	0
PSPTO_4299	0
PSPTO_4300	0
PSPTO_4301	0
PSPTO_4302	0
PSPTO_4303	0
PSPTO_4304	0
PSPTO_4305	0
PSPTO_4306	0
PSPTO_4307	0
PSPTO_4308	0
PSPTO_4309	0
PSPTO_4310	0
PSPTO_4312	0
PSPTO_4313	0
PSPTO_4314	0
PSPTO_4315	1
PSPTO_4316	0
PSPTO_4317	0
PSPTO_4318	0
PSPTO_4319	0
PSPTO_4320	0
PSPTO_4321	0
PSPTO_4322	1
PSPTO_4323	0
PSPTO_4324	0
PSPTO_4325	1
PSPTO_4326	0
PSPTO_4327	0
PSPTO_4328	0
PSPTO_4329	0
PSPTO_4330	0
PSPTO_4331	0
PSPTO_4332	0
PSPTO_4333	0
PSPTO_4334	0
PSPTO_4335	0
PSPTO_4336	0
PSPTO_4337	1
PSPTO_4338	0
PSPTO_4339	0
PSPTO_4340	0
PSPTO_4341	0
PSPTO_4342	0
PSPTO_4343	0
PSPTO_4344	0
PSPTO_4345	0
PSPTO_4346	0
PSPTO_4347	0
PSPTO_4348	0
PSPTO_4349	0
PSPTO_4350	0
PSPTO_4351	1
PSPTO_4352	0
PSPTO_4353	0
PSPTO_4354	0
PSPTO_4355	0
PSPTO_4356	0
PSPTO_4357	0
PSPTO_4358	0
PSPTO_4359	0
PSPTO_4360	0
PSPTO_4361	0
PSPTO_4362	0
PSPTO_4363	1
PSPTO_4364	0
PSPTO_4365	0
PSPTO_4366	0
PSPTO_4367	0
PSPTO_4368	0
PSPTO_4369	0
PSPTO_4370	0
PSPTO_4371	0
PSPTO_4372	0
PSPTO_4373	0
PSPTO_4374	0
PSPTO_4375	0
PSPTO_4376	6
PSPTO_4377	1
PSPTO_4378	0
PSPTO_4379	0
PSPTO_4380	0
PSPTO_4381	1
PSPTO_4382	0
PSPTO_4383	0
PSPTO_4384	0
PSPTO_4385	0
PSPTO_4386	1
PSPTO_4387	0
PSPTO_4388	0
PSPTO_4389	0
PSPTO_4390	0
PSPTO_4392	1
PSPTO_4393	1
PSPTO_4394	0
PSPTO_4395	0
PSPTO_4396	0
PSPTO_4397	0
PSPTO_4398	0
PSPTO_4399	0
PSPTO_4400	0
PSPTO_4401	0
PSPTO_4402	0
PSPTO_4403	2
PSPTO_4404	1
PSPTO_4405	0
PSPTO_4406	0
PSPTO_4407	0
PSPTO_4408	0
PSPTO_4409	0
PSPTO_4410	0
PSPTO_4411	0
PSPTO_4412	0
PSPTO_4413	0
PSPTO_4414	0
PSPTO_4415	0
PSPTO_4416	0
PSPTO_4417	0
PSPTO_4418	0
PSPTO_4419	0
PSPTO_4420	0
PSPTO_4421	0
PSPTO_4422	0
PSPTO_4423	0
PSPTO_4424	0
PSPTO_4425	1
PSPTO_4426	0
PSPTO_4427	0
PSPTO_4428	0
PSPTO_4429	0
PSPTO_4430	0
PSPTO_4431	0
PSPTO_4432	1
PSPTO_4433	0
PSPTO_4434	0
PSPTO_4435	0
PSPTO_4436	0
PSPTO_4437	0
PSPTO_4438	0
PSPTO_4439	0
PSPTO_4440	0
PSPTO_4441	0
PSPTO_4442	0
PSPTO_4443	0
PSPTO_4444	0
PSPTO_4445	0
PSPTO_4446	0
PSPTO_4447	0
PSPTO_4448	0
PSPTO_4449	0
PSPTO_4450	0
PSPTO_4451	0
PSPTO_4452	0
PSPTO_4453	0
PSPTO_4454	0
PSPTO_4455	0
PSPTO_4456	0
PSPTO_4457	0
PSPTO_4458	0
PSPTO_4459	0
PSPTO_4460	0
PSPTO_4461	0
PSPTO_4462	0
PSPTO_4463	0
PSPTO_4464	0
PSPTO_4465	0
PSPTO_4466	0
PSPTO_4467	0
PSPTO_4468	0
PSPTO_4469	0
PSPTO_4470	0
PSPTO_4471	0
PSPTO_4472	0
PSPTO_4473	0
PSPTO_4474	0
PSPTO_4475	0
PSPTO_4476	0
PSPTO_4477	0
PSPTO_4478	0
PSPTO_4479	0
PSPTO_4480	0
PSPTO_4481	0
PSPTO_4482	0
PSPTO_4483	0
PSPTO_4484	0
PSPTO_4485	2
PSPTO_4486	0
PSPTO_4487	0
PSPTO_4488	0
PSPTO_4489	0
PSPTO_4490	1
PSPTO_4491	0
PSPTO_4492	1
PSPTO_4493	2
PSPTO_4494	0
PSPTO_4495	0
PSPTO_4496	0
PSPTO_4497	0
PSPTO_4498	1
PSPTO_4499	0
PSPTO_4500	0
PSPTO_4501	0
PSPTO_4502	0
PSPTO_4503	0
PSPTO_4504	0
PSPTO_4505	10
PSPTO_4506	0
PSPTO_4507	0
PSPTO_4508	0
PSPTO_4509	1
PSPTO_4510	0
PSPTO_4511	0
PSPTO_4512	0
PSPTO_4513	0
PSPTO_4514	0
PSPTO_4515	0
PSPTO_4516	0
PSPTO_4517	0
PSPTO_4518	0
PSPTO_4519	0
PSPTO_4520	0
PSPTO_4521	0
PSPTO_4522	0
PSPTO_4523	2
PSPTO_4524	0
PSPTO_4525	0
PSPTO_4526	0
PSPTO_4527	0
PSPTO_4528	0
PSPTO_4529	2
PSPTO_4530	0
PSPTO_4531	0
PSPTO_4532	0
PSPTO_4533	0
PSPTO_4534	0
PSPTO_4535	0
PSPTO_4536	0
PSPTO_4537	0
PSPTO_4538	0
PSPTO_4539	0
PSPTO_4540	0
PSPTO_4541	0
PSPTO_4542	0
PSPTO_4543	0
PSPTO_4544	0
PSPTO_4545	0
PSPTO_4546	0
PSPTO_4547	0
PSPTO_4548	1
PSPTO_4549	0
PSPTO_4550	0
PSPTO_4551	0
PSPTO_4552	0
PSPTO_4553	1
PSPTO_4554	0
PSPTO_4555	0
PSPTO_4556	0
PSPTO_4557	0
PSPTO_4558	0
PSPTO_4559	0
PSPTO_4560	1
PSPTO_4561	0
PSPTO_4562	0
PSPTO_4563	0
PSPTO_4564	0
PSPTO_4565	0
PSPTO_4566	0
PSPTO_4567	0
PSPTO_4568	0
PSPTO_4569	0
PSPTO_4570	0
PSPTO_4571	0
PSPTO_4572	0
PSPTO_4573	0
PSPTO_4574	0
PSPTO_4575	0
PSPTO_4576	0
PSPTO_4577	0
PSPTO_4578	0
PSPTO_4579	0
PSPTO_4580	0
PSPTO_4581	1
PSPTO_4582	0
PSPTO_4583	0
PSPTO_4584	0
PSPTO_4585	0
PSPTO_4586	7
PSPTO_4587	0
PSPTO_4588	0
PSPTO_4589	0
PSPTO_4590	0
PSPTO_4591	0
PSPTO_4592	0
PSPTO_4593	0
PSPTO_4594	0
PSPTO_4595	0
PSPTO_4596	0
PSPTO_4597	0
PSPTO_4599	0
PSPTO_4600	0
PSPTO_4601	0
PSPTO_4602	0
PSPTO_4603	0
PSPTO_4604	0
PSPTO_4605	1
PSPTO_4606	0
PSPTO_4607	1
PSPTO_4608	0
PSPTO_4609	0
PSPTO_4610	1
PSPTO_4611	0
PSPTO_4612	0
PSPTO_4613	0
PSPTO_4614	0
PSPTO_4615	0
PSPTO_4616	0
PSPTO_4617	0
PSPTO_4618	0
PSPTO_4619	0
PSPTO_4620	0
PSPTO_4621	0
PSPTO_4622	0
PSPTO_4623	0
PSPTO_4624	0
PSPTO_4625	0
PSPTO_4626	0
PSPTO_4627	0
PSPTO_4628	0
PSPTO_4629	0
PSPTO_4630	0
PSPTO_4631	0
PSPTO_4632	2
PSPTO_4633	0
PSPTO_4634	3
PSPTO_4635	0
PSPTO_4636	0
PSPTO_4637	0
PSPTO_4638	1
PSPTO_4639	0
PSPTO_4640	0
PSPTO_4641	0
PSPTO_4642	0
PSPTO_4643	0
PSPTO_4644	0
PSPTO_4645	0
PSPTO_4646	0
PSPTO_4647	0
PSPTO_4648	0
PSPTO_4649	0
PSPTO_4650	0
PSPTO_4651	0
PSPTO_4652	0
PSPTO_4653	0
PSPTO_4654	0
PSPTO_4656	0
PSPTO_4657	0
PSPTO_4658	0
PSPTO_4659	0
PSPTO_4660	0
PSPTO_4661	0
PSPTO_4662	0
PSPTO_4663	0
PSPTO_4664	0
PSPTO_4665	0
PSPTO_4666	0
PSPTO_4667	0
PSPTO_4668	0
PSPTO_4669	0
PSPTO_4670	0
PSPTO_4671	1
PSPTO_4672	0
PSPTO_4673	1
PSPTO_4674	0
PSPTO_4675	0
PSPTO_4676	0
PSPTO_4677	0
PSPTO_4678	0
PSPTO_4679	0
PSPTO_4680	0
PSPTO_4681	0
PSPTO_4682	0
PSPTO_4683	0
PSPTO_4684	0
PSPTO_4685	0
PSPTO_4686	0
PSPTO_4687	0
PSPTO_4688	0
PSPTO_4689	0
PSPTO_4690	0
PSPTO_4691	0
PSPTO_4692	0
PSPTO_4693	0
PSPTO_4694	0
PSPTO_4695	0
PSPTO_4696	0
PSPTO_4697	0
PSPTO_4699	0
PSPTO_4702	0
PSPTO_4703	0
PSPTO_4704	0
PSPTO_4705	0
PSPTO_4706	0
PSPTO_4707	0
PSPTO_4708	0
PSPTO_4709	0
PSPTO_4710	0
PSPTO_4711	0
PSPTO_4712	0
PSPTO_4713	0
PSPTO_4714	0
PSPTO_4716	0
PSPTO_4717	0
PSPTO_4718	1
PSPTO_4719	0
PSPTO_4720	0
PSPTO_4721	0
PSPTO_4722	0
PSPTO_4723	0
PSPTO_4724	0
PSPTO_4725	0
PSPTO_4726	0
PSPTO_4727	2
PSPTO_4729	0
PSPTO_4730	0
PSPTO_4732	0
PSPTO_4733	2
PSPTO_4734	0
PSPTO_4735	0
PSPTO_4737	0
PSPTO_4738	0
PSPTO_4741	0
PSPTO_4742	1
PSPTO_4743	5
PSPTO_4744	0
PSPTO_4745	0
PSPTO_4746	0
PSPTO_4747	0
PSPTO_4748	0
PSPTO_4749	0
PSPTO_4750	0
PSPTO_4751	0
PSPTO_4752	0
PSPTO_4753	0
PSPTO_4754	0
PSPTO_4755	0
PSPTO_4756	0
PSPTO_4757	0
PSPTO_4758	0
PSPTO_4759	0
PSPTO_4760	0
PSPTO_4761	1
PSPTO_4762	0
PSPTO_4763	0
PSPTO_4764	1
PSPTO_4765	0
PSPTO_4766	0
PSPTO_4767	0
PSPTO_4768	0
PSPTO_4769	0
PSPTO_4770	0
PSPTO_4771	0
PSPTO_4772	0
PSPTO_4773	0
PSPTO_4774	0
PSPTO_4775	0
PSPTO_4776	0
PSPTO_4777	0
PSPTO_4778	0
PSPTO_4779	0
PSPTO_4780	0
PSPTO_4781	0
PSPTO_4782	0
PSPTO_4784	0
PSPTO_4785	0
PSPTO_4786	0
PSPTO_4787	0
PSPTO_4788	0
PSPTO_4789	0
PSPTO_4790	0
PSPTO_4791	0
PSPTO_4792	0
PSPTO_4793	0
PSPTO_4794	0
PSPTO_4795	0
PSPTO_4796	0
PSPTO_4797	0
PSPTO_4798	0
PSPTO_4799	0
PSPTO_4800	1
PSPTO_4801	0
PSPTO_4802	0
PSPTO_4803	0
PSPTO_4804	0
PSPTO_4805	0
PSPTO_4806	0
PSPTO_4807	0
PSPTO_4808	0
PSPTO_4809	0
PSPTO_4810	0
PSPTO_4811	0
PSPTO_4812	0
PSPTO_4813	0
PSPTO_4814	0
PSPTO_4815	0
PSPTO_4816	0
PSPTO_4817	0
PSPTO_4818	0
PSPTO_4819	0
PSPTO_4820	0
PSPTO_4821	0
PSPTO_4822	0
PSPTO_4823	0
PSPTO_4824	0
PSPTO_4825	0
PSPTO_4826	0
PSPTO_4827	0
PSPTO_4828	0
PSPTO_4829	0
PSPTO_4830	0
PSPTO_4831	0
PSPTO_4832	0
PSPTO_4833	0
PSPTO_4834	0
PSPTO_4835	0
PSPTO_4836	0
PSPTO_4837	0
PSPTO_4838	0
PSPTO_4839	0
PSPTO_4840	0
PSPTO_4841	0
PSPTO_4842	0
PSPTO_4843	0
PSPTO_4844	0
PSPTO_4845	0
PSPTO_4846	0
PSPTO_4847	0
PSPTO_4848	0
PSPTO_4849	0
PSPTO_4850	0
PSPTO_4851	0
PSPTO_4852	0
PSPTO_4853	0
PSPTO_4854	0
PSPTO_4855	0
PSPTO_4856	0
PSPTO_4857	0
PSPTO_4858	0
PSPTO_4859	0
PSPTO_4860	0
PSPTO_4861	0
PSPTO_4862	0
PSPTO_4863	0
PSPTO_4864	0
PSPTO_4865	0
PSPTO_4866	0
PSPTO_4867	0
PSPTO_4868	0
PSPTO_4869	0
PSPTO_4870	0
PSPTO_4871	0
PSPTO_4872	0
PSPTO_4873	0
PSPTO_4874	0
PSPTO_4875	0
PSPTO_4876	0
PSPTO_4877	0
PSPTO_4878	0
PSPTO_4879	0
PSPTO_4880	0
PSPTO_4881	0
PSPTO_4882	0
PSPTO_4883	0
PSPTO_4884	0
PSPTO_4885	0
PSPTO_4886	0
PSPTO_4887	0
PSPTO_4888	0
PSPTO_4889	0
PSPTO_4890	0
PSPTO_4891	0
PSPTO_4892	0
PSPTO_4893	0
PSPTO_4894	0
PSPTO_4895	0
PSPTO_4896	0
PSPTO_4897	0
PSPTO_4898	0
PSPTO_4899	0
PSPTO_4900	0
PSPTO_4901	0
PSPTO_4902	0
PSPTO_4903	0
PSPTO_4905	0
PSPTO_4906	1
PSPTO_4907	0
PSPTO_4908	0
PSPTO_4909	0
PSPTO_4910	0
PSPTO_4911	0
PSPTO_4912	0
PSPTO_4913	0
PSPTO_4914	0
PSPTO_4915	0
PSPTO_4916	0
PSPTO_4917	0
PSPTO_4918	0
PSPTO_4919	0
PSPTO_4920	0
PSPTO_4921	0
PSPTO_4922	0
PSPTO_4923	0
PSPTO_4924	0
PSPTO_4925	0
PSPTO_4926	0
PSPTO_4927	0
PSPTO_4928	0
PSPTO_4929	0
PSPTO_4930	3
PSPTO_4931	1
PSPTO_4932	6
PSPTO_4933	1
PSPTO_4934	0
PSPTO_4935	0
PSPTO_4936	0
PSPTO_4937	1
PSPTO_4938	0
PSPTO_4939	1
PSPTO_4940	0
PSPTO_4941	0
PSPTO_4942	4
PSPTO_4943	0
PSPTO_4944	0
PSPTO_4945	0
PSPTO_4946	0
PSPTO_4947	0
PSPTO_4948	0
PSPTO_4949	0
PSPTO_4950	0
PSPTO_4951	0
PSPTO_4952	0
PSPTO_4953	0
PSPTO_4954	0
PSPTO_4955	1
PSPTO_4956	0
PSPTO_4957	0
PSPTO_4958	0
PSPTO_4959	0
PSPTO_4960	0
PSPTO_4961	0
PSPTO_4962	0
PSPTO_4963	0
PSPTO_4964	0
PSPTO_4965	0
PSPTO_4966	0
PSPTO_4967	0
PSPTO_4968	0
PSPTO_4969	0
PSPTO_4970	0
PSPTO_4971	0
PSPTO_4972	0
PSPTO_4973	0
PSPTO_4974	0
PSPTO_4975	0
PSPTO_4976	0
PSPTO_4977	0
PSPTO_4978	0
PSPTO_4979	0
PSPTO_4980	0
PSPTO_4981	0
PSPTO_4982	0
PSPTO_4983	1
PSPTO_4984	0
PSPTO_4985	0
PSPTO_4986	0
PSPTO_4987	0
PSPTO_4988	0
PSPTO_4989	0
PSPTO_4990	0
PSPTO_4991	0
PSPTO_4992	0
PSPTO_4993	0
PSPTO_4994	0
PSPTO_4995	0
PSPTO_4996	0
PSPTO_4997	0
PSPTO_4998	0
PSPTO_4999	0
PSPTO_5000	0
PSPTO_5001	0
PSPTO_5002	0
PSPTO_5003	0
PSPTO_5004	0
PSPTO_5005	1
PSPTO_5006	1
PSPTO_5007	0
PSPTO_5008	0
PSPTO_5009	0
PSPTO_5010	0
PSPTO_5011	0
PSPTO_5012	0
PSPTO_5013	0
PSPTO_5014	0
PSPTO_5015	2
PSPTO_5016	0
PSPTO_5017	0
PSPTO_5018	0
PSPTO_5019	0
PSPTO_5020	0
PSPTO_5021	0
PSPTO_5022	0
PSPTO_5023	0
PSPTO_5024	1
PSPTO_5025	0
PSPTO_5026	0
PSPTO_5027	0
PSPTO_5028	0
PSPTO_5029	0
PSPTO_5030	0
PSPTO_5031	0
PSPTO_5032	0
PSPTO_5033	0
PSPTO_5034	0
PSPTO_5035	0
PSPTO_5036	0
PSPTO_5037	0
PSPTO_5038	0
PSPTO_5039	0
PSPTO_5040	0
PSPTO_5041	0
PSPTO_5043	0
PSPTO_5044	0
PSPTO_5045	0
PSPTO_5046	0
PSPTO_5047	0
PSPTO_5048	0
PSPTO_5049	0
PSPTO_5050	0
PSPTO_5051	0
PSPTO_5052	0
PSPTO_5053	0
PSPTO_5054	0
PSPTO_5055	0
PSPTO_5056	0
PSPTO_5057	0
PSPTO_5058	0
PSPTO_5059	0
PSPTO_5060	0
PSPTO_5061	0
PSPTO_5062	0
PSPTO_5063	0
PSPTO_5064	0
PSPTO_5065	0
PSPTO_5066	0
PSPTO_5067	0
PSPTO_5068	1
PSPTO_5069	0
PSPTO_5070	0
PSPTO_5071	1
PSPTO_5072	0
PSPTO_5073	0
PSPTO_5074	0
PSPTO_5075	0
PSPTO_5076	0
PSPTO_5077	0
PSPTO_5078	0
PSPTO_5079	0
PSPTO_5080	0
PSPTO_5081	0
PSPTO_5082	0
PSPTO_5083	0
PSPTO_5084	0
PSPTO_5085	0
PSPTO_5086	0
PSPTO_5087	0
PSPTO_5088	0
PSPTO_5089	0
PSPTO_5090	1
PSPTO_5091	0
PSPTO_5092	0
PSPTO_5093	0
PSPTO_5094	0
PSPTO_5095	0
PSPTO_5096	0
PSPTO_5097	0
PSPTO_5098	0
PSPTO_5099	0
PSPTO_5100	0
PSPTO_5101	0
PSPTO_5102	0
PSPTO_5103	0
PSPTO_5104	0
PSPTO_5105	0
PSPTO_5106	0
PSPTO_5107	0
PSPTO_5108	0
PSPTO_5109	0
PSPTO_5110	0
PSPTO_5111	0
PSPTO_5112	0
PSPTO_5113	0
PSPTO_5114	0
PSPTO_5115	0
PSPTO_5116	0
PSPTO_5117	0
PSPTO_5118	0
PSPTO_5119	1
PSPTO_5120	0
PSPTO_5121	0
PSPTO_5122	0
PSPTO_5123	0
PSPTO_5124	0
PSPTO_5125	0
PSPTO_5126	0
PSPTO_5127	0
PSPTO_5128	0
PSPTO_5129	0
PSPTO_5130	0
PSPTO_5131	0
PSPTO_5132	0
PSPTO_5133	1
PSPTO_5134	0
PSPTO_5135	0
PSPTO_5136	1
PSPTO_5137	0
PSPTO_5138	0
PSPTO_5139	0
PSPTO_5140	0
PSPTO_5141	0
PSPTO_5142	0
PSPTO_5143	0
PSPTO_5144	0
PSPTO_5145	0
PSPTO_5146	0
PSPTO_5147	0
PSPTO_5148	0
PSPTO_5149	0
PSPTO_5150	0
PSPTO_5151	0
PSPTO_5152	0
PSPTO_5153	0
PSPTO_5154	0
PSPTO_5155	0
PSPTO_5156	0
PSPTO_5157	0
PSPTO_5158	0
PSPTO_5159	0
PSPTO_5160	0
PSPTO_5161	0
PSPTO_5162	4
PSPTO_5163	0
PSPTO_5164	0
PSPTO_5165	0
PSPTO_5166	0
PSPTO_5167	0
PSPTO_5168	1
PSPTO_5169	0
PSPTO_5170	0
PSPTO_5171	0
PSPTO_5172	0
PSPTO_5173	0
PSPTO_5174	0
PSPTO_5175	0
PSPTO_5176	0
PSPTO_5177	0
PSPTO_5178	0
PSPTO_5179	0
PSPTO_5180	0
PSPTO_5181	0
PSPTO_5182	0
PSPTO_5183	0
PSPTO_5184	0
PSPTO_5185	0
PSPTO_5186	0
PSPTO_5187	0
PSPTO_5188	0
PSPTO_5189	0
PSPTO_5190	0
PSPTO_5191	0
PSPTO_5192	0
PSPTO_5193	1
PSPTO_5194	0
PSPTO_5195	0
PSPTO_5196	0
PSPTO_5197	0
PSPTO_5198	0
PSPTO_5199	0
PSPTO_5200	0
PSPTO_5201	0
PSPTO_5202	0
PSPTO_5203	2
PSPTO_5204	0
PSPTO_5205	0
PSPTO_5206	0
PSPTO_5207	0
PSPTO_5208	0
PSPTO_5209	3
PSPTO_5210	0
PSPTO_5211	0
PSPTO_5212	0
PSPTO_5213	0
PSPTO_5214	0
PSPTO_5215	0
PSPTO_5216	0
PSPTO_5217	0
PSPTO_5218	0
PSPTO_5219	0
PSPTO_5220	0
PSPTO_5221	0
PSPTO_5222	0
PSPTO_5223	0
PSPTO_5224	0
PSPTO_5225	0
PSPTO_5226	0
PSPTO_5227	0
PSPTO_5228	0
PSPTO_5229	0
PSPTO_5230	0
PSPTO_5231	0
PSPTO_5232	0
PSPTO_5233	1
PSPTO_5234	0
PSPTO_5235	0
PSPTO_5236	0
PSPTO_5237	0
PSPTO_5238	0
PSPTO_5239	0
PSPTO_5240	0
PSPTO_5241	0
PSPTO_5242	1
PSPTO_5243	0
PSPTO_5244	0
PSPTO_5245	0
PSPTO_5246	0
PSPTO_5247	0
PSPTO_5248	0
PSPTO_5249	0
PSPTO_5250	0
PSPTO_5251	0
PSPTO_5252	0
PSPTO_5253	0
PSPTO_5254	0
PSPTO_5255	0
PSPTO_5256	0
PSPTO_5257	0
PSPTO_5258	1
PSPTO_5259	0
PSPTO_5260	0
PSPTO_5261	0
PSPTO_5262	1
PSPTO_5263	0
PSPTO_5264	0
PSPTO_5265	0
PSPTO_5266	0
PSPTO_5267	0
PSPTO_5268	0
PSPTO_5269	0
PSPTO_5270	0
PSPTO_5271	0
PSPTO_5272	0
PSPTO_5273	0
PSPTO_5274	0
PSPTO_5275	0
PSPTO_5276	0
PSPTO_5277	0
PSPTO_5278	0
PSPTO_5279	1
PSPTO_5280	0
PSPTO_5281	0
PSPTO_5282	0
PSPTO_5283	0
PSPTO_5284	0
PSPTO_5285	0
PSPTO_5286	0
PSPTO_5287	0
PSPTO_5288	0
PSPTO_5289	0
PSPTO_5290	0
PSPTO_5291	0
PSPTO_5292	0
PSPTO_5293	1
PSPTO_5294	1
PSPTO_5295	0
PSPTO_5296	0
PSPTO_5297	0
PSPTO_5298	0
PSPTO_5299	0
PSPTO_5300	0
PSPTO_5301	0
PSPTO_5302	0
PSPTO_5303	0
PSPTO_5304	0
PSPTO_5305	0
PSPTO_5306	0
PSPTO_5307	0
PSPTO_5308	0
PSPTO_5309	0
PSPTO_5310	0
PSPTO_5311	0
PSPTO_5312	0
PSPTO_5313	0
PSPTO_5314	0
PSPTO_5315	0
PSPTO_5316	0
PSPTO_5317	0
PSPTO_5318	1
PSPTO_5319	0
PSPTO_5320	0
PSPTO_5321	0
PSPTO_5322	0
PSPTO_5323	0
PSPTO_5324	0
PSPTO_5325	0
PSPTO_5326	0
PSPTO_5327	1
PSPTO_5328	0
PSPTO_5329	0
PSPTO_5330	0
PSPTO_5331	1
PSPTO_5332	0
PSPTO_5333	0
PSPTO_5334	0
PSPTO_5335	0
PSPTO_5336	0
PSPTO_5337	0
PSPTO_5338	0
PSPTO_5339	0
PSPTO_5340	0
PSPTO_5341	0
PSPTO_5342	0
PSPTO_5343	0
PSPTO_5344	0
PSPTO_5345	0
PSPTO_5346	0
PSPTO_5347	0
PSPTO_5348	1
PSPTO_5349	0
PSPTO_5350	0
PSPTO_5351	0
PSPTO_5352	0
PSPTO_5353	0
PSPTO_5354	0
PSPTO_5355	0
PSPTO_5356	0
PSPTO_5357	0
PSPTO_5358	0
PSPTO_5359	0
PSPTO_5360	0
PSPTO_5361	0
PSPTO_5362	0
PSPTO_5363	0
PSPTO_5364	0
PSPTO_5365	19
PSPTO_5367	0
PSPTO_5368	0
PSPTO_5370	0
PSPTO_5371	0
PSPTO_5373	7
PSPTO_5374	0
PSPTO_5375	0
PSPTO_5376	0
PSPTO_5377	0
PSPTO_5378	0
PSPTO_5379	0
PSPTO_5380	0
PSPTO_5381	0
PSPTO_5382	0
PSPTO_5383	0
PSPTO_5384	0
PSPTO_5385	0
PSPTO_5386	0
PSPTO_5387	0
PSPTO_5388	0
PSPTO_5389	0
PSPTO_5390	0
PSPTO_5391	0
PSPTO_5392	0
PSPTO_5393	0
PSPTO_5394	0
PSPTO_5395	0
PSPTO_5396	0
PSPTO_5397	0
PSPTO_5398	0
PSPTO_5399	0
PSPTO_5400	0
PSPTO_5401	0
PSPTO_5402	0
PSPTO_5403	0
PSPTO_5404	0
PSPTO_5405	0
PSPTO_5406	0
PSPTO_5407	0
PSPTO_5408	0
PSPTO_5409	0
PSPTO_5410	0
PSPTO_5411	0
PSPTO_5412	0
PSPTO_5413	4
PSPTO_5414	1
PSPTO_5415	0
PSPTO_5416	0
PSPTO_5417	0
PSPTO_5418	0
PSPTO_5419	0
PSPTO_5420	0
PSPTO_5421	0
PSPTO_5422	0
PSPTO_5423	0
PSPTO_5424	0
PSPTO_5425	0
PSPTO_5426	0
PSPTO_5427	0
PSPTO_5428	0
PSPTO_5430	0
PSPTO_5431	0
PSPTO_5432	2
PSPTO_5433	1
PSPTO_5434	0
PSPTO_5435	1
PSPTO_5436	0
PSPTO_5437	0
PSPTO_5438	7
PSPTO_5439	0
PSPTO_5440	0
PSPTO_5441	0
PSPTO_5442	0
PSPTO_5443	0
PSPTO_5444	0
PSPTO_5445	0
PSPTO_5446	0
PSPTO_5447	0
PSPTO_5448	0
PSPTO_5449	0
PSPTO_5450	0
PSPTO_5451	0
PSPTO_5452	0
PSPTO_5453	0
PSPTO_5454	0
PSPTO_5455	0
PSPTO_5456	0
PSPTO_5457	0
PSPTO_5458	0
PSPTO_5460	0
PSPTO_5461	0
PSPTO_5462	0
PSPTO_5463	0
PSPTO_5464	0
PSPTO_5465	0
PSPTO_5466	4
PSPTO_5467	0
PSPTO_5468	0
PSPTO_5469	0
PSPTO_5470	0
PSPTO_5471	0
PSPTO_5472	0
PSPTO_5473	0
PSPTO_5474	0
PSPTO_5475	0
PSPTO_5476	0
PSPTO_5477	0
PSPTO_5478	0
PSPTO_5479	0
PSPTO_5480	0
PSPTO_5481	0
PSPTO_5482	0
PSPTO_5483	0
PSPTO_5484	0
PSPTO_5485	0
PSPTO_5486	0
PSPTO_5487	0
PSPTO_5488	0
PSPTO_5489	0
PSPTO_5490	0
PSPTO_5491	1
PSPTO_5492	0
PSPTO_5493	0
PSPTO_5494	0
PSPTO_5495	0
PSPTO_5496	0
PSPTO_5497	0
PSPTO_5498	0
PSPTO_5499	0
PSPTO_5500	0
PSPTO_5501	0
PSPTO_5502	0
PSPTO_5503	0
PSPTO_5504	0
PSPTO_5505	0
PSPTO_5506	0
PSPTO_5507	0
PSPTO_5508	0
PSPTO_5509	1
PSPTO_5510	0
PSPTO_5511	1
PSPTO_5512	0
PSPTO_5513	0
PSPTO_5514	0
PSPTO_5515	0
PSPTO_5516	0
PSPTO_5517	0
PSPTO_5518	0
PSPTO_5519	0
PSPTO_5520	0
PSPTO_5521	0
PSPTO_5522	0
PSPTO_5523	0
PSPTO_5524	0
PSPTO_5525	0
PSPTO_5526	0
PSPTO_5527	0
PSPTO_5528	0
PSPTO_5529	1
PSPTO_5530	0
PSPTO_5531	0
PSPTO_5532	0
PSPTO_5533	0
PSPTO_5534	0
PSPTO_5535	0
PSPTO_5536	0
PSPTO_5537	0
PSPTO_5538	0
PSPTO_5539	0
PSPTO_5540	0
PSPTO_5541	0
PSPTO_5542	0
PSPTO_5543	0
PSPTO_5544	0
PSPTO_5545	0
PSPTO_5546	0
PSPTO_5547	0
PSPTO_5548	0
PSPTO_5549	0
PSPTO_5550	0
PSPTO_5551	0
PSPTO_5552	0
PSPTO_5553	0
PSPTO_5554	0
PSPTO_5555	0
PSPTO_5556	0
PSPTO_5557	0
PSPTO_5558	0
PSPTO_5559	0
PSPTO_5560	0
PSPTO_5561	0
PSPTO_5562	0
PSPTO_5563	0
PSPTO_5564	0
PSPTO_5565	1
PSPTO_5566	0
PSPTO_5567	0
PSPTO_5568	0
PSPTO_5569	0
PSPTO_5570	0
PSPTO_5571	0
PSPTO_5572	0
PSPTO_5573	0
PSPTO_5574	0
PSPTO_5575	0
PSPTO_5576	0
PSPTO_5577	0
PSPTO_5578	0
PSPTO_5579	0
PSPTO_5580	0
PSPTO_5581	0
PSPTO_5582	0
PSPTO_5583	0
PSPTO_5584	0
PSPTO_5585	0
PSPTO_5586	0
PSPTO_5587	0
PSPTO_5588	0
PSPTO_5589	0
PSPTO_5590	0
PSPTO_5591	0
PSPTO_5592	0
PSPTO_5593	0
PSPTO_5594	1
PSPTO_5595	0
PSPTO_5596	0
PSPTO_5597	0
PSPTO_5598	1
PSPTO_5599	1
PSPTO_5600	1
PSPTO_5601	3
PSPTO_5602	1
PSPTO_5603	1
PSPTO_5604	3
PSPTO_5605	0
PSPTO_5606	0
PSPTO_5607	0
PSPTO_5608	0
PSPTO_5609	0
PSPTO_5610	1
PSPTO_5611	0
PSPTO_5612	1
PSPTO_5613	0
PSPTO_5614	0
PSPTO_5615	0
PSPTO_5616	0
PSPTO_5617	0
PSPTO_5618	1
PSPTO_5619	0
PSPTO_5620	0
PSPTO_5621	1
PSPTO_5622	0
PSPTO_5623	0
PSPTO_5624	0
PSPTO_5625	0
PSPTO_5626	0
PSPTO_5627	0
PSPTO_5628	0
PSPTO_5629	0
PSPTO_5630	1
PSPTO_5631	0
PSPTO_5632	3
PSPTO_5633	33
PSPTO_5634	0
PSPTO_5635	1
PSPTO_5636	0
PSPTO_5637	0
PSPTO_5638	0
PSPTO_5639	0
PSPTO_5640	0
PSPTO_5641	0
PSPTO_5642	0
PSPTO_5643	0
PSPTO_5644	0
PSPTO_5645	20
PSPTO_5646	13
PSPTO_5647	0
PSPTO_5648	0
PSPTO_5649	0
PSPTO_5650	0
PSPTO_5651	0
PSPTO_5652	1
PSPTO_5653	0
PSPTO_5654	0
PSPTO_5655	0
PSPTO_5656	0
PSPTO_5657	1
PSPTO_5658	0
PSPTO_5659	0
PSPTO_5660	0
PSPTO_5661	16
PSPTO_5662	0
PSPTO_5663	587
PSPTO_5664	0
PSPTO_5665	0
PSPTO_5666	0
PSPTO_5667	1
PSPTO_5668	48
PSPTO_5669	5
PSPTO_5670	1
PSPTO_5671	1
PSPTO_5672	0
PSPTO_5673	0
PSPTO_5674	0
PSPTO_5675	0
PSPTO_A0072	0
PSPTO_A0073	0
PSPTO_B0001	0
PSPTO_B0002	0
PSPTO_B0003	40
PSPTO_B0004	0
PSPTO_B0005	0
PSPTO_B0006	0
PSPTO_B0007	0
PSPTO_B0008	0
PSPTO_B0009	0
PSPTO_B0010	0
PSPTO_B0011	0
PSPTO_B0012	1
PSPTO_B0013	0
PSPTO_B0014	0
PSPTO_B0015	0
PSPTO_B0016	0
PSPTO_B0017	0
PSPTO_B0018	0
PSPTO_B0019	0
PSPTO_B0020	0
PSPTO_B0021	2
PSPTO_B0022	0
PSPTO_B0023	0
PSPTO_B0024	0
PSPTO_B0025	3
PSPTO_B0026	0
PSPTO_B0027	1
PSPTO_B0028	0
PSPTO_B0029	0
PSPTO_B0030	0
PSPTO_B0031	0
PSPTO_B0032	0
PSPTO_B0033	0
PSPTO_B0034	0
PSPTO_B0035	1
PSPTO_B0036	0
PSPTO_B0037	1
PSPTO_B0038	0
PSPTO_B0039	0
PSPTO_B0040	0
PSPTO_B0041	0
PSPTO_B0042	0
PSPTO_B0043	1
PSPTO_B0044	1
PSPTO_B0045	0
PSPTO_B0046	0
PSPTO_B0047	0
PSPTO_B0048	0
PSPTO_B0049	0
PSPTO_B0050	0
PSPTO_B0051	0
PSPTO_B0052	0
PSPTO_B0053	0
PSPTO_B0054	0
PSPTO_B0055	0
PSPTO_B0056	0
PSPTO_B0057	0
PSPTO_B0058	0
PSPTO_B0059	0
PSPTO_B0060	0
PSPTO_B0061	0
PSPTO_B0062	0
PSPTO_B0063	0
PSPTO_B0064	0
PSPTO_B0065	0
PSPTO_B0066	0
PSPTO_B0067	0
PSPTO_B0068	0
PSPTO_B0069	0
PSPTO_B0070	0
PSPTO_B0071	0
PSPTO_B0072	0
PSPTO_B0073	0
PSPTO_B0074	0
PSPTO_B0075	0
PSPTO_B0076	0
PSPTO_B0077	0
PSPTO_r01	2
PSPTO_r02	12
PSPTO_r03	0
PSPTO_r04	1
PSPTO_r05	4
PSPTO_r06	0
PSPTO_r07	5
PSPTO_r08	10
PSPTO_r09	0
PSPTO_r10	0
PSPTO_r11	11
PSPTO_r12	5
PSPTO_r13	0
PSPTO_r14	10
PSPTO_r15	6
PSPTO_t01	0
PSPTO_t02	0
PSPTO_t03	0
PSPTO_t04	0
PSPTO_t05	4
PSPTO_t06	0
PSPTO_t07	0
PSPTO_t08	0
PSPTO_t09	0
PSPTO_t10	0
PSPTO_t11	3
PSPTO_t12	0
PSPTO_t13	0
PSPTO_t14	0
PSPTO_t15	0
PSPTO_t16	0
PSPTO_t17	0
PSPTO_t18	0
PSPTO_t19	0
PSPTO_t20	0
PSPTO_t21	0
PSPTO_t22	0
PSPTO_t23	0
PSPTO_t24	0
PSPTO_t25	1
PSPTO_t26	1
PSPTO_t27	0
PSPTO_t28	0
PSPTO_t29	0
PSPTO_t30	0
PSPTO_t31	1
PSPTO_t32	0
PSPTO_t33	1
PSPTO_t34	0
PSPTO_t35	0
PSPTO_t36	0
PSPTO_t37	0
PSPTO_t38	0
PSPTO_t39	0
PSPTO_t40	0
PSPTO_t41	0
PSPTO_t42	0
PSPTO_t43	0
PSPTO_t44	0
PSPTO_t45	1
PSPTO_t46	0
PSPTO_t47	0
PSPTO_t48	0
PSPTO_t49	0
PSPTO_t50	0
PSPTO_t51	1
PSPTO_t52	0
PSPTO_t53	0
PSPTO_t54	0
PSPTO_t55	0
PSPTO_t56	0
PSPTO_t57	0
PSPTO_t58	0
PSPTO_t59	0
PSPTO_t60	0
PSPTO_t61	0
PSPTO_t62	0
PSPTO_t63	0
__no_feature	664
__ambiguous	44
__too_low_aQual	0
__not_aligned	1182
__alignment_not_unique	0
