PSPTOA0001	10
PSPTOA0002	24
PSPTOA0003	6
PSPTOA0004	33
PSPTOA0005	17
PSPTOA0006	19
PSPTOA0007	73
PSPTOA0008	44
PSPTOA0009	57
PSPTOA0010	82
PSPTOA0011	59
PSPTOA0012	87
PSPTOA0013	11
PSPTOA0014	150
PSPTOA0015	37
PSPTOA0016	2
PSPTOA0017	9
PSPTOA0018	27
PSPTOA0019	38
PSPTOA0020	5
PSPTOA0021	11
PSPTOA0022	18
PSPTOA0023	10
PSPTOA0024	17
PSPTOA0025	80
PSPTOA0026	38
PSPTOA0027	12
PSPTOA0028	16
PSPTOA0029	52
PSPTOA0030	25
PSPTOA0031	81
PSPTOA0032	311
PSPTOA0033	9
PSPTOA0034	56
PSPTOA0035	37
PSPTOA0036	41
PSPTOA0037	36
PSPTOA0038	3
PSPTOA0039	40
PSPTOA0040	14
PSPTOA0041	3
PSPTOA0042	4
PSPTOA0043	2
PSPTOA0044	7
PSPTOA0045	15
PSPTOA0046	8
PSPTOA0047	4
PSPTOA0048	8
PSPTOA0049	119
PSPTOA0050	3
PSPTOA0051	16
PSPTOA0052	11
PSPTOA0053	13
PSPTOA0054	3
PSPTOA0055	4
PSPTOA0056	12
PSPTOA0057	52
PSPTOA0058	9
PSPTOA0059	6
PSPTOA0060	42
PSPTOA0061	3
PSPTOA0062	22
PSPTOA0063	10
PSPTOA0064	77
PSPTOA0065	151
PSPTOA0066	33
PSPTOA0067	26
PSPTOA0068	39
PSPTOA0069	1
PSPTOA0070	9
PSPTOA0071	5
PSPTO_0001	36
PSPTO_0002	31
PSPTO_0003	11
PSPTO_0004	83
PSPTO_0005	45
PSPTO_0006	33
PSPTO_0007	10
PSPTO_0008	55
PSPTO_0009	5
PSPTO_0011	37
PSPTO_0012	8
PSPTO_0013	8
PSPTO_0014	8
PSPTO_0015	15
PSPTO_0016	8
PSPTO_0017	21
PSPTO_0018	10
PSPTO_0019	15
PSPTO_0020	3
PSPTO_0021	24
PSPTO_0022	31
PSPTO_0023	12
PSPTO_0024	1
PSPTO_0025	38
PSPTO_0026	13
PSPTO_0027	4
PSPTO_0028	29
PSPTO_0029	13
PSPTO_0030	25
PSPTO_0031	23
PSPTO_0032	9
PSPTO_0033	13
PSPTO_0034	20
PSPTO_0035	29
PSPTO_0036	2
PSPTO_0037	88
PSPTO_0038	26
PSPTO_0039	20
PSPTO_0040	3
PSPTO_0041	6
PSPTO_0042	19
PSPTO_0043	113
PSPTO_0044	8
PSPTO_0045	21
PSPTO_0046	58
PSPTO_0047	28
PSPTO_0048	6
PSPTO_0049	12
PSPTO_0050	34
PSPTO_0051	13
PSPTO_0052	59
PSPTO_0053	25
PSPTO_0054	5
PSPTO_0055	10
PSPTO_0056	11
PSPTO_0057	19
PSPTO_0058	35
PSPTO_0059	21
PSPTO_0060	4
PSPTO_0061	3
PSPTO_0062	14
PSPTO_0063	11
PSPTO_0064	82
PSPTO_0065	26
PSPTO_0066	16
PSPTO_0067	41
PSPTO_0068	22
PSPTO_0069	44
PSPTO_0070	25
PSPTO_0071	25
PSPTO_0072	38
PSPTO_0073	53
PSPTO_0074	24
PSPTO_0075	7
PSPTO_0076	16
PSPTO_0077	39
PSPTO_0078	35
PSPTO_0079	31
PSPTO_0080	18
PSPTO_0081	22
PSPTO_0082	149
PSPTO_0083	168
PSPTO_0084	12
PSPTO_0085	24
PSPTO_0086	5
PSPTO_0087	42
PSPTO_0088	0
PSPTO_0089	21
PSPTO_0090	17
PSPTO_0091	14
PSPTO_0092	61
PSPTO_0093	0
PSPTO_0094	11
PSPTO_0095	37
PSPTO_0096	40
PSPTO_0097	4
PSPTO_0098	38
PSPTO_0099	6
PSPTO_0100	5
PSPTO_0101	154
PSPTO_0102	58
PSPTO_0103	56
PSPTO_0104	2
PSPTO_0105	20
PSPTO_0106	3
PSPTO_0107	43
PSPTO_0108	24
PSPTO_0109	100
PSPTO_0110	125
PSPTO_0111	26
PSPTO_0112	7
PSPTO_0113	16
PSPTO_0114	15
PSPTO_0115	66
PSPTO_0116	27
PSPTO_0117	158
PSPTO_0118	15
PSPTO_0119	37
PSPTO_0120	16
PSPTO_0121	15
PSPTO_0123	9
PSPTO_0124	18
PSPTO_0125	28
PSPTO_0126	58
PSPTO_0127	131
PSPTO_0128	17
PSPTO_0129	22
PSPTO_0130	68
PSPTO_0131	50
PSPTO_0132	2
PSPTO_0133	4
PSPTO_0134	47
PSPTO_0135	18
PSPTO_0136	734
PSPTO_0137	7
PSPTO_0138	24
PSPTO_0139	5
PSPTO_0140	16
PSPTO_0141	32
PSPTO_0142	1
PSPTO_0143	17
PSPTO_0144	97
PSPTO_0145	10
PSPTO_0146	18
PSPTO_0147	11
PSPTO_0148	46
PSPTO_0149	20
PSPTO_0150	11
PSPTO_0151	18
PSPTO_0152	123
PSPTO_0153	12
PSPTO_0154	126
PSPTO_0155	70
PSPTO_0156	113
PSPTO_0157	7
PSPTO_0158	23
PSPTO_0159	17
PSPTO_0161	40
PSPTO_0162	48
PSPTO_0163	3
PSPTO_0164	8
PSPTO_0165	43
PSPTO_0166	29
PSPTO_0167	45
PSPTO_0168	71
PSPTO_0169	18
PSPTO_0170	17
PSPTO_0171	21
PSPTO_0172	9
PSPTO_0173	34
PSPTO_0174	21
PSPTO_0175	11
PSPTO_0176	24
PSPTO_0177	15
PSPTO_0178	7
PSPTO_0179	13
PSPTO_0180	18
PSPTO_0181	16
PSPTO_0182	17
PSPTO_0183	6
PSPTO_0184	22
PSPTO_0185	43
PSPTO_0186	10
PSPTO_0187	11
PSPTO_0188	23
PSPTO_0189	4
PSPTO_0190	5
PSPTO_0191	1
PSPTO_0192	13
PSPTO_0193	6
PSPTO_0194	15
PSPTO_0196	24
PSPTO_0197	2
PSPTO_0200	16
PSPTO_0201	28
PSPTO_0202	22
PSPTO_0203	22
PSPTO_0205	16
PSPTO_0206	71
PSPTO_0207	13
PSPTO_0208	14
PSPTO_0209	7
PSPTO_0210	6
PSPTO_0211	16
PSPTO_0212	9
PSPTO_0213	9
PSPTO_0214	5
PSPTO_0215	7
PSPTO_0216	6
PSPTO_0217	68
PSPTO_0218	28
PSPTO_0219	149
PSPTO_0220	108
PSPTO_0221	24
PSPTO_0222	11
PSPTO_0223	6
PSPTO_0224	20
PSPTO_0225	30
PSPTO_0226	5
PSPTO_0227	8
PSPTO_0228	4
PSPTO_0229	2
PSPTO_0230	57
PSPTO_0231	53
PSPTO_0232	1
PSPTO_0233	16
PSPTO_0234	55
PSPTO_0235	14
PSPTO_0236	44
PSPTO_0237	5
PSPTO_0238	17
PSPTO_0239	45
PSPTO_0240	27
PSPTO_0241	23
PSPTO_0242	6
PSPTO_0243	11
PSPTO_0244	5
PSPTO_0245	7
PSPTO_0246	2
PSPTO_0247	16
PSPTO_0248	17
PSPTO_0249	37
PSPTO_0250	11
PSPTO_0251	8
PSPTO_0252	25
PSPTO_0253	3
PSPTO_0254	26
PSPTO_0255	26
PSPTO_0256	13
PSPTO_0257	17
PSPTO_0258	14
PSPTO_0259	5
PSPTO_0260	12
PSPTO_0261	18
PSPTO_0262	4
PSPTO_0263	13
PSPTO_0264	14
PSPTO_0265	8
PSPTO_0266	17
PSPTO_0267	9
PSPTO_0268	8
PSPTO_0269	0
PSPTO_0270	5
PSPTO_0271	12
PSPTO_0272	189
PSPTO_0273	2
PSPTO_0274	2
PSPTO_0275	28
PSPTO_0276	6
PSPTO_0277	5
PSPTO_0278	15
PSPTO_0279	9
PSPTO_0280	9
PSPTO_0281	19
PSPTO_0282	9
PSPTO_0283	3
PSPTO_0284	4
PSPTO_0285	13
PSPTO_0286	37
PSPTO_0287	25
PSPTO_0288	0
PSPTO_0289	2
PSPTO_0290	7
PSPTO_0291	5
PSPTO_0292	6
PSPTO_0293	5
PSPTO_0294	4
PSPTO_0295	5
PSPTO_0296	3
PSPTO_0297	19
PSPTO_0298	12
PSPTO_0299	18
PSPTO_0300	188
PSPTO_0301	138
PSPTO_0302	3
PSPTO_0303	35
PSPTO_0304	26
PSPTO_0305	76
PSPTO_0306	15
PSPTO_0307	4
PSPTO_0308	9
PSPTO_0309	2
PSPTO_0310	13
PSPTO_0311	6
PSPTO_0312	13
PSPTO_0313	9
PSPTO_0314	33
PSPTO_0315	24
PSPTO_0316	26
PSPTO_0317	35
PSPTO_0318	132
PSPTO_0319	33
PSPTO_0320	8
PSPTO_0321	17
PSPTO_0322	20
PSPTO_0323	48
PSPTO_0324	43
PSPTO_0325	55
PSPTO_0326	2
PSPTO_0327	24
PSPTO_0328	41
PSPTO_0329	29
PSPTO_0330	31
PSPTO_0331	1
PSPTO_0332	9
PSPTO_0333	40
PSPTO_0334	51
PSPTO_0335	37
PSPTO_0336	3
PSPTO_0337	9
PSPTO_0338	7
PSPTO_0339	47
PSPTO_0340	45
PSPTO_0341	105
PSPTO_0342	0
PSPTO_0343	12
PSPTO_0344	26
PSPTO_0345	10
PSPTO_0346	20
PSPTO_0347	4
PSPTO_0348	9
PSPTO_0349	15
PSPTO_0350	11
PSPTO_0351	24
PSPTO_0352	43
PSPTO_0353	21
PSPTO_0354	1
PSPTO_0355	3
PSPTO_0356	6
PSPTO_0357	4
PSPTO_0358	23
PSPTO_0359	166
PSPTO_0360	27
PSPTO_0361	81
PSPTO_0362	6
PSPTO_0363	10
PSPTO_0364	4
PSPTO_0365	21
PSPTO_0366	18
PSPTO_0367	9
PSPTO_0368	4
PSPTO_0369	4
PSPTO_0370	15
PSPTO_0371	5
PSPTO_0372	36
PSPTO_0373	57
PSPTO_0374	80
PSPTO_0375	10
PSPTO_0376	7
PSPTO_0377	6
PSPTO_0378	25
PSPTO_0379	28
PSPTO_0380	35
PSPTO_0381	5
PSPTO_0382	17
PSPTO_0383	107
PSPTO_0384	14
PSPTO_0385	144
PSPTO_0386	11
PSPTO_0387	78
PSPTO_0388	17
PSPTO_0389	23
PSPTO_0390	113
PSPTO_0391	13
PSPTO_0393	9
PSPTO_0394	1
PSPTO_0395	4
PSPTO_0396	21
PSPTO_0397	16
PSPTO_0398	11
PSPTO_0399	14
PSPTO_0400	11
PSPTO_0401	7
PSPTO_0402	3
PSPTO_0403	4
PSPTO_0404	18
PSPTO_0405	85
PSPTO_0406	213
PSPTO_0407	30
PSPTO_0408	29
PSPTO_0409	30
PSPTO_0410	11
PSPTO_0411	13
PSPTO_0412	20
PSPTO_0413	14
PSPTO_0414	22
PSPTO_0415	8
PSPTO_0416	3
PSPTO_0417	5
PSPTO_0418	15
PSPTO_0419	13
PSPTO_0420	91
PSPTO_0421	18
PSPTO_0422	7
PSPTO_0423	1
PSPTO_0424	12
PSPTO_0425	17
PSPTO_0426	19
PSPTO_0427	69
PSPTO_0428	41
PSPTO_0429	49
PSPTO_0430	528
PSPTO_0431	7
PSPTO_0432	11
PSPTO_0433	5
PSPTO_0434	10
PSPTO_0435	8
PSPTO_0436	7
PSPTO_0437	2
PSPTO_0438	24
PSPTO_0439	22
PSPTO_0440	8
PSPTO_0441	42
PSPTO_0442	3
PSPTO_0443	85
PSPTO_0444	4
PSPTO_0445	8
PSPTO_0446	7
PSPTO_0447	6
PSPTO_0448	17
PSPTO_0449	4
PSPTO_0450	18
PSPTO_0451	50
PSPTO_0452	14
PSPTO_0453	172
PSPTO_0454	21
PSPTO_0455	49
PSPTO_0456	10
PSPTO_0457	10
PSPTO_0458	14
PSPTO_0459	3
PSPTO_0460	10
PSPTO_0461	6
PSPTO_0462	17
PSPTO_0463	7
PSPTO_0464	15
PSPTO_0465	30
PSPTO_0466	16
PSPTO_0467	3
PSPTO_0468	7
PSPTO_0469	9
PSPTO_0470	17
PSPTO_0471	43
PSPTO_0472	45
PSPTO_0473	14
PSPTO_0474	6
PSPTO_0475	9
PSPTO_0476	5
PSPTO_0477	7
PSPTO_0478	7
PSPTO_0479	2
PSPTO_0480	78
PSPTO_0481	24
PSPTO_0482	8
PSPTO_0483	2
PSPTO_0484	5
PSPTO_0485	3
PSPTO_0486	6
PSPTO_0487	15
PSPTO_0488	1
PSPTO_0489	13
PSPTO_0490	9
PSPTO_0491	12
PSPTO_0492	11
PSPTO_0493	2
PSPTO_0494	71
PSPTO_0495	20
PSPTO_0496	13
PSPTO_0497	8
PSPTO_0498	13
PSPTO_0499	130
PSPTO_0500	62
PSPTO_0501	13
PSPTO_0502	5
PSPTO_0503	4
PSPTO_0505	51
PSPTO_0506	42
PSPTO_0507	70
PSPTO_0508	47
PSPTO_0509	32
PSPTO_0510	10
PSPTO_0511	24
PSPTO_0512	34
PSPTO_0513	57
PSPTO_0514	20
PSPTO_0515	5
PSPTO_0516	16
PSPTO_0517	8
PSPTO_0518	70
PSPTO_0519	11
PSPTO_0520	22
PSPTO_0521	1
PSPTO_0522	18
PSPTO_0523	16
PSPTO_0524	18
PSPTO_0525	2
PSPTO_0526	3
PSPTO_0527	24
PSPTO_0528	24
PSPTO_0529	15
PSPTO_0530	9
PSPTO_0531	15
PSPTO_0532	1
PSPTO_0533	14
PSPTO_0534	28
PSPTO_0535	8
PSPTO_0536	67
PSPTO_0537	334
PSPTO_0538	40
PSPTO_0539	8
PSPTO_0540	12
PSPTO_0541	9
PSPTO_0542	16
PSPTO_0543	6
PSPTO_0544	16
PSPTO_0545	250
PSPTO_0546	198
PSPTO_0547	724
PSPTO_0548	8
PSPTO_0549	13
PSPTO_0550	12
PSPTO_0551	5
PSPTO_0552	10
PSPTO_0553	37
PSPTO_0554	84
PSPTO_0555	59
PSPTO_0556	52
PSPTO_0557	26
PSPTO_0558	90
PSPTO_0559	21
PSPTO_0560	6
PSPTO_0561	1
PSPTO_0562	10
PSPTO_0563	10
PSPTO_0564	9
PSPTO_0565	8
PSPTO_0566	14
PSPTO_0567	13
PSPTO_0568	56
PSPTO_0569	41
PSPTO_0570	9
PSPTO_0571	7
PSPTO_0572	19
PSPTO_0573	0
PSPTO_0574	1
PSPTO_0575	6
PSPTO_0576	0
PSPTO_0577	22
PSPTO_0578	8
PSPTO_0579	3
PSPTO_0580	32
PSPTO_0581	21
PSPTO_0582	2
PSPTO_0583	20
PSPTO_0584	15
PSPTO_0585	18
PSPTO_0586	20
PSPTO_0587	53
PSPTO_0588	2
PSPTO_0589	11
PSPTO_0591	19
PSPTO_0592	24
PSPTO_0593	31
PSPTO_0594	47
PSPTO_0595	16
PSPTO_0596	37
PSPTO_0597	20
PSPTO_0598	12
PSPTO_0599	40
PSPTO_0600	18
PSPTO_0601	19
PSPTO_0602	18
PSPTO_0603	7
PSPTO_0604	43
PSPTO_0605	19
PSPTO_0606	44
PSPTO_0607	30
PSPTO_0608	1
PSPTO_0609	118
PSPTO_0610	14
PSPTO_0611	19
PSPTO_0612	4
PSPTO_0613	10
PSPTO_0614	43
PSPTO_0615	37
PSPTO_0616	92
PSPTO_0617	45
PSPTO_0618	33
PSPTO_0619	315
PSPTO_0620	538
PSPTO_0621	56
PSPTO_0622	77
PSPTO_0623	333
PSPTO_0624	359
PSPTO_0625	46
PSPTO_0626	69
PSPTO_0627	89
PSPTO_0628	21
PSPTO_0629	93
PSPTO_0630	45
PSPTO_0631	51
PSPTO_0632	83
PSPTO_0633	50
PSPTO_0634	7
PSPTO_0635	20
PSPTO_0636	72
PSPTO_0637	37
PSPTO_0638	84
PSPTO_0639	61
PSPTO_0640	37
PSPTO_0641	70
PSPTO_0642	30
PSPTO_0643	55
PSPTO_0644	17
PSPTO_0645	45
PSPTO_0646	96
PSPTO_0647	15
PSPTO_0648	47
PSPTO_0649	68
PSPTO_0650	113
PSPTO_0651	218
PSPTO_0652	63
PSPTO_0653	11
PSPTO_0654	118
PSPTO_0655	33
PSPTO_0656	44
PSPTO_0657	8
PSPTO_0658	33
PSPTO_0659	17
PSPTO_0660	6
PSPTO_0661	7
PSPTO_0662	9
PSPTO_0663	2
PSPTO_0664	3
PSPTO_0665	12
PSPTO_0666	16
PSPTO_0667	17
PSPTO_0668	5
PSPTO_0669	2
PSPTO_0670	20
PSPTO_0671	4
PSPTO_0672	1
PSPTO_0673	2
PSPTO_0674	4
PSPTO_0675	23
PSPTO_0676	114
PSPTO_0677	17
PSPTO_0678	17
PSPTO_0679	8
PSPTO_0680	10
PSPTO_0681	9
PSPTO_0682	4
PSPTO_0683	21
PSPTO_0684	17
PSPTO_0685	5
PSPTO_0686	18
PSPTO_0687	7
PSPTO_0688	6
PSPTO_0689	4
PSPTO_0690	19
PSPTO_0691	8
PSPTO_0692	30
PSPTO_0693	8
PSPTO_0694	9
PSPTO_0695	9
PSPTO_0696	9
PSPTO_0697	8
PSPTO_0698	59
PSPTO_0699	14
PSPTO_0700	3
PSPTO_0701	15
PSPTO_0702	12
PSPTO_0703	24
PSPTO_0704	15
PSPTO_0705	18
PSPTO_0706	13
PSPTO_0707	5
PSPTO_0708	1
PSPTO_0709	6
PSPTO_0710	7
PSPTO_0711	13
PSPTO_0712	1
PSPTO_0713	15
PSPTO_0714	24
PSPTO_0715	8
PSPTO_0716	2
PSPTO_0717	2
PSPTO_0718	5
PSPTO_0719	8
PSPTO_0720	4
PSPTO_0721	1
PSPTO_0722	32
PSPTO_0723	6
PSPTO_0724	10
PSPTO_0725	7
PSPTO_0726	12
PSPTO_0727	21
PSPTO_0728	83
PSPTO_0729	46
PSPTO_0730	11
PSPTO_0731	4
PSPTO_0732	43
PSPTO_0733	36
PSPTO_0734	11
PSPTO_0735	6
PSPTO_0736	16
PSPTO_0737	41
PSPTO_0738	30
PSPTO_0739	39
PSPTO_0740	28
PSPTO_0741	9
PSPTO_0742	42
PSPTO_0743	80
PSPTO_0744	73
PSPTO_0745	4
PSPTO_0746	17
PSPTO_0747	4
PSPTO_0748	56
PSPTO_0749	5
PSPTO_0750	39
PSPTO_0751	10
PSPTO_0752	1
PSPTO_0753	22
PSPTO_0754	11
PSPTO_0755	8
PSPTO_0756	18
PSPTO_0757	17
PSPTO_0758	10
PSPTO_0759	28
PSPTO_0760	1
PSPTO_0761	7
PSPTO_0762	10
PSPTO_0763	6
PSPTO_0764	11
PSPTO_0765	12
PSPTO_0766	31
PSPTO_0767	5
PSPTO_0768	12
PSPTO_0769	34
PSPTO_0770	4
PSPTO_0771	11
PSPTO_0772	12
PSPTO_0773	6
PSPTO_0774	24
PSPTO_0775	29
PSPTO_0776	26
PSPTO_0777	32
PSPTO_0778	15
PSPTO_0779	11
PSPTO_0780	21
PSPTO_0781	11
PSPTO_0782	13
PSPTO_0783	14
PSPTO_0784	15
PSPTO_0785	10
PSPTO_0786	5
PSPTO_0787	19
PSPTO_0788	11
PSPTO_0789	8
PSPTO_0790	9
PSPTO_0791	12
PSPTO_0792	5
PSPTO_0793	17
PSPTO_0794	12
PSPTO_0795	12
PSPTO_0796	33
PSPTO_0797	19
PSPTO_0798	29
PSPTO_0799	35
PSPTO_0800	42
PSPTO_0801	26
PSPTO_0802	17
PSPTO_0803	5
PSPTO_0804	14
PSPTO_0805	22
PSPTO_0806	63
PSPTO_0807	12
PSPTO_0808	13
PSPTO_0809	22
PSPTO_0810	13
PSPTO_0811	12
PSPTO_0812	16
PSPTO_0813	18
PSPTO_0814	15
PSPTO_0815	92
PSPTO_0816	17
PSPTO_0817	31
PSPTO_0818	2
PSPTO_0819	7
PSPTO_0820	21
PSPTO_0821	6
PSPTO_0822	8
PSPTO_0823	19
PSPTO_0824	10
PSPTO_0825	2
PSPTO_0826	33
PSPTO_0827	12
PSPTO_0828	5
PSPTO_0829	164
PSPTO_0830	32
PSPTO_0831	27
PSPTO_0832	12
PSPTO_0833	14
PSPTO_0834	28
PSPTO_0835	9
PSPTO_0836	9
PSPTO_0837	19
PSPTO_0838	20
PSPTO_0840	20
PSPTO_0841	8
PSPTO_0842	7
PSPTO_0844	17
PSPTO_0846	20
PSPTO_0847	5
PSPTO_0848	15
PSPTO_0849	9
PSPTO_0850	1
PSPTO_0851	7
PSPTO_0852	16
PSPTO_0853	35
PSPTO_0854	12
PSPTO_0855	12
PSPTO_0856	16
PSPTO_0857	9
PSPTO_0858	4
PSPTO_0859	39
PSPTO_0860	5
PSPTO_0861	9
PSPTO_0862	11
PSPTO_0863	3
PSPTO_0864	11
PSPTO_0865	10
PSPTO_0866	5
PSPTO_0867	3
PSPTO_0868	0
PSPTO_0869	2
PSPTO_0871	19
PSPTO_0873	16
PSPTO_0874	20
PSPTO_0875	32
PSPTO_0876	67
PSPTO_0877	24
PSPTO_0878	8
PSPTO_0879	16
PSPTO_0880	7
PSPTO_0881	17
PSPTO_0882	20
PSPTO_0883	92
PSPTO_0884	10
PSPTO_0885	11
PSPTO_0886	10
PSPTO_0887	2
PSPTO_0888	6
PSPTO_0889	15
PSPTO_0890	8
PSPTO_0891	13
PSPTO_0892	42
PSPTO_0893	8
PSPTO_0894	12
PSPTO_0895	11
PSPTO_0896	6
PSPTO_0897	10
PSPTO_0898	42
PSPTO_0899	1
PSPTO_0900	2
PSPTO_0901	6
PSPTO_0902	26
PSPTO_0903	15
PSPTO_0904	25
PSPTO_0905	38
PSPTO_0906	8
PSPTO_0907	8
PSPTO_0908	6
PSPTO_0909	2
PSPTO_0910	6
PSPTO_0911	14
PSPTO_0912	23
PSPTO_0913	24
PSPTO_0914	5
PSPTO_0915	5
PSPTO_0916	21
PSPTO_0917	66
PSPTO_0918	1
PSPTO_0919	16
PSPTO_0920	17
PSPTO_0921	6
PSPTO_0922	2
PSPTO_0923	11
PSPTO_0924	15
PSPTO_0925	28
PSPTO_0926	47
PSPTO_0927	1073
PSPTO_0928	10
PSPTO_0929	54
PSPTO_0930	14
PSPTO_0931	5
PSPTO_0932	15
PSPTO_0933	27
PSPTO_0934	17
PSPTO_0935	4
PSPTO_0936	12
PSPTO_0937	20
PSPTO_0938	22
PSPTO_0939	40
PSPTO_0940	84
PSPTO_0941	86
PSPTO_0942	46
PSPTO_0943	127
PSPTO_0944	122
PSPTO_0945	147
PSPTO_0946	18
PSPTO_0947	26
PSPTO_0948	19
PSPTO_0949	261
PSPTO_0950	15
PSPTO_0951	26
PSPTO_0952	9
PSPTO_0953	12
PSPTO_0954	85
PSPTO_0955	16
PSPTO_0956	32
PSPTO_0957	5
PSPTO_0958	6
PSPTO_0959	128
PSPTO_0960	15
PSPTO_0961	8
PSPTO_0962	3
PSPTO_0963	14
PSPTO_0964	99
PSPTO_0965	14
PSPTO_0966	0
PSPTO_0967	4
PSPTO_0968	11
PSPTO_0969	32
PSPTO_0970	18
PSPTO_0971	14
PSPTO_0972	5
PSPTO_0973	8
PSPTO_0974	3
PSPTO_0975	121
PSPTO_0976	62
PSPTO_0977	23
PSPTO_0978	21
PSPTO_0979	7
PSPTO_0980	4
PSPTO_0981	47
PSPTO_0982	7
PSPTO_0983	30
PSPTO_0984	23
PSPTO_0985	65
PSPTO_0986	29
PSPTO_0987	5
PSPTO_0988	17
PSPTO_0989	3
PSPTO_0990	9
PSPTO_0991	10
PSPTO_0992	5
PSPTO_0993	13
PSPTO_0994	124
PSPTO_0995	7
PSPTO_0996	9
PSPTO_0997	8
PSPTO_0998	15
PSPTO_0999	25
PSPTO_1000	57
PSPTO_1001	33
PSPTO_1002	34
PSPTO_1003	20
PSPTO_1004	16
PSPTO_1005	67
PSPTO_1006	9
PSPTO_1007	15
PSPTO_1008	96
PSPTO_1009	6
PSPTO_1010	6
PSPTO_1011	1
PSPTO_1012	1
PSPTO_1013	6
PSPTO_1014	7
PSPTO_1015	18
PSPTO_1016	61
PSPTO_1017	4
PSPTO_1018	5
PSPTO_1019	2
PSPTO_1020	23
PSPTO_1021	1
PSPTO_1022	19
PSPTO_1023	4
PSPTO_1024	5
PSPTO_1025	20
PSPTO_1026	23
PSPTO_1027	27
PSPTO_1028	21
PSPTO_1029	10
PSPTO_1030	23
PSPTO_1031	6
PSPTO_1032	4
PSPTO_1033	13
PSPTO_1034	4
PSPTO_1035	15
PSPTO_1036	8
PSPTO_1037	6
PSPTO_1038	9
PSPTO_1039	123
PSPTO_1040	47
PSPTO_1041	29
PSPTO_1042	7
PSPTO_1043	15
PSPTO_1044	5
PSPTO_1045	9
PSPTO_1046	2
PSPTO_1047	3
PSPTO_1048	8
PSPTO_1049	7
PSPTO_1050	1
PSPTO_1051	6
PSPTO_1052	8
PSPTO_1053	4
PSPTO_1054	13
PSPTO_1055	9
PSPTO_1056	19
PSPTO_1057	3
PSPTO_1058	5
PSPTO_1059	91
PSPTO_1060	1
PSPTO_1061	19
PSPTO_1062	29
PSPTO_1064	12
PSPTO_1065	36
PSPTO_1066	273
PSPTO_1067	44
PSPTO_1068	35
PSPTO_1069	5
PSPTO_1070	51
PSPTO_1071	25
PSPTO_1072	44
PSPTO_1073	31
PSPTO_1074	149
PSPTO_1075	18
PSPTO_1076	12
PSPTO_1077	16
PSPTO_1078	23
PSPTO_1079	83
PSPTO_1080	35
PSPTO_1081	49
PSPTO_1082	3
PSPTO_1083	12
PSPTO_1084	18
PSPTO_1085	10
PSPTO_1086	22
PSPTO_1087	40
PSPTO_1088	16
PSPTO_1089	50
PSPTO_1090	20
PSPTO_1091	3
PSPTO_1092	2
PSPTO_1093	35
PSPTO_1094	14
PSPTO_1095	16
PSPTO_1096	7
PSPTO_1097	67
PSPTO_1098	31
PSPTO_1099	3
PSPTO_1100	80
PSPTO_1101	12
PSPTO_1102	12
PSPTO_1103	24
PSPTO_1104	37
PSPTO_1105	26
PSPTO_1106	6
PSPTO_1107	64
PSPTO_1108	17
PSPTO_1109	33
PSPTO_1110	53
PSPTO_1111	35
PSPTO_1112	12
PSPTO_1114	0
PSPTO_1115	9
PSPTO_1116	15
PSPTO_1117	6
PSPTO_1118	20
PSPTO_1119	20
PSPTO_1120	4
PSPTO_1121	29
PSPTO_1122	33
PSPTO_1123	42
PSPTO_1124	13
PSPTO_1125	22
PSPTO_1126	126
PSPTO_1127	49
PSPTO_1128	47
PSPTO_1129	17
PSPTO_1130	13
PSPTO_1131	11
PSPTO_1132	13
PSPTO_1133	6
PSPTO_1134	18
PSPTO_1135	25
PSPTO_1136	101
PSPTO_1137	3
PSPTO_1138	32
PSPTO_1139	2
PSPTO_1140	20
PSPTO_1141	5
PSPTO_1142	1
PSPTO_1143	5
PSPTO_1144	23
PSPTO_1145	8
PSPTO_1146	13
PSPTO_1147	7
PSPTO_1148	33
PSPTO_1149	37
PSPTO_1150	15
PSPTO_1151	47
PSPTO_1152	21
PSPTO_1153	7
PSPTO_1154	8
PSPTO_1155	1
PSPTO_1156	6
PSPTO_1157	9
PSPTO_1158	6
PSPTO_1159	55
PSPTO_1160	31
PSPTO_1161	2
PSPTO_1162	10
PSPTO_1163	26
PSPTO_1164	156
PSPTO_1165	51
PSPTO_1166	21
PSPTO_1167	17
PSPTO_1168	8
PSPTO_1169	33
PSPTO_1170	4
PSPTO_1171	29
PSPTO_1172	21
PSPTO_1173	11
PSPTO_1174	5
PSPTO_1175	22
PSPTO_1176	0
PSPTO_1177	3
PSPTO_1178	33
PSPTO_1179	15
PSPTO_1180	16
PSPTO_1181	19
PSPTO_1182	26
PSPTO_1183	18
PSPTO_1184	71
PSPTO_1185	78
PSPTO_1186	11
PSPTO_1187	15
PSPTO_1188	20
PSPTO_1189	24
PSPTO_1190	5
PSPTO_1191	25
PSPTO_1192	6
PSPTO_1193	11
PSPTO_1194	17
PSPTO_1195	14
PSPTO_1196	19
PSPTO_1197	10
PSPTO_1198	6
PSPTO_1199	1
PSPTO_1200	25
PSPTO_1201	2
PSPTO_1202	62
PSPTO_1203	15
PSPTO_1204	22
PSPTO_1205	146
PSPTO_1206	40
PSPTO_1207	46
PSPTO_1208	15
PSPTO_1209	13
PSPTO_1210	11
PSPTO_1211	20
PSPTO_1212	9
PSPTO_1213	18
PSPTO_1214	8
PSPTO_1215	25
PSPTO_1216	31
PSPTO_1217	8
PSPTO_1218	16
PSPTO_1219	2
PSPTO_1220	5
PSPTO_1221	24
PSPTO_1222	1
PSPTO_1223	17
PSPTO_1224	9
PSPTO_1225	26
PSPTO_1226	4
PSPTO_1227	33
PSPTO_1228	27
PSPTO_1229	34
PSPTO_1230	2
PSPTO_1231	65
PSPTO_1232	29
PSPTO_1233	10
PSPTO_1234	5
PSPTO_1235	10
PSPTO_1236	11
PSPTO_1237	12
PSPTO_1238	14
PSPTO_1239	11
PSPTO_1240	7
PSPTO_1241	10
PSPTO_1242	19
PSPTO_1243	26
PSPTO_1244	10
PSPTO_1245	7
PSPTO_1246	243
PSPTO_1247	12
PSPTO_1248	8
PSPTO_1249	11
PSPTO_1250	10
PSPTO_1251	4
PSPTO_1252	3
PSPTO_1253	31
PSPTO_1254	23
PSPTO_1255	120
PSPTO_1256	30
PSPTO_1257	20
PSPTO_1258	17
PSPTO_1259	4
PSPTO_1260	14
PSPTO_1261	7
PSPTO_1262	3
PSPTO_1263	12
PSPTO_1264	10
PSPTO_1265	12
PSPTO_1266	84
PSPTO_1267	7
PSPTO_1268	103
PSPTO_1269	8
PSPTO_1270	1
PSPTO_1271	66
PSPTO_1272	10
PSPTO_1273	18
PSPTO_1274	216
PSPTO_1275	58
PSPTO_1276	186
PSPTO_1277	11
PSPTO_1278	100
PSPTO_1279	102
PSPTO_1280	19
PSPTO_1281	42
PSPTO_1282	5
PSPTO_1283	14
PSPTO_1284	57
PSPTO_1285	23
PSPTO_1286	13
PSPTO_1287	122
PSPTO_1288	62
PSPTO_1289	53
PSPTO_1290	32
PSPTO_1291	17
PSPTO_1292	52
PSPTO_1293	22
PSPTO_1294	5
PSPTO_1295	27
PSPTO_1296	74
PSPTO_1297	1
PSPTO_1298	9
PSPTO_1299	10
PSPTO_1300	72
PSPTO_1301	49
PSPTO_1302	56
PSPTO_1303	7
PSPTO_1304	17
PSPTO_1305	19
PSPTO_1306	8
PSPTO_1307	2
PSPTO_1308	26
PSPTO_1309	13
PSPTO_1310	32
PSPTO_1311	59
PSPTO_1312	14
PSPTO_1313	13
PSPTO_1314	9
PSPTO_1315	20
PSPTO_1316	11
PSPTO_1317	4
PSPTO_1318	7
PSPTO_1319	1
PSPTO_1320	175
PSPTO_1321	0
PSPTO_1322	34
PSPTO_1323	281
PSPTO_1324	24
PSPTO_1325	103
PSPTO_1326	275
PSPTO_1327	31
PSPTO_1328	36
PSPTO_1329	62
PSPTO_1330	19
PSPTO_1331	12
PSPTO_1332	86
PSPTO_1333	17
PSPTO_1334	316
PSPTO_1335	8
PSPTO_1336	5
PSPTO_1337	10
PSPTO_1338	49
PSPTO_1339	16
PSPTO_1340	62
PSPTO_1341	7
PSPTO_1342	16
PSPTO_1343	33
PSPTO_1344	6
PSPTO_1345	43
PSPTO_1346	15
PSPTO_1347	18
PSPTO_1348	116
PSPTO_1349	41
PSPTO_1350	12
PSPTO_1351	3
PSPTO_1352	5
PSPTO_1353	2
PSPTO_1354	3
PSPTO_1355	10
PSPTO_1356	7
PSPTO_1357	12
PSPTO_1358	13
PSPTO_1359	10
PSPTO_1360	24
PSPTO_1361	25
PSPTO_1362	3
PSPTO_1363	25
PSPTO_1364	5
PSPTO_1365	28
PSPTO_1366	2
PSPTO_1367	17
PSPTO_1368	17
PSPTO_1369	8
PSPTO_1370	6
PSPTO_1371	1
PSPTO_1372	14
PSPTO_1373	10
PSPTO_1374	4
PSPTO_1375	16
PSPTO_1376	7
PSPTO_1377	36
PSPTO_1378	14
PSPTO_1379	31
PSPTO_1380	29
PSPTO_1381	5
PSPTO_1382	22
PSPTO_1383	2
PSPTO_1384	9
PSPTO_1385	3
PSPTO_1386	3
PSPTO_1387	0
PSPTO_1388	1
PSPTO_1389	10
PSPTO_1390	2
PSPTO_1391	26
PSPTO_1392	4
PSPTO_1393	5
PSPTO_1394	2
PSPTO_1395	3
PSPTO_1396	3
PSPTO_1397	1
PSPTO_1398	3
PSPTO_1399	4
PSPTO_1400	6
PSPTO_1401	5
PSPTO_1402	6
PSPTO_1403	5
PSPTO_1404	1
PSPTO_1405	16
PSPTO_1406	17
PSPTO_1407	12
PSPTO_1408	5
PSPTO_1409	18
PSPTO_1410	379
PSPTO_1411	11
PSPTO_1412	12
PSPTO_1413	22
PSPTO_1414	14
PSPTO_1415	26
PSPTO_1416	16
PSPTO_1417	951
PSPTO_1418	11
PSPTO_1419	16
PSPTO_1420	7
PSPTO_1421	7
PSPTO_1422	10
PSPTO_1423	41
PSPTO_1424	17
PSPTO_1425	23
PSPTO_1426	28
PSPTO_1427	42
PSPTO_1428	14
PSPTO_1429	9
PSPTO_1430	31
PSPTO_1431	56
PSPTO_1432	14
PSPTO_1433	15
PSPTO_1434	47
PSPTO_1435	29
PSPTO_1436	39
PSPTO_1437	65
PSPTO_1438	33
PSPTO_1439	11
PSPTO_1440	16
PSPTO_1441	20
PSPTO_1443	30
PSPTO_1444	138
PSPTO_1445	5
PSPTO_1446	12
PSPTO_1447	2
PSPTO_1448	4
PSPTO_1449	92
PSPTO_1450	33
PSPTO_1451	45
PSPTO_1452	1
PSPTO_1453	72
PSPTO_1454	22
PSPTO_1455	23
PSPTO_1456	11
PSPTO_1457	4
PSPTO_1458	16
PSPTO_1459	66
PSPTO_1460	11
PSPTO_1461	10
PSPTO_1462	5
PSPTO_1463	0
PSPTO_1464	17
PSPTO_1465	14
PSPTO_1466	8
PSPTO_1467	6
PSPTO_1468	30
PSPTO_1469	16
PSPTO_1470	8
PSPTO_1471	10
PSPTO_1472	17
PSPTO_1473	28
PSPTO_1474	35
PSPTO_1475	55
PSPTO_1476	24
PSPTO_1477	18
PSPTO_1478	2
PSPTO_1479	17
PSPTO_1480	38
PSPTO_1481	36
PSPTO_1482	45
PSPTO_1483	26
PSPTO_1484	3
PSPTO_1485	59
PSPTO_1486	10
PSPTO_1487	13
PSPTO_1488	28
PSPTO_1489	41
PSPTO_1490	66
PSPTO_1491	119
PSPTO_1492	35
PSPTO_1493	256
PSPTO_1494	51
PSPTO_1495	74
PSPTO_1496	22
PSPTO_1497	103
PSPTO_1498	40
PSPTO_1499	55
PSPTO_1500	19
PSPTO_1501	28
PSPTO_1502	2
PSPTO_1503	63
PSPTO_1504	15
PSPTO_1505	2
PSPTO_1506	466
PSPTO_1507	244
PSPTO_1508	66
PSPTO_1509	36
PSPTO_1510	10
PSPTO_1511	62
PSPTO_1512	17
PSPTO_1513	12
PSPTO_1514	229
PSPTO_1515	10
PSPTO_1516	1
PSPTO_1517	1
PSPTO_1518	6
PSPTO_1519	11
PSPTO_1520	32
PSPTO_1521	11
PSPTO_1522	5
PSPTO_1523	15
PSPTO_1524	30
PSPTO_1525	14
PSPTO_1526	3
PSPTO_1527	5
PSPTO_1528	19
PSPTO_1529	8
PSPTO_1530	4
PSPTO_1531	15
PSPTO_1532	36
PSPTO_1533	18
PSPTO_1534	95
PSPTO_1535	37
PSPTO_1536	26
PSPTO_1537	29
PSPTO_1538	25
PSPTO_1539	10
PSPTO_1540	23
PSPTO_1541	71
PSPTO_1542	89
PSPTO_1543	21
PSPTO_1544	19
PSPTO_1545	32
PSPTO_1546	16
PSPTO_1547	30
PSPTO_1548	13
PSPTO_1549	84
PSPTO_1550	89
PSPTO_1551	26
PSPTO_1552	83
PSPTO_1553	25
PSPTO_1554	118
PSPTO_1555	7
PSPTO_1556	5
PSPTO_1557	10
PSPTO_1558	31
PSPTO_1559	13
PSPTO_1560	4
PSPTO_1561	5
PSPTO_1562	9
PSPTO_1563	13
PSPTO_1564	95
PSPTO_1565	161
PSPTO_1566	0
PSPTO_1567	12
PSPTO_1568	16
PSPTO_1570	0
PSPTO_1571	41
PSPTO_1572	7
PSPTO_1573	5
PSPTO_1574	10
PSPTO_1575	3
PSPTO_1576	1
PSPTO_1577	21
PSPTO_1578	10
PSPTO_1579	7
PSPTO_1580	14
PSPTO_1581	15
PSPTO_1582	7
PSPTO_1583	17
PSPTO_1584	19
PSPTO_1585	6
PSPTO_1586	9
PSPTO_1587	37
PSPTO_1588	18
PSPTO_1589	7
PSPTO_1590	8
PSPTO_1591	1
PSPTO_1592	7
PSPTO_1593	30
PSPTO_1594	10
PSPTO_1595	19
PSPTO_1596	57
PSPTO_1597	63
PSPTO_1598	27
PSPTO_1599	4
PSPTO_1600	78
PSPTO_1601	20
PSPTO_1602	21
PSPTO_1603	8
PSPTO_1604	63
PSPTO_1605	60
PSPTO_1606	22
PSPTO_1607	18
PSPTO_1608	146
PSPTO_1609	38
PSPTO_1610	25
PSPTO_1611	2
PSPTO_1612	15
PSPTO_1613	9
PSPTO_1614	1
PSPTO_1615	10
PSPTO_1616	10
PSPTO_1617	7
PSPTO_1618	10
PSPTO_1619	19
PSPTO_1620	107
PSPTO_1621	185
PSPTO_1622	21
PSPTO_1623	45
PSPTO_1624	174
PSPTO_1625	8
PSPTO_1626	5
PSPTO_1627	11
PSPTO_1628	7
PSPTO_1629	0
PSPTO_1630	8
PSPTO_1631	33
PSPTO_1632	56
PSPTO_1633	87
PSPTO_1634	7
PSPTO_1635	28
PSPTO_1636	13
PSPTO_1637	27
PSPTO_1638	9
PSPTO_1639	25
PSPTO_1640	81
PSPTO_1641	0
PSPTO_1642	6
PSPTO_1643	17
PSPTO_1644	24
PSPTO_1645	11
PSPTO_1646	38
PSPTO_1647	4
PSPTO_1648	29
PSPTO_1649	11
PSPTO_1650	13
PSPTO_1651	3
PSPTO_1652	5
PSPTO_1653	19
PSPTO_1654	24
PSPTO_1655	6
PSPTO_1656	36
PSPTO_1657	27
PSPTO_1658	7
PSPTO_1659	8
PSPTO_1660	54
PSPTO_1661	123
PSPTO_1662	0
PSPTO_1663	6
PSPTO_1664	2
PSPTO_1665	3
PSPTO_1666	8
PSPTO_1667	10
PSPTO_1668	5
PSPTO_1669	8
PSPTO_1670	26
PSPTO_1671	443
PSPTO_1672	9
PSPTO_1673	14
PSPTO_1674	13
PSPTO_1675	5
PSPTO_1676	7
PSPTO_1677	15
PSPTO_1678	6
PSPTO_1679	13
PSPTO_1680	8
PSPTO_1681	7
PSPTO_1682	244
PSPTO_1683	6
PSPTO_1684	17
PSPTO_1685	20
PSPTO_1686	9
PSPTO_1687	3
PSPTO_1688	23
PSPTO_1689	5
PSPTO_1690	3
PSPTO_1691	17
PSPTO_1692	9
PSPTO_1693	28
PSPTO_1694	51
PSPTO_1695	21
PSPTO_1696	21
PSPTO_1697	11
PSPTO_1698	135
PSPTO_1699	8
PSPTO_1700	24
PSPTO_1701	37
PSPTO_1702	52
PSPTO_1703	13
PSPTO_1704	4
PSPTO_1705	9
PSPTO_1706	6
PSPTO_1707	40
PSPTO_1708	9
PSPTO_1709	9
PSPTO_1710	6
PSPTO_1711	15
PSPTO_1712	10
PSPTO_1713	19
PSPTO_1714	5
PSPTO_1715	16
PSPTO_1716	3
PSPTO_1717	10
PSPTO_1718	29
PSPTO_1719	18
PSPTO_1720	67
PSPTO_1721	125
PSPTO_1722	9
PSPTO_1723	1
PSPTO_1724	11
PSPTO_1725	89
PSPTO_1726	3
PSPTO_1727	3
PSPTO_1728	13
PSPTO_1729	17
PSPTO_1730	17
PSPTO_1731	80
PSPTO_1732	38
PSPTO_1733	10
PSPTO_1734	19
PSPTO_1735	5
PSPTO_1736	32
PSPTO_1737	32
PSPTO_1738	41
PSPTO_1739	85
PSPTO_1740	15
PSPTO_1741	37
PSPTO_1742	40
PSPTO_1743	17
PSPTO_1744	25
PSPTO_1745	123
PSPTO_1746	36
PSPTO_1747	39
PSPTO_1748	46
PSPTO_1749	25
PSPTO_1750	578
PSPTO_1751	42
PSPTO_1752	16
PSPTO_1753	16
PSPTO_1754	27
PSPTO_1755	24
PSPTO_1756	120
PSPTO_1757	6
PSPTO_1758	43
PSPTO_1759	4
PSPTO_1760	15
PSPTO_1761	35
PSPTO_1762	9
PSPTO_1763	13
PSPTO_1764	20
PSPTO_1765	37
PSPTO_1766	3
PSPTO_1767	1
PSPTO_1768	18
PSPTO_1769	14
PSPTO_1770	9
PSPTO_1771	3
PSPTO_1772	5
PSPTO_1773	13
PSPTO_1774	4
PSPTO_1775	23
PSPTO_1776	6
PSPTO_1777	12
PSPTO_1778	57
PSPTO_1779	59
PSPTO_1780	30
PSPTO_1781	25
PSPTO_1782	38
PSPTO_1783	20
PSPTO_1784	10
PSPTO_1785	72
PSPTO_1786	7
PSPTO_1787	7
PSPTO_1788	14
PSPTO_1789	30
PSPTO_1790	5
PSPTO_1791	5
PSPTO_1792	7
PSPTO_1793	5
PSPTO_1794	11
PSPTO_1795	3
PSPTO_1796	7
PSPTO_1797	6
PSPTO_1798	2
PSPTO_1799	6
PSPTO_1800	15
PSPTO_1801	14
PSPTO_1802	36
PSPTO_1803	21
PSPTO_1804	1
PSPTO_1805	62
PSPTO_1806	69
PSPTO_1807	22
PSPTO_1808	15
PSPTO_1809	10
PSPTO_1810	16
PSPTO_1811	14
PSPTO_1812	18
PSPTO_1813	10
PSPTO_1814	16
PSPTO_1815	39
PSPTO_1816	2
PSPTO_1817	12
PSPTO_1818	9
PSPTO_1819	15
PSPTO_1820	6
PSPTO_1821	87
PSPTO_1822	244
PSPTO_1823	19
PSPTO_1824	4
PSPTO_1825	293
PSPTO_1826	21
PSPTO_1827	5
PSPTO_1828	5
PSPTO_1829	5
PSPTO_1830	0
PSPTO_1831	7
PSPTO_1832	27
PSPTO_1833	11
PSPTO_1834	20
PSPTO_1835	14
PSPTO_1836	22
PSPTO_1838	13
PSPTO_1839	32
PSPTO_1840	9
PSPTO_1841	28
PSPTO_1842	64
PSPTO_1843	32
PSPTO_1844	47
PSPTO_1845	4
PSPTO_1846	19
PSPTO_1847	278
PSPTO_1848	1
PSPTO_1849	7
PSPTO_1850	55
PSPTO_1851	39
PSPTO_1852	32
PSPTO_1853	1
PSPTO_1854	3
PSPTO_1855	24
PSPTO_1856	20
PSPTO_1857	29
PSPTO_1858	10
PSPTO_1859	26
PSPTO_1860	14
PSPTO_1861	9
PSPTO_1862	6
PSPTO_1863	6
PSPTO_1864	4
PSPTO_1865	6
PSPTO_1866	11
PSPTO_1867	9
PSPTO_1868	14
PSPTO_1869	10
PSPTO_1870	238
PSPTO_1871	22
PSPTO_1872	0
PSPTO_1873	13
PSPTO_1874	20
PSPTO_1875	17
PSPTO_1876	3
PSPTO_1877	4
PSPTO_1878	13
PSPTO_1879	73
PSPTO_1880	7
PSPTO_1881	22
PSPTO_1882	13
PSPTO_1883	18
PSPTO_1884	10
PSPTO_1885	10
PSPTO_1886	27
PSPTO_1887	12
PSPTO_1888	9
PSPTO_1889	13
PSPTO_1890	11
PSPTO_1891	21
PSPTO_1892	23
PSPTO_1893	8
PSPTO_1894	6
PSPTO_1895	3
PSPTO_1896	12
PSPTO_1897	11
PSPTO_1898	3
PSPTO_1899	15
PSPTO_1900	1
PSPTO_1901	9
PSPTO_1902	79
PSPTO_1903	3
PSPTO_1904	53
PSPTO_1905	1
PSPTO_1906	7
PSPTO_1907	4
PSPTO_1908	9
PSPTO_1909	40
PSPTO_1910	59
PSPTO_1911	183
PSPTO_1912	52
PSPTO_1913	138
PSPTO_1914	357
PSPTO_1915	220
PSPTO_1916	365
PSPTO_1917	24
PSPTO_1918	349
PSPTO_1919	107
PSPTO_1920	226
PSPTO_1921	13
PSPTO_1922	54
PSPTO_1923	215
PSPTO_1924	486
PSPTO_1925	571
PSPTO_1926	73
PSPTO_1927	552
PSPTO_1928	247
PSPTO_1929	20
PSPTO_1930	15
PSPTO_1931	22
PSPTO_1932	1
PSPTO_1933	440
PSPTO_1934	423
PSPTO_1935	637
PSPTO_1936	1895
PSPTO_1937	20
PSPTO_1938	1
PSPTO_1939	887
PSPTO_1940	1256
PSPTO_1941	688
PSPTO_1942	568
PSPTO_1943	483
PSPTO_1944	741
PSPTO_1945	580
PSPTO_1946	178
PSPTO_1947	85
PSPTO_1948	53
PSPTO_1949	5240
PSPTO_1950	268
PSPTO_1951	1466
PSPTO_1952	420
PSPTO_1953	381
PSPTO_1954	338
PSPTO_1955	640
PSPTO_1956	410
PSPTO_1957	313
PSPTO_1958	640
PSPTO_1959	368
PSPTO_1960	199
PSPTO_1961	126
PSPTO_1962	22
PSPTO_1963	34
PSPTO_1964	79
PSPTO_1965	15
PSPTO_1966	806
PSPTO_1967	1
PSPTO_1968	148
PSPTO_1969	305
PSPTO_1970	189
PSPTO_1971	89
PSPTO_1972	110
PSPTO_1973	18
PSPTO_1974	26
PSPTO_1975	50
PSPTO_1976	652
PSPTO_1977	910
PSPTO_1978	449
PSPTO_1979	327
PSPTO_1980	170
PSPTO_1981	303
PSPTO_1982	1516
PSPTO_1983	185
PSPTO_1984	36
PSPTO_1985	52
PSPTO_1986	170
PSPTO_1987	288
PSPTO_1988	323
PSPTO_1989	167
PSPTO_1990	18
PSPTO_1991	9
PSPTO_1992	52
PSPTO_1993	8
PSPTO_1994	9
PSPTO_1995	1
PSPTO_1996	18
PSPTO_1997	5
PSPTO_1998	10
PSPTO_1999	13
PSPTO_2000	5
PSPTO_2001	6
PSPTO_2002	3
PSPTO_2003	4
PSPTO_2004	12
PSPTO_2005	6
PSPTO_2006	5
PSPTO_2007	19
PSPTO_2008	25
PSPTO_2009	21
PSPTO_2010	29
PSPTO_2011	68
PSPTO_2012	5
PSPTO_2013	7
PSPTO_2014	46
PSPTO_2015	8
PSPTO_2016	68
PSPTO_2017	14
PSPTO_2018	6
PSPTO_2019	16
PSPTO_2020	92
PSPTO_2021	23
PSPTO_2022	8
PSPTO_2023	12
PSPTO_2024	7
PSPTO_2025	11
PSPTO_2026	21
PSPTO_2027	2
PSPTO_2028	6
PSPTO_2029	34
PSPTO_2030	23
PSPTO_2031	5
PSPTO_2032	19
PSPTO_2033	9
PSPTO_2034	4
PSPTO_2035	15
PSPTO_2036	7
PSPTO_2037	5
PSPTO_2038	11
PSPTO_2039	24
PSPTO_2040	24
PSPTO_2041	125
PSPTO_2042	40
PSPTO_2043	30
PSPTO_2044	11
PSPTO_2045	11
PSPTO_2046	2
PSPTO_2047	7
PSPTO_2048	30
PSPTO_2049	2
PSPTO_2050	1
PSPTO_2051	63
PSPTO_2052	6
PSPTO_2053	16
PSPTO_2054	39
PSPTO_2055	18
PSPTO_2056	15
PSPTO_2057	50
PSPTO_2058	13
PSPTO_2059	45
PSPTO_2060	13
PSPTO_2061	53
PSPTO_2062	10
PSPTO_2063	22
PSPTO_2064	40
PSPTO_2065	17
PSPTO_2066	6
PSPTO_2067	1
PSPTO_2068	6
PSPTO_2069	1
PSPTO_2070	10
PSPTO_2071	25
PSPTO_2072	2
PSPTO_2073	8
PSPTO_2074	4
PSPTO_2075	8
PSPTO_2076	1
PSPTO_2077	14
PSPTO_2078	6
PSPTO_2079	2
PSPTO_2080	5
PSPTO_2081	1
PSPTO_2082	9
PSPTO_2083	35
PSPTO_2084	5
PSPTO_2085	8
PSPTO_2086	1
PSPTO_2087	5
PSPTO_2088	4
PSPTO_2089	23
PSPTO_2090	13
PSPTO_2091	8
PSPTO_2092	16
PSPTO_2093	3
PSPTO_2094	3
PSPTO_2095	1
PSPTO_2096	13
PSPTO_2097	5
PSPTO_2098	11
PSPTO_2099	25
PSPTO_2100	5
PSPTO_2101	22
PSPTO_2102	39
PSPTO_2103	27
PSPTO_2104	19
PSPTO_2105	16
PSPTO_2106	65
PSPTO_2107	10
PSPTO_2108	14
PSPTO_2109	14
PSPTO_2110	26
PSPTO_2111	23
PSPTO_2112	24
PSPTO_2113	26
PSPTO_2114	3
PSPTO_2115	30
PSPTO_2116	10
PSPTO_2117	39
PSPTO_2118	67
PSPTO_2119	158
PSPTO_2120	16
PSPTO_2121	15
PSPTO_2122	2
PSPTO_2123	8
PSPTO_2124	68
PSPTO_2125	8
PSPTO_2126	13
PSPTO_2127	22
PSPTO_2128	6
PSPTO_2129	18
PSPTO_2130	9
PSPTO_2131	19
PSPTO_2132	2
PSPTO_2133	43
PSPTO_2134	169
PSPTO_2135	3883
PSPTO_2136	1044
PSPTO_2137	197
PSPTO_2138	20
PSPTO_2139	8
PSPTO_2140	23
PSPTO_2141	14
PSPTO_2142	18
PSPTO_2143	7
PSPTO_2144	20
PSPTO_2145	39
PSPTO_2146	235
PSPTO_2147	354
PSPTO_2148	1739
PSPTO_2149	1376
PSPTO_2150	2848
PSPTO_2151	25
PSPTO_2152	597
PSPTO_2153	77
PSPTO_2154	45
PSPTO_2155	63
PSPTO_2156	79
PSPTO_2158	47
PSPTO_2159	60
PSPTO_2160	51
PSPTO_2161	291
PSPTO_2162	13
PSPTO_2163	50
PSPTO_2164	125
PSPTO_2165	20
PSPTO_2166	32
PSPTO_2167	37
PSPTO_2168	10
PSPTO_2169	4
PSPTO_2170	326
PSPTO_2171	213
PSPTO_2172	17
PSPTO_2173	131
PSPTO_2174	72
PSPTO_2175	130
PSPTO_2176	158
PSPTO_2177	20
PSPTO_2178	6
PSPTO_2179	25
PSPTO_2180	23
PSPTO_2181	29
PSPTO_2182	13
PSPTO_2183	15
PSPTO_2184	20
PSPTO_2185	26
PSPTO_2186	49
PSPTO_2187	13
PSPTO_2188	2
PSPTO_2189	6
PSPTO_2190	23
PSPTO_2191	41
PSPTO_2192	9
PSPTO_2193	40
PSPTO_2194	189
PSPTO_2195	49
PSPTO_2196	22
PSPTO_2197	133
PSPTO_2198	138
PSPTO_2199	433
PSPTO_2200	215
PSPTO_2201	260
PSPTO_2202	419
PSPTO_2203	407
PSPTO_2204	16
PSPTO_2205	9
PSPTO_2206	18
PSPTO_2207	241
PSPTO_2208	308
PSPTO_2209	73
PSPTO_2210	300
PSPTO_2211	112
PSPTO_2212	21
PSPTO_2213	41
PSPTO_2214	18
PSPTO_2215	15
PSPTO_2216	15
PSPTO_2217	9
PSPTO_2218	14
PSPTO_2219	2
PSPTO_2220	10
PSPTO_2221	12
PSPTO_2222	7
PSPTO_2223	18
PSPTO_2224	44
PSPTO_2225	30
PSPTO_2226	13
PSPTO_2227	5
PSPTO_2228	7
PSPTO_2229	1
PSPTO_2230	1
PSPTO_2231	33
PSPTO_2232	24
PSPTO_2233	13
PSPTO_2234	23
PSPTO_2235	9
PSPTO_2236	22
PSPTO_2237	32
PSPTO_2238	6
PSPTO_2239	82
PSPTO_2240	3
PSPTO_2241	0
PSPTO_2242	10
PSPTO_2243	11
PSPTO_2244	2
PSPTO_2245	56
PSPTO_2246	14
PSPTO_2247	34
PSPTO_2248	19
PSPTO_2249	10
PSPTO_2250	16
PSPTO_2251	43
PSPTO_2252	23
PSPTO_2253	4
PSPTO_2254	15
PSPTO_2255	9
PSPTO_2256	45
PSPTO_2257	14
PSPTO_2258	27
PSPTO_2259	26
PSPTO_2260	26
PSPTO_2261	24
PSPTO_2262	9
PSPTO_2263	7
PSPTO_2264	5
PSPTO_2265	13
PSPTO_2266	26
PSPTO_2267	7
PSPTO_2268	18
PSPTO_2269	5
PSPTO_2270	21
PSPTO_2271	2
PSPTO_2272	139
PSPTO_2273	1
PSPTO_2274	31
PSPTO_2275	24
PSPTO_2276	14
PSPTO_2277	14
PSPTO_2278	13
PSPTO_2279	57
PSPTO_2280	11
PSPTO_2281	10
PSPTO_2282	3
PSPTO_2283	19
PSPTO_2284	23
PSPTO_2285	5
PSPTO_2286	15
PSPTO_2287	22
PSPTO_2288	29
PSPTO_2289	26
PSPTO_2290	18
PSPTO_2291	15
PSPTO_2292	337
PSPTO_2293	21
PSPTO_2294	17
PSPTO_2295	37
PSPTO_2296	13
PSPTO_2297	77
PSPTO_2298	298
PSPTO_2299	2778
PSPTO_2300	8
PSPTO_2301	15
PSPTO_2302	8
PSPTO_2303	9
PSPTO_2304	9
PSPTO_2305	14
PSPTO_2306	2
PSPTO_2307	7
PSPTO_2308	5
PSPTO_2309	15
PSPTO_2310	106
PSPTO_2311	27
PSPTO_2312	19
PSPTO_2313	18
PSPTO_2314	29
PSPTO_2315	16
PSPTO_2316	7
PSPTO_2317	32
PSPTO_2318	20
PSPTO_2319	0
PSPTO_2320	6
PSPTO_2321	7
PSPTO_2322	8
PSPTO_2323	19
PSPTO_2324	19
PSPTO_2325	1
PSPTO_2326	25
PSPTO_2327	4
PSPTO_2328	24
PSPTO_2329	5
PSPTO_2330	2
PSPTO_2331	46
PSPTO_2332	4
PSPTO_2333	48
PSPTO_2334	40
PSPTO_2335	40
PSPTO_2336	14
PSPTO_2337	16
PSPTO_2338	5
PSPTO_2339	7
PSPTO_2340	21
PSPTO_2341	28
PSPTO_2342	2
PSPTO_2343	8
PSPTO_2344	6
PSPTO_2345	17
PSPTO_2346	37
PSPTO_2347	12
PSPTO_2348	8
PSPTO_2349	6
PSPTO_2350	279
PSPTO_2351	8
PSPTO_2352	6
PSPTO_2353	28
PSPTO_2354	31
PSPTO_2355	16
PSPTO_2356	29
PSPTO_2358	54
PSPTO_2359	19
PSPTO_2360	6
PSPTO_2361	21
PSPTO_2362	128
PSPTO_2363	4
PSPTO_2364	12
PSPTO_2365	0
PSPTO_2366	8
PSPTO_2367	7
PSPTO_2368	10
PSPTO_2369	8
PSPTO_2370	5
PSPTO_2371	6
PSPTO_2372	13
PSPTO_2373	32
PSPTO_2374	9
PSPTO_2375	17
PSPTO_2376	110
PSPTO_2377	72
PSPTO_2378	66
PSPTO_2379	291
PSPTO_2380	139
PSPTO_2381	178
PSPTO_2382	23
PSPTO_2383	50
PSPTO_2384	76
PSPTO_2385	48
PSPTO_2386	8
PSPTO_2387	15
PSPTO_2388	7
PSPTO_2389	5
PSPTO_2390	20
PSPTO_2391	11
PSPTO_2392	1
PSPTO_2394	31
PSPTO_2395	16
PSPTO_2396	6
PSPTO_2397	7
PSPTO_2398	9
PSPTO_2399	8
PSPTO_2400	13
PSPTO_2401	9
PSPTO_2402	6
PSPTO_2403	9
PSPTO_2404	5
PSPTO_2405	12
PSPTO_2406	3
PSPTO_2407	5
PSPTO_2408	15
PSPTO_2409	0
PSPTO_2410	8
PSPTO_2411	3
PSPTO_2412	10
PSPTO_2413	3
PSPTO_2414	5
PSPTO_2415	4
PSPTO_2416	9
PSPTO_2417	7
PSPTO_2418	6
PSPTO_2419	1
PSPTO_2420	1
PSPTO_2421	10
PSPTO_2422	31
PSPTO_2423	6
PSPTO_2424	2
PSPTO_2425	6
PSPTO_2426	19
PSPTO_2427	17
PSPTO_2428	34
PSPTO_2429	20
PSPTO_2430	16
PSPTO_2431	15
PSPTO_2432	18
PSPTO_2433	0
PSPTO_2434	9
PSPTO_2435	28
PSPTO_2436	4
PSPTO_2437	30
PSPTO_2438	41
PSPTO_2439	22
PSPTO_2440	18
PSPTO_2441	753
PSPTO_2442	201
PSPTO_2443	29
PSPTO_2444	3
PSPTO_2445	6
PSPTO_2446	9
PSPTO_2447	10
PSPTO_2448	62
PSPTO_2449	21
PSPTO_2450	93
PSPTO_2451	7
PSPTO_2452	54
PSPTO_2453	33
PSPTO_2454	48
PSPTO_2455	1
PSPTO_2456	0
PSPTO_2457	51
PSPTO_2458	23
PSPTO_2459	3
PSPTO_2460	18
PSPTO_2461	2
PSPTO_2462	3
PSPTO_2463	18
PSPTO_2464	7
PSPTO_2465	30
PSPTO_2466	6
PSPTO_2467	46
PSPTO_2468	4
PSPTO_2469	4
PSPTO_2470	31
PSPTO_2471	16
PSPTO_2472	300
PSPTO_2473	153
PSPTO_2474	15
PSPTO_2475	88
PSPTO_2476	38
PSPTO_2477	2
PSPTO_2478	8
PSPTO_2479	91
PSPTO_2480	130
PSPTO_2481	3
PSPTO_2482	4
PSPTO_2483	8
PSPTO_2484	19
PSPTO_2485	42
PSPTO_2486	4
PSPTO_2487	5
PSPTO_2488	19
PSPTO_2489	44
PSPTO_2490	29
PSPTO_2491	66
PSPTO_2492	12
PSPTO_2493	31
PSPTO_2494	7
PSPTO_2495	1
PSPTO_2496	12
PSPTO_2497	3
PSPTO_2498	3
PSPTO_2499	8
PSPTO_2500	40
PSPTO_2501	66
PSPTO_2502	8
PSPTO_2503	23
PSPTO_2504	2
PSPTO_2505	59
PSPTO_2506	64
PSPTO_2507	20
PSPTO_2508	3
PSPTO_2509	9
PSPTO_2510	12
PSPTO_2511	165
PSPTO_2513	1
PSPTO_2514	23
PSPTO_2515	47
PSPTO_2516	32
PSPTO_2517	19
PSPTO_2518	9
PSPTO_2519	10
PSPTO_2520	9
PSPTO_2521	0
PSPTO_2522	9
PSPTO_2523	5
PSPTO_2524	5
PSPTO_2525	15
PSPTO_2526	22
PSPTO_2527	12
PSPTO_2528	22
PSPTO_2529	3
PSPTO_2530	2
PSPTO_2531	10
PSPTO_2532	41
PSPTO_2533	8
PSPTO_2534	12
PSPTO_2535	40
PSPTO_2536	0
PSPTO_2537	5
PSPTO_2538	13
PSPTO_2539	1
PSPTO_2540	14
PSPTO_2541	24
PSPTO_2542	9
PSPTO_2543	7
PSPTO_2544	15
PSPTO_2545	1
PSPTO_2546	22
PSPTO_2547	11
PSPTO_2548	27
PSPTO_2549	8
PSPTO_2550	3
PSPTO_2551	4
PSPTO_2552	9
PSPTO_2553	8
PSPTO_2554	53
PSPTO_2555	6
PSPTO_2556	2
PSPTO_2557	3
PSPTO_2558	6
PSPTO_2559	2
PSPTO_2560	12
PSPTO_2561	15
PSPTO_2562	5
PSPTO_2563	6
PSPTO_2564	4
PSPTO_2565	13
PSPTO_2566	15
PSPTO_2567	6
PSPTO_2568	19
PSPTO_2569	26
PSPTO_2570	15
PSPTO_2571	7
PSPTO_2572	2
PSPTO_2573	7
PSPTO_2574	3
PSPTO_2575	7
PSPTO_2576	2
PSPTO_2577	10
PSPTO_2578	9
PSPTO_2579	7
PSPTO_2580	17
PSPTO_2581	17
PSPTO_2582	16
PSPTO_2583	5
PSPTO_2584	12
PSPTO_2585	4
PSPTO_2586	5
PSPTO_2587	1
PSPTO_2588	18
PSPTO_2589	23
PSPTO_2590	23
PSPTO_2591	42
PSPTO_2592	17
PSPTO_2593	21
PSPTO_2594	4
PSPTO_2595	85
PSPTO_2596	30
PSPTO_2597	89
PSPTO_2598	45
PSPTO_2599	67
PSPTO_2600	726
PSPTO_2601	51
PSPTO_2602	569
PSPTO_2603	148
PSPTO_2604	218
PSPTO_2605	447
PSPTO_2606	36
PSPTO_2607	13
PSPTO_2608	3
PSPTO_2609	15
PSPTO_2610	9
PSPTO_2611	6
PSPTO_2612	7
PSPTO_2613	15
PSPTO_2614	9
PSPTO_2615	18
PSPTO_2616	633
PSPTO_2617	9
PSPTO_2618	11
PSPTO_2620	12
PSPTO_2621	24
PSPTO_2622	18
PSPTO_2623	23
PSPTO_2624	3
PSPTO_2625	7
PSPTO_2626	1
PSPTO_2627	4
PSPTO_2628	7
PSPTO_2629	7
PSPTO_2630	3
PSPTO_2631	4
PSPTO_2632	53
PSPTO_2633	7
PSPTO_2634	8
PSPTO_2635	12
PSPTO_2636	9
PSPTO_2637	8
PSPTO_2638	22
PSPTO_2639	14
PSPTO_2640	13
PSPTO_2641	0
PSPTO_2642	6
PSPTO_2643	1
PSPTO_2644	3
PSPTO_2645	4
PSPTO_2646	25
PSPTO_2647	25
PSPTO_2648	15
PSPTO_2649	34
PSPTO_2650	4
PSPTO_2651	3
PSPTO_2652	19
PSPTO_2653	69
PSPTO_2654	7
PSPTO_2655	13
PSPTO_2656	18
PSPTO_2657	14
PSPTO_2658	5
PSPTO_2659	26
PSPTO_2660	15
PSPTO_2661	14
PSPTO_2662	13
PSPTO_2663	15
PSPTO_2664	12
PSPTO_2665	7
PSPTO_2666	8
PSPTO_2667	19
PSPTO_2668	13
PSPTO_2669	12
PSPTO_2670	6
PSPTO_2671	25
PSPTO_2672	1
PSPTO_2673	7
PSPTO_2674	11
PSPTO_2675	6
PSPTO_2676	11
PSPTO_2677	8
PSPTO_2678	5
PSPTO_2679	1
PSPTO_2680	37
PSPTO_2681	8
PSPTO_2683	6
PSPTO_2684	1174
PSPTO_2685	7
PSPTO_2686	8
PSPTO_2687	32
PSPTO_2688	21
PSPTO_2689	16
PSPTO_2690	2
PSPTO_2691	69
PSPTO_2692	17
PSPTO_2693	11
PSPTO_2694	23
PSPTO_2695	105
PSPTO_2696	36
PSPTO_2697	107
PSPTO_2698	4
PSPTO_2699	24
PSPTO_2700	865
PSPTO_2701	27
PSPTO_2702	8
PSPTO_2703	18
PSPTO_2704	9
PSPTO_2705	8
PSPTO_2706	6
PSPTO_2707	27
PSPTO_2708	12
PSPTO_2709	8
PSPTO_2710	30
PSPTO_2711	42
PSPTO_2712	34
PSPTO_2713	7
PSPTO_2714	18
PSPTO_2715	11
PSPTO_2716	95
PSPTO_2717	36
PSPTO_2718	43
PSPTO_2719	18
PSPTO_2720	34
PSPTO_2721	3
PSPTO_2722	6
PSPTO_2723	2
PSPTO_2724	3
PSPTO_2725	9
PSPTO_2726	5
PSPTO_2727	0
PSPTO_2728	19
PSPTO_2729	7
PSPTO_2730	19
PSPTO_2731	40
PSPTO_2732	125
PSPTO_2733	25
PSPTO_2734	26
PSPTO_2735	56
PSPTO_2736	16
PSPTO_2737	4
PSPTO_2738	5
PSPTO_2739	15
PSPTO_2740	16
PSPTO_2741	9
PSPTO_2742	7
PSPTO_2743	1
PSPTO_2744	13
PSPTO_2745	31
PSPTO_2746	5
PSPTO_2747	12
PSPTO_2748	36
PSPTO_2749	31
PSPTO_2750	43
PSPTO_2751	25
PSPTO_2752	29
PSPTO_2753	15
PSPTO_2754	35
PSPTO_2755	39
PSPTO_2756	14
PSPTO_2757	30
PSPTO_2758	20
PSPTO_2759	36
PSPTO_2760	110
PSPTO_2761	109
PSPTO_2762	104
PSPTO_2763	22
PSPTO_2764	12
PSPTO_2765	13
PSPTO_2766	28
PSPTO_2767	18
PSPTO_2768	1
PSPTO_2769	141
PSPTO_2770	3
PSPTO_2771	8
PSPTO_2772	11
PSPTO_2773	37
PSPTO_2774	23
PSPTO_2775	49
PSPTO_2776	17
PSPTO_2777	14
PSPTO_2778	11
PSPTO_2779	10
PSPTO_2780	16
PSPTO_2781	9
PSPTO_2782	17
PSPTO_2783	19
PSPTO_2784	51
PSPTO_2785	17
PSPTO_2786	12
PSPTO_2787	10
PSPTO_2788	18
PSPTO_2789	0
PSPTO_2790	10
PSPTO_2791	12
PSPTO_2792	3
PSPTO_2793	5
PSPTO_2794	5
PSPTO_2795	28
PSPTO_2796	19
PSPTO_2797	5
PSPTO_2798	4
PSPTO_2799	4
PSPTO_2800	11
PSPTO_2801	6
PSPTO_2802	6
PSPTO_2803	8
PSPTO_2804	6
PSPTO_2805	221
PSPTO_2806	26
PSPTO_2807	27
PSPTO_2808	10
PSPTO_2809	14
PSPTO_2810	2
PSPTO_2811	9
PSPTO_2812	9
PSPTO_2813	14
PSPTO_2814	3
PSPTO_2815	2
PSPTO_2816	3
PSPTO_2817	1
PSPTO_2818	10
PSPTO_2819	7
PSPTO_2820	7
PSPTO_2821	5
PSPTO_2822	2
PSPTO_2823	11
PSPTO_2824	6
PSPTO_2825	9
PSPTO_2826	2
PSPTO_2827	0
PSPTO_2828	78
PSPTO_2829	192
PSPTO_2830	692
PSPTO_2831	43
PSPTO_2832	54
PSPTO_2833	23
PSPTO_2834	10
PSPTO_2835	6
PSPTO_2836	23
PSPTO_2837	3
PSPTO_2838	1
PSPTO_2839	0
PSPTO_2840	23
PSPTO_2841	9
PSPTO_2842	2
PSPTO_2843	9
PSPTO_2844	14
PSPTO_2845	3
PSPTO_2846	11
PSPTO_2847	6
PSPTO_2848	0
PSPTO_2849	4
PSPTO_2850	5
PSPTO_2851	12
PSPTO_2852	11
PSPTO_2853	31
PSPTO_2855	1
PSPTO_2856	40
PSPTO_2857	12
PSPTO_2858	0
PSPTO_2859	37
PSPTO_2860	19
PSPTO_2861	3
PSPTO_2862	6
PSPTO_2863	26
PSPTO_2864	12
PSPTO_2865	3
PSPTO_2866	1
PSPTO_2867	2
PSPTO_2868	55
PSPTO_2869	1
PSPTO_2870	11
PSPTO_2871	29
PSPTO_2872	33
PSPTO_2873	6
PSPTO_2874	29
PSPTO_2875	7
PSPTO_2876	4
PSPTO_2877	4
PSPTO_2878	5
PSPTO_2879	2
PSPTO_2880	7
PSPTO_2881	4
PSPTO_2882	26
PSPTO_2883	79
PSPTO_2885	5
PSPTO_2886	5
PSPTO_2887	26
PSPTO_2888	6
PSPTO_2889	0
PSPTO_2890	0
PSPTO_2891	11
PSPTO_2892	1
PSPTO_2893	16
PSPTO_2894	25
PSPTO_2895	101
PSPTO_2896	89
PSPTO_2897	13
PSPTO_2898	6
PSPTO_2899	5
PSPTO_2900	16
PSPTO_2901	6
PSPTO_2902	13
PSPTO_2903	2
PSPTO_2904	14
PSPTO_2905	10
PSPTO_2906	10
PSPTO_2907	132
PSPTO_2908	54
PSPTO_2909	17
PSPTO_2910	12
PSPTO_2911	3
PSPTO_2912	7
PSPTO_2913	5
PSPTO_2914	8
PSPTO_2915	1
PSPTO_2916	5
PSPTO_2917	5
PSPTO_2918	0
PSPTO_2919	5
PSPTO_2920	4
PSPTO_2921	13
PSPTO_2922	2
PSPTO_2923	11
PSPTO_2924	1
PSPTO_2925	3
PSPTO_2926	11
PSPTO_2927	4
PSPTO_2928	5
PSPTO_2929	13
PSPTO_2930	4
PSPTO_2931	32
PSPTO_2932	16
PSPTO_2933	6
PSPTO_2934	4
PSPTO_2935	14
PSPTO_2936	7
PSPTO_2937	3
PSPTO_2938	3
PSPTO_2939	5
PSPTO_2940	8
PSPTO_2941	21
PSPTO_2942	1
PSPTO_2943	19
PSPTO_2944	9
PSPTO_2945	3
PSPTO_2946	22
PSPTO_2947	14
PSPTO_2948	6
PSPTO_2949	14
PSPTO_2950	6
PSPTO_2951	24
PSPTO_2952	100
PSPTO_2953	1
PSPTO_2954	4
PSPTO_2955	8
PSPTO_2956	11
PSPTO_2957	1
PSPTO_2958	2
PSPTO_2959	12
PSPTO_2960	13
PSPTO_2961	3
PSPTO_2962	3
PSPTO_2963	7
PSPTO_2964	12
PSPTO_2965	1
PSPTO_2966	9
PSPTO_2967	1
PSPTO_2968	12
PSPTO_2969	10
PSPTO_2970	3
PSPTO_2971	16
PSPTO_2972	26
PSPTO_2973	16
PSPTO_2974	6
PSPTO_2975	9
PSPTO_2976	22
PSPTO_2977	12
PSPTO_2978	23
PSPTO_2979	10
PSPTO_2980	12
PSPTO_2981	20
PSPTO_2982	23
PSPTO_2983	0
PSPTO_2984	22
PSPTO_2985	14
PSPTO_2986	5
PSPTO_2987	16
PSPTO_2988	5
PSPTO_2989	15
PSPTO_2990	8
PSPTO_2991	12
PSPTO_2992	10
PSPTO_2993	17
PSPTO_2994	10
PSPTO_2995	23
PSPTO_2996	3
PSPTO_2997	49
PSPTO_2998	14
PSPTO_2999	7
PSPTO_3000	12
PSPTO_3001	12
PSPTO_3002	8
PSPTO_3003	5
PSPTO_3004	7
PSPTO_3005	11
PSPTO_3006	12
PSPTO_3007	17
PSPTO_3008	9
PSPTO_3009	1
PSPTO_3010	5
PSPTO_3011	4
PSPTO_3012	9
PSPTO_3013	14
PSPTO_3014	9
PSPTO_3015	4
PSPTO_3016	9
PSPTO_3017	28
PSPTO_3018	3
PSPTO_3019	9
PSPTO_3020	7
PSPTO_3021	6
PSPTO_3022	12
PSPTO_3023	24
PSPTO_3024	22
PSPTO_3025	12
PSPTO_3026	7
PSPTO_3027	6
PSPTO_3028	47
PSPTO_3029	14
PSPTO_3030	10
PSPTO_3031	15
PSPTO_3032	9
PSPTO_3033	39
PSPTO_3034	4
PSPTO_3035	208
PSPTO_3036	21
PSPTO_3037	7
PSPTO_3038	7
PSPTO_3039	31
PSPTO_3040	9
PSPTO_3041	18
PSPTO_3042	5
PSPTO_3043	17
PSPTO_3044	10
PSPTO_3045	3
PSPTO_3046	27
PSPTO_3047	8
PSPTO_3048	7
PSPTO_3049	5
PSPTO_3050	23
PSPTO_3051	2
PSPTO_3052	16
PSPTO_3053	1
PSPTO_3054	10
PSPTO_3055	4
PSPTO_3056	6
PSPTO_3057	6
PSPTO_3058	17
PSPTO_3059	16
PSPTO_3060	19
PSPTO_3061	3
PSPTO_3062	14
PSPTO_3063	6
PSPTO_3064	12
PSPTO_3065	12
PSPTO_3066	2
PSPTO_3067	2
PSPTO_3068	31
PSPTO_3069	4
PSPTO_3070	6
PSPTO_3071	24
PSPTO_3072	2
PSPTO_3073	5
PSPTO_3074	33
PSPTO_3075	12
PSPTO_3076	8
PSPTO_3077	8
PSPTO_3078	5
PSPTO_3079	11
PSPTO_3080	7
PSPTO_3081	3
PSPTO_3082	5
PSPTO_3083	4
PSPTO_3084	9
PSPTO_3085	3
PSPTO_3086	4
PSPTO_3087	30
PSPTO_3088	5
PSPTO_3089	5
PSPTO_3090	9
PSPTO_3091	8
PSPTO_3092	8
PSPTO_3094	0
PSPTO_3095	6
PSPTO_3096	13
PSPTO_3097	2
PSPTO_3098	17
PSPTO_3099	8
PSPTO_3100	21
PSPTO_3101	6
PSPTO_3102	17
PSPTO_3103	76
PSPTO_3104	0
PSPTO_3105	38
PSPTO_3106	48
PSPTO_3107	30
PSPTO_3108	88
PSPTO_3109	15
PSPTO_3110	5
PSPTO_3111	32
PSPTO_3112	51
PSPTO_3113	318
PSPTO_3114	68
PSPTO_3115	14
PSPTO_3116	10
PSPTO_3117	7
PSPTO_3118	9
PSPTO_3119	83
PSPTO_3120	49
PSPTO_3121	142
PSPTO_3122	119
PSPTO_3123	68
PSPTO_3124	16
PSPTO_3125	146
PSPTO_3126	74
PSPTO_3127	86
PSPTO_3128	112
PSPTO_3129	144
PSPTO_3130	138
PSPTO_3131	12
PSPTO_3132	18
PSPTO_3133	7
PSPTO_3134	6
PSPTO_3135	95
PSPTO_3136	7
PSPTO_3137	18
PSPTO_3138	8
PSPTO_3139	0
PSPTO_3140	2
PSPTO_3141	16
PSPTO_3142	9
PSPTO_3143	13
PSPTO_3144	10
PSPTO_3145	332
PSPTO_3146	39
PSPTO_3147	5
PSPTO_3148	13
PSPTO_3149	28
PSPTO_3150	19
PSPTO_3151	11
PSPTO_3152	23
PSPTO_3153	7
PSPTO_3154	3
PSPTO_3155	618
PSPTO_3156	3
PSPTO_3157	185
PSPTO_3158	42
PSPTO_3159	17
PSPTO_3160	5
PSPTO_3161	12
PSPTO_3162	14
PSPTO_3163	10
PSPTO_3164	21
PSPTO_3165	21
PSPTO_3166	8
PSPTO_3167	7
PSPTO_3168	0
PSPTO_3169	0
PSPTO_3170	14
PSPTO_3171	7
PSPTO_3172	34
PSPTO_3173	14
PSPTO_3174	82
PSPTO_3175	12
PSPTO_3176	134
PSPTO_3177	51
PSPTO_3178	70
PSPTO_3179	176
PSPTO_3180	56
PSPTO_3181	6
PSPTO_3182	10
PSPTO_3183	5
PSPTO_3184	7
PSPTO_3185	16
PSPTO_3186	20
PSPTO_3187	2
PSPTO_3188	13
PSPTO_3189	9
PSPTO_3190	30
PSPTO_3191	7
PSPTO_3192	12
PSPTO_3193	106
PSPTO_3194	25
PSPTO_3195	41
PSPTO_3196	16
PSPTO_3197	22
PSPTO_3198	3
PSPTO_3199	18
PSPTO_3200	15
PSPTO_3201	12
PSPTO_3202	11
PSPTO_3203	4
PSPTO_3204	10
PSPTO_3205	15
PSPTO_3206	14
PSPTO_3207	10
PSPTO_3208	59
PSPTO_3210	38
PSPTO_3211	34
PSPTO_3212	2
PSPTO_3213	39
PSPTO_3214	9
PSPTO_3215	3
PSPTO_3216	18
PSPTO_3217	4
PSPTO_3218	32
PSPTO_3219	2
PSPTO_3220	4
PSPTO_3221	2
PSPTO_3222	12
PSPTO_3223	24
PSPTO_3224	12
PSPTO_3225	8
PSPTO_3226	4
PSPTO_3227	1
PSPTO_3228	3
PSPTO_3229	190
PSPTO_3230	23
PSPTO_3231	5
PSPTO_3232	3
PSPTO_3233	20
PSPTO_3234	11
PSPTO_3235	12
PSPTO_3236	7
PSPTO_3237	539
PSPTO_3238	6
PSPTO_3239	2
PSPTO_3240	7
PSPTO_3241	14
PSPTO_3242	18
PSPTO_3243	3
PSPTO_3244	7
PSPTO_3245	1
PSPTO_3246	2
PSPTO_3247	12
PSPTO_3248	6
PSPTO_3249	7
PSPTO_3250	9
PSPTO_3251	5
PSPTO_3252	8
PSPTO_3253	2
PSPTO_3254	24
PSPTO_3255	3
PSPTO_3256	11
PSPTO_3257	8
PSPTO_3258	14
PSPTO_3259	22
PSPTO_3260	3
PSPTO_3261	19
PSPTO_3262	10
PSPTO_3263	4
PSPTO_3264	26
PSPTO_3265	21
PSPTO_3266	3
PSPTO_3267	7
PSPTO_3268	9
PSPTO_3269	21
PSPTO_3270	103
PSPTO_3271	42
PSPTO_3272	30
PSPTO_3273	15
PSPTO_3274	34
PSPTO_3275	7
PSPTO_3276	0
PSPTO_3277	18
PSPTO_3278	25
PSPTO_3279	8
PSPTO_3280	21
PSPTO_3281	12
PSPTO_3282	26
PSPTO_3283	10
PSPTO_3284	5
PSPTO_3285	11
PSPTO_3286	6
PSPTO_3287	14
PSPTO_3288	0
PSPTO_3289	2
PSPTO_3290	7
PSPTO_3291	23
PSPTO_3292	14
PSPTO_3293	37
PSPTO_3294	51
PSPTO_3295	8
PSPTO_3296	49
PSPTO_3297	33
PSPTO_3298	6
PSPTO_3299	26
PSPTO_3300	10
PSPTO_3301	8
PSPTO_3302	20
PSPTO_3303	0
PSPTO_3304	12
PSPTO_3305	1
PSPTO_3306	12
PSPTO_3307	50
PSPTO_3308	6
PSPTO_3309	4
PSPTO_3310	23
PSPTO_3311	24
PSPTO_3312	11
PSPTO_3313	10
PSPTO_3314	25
PSPTO_3315	24
PSPTO_3316	40
PSPTO_3317	52
PSPTO_3318	16
PSPTO_3319	29
PSPTO_3320	11
PSPTO_3321	10
PSPTO_3322	5
PSPTO_3323	39
PSPTO_3324	0
PSPTO_3325	48
PSPTO_3326	24
PSPTO_3327	8
PSPTO_3328	15
PSPTO_3329	17
PSPTO_3330	29
PSPTO_3331	10
PSPTO_3332	14
PSPTO_3333	171
PSPTO_3334	23
PSPTO_3335	4
PSPTO_3336	9
PSPTO_3337	15
PSPTO_3338	3
PSPTO_3339	7
PSPTO_3340	1
PSPTO_3341	5
PSPTO_3342	17
PSPTO_3343	29
PSPTO_3344	41
PSPTO_3345	45
PSPTO_3346	7
PSPTO_3347	18
PSPTO_3348	22
PSPTO_3349	63
PSPTO_3350	3
PSPTO_3351	25
PSPTO_3352	8
PSPTO_3353	480
PSPTO_3354	36
PSPTO_3355	40
PSPTO_3356	350
PSPTO_3357	3
PSPTO_3358	7
PSPTO_3359	3
PSPTO_3360	9
PSPTO_3361	5
PSPTO_3362	8
PSPTO_3363	35
PSPTO_3364	18
PSPTO_3365	16
PSPTO_3366	120
PSPTO_3367	85
PSPTO_3368	15
PSPTO_3369	84
PSPTO_3370	71
PSPTO_3371	18
PSPTO_3372	17
PSPTO_3373	7
PSPTO_3374	2
PSPTO_3375	26
PSPTO_3376	33
PSPTO_3377	20
PSPTO_3378	47
PSPTO_3379	125
PSPTO_3380	19
PSPTO_3381	11
PSPTO_3382	4
PSPTO_3383	1
PSPTO_3384	9
PSPTO_3385	6
PSPTO_3386	38
PSPTO_3387	119
PSPTO_3388	12
PSPTO_3389	1
PSPTO_3390	8
PSPTO_3391	2
PSPTO_3392	11
PSPTO_3393	44
PSPTO_3394	4
PSPTO_3395	4
PSPTO_3396	0
PSPTO_3397	7
PSPTO_3398	22
PSPTO_3399	2
PSPTO_3400	7
PSPTO_3401	3
PSPTO_3402	1
PSPTO_3403	7
PSPTO_3404	4
PSPTO_3405	6
PSPTO_3406	2
PSPTO_3407	6
PSPTO_3408	4
PSPTO_3409	10
PSPTO_3410	7
PSPTO_3411	1
PSPTO_3412	27
PSPTO_3413	4
PSPTO_3414	2
PSPTO_3415	2
PSPTO_3416	1
PSPTO_3417	8
PSPTO_3418	29
PSPTO_3419	3
PSPTO_3420	3
PSPTO_3421	22
PSPTO_3422	3
PSPTO_3423	1
PSPTO_3424	1
PSPTO_3425	1
PSPTO_3426	6
PSPTO_3427	15
PSPTO_3428	2
PSPTO_3429	3
PSPTO_3430	6
PSPTO_3432	6
PSPTO_3433	13
PSPTO_3435	6
PSPTO_3436	17
PSPTO_3437	51
PSPTO_3438	6
PSPTO_3439	4
PSPTO_3440	5
PSPTO_3441	2
PSPTO_3442	0
PSPTO_3443	11
PSPTO_3444	0
PSPTO_3445	7
PSPTO_3446	3
PSPTO_3447	2
PSPTO_3448	2
PSPTO_3449	5
PSPTO_3450	4
PSPTO_3451	10
PSPTO_3452	16
PSPTO_3453	5
PSPTO_3454	7
PSPTO_3455	23
PSPTO_3456	18
PSPTO_3457	9
PSPTO_3458	3
PSPTO_3459	11
PSPTO_3460	17
PSPTO_3461	24
PSPTO_3462	107
PSPTO_3463	38
PSPTO_3464	28
PSPTO_3465	9
PSPTO_3466	9
PSPTO_3467	4
PSPTO_3468	26
PSPTO_3469	7
PSPTO_3470	14
PSPTO_3471	37
PSPTO_3472	2
PSPTO_3473	19
PSPTO_3474	6
PSPTO_3475	7
PSPTO_3476	2
PSPTO_3477	9
PSPTO_3478	15
PSPTO_3479	18
PSPTO_3480	41
PSPTO_3481	5
PSPTO_3482	15
PSPTO_3483	6
PSPTO_3484	16
PSPTO_3485	54
PSPTO_3486	0
PSPTO_3487	13
PSPTO_3488	14
PSPTO_3489	12
PSPTO_3490	3
PSPTO_3491	15
PSPTO_3492	28
PSPTO_3493	11
PSPTO_3494	16
PSPTO_3495	12
PSPTO_3496	11
PSPTO_3497	23
PSPTO_3498	7
PSPTO_3499	4
PSPTO_3500	12
PSPTO_3501	23
PSPTO_3502	43
PSPTO_3503	63
PSPTO_3504	42
PSPTO_3505	27
PSPTO_3506	8
PSPTO_3507	16
PSPTO_3508	21
PSPTO_3509	1
PSPTO_3510	16
PSPTO_3511	15
PSPTO_3512	86
PSPTO_3513	19
PSPTO_3514	71
PSPTO_3515	16
PSPTO_3516	30
PSPTO_3517	82
PSPTO_3518	2
PSPTO_3519	5
PSPTO_3520	33
PSPTO_3521	36
PSPTO_3522	29
PSPTO_3523	107
PSPTO_3524	480
PSPTO_3525	63
PSPTO_3526	22
PSPTO_3527	218
PSPTO_3528	36
PSPTO_3529	70
PSPTO_3530	110
PSPTO_3531	23
PSPTO_3532	46
PSPTO_3533	16
PSPTO_3534	28
PSPTO_3535	16
PSPTO_3536	14
PSPTO_3537	20
PSPTO_3538	14
PSPTO_3539	30
PSPTO_3540	8
PSPTO_3541	22
PSPTO_3542	6
PSPTO_3543	3
PSPTO_3544	15
PSPTO_3545	32
PSPTO_3546	1
PSPTO_3547	25
PSPTO_3548	52
PSPTO_3549	5
PSPTO_3550	128
PSPTO_3551	167
PSPTO_3552	6
PSPTO_3553	97
PSPTO_3554	42
PSPTO_3555	12
PSPTO_3556	4
PSPTO_3557	7
PSPTO_3558	14
PSPTO_3559	112
PSPTO_3560	37
PSPTO_3561	8
PSPTO_3562	0
PSPTO_3563	8
PSPTO_3564	12
PSPTO_3565	24
PSPTO_3566	38
PSPTO_3567	16
PSPTO_3568	1
PSPTO_3569	68
PSPTO_3570	25
PSPTO_3571	4
PSPTO_3572	21
PSPTO_3573	5
PSPTO_3574	134
PSPTO_3575	21
PSPTO_3576	6
PSPTO_3577	270
PSPTO_3578	8
PSPTO_3579	39
PSPTO_3580	311
PSPTO_3581	14
PSPTO_3582	16
PSPTO_3583	2
PSPTO_3584	20
PSPTO_3585	2
PSPTO_3586	9
PSPTO_3587	2
PSPTO_3588	13
PSPTO_3589	35
PSPTO_3590	13
PSPTO_3591	6
PSPTO_3592	8
PSPTO_3593	18
PSPTO_3594	5
PSPTO_3595	8
PSPTO_3596	45
PSPTO_3597	39
PSPTO_3598	39
PSPTO_3599	46
PSPTO_3600	6
PSPTO_3601	19
PSPTO_3602	51
PSPTO_3603	3
PSPTO_3604	8
PSPTO_3605	205
PSPTO_3606	4
PSPTO_3607	11
PSPTO_3608	11
PSPTO_3609	11
PSPTO_3610	17
PSPTO_3611	1
PSPTO_3612	4
PSPTO_3613	30
PSPTO_3614	5
PSPTO_3615	23
PSPTO_3616	31
PSPTO_3617	3
PSPTO_3618	23
PSPTO_3619	5
PSPTO_3620	11
PSPTO_3621	27
PSPTO_3624	11
PSPTO_3625	24
PSPTO_3626	37
PSPTO_3627	10
PSPTO_3628	3
PSPTO_3629	5
PSPTO_3630	32
PSPTO_3631	5
PSPTO_3632	0
PSPTO_3633	17
PSPTO_3634	7
PSPTO_3635	3
PSPTO_3636	20
PSPTO_3637	6
PSPTO_3638	8
PSPTO_3639	7
PSPTO_3640	128
PSPTO_3641	26
PSPTO_3642	86
PSPTO_3643	8
PSPTO_3644	22
PSPTO_3645	69
PSPTO_3646	39
PSPTO_3647	6
PSPTO_3648	14
PSPTO_3649	17
PSPTO_3650	19
PSPTO_3651	34
PSPTO_3652	3
PSPTO_3653	1
PSPTO_3654	4
PSPTO_3655	25
PSPTO_3656	33
PSPTO_3657	49
PSPTO_3658	39
PSPTO_3659	6
PSPTO_3660	72
PSPTO_3661	81
PSPTO_3662	23
PSPTO_3663	36
PSPTO_3664	13
PSPTO_3665	13
PSPTO_3666	34
PSPTO_3667	21
PSPTO_3668	54
PSPTO_3669	12
PSPTO_3670	14
PSPTO_3671	17
PSPTO_3672	20
PSPTO_3673	2
PSPTO_3674	7
PSPTO_3675	4
PSPTO_3676	0
PSPTO_3677	8
PSPTO_3678	11
PSPTO_3679	4
PSPTO_3680	21
PSPTO_3681	4
PSPTO_3682	8
PSPTO_3683	2
PSPTO_3684	2
PSPTO_3685	13
PSPTO_3686	7
PSPTO_3687	62
PSPTO_3688	14
PSPTO_3689	34
PSPTO_3690	7
PSPTO_3691	26
PSPTO_3692	113
PSPTO_3693	6
PSPTO_3694	17
PSPTO_3695	16
PSPTO_3696	58
PSPTO_3697	2
PSPTO_3698	3
PSPTO_3699	187
PSPTO_3700	125
PSPTO_3701	3
PSPTO_3702	8
PSPTO_3703	36
PSPTO_3704	33
PSPTO_3705	28
PSPTO_3706	26
PSPTO_3707	64
PSPTO_3708	121
PSPTO_3709	61
PSPTO_3710	7
PSPTO_3711	16
PSPTO_3712	7
PSPTO_3713	15
PSPTO_3714	13
PSPTO_3715	6
PSPTO_3716	10
PSPTO_3717	24
PSPTO_3718	10
PSPTO_3719	17
PSPTO_3720	61
PSPTO_3721	92
PSPTO_3722	82
PSPTO_3723	87
PSPTO_3724	454
PSPTO_3725	279
PSPTO_3726	70
PSPTO_3727	56
PSPTO_3728	2
PSPTO_3729	8
PSPTO_3730	19
PSPTO_3731	30
PSPTO_3732	8
PSPTO_3733	10
PSPTO_3734	14
PSPTO_3735	57
PSPTO_3736	8
PSPTO_3737	9
PSPTO_3738	14
PSPTO_3739	19
PSPTO_3740	11
PSPTO_3741	52
PSPTO_3742	27
PSPTO_3743	26
PSPTO_3744	40
PSPTO_3745	12
PSPTO_3746	42
PSPTO_3747	22
PSPTO_3748	11
PSPTO_3749	6
PSPTO_3750	7
PSPTO_3751	4
PSPTO_3752	340
PSPTO_3753	36
PSPTO_3754	22
PSPTO_3755	6
PSPTO_3756	29
PSPTO_3757	89
PSPTO_3758	9
PSPTO_3759	4
PSPTO_3760	6
PSPTO_3761	1
PSPTO_3762	3
PSPTO_3763	8
PSPTO_3764	12
PSPTO_3765	2
PSPTO_3766	20
PSPTO_3767	9
PSPTO_3768	117
PSPTO_3769	2
PSPTO_3770	18
PSPTO_3771	6
PSPTO_3772	9
PSPTO_3773	5
PSPTO_3774	11
PSPTO_3775	1
PSPTO_3776	10
PSPTO_3777	18
PSPTO_3778	18
PSPTO_3779	13
PSPTO_3780	22
PSPTO_3781	10
PSPTO_3782	15
PSPTO_3783	19
PSPTO_3784	20
PSPTO_3785	6
PSPTO_3786	28
PSPTO_3787	14
PSPTO_3788	192
PSPTO_3789	14
PSPTO_3790	6
PSPTO_3791	9
PSPTO_3792	13
PSPTO_3793	17
PSPTO_3794	4
PSPTO_3795	13
PSPTO_3796	20
PSPTO_3797	8
PSPTO_3798	9
PSPTO_3799	17
PSPTO_3800	40
PSPTO_3801	16
PSPTO_3802	5
PSPTO_3803	24
PSPTO_3804	4
PSPTO_3805	6
PSPTO_3806	15
PSPTO_3807	15
PSPTO_3808	16
PSPTO_3809	29
PSPTO_3810	65
PSPTO_3811	81
PSPTO_3812	18
PSPTO_3813	54
PSPTO_3814	33
PSPTO_3815	73
PSPTO_3816	6
PSPTO_3817	9
PSPTO_3818	255
PSPTO_3819	48
PSPTO_3820	49
PSPTO_3821	97
PSPTO_3822	14
PSPTO_3823	11
PSPTO_3824	18
PSPTO_3825	15
PSPTO_3826	12
PSPTO_3827	13
PSPTO_3828	18
PSPTO_3829	7
PSPTO_3830	67
PSPTO_3831	104
PSPTO_3832	65
PSPTO_3833	47
PSPTO_3834	23
PSPTO_3835	6
PSPTO_3836	34
PSPTO_3837	4
PSPTO_3838	15
PSPTO_3839	10
PSPTO_3840	13
PSPTO_3841	47
PSPTO_3842	16
PSPTO_3843	16
PSPTO_3844	9
PSPTO_3845	10
PSPTO_3846	2
PSPTO_3847	13
PSPTO_3848	42
PSPTO_3849	6
PSPTO_3850	4
PSPTO_3851	35
PSPTO_3852	13
PSPTO_3853	10
PSPTO_3854	13
PSPTO_3855	13
PSPTO_3856	21
PSPTO_3857	196
PSPTO_3858	5
PSPTO_3859	6
PSPTO_3860	54
PSPTO_3861	2
PSPTO_3862	31
PSPTO_3863	5
PSPTO_3864	83
PSPTO_3865	8
PSPTO_3866	2
PSPTO_3867	4
PSPTO_3868	3
PSPTO_3869	1
PSPTO_3870	21
PSPTO_3871	15
PSPTO_3872	18
PSPTO_3873	78
PSPTO_3874	30
PSPTO_3875	8
PSPTO_3876	26
PSPTO_3877	27
PSPTO_3878	55
PSPTO_3879	10
PSPTO_3880	4
PSPTO_3881	6
PSPTO_3882	11
PSPTO_3883	22
PSPTO_3884	32
PSPTO_3885	195
PSPTO_3886	15
PSPTO_3887	17
PSPTO_3888	21
PSPTO_3889	31
PSPTO_3890	209
PSPTO_3891	20
PSPTO_3892	11
PSPTO_3893	11
PSPTO_3894	21
PSPTO_3895	0
PSPTO_3896	0
PSPTO_3897	14
PSPTO_3898	8
PSPTO_3899	21
PSPTO_3900	35
PSPTO_3901	32
PSPTO_3902	21
PSPTO_3903	31
PSPTO_3904	3
PSPTO_3905	12
PSPTO_3906	19
PSPTO_3907	5
PSPTO_3908	19
PSPTO_3909	12
PSPTO_3910	13
PSPTO_3911	16
PSPTO_3912	37
PSPTO_3913	23
PSPTO_3914	43
PSPTO_3915	18
PSPTO_3916	1
PSPTO_3917	40
PSPTO_3918	4
PSPTO_3919	18
PSPTO_3920	7
PSPTO_3921	3
PSPTO_3922	12
PSPTO_3923	22
PSPTO_3924	34
PSPTO_3925	56
PSPTO_3926	14
PSPTO_3927	38
PSPTO_3929	2
PSPTO_3930	30
PSPTO_3931	3
PSPTO_3932	3
PSPTO_3933	3
PSPTO_3934	2
PSPTO_3935	5
PSPTO_3936	7
PSPTO_3937	8
PSPTO_3938	11
PSPTO_3939	7
PSPTO_3940	0
PSPTO_3941	4
PSPTO_3942	2
PSPTO_3943	0
PSPTO_3944	3
PSPTO_3945	1
PSPTO_3946	6
PSPTO_3947	1
PSPTO_3948	3
PSPTO_3949	37
PSPTO_3950	24
PSPTO_3951	13
PSPTO_3952	36
PSPTO_3953	32
PSPTO_3954	6
PSPTO_3955	11
PSPTO_3956	21
PSPTO_3957	7
PSPTO_3958	33
PSPTO_3959	42
PSPTO_3960	8
PSPTO_3961	11
PSPTO_3962	0
PSPTO_3963	25
PSPTO_3965	19
PSPTO_3966	4
PSPTO_3968	8
PSPTO_3969	11
PSPTO_3970	120
PSPTO_3971	343
PSPTO_3972	204
PSPTO_3973	117
PSPTO_3974	18
PSPTO_3975	31
PSPTO_3976	17
PSPTO_3977	36
PSPTO_3978	6
PSPTO_3979	15
PSPTO_3980	14
PSPTO_3981	49
PSPTO_3982	11
PSPTO_3983	35
PSPTO_3984	2
PSPTO_3985	5
PSPTO_3986	11
PSPTO_3987	303
PSPTO_3988	51
PSPTO_3989	6
PSPTO_3990	13
PSPTO_3991	51
PSPTO_3992	24
PSPTO_3993	43
PSPTO_3994	11
PSPTO_3995	45
PSPTO_3996	29
PSPTO_3997	4
PSPTO_3998	2
PSPTO_3999	23
PSPTO_4001	10
PSPTO_4002	15
PSPTO_4003	3
PSPTO_4004	3
PSPTO_4005	3
PSPTO_4006	17
PSPTO_4007	1
PSPTO_4008	5
PSPTO_4009	2
PSPTO_4010	31
PSPTO_4011	4
PSPTO_4012	6
PSPTO_4013	4
PSPTO_4014	7
PSPTO_4015	1
PSPTO_4016	3
PSPTO_4017	10
PSPTO_4018	24
PSPTO_4019	13
PSPTO_4020	10
PSPTO_4021	15
PSPTO_4022	3
PSPTO_4023	5
PSPTO_4024	22
PSPTO_4025	3
PSPTO_4026	0
PSPTO_4027	6
PSPTO_4028	0
PSPTO_4029	14
PSPTO_4030	31
PSPTO_4031	30
PSPTO_4032	9
PSPTO_4033	88
PSPTO_4034	32
PSPTO_4035	6
PSPTO_4036	4
PSPTO_4037	1
PSPTO_4038	8
PSPTO_4039	11
PSPTO_4040	13
PSPTO_4041	34
PSPTO_4042	3
PSPTO_4043	1
PSPTO_4044	5
PSPTO_4045	8
PSPTO_4046	38
PSPTO_4047	7
PSPTO_4048	2
PSPTO_4049	3
PSPTO_4050	3
PSPTO_4051	3
PSPTO_4052	5
PSPTO_4053	0
PSPTO_4054	9
PSPTO_4055	1
PSPTO_4056	3
PSPTO_4057	16
PSPTO_4058	40
PSPTO_4059	14
PSPTO_4060	17
PSPTO_4061	4
PSPTO_4062	14
PSPTO_4063	13
PSPTO_4064	7
PSPTO_4065	3
PSPTO_4066	2
PSPTO_4067	12
PSPTO_4068	18
PSPTO_4069	3
PSPTO_4070	5
PSPTO_4071	9
PSPTO_4072	2
PSPTO_4073	10
PSPTO_4074	9
PSPTO_4075	8
PSPTO_4076	22
PSPTO_4077	8
PSPTO_4078	8
PSPTO_4079	53
PSPTO_4080	7
PSPTO_4081	43
PSPTO_4082	10
PSPTO_4083	4
PSPTO_4084	36
PSPTO_4087	8
PSPTO_4088	20
PSPTO_4089	8
PSPTO_4090	23
PSPTO_4091	37
PSPTO_4092	25
PSPTO_4093	42
PSPTO_4094	21
PSPTO_4095	44
PSPTO_4096	5
PSPTO_4097	12
PSPTO_4098	36
PSPTO_4099	0
PSPTO_4100	9
PSPTO_4101	9
PSPTO_4102	1
PSPTO_4103	55
PSPTO_4104	37
PSPTO_4105	20
PSPTO_4106	38
PSPTO_4107	7
PSPTO_4108	96
PSPTO_4109	7
PSPTO_4110	18
PSPTO_4111	4
PSPTO_4112	16
PSPTO_4113	6
PSPTO_4114	14
PSPTO_4115	165
PSPTO_4116	5
PSPTO_4117	25
PSPTO_4118	3
PSPTO_4119	12
PSPTO_4120	15
PSPTO_4121	11
PSPTO_4122	6
PSPTO_4123	18
PSPTO_4124	15
PSPTO_4125	6
PSPTO_4126	6
PSPTO_4127	10
PSPTO_4128	13
PSPTO_4129	31
PSPTO_4130	5
PSPTO_4131	5
PSPTO_4132	13
PSPTO_4133	25
PSPTO_4134	38
PSPTO_4135	49
PSPTO_4136	33
PSPTO_4137	4
PSPTO_4138	0
PSPTO_4139	8
PSPTO_4140	8
PSPTO_4141	39
PSPTO_4142	13
PSPTO_4143	206
PSPTO_4144	19
PSPTO_4145	139
PSPTO_4146	31
PSPTO_4147	34
PSPTO_4148	8
PSPTO_4149	5
PSPTO_4150	5
PSPTO_4151	14
PSPTO_4152	26
PSPTO_4153	0
PSPTO_4154	0
PSPTO_4155	69
PSPTO_4156	287
PSPTO_4157	29
PSPTO_4158	11
PSPTO_4159	35
PSPTO_4160	6
PSPTO_4161	34
PSPTO_4162	26
PSPTO_4163	22
PSPTO_4164	15
PSPTO_4165	18
PSPTO_4166	12
PSPTO_4167	64
PSPTO_4168	260
PSPTO_4169	42
PSPTO_4170	1396
PSPTO_4171	9
PSPTO_4172	1
PSPTO_4173	1
PSPTO_4174	7
PSPTO_4175	7
PSPTO_4176	13
PSPTO_4177	10
PSPTO_4178	17
PSPTO_4179	246
PSPTO_4180	10
PSPTO_4181	5
PSPTO_4182	10
PSPTO_4183	39
PSPTO_4184	5
PSPTO_4185	7
PSPTO_4186	9
PSPTO_4187	15
PSPTO_4188	5
PSPTO_4189	7
PSPTO_4190	10
PSPTO_4191	49
PSPTO_4192	12
PSPTO_4193	12
PSPTO_4194	4
PSPTO_4195	8
PSPTO_4196	258
PSPTO_4197	7
PSPTO_4198	8
PSPTO_4199	5
PSPTO_4200	1
PSPTO_4201	13
PSPTO_4202	12
PSPTO_4203	16
PSPTO_4204	10
PSPTO_4205	11
PSPTO_4206	13
PSPTO_4207	26
PSPTO_4208	95
PSPTO_4209	88
PSPTO_4210	175
PSPTO_4211	7
PSPTO_4212	5
PSPTO_4213	8
PSPTO_4214	11
PSPTO_4215	7
PSPTO_4216	36
PSPTO_4217	21
PSPTO_4218	7
PSPTO_4219	28
PSPTO_4220	50
PSPTO_4221	244
PSPTO_4222	588
PSPTO_4223	1840
PSPTO_4224	431
PSPTO_4225	31
PSPTO_4226	6
PSPTO_4227	1
PSPTO_4228	28
PSPTO_4229	35
PSPTO_4230	27
PSPTO_4231	4
PSPTO_4232	9
PSPTO_4233	3
PSPTO_4234	14
PSPTO_4235	4
PSPTO_4236	66
PSPTO_4237	379
PSPTO_4238	18
PSPTO_4239	13
PSPTO_4240	6
PSPTO_4241	3
PSPTO_4242	3
PSPTO_4243	19
PSPTO_4244	14
PSPTO_4245	14
PSPTO_4246	0
PSPTO_4247	3
PSPTO_4248	3
PSPTO_4249	16
PSPTO_4250	31
PSPTO_4251	35
PSPTO_4252	5
PSPTO_4253	30
PSPTO_4254	56
PSPTO_4255	5
PSPTO_4256	11
PSPTO_4257	5
PSPTO_4258	8
PSPTO_4259	42
PSPTO_4260	11
PSPTO_4261	14
PSPTO_4262	8
PSPTO_4263	15
PSPTO_4264	12
PSPTO_4265	43
PSPTO_4266	15
PSPTO_4267	33
PSPTO_4268	7
PSPTO_4269	14
PSPTO_4270	12
PSPTO_4271	24
PSPTO_4272	66
PSPTO_4273	5
PSPTO_4274	24
PSPTO_4275	15
PSPTO_4276	36
PSPTO_4277	17
PSPTO_4278	16
PSPTO_4279	2
PSPTO_4280	11
PSPTO_4281	9
PSPTO_4282	7
PSPTO_4283	9
PSPTO_4284	17
PSPTO_4285	21
PSPTO_4286	31
PSPTO_4287	30
PSPTO_4288	34
PSPTO_4289	35
PSPTO_4290	50
PSPTO_4291	19
PSPTO_4292	16
PSPTO_4293	227
PSPTO_4294	101
PSPTO_4295	58
PSPTO_4296	19
PSPTO_4297	48
PSPTO_4298	29
PSPTO_4299	7
PSPTO_4300	84
PSPTO_4301	25
PSPTO_4302	15
PSPTO_4303	59
PSPTO_4304	158
PSPTO_4305	115
PSPTO_4306	29
PSPTO_4307	31
PSPTO_4308	15
PSPTO_4309	19
PSPTO_4310	39
PSPTO_4312	29
PSPTO_4313	14
PSPTO_4314	29
PSPTO_4315	172
PSPTO_4316	35
PSPTO_4317	27
PSPTO_4318	14
PSPTO_4319	16
PSPTO_4320	14
PSPTO_4321	73
PSPTO_4322	176
PSPTO_4323	52
PSPTO_4324	220
PSPTO_4325	352
PSPTO_4326	26
PSPTO_4327	14
PSPTO_4328	10
PSPTO_4329	23
PSPTO_4330	3
PSPTO_4331	13
PSPTO_4332	34
PSPTO_4333	24
PSPTO_4334	26
PSPTO_4335	135
PSPTO_4336	152
PSPTO_4337	204
PSPTO_4338	50
PSPTO_4339	68
PSPTO_4340	126
PSPTO_4341	34
PSPTO_4342	53
PSPTO_4343	50
PSPTO_4344	40
PSPTO_4345	5
PSPTO_4346	18
PSPTO_4347	19
PSPTO_4348	22
PSPTO_4349	45
PSPTO_4350	30
PSPTO_4351	6
PSPTO_4352	16
PSPTO_4353	9
PSPTO_4354	9
PSPTO_4355	7
PSPTO_4356	5
PSPTO_4357	17
PSPTO_4358	22
PSPTO_4359	103
PSPTO_4360	50
PSPTO_4361	30
PSPTO_4362	5
PSPTO_4363	72
PSPTO_4364	1
PSPTO_4365	68
PSPTO_4366	207
PSPTO_4367	35
PSPTO_4368	44
PSPTO_4369	52
PSPTO_4370	26
PSPTO_4371	56
PSPTO_4372	14
PSPTO_4373	38
PSPTO_4374	31
PSPTO_4375	18
PSPTO_4376	975
PSPTO_4377	129
PSPTO_4378	3
PSPTO_4379	39
PSPTO_4380	16
PSPTO_4381	104
PSPTO_4382	17
PSPTO_4383	21
PSPTO_4384	7
PSPTO_4385	25
PSPTO_4386	82
PSPTO_4387	57
PSPTO_4388	5
PSPTO_4389	22
PSPTO_4390	2
PSPTO_4392	31
PSPTO_4393	19
PSPTO_4394	9
PSPTO_4395	16
PSPTO_4396	22
PSPTO_4397	18
PSPTO_4398	13
PSPTO_4399	28
PSPTO_4400	132
PSPTO_4401	10
PSPTO_4402	110
PSPTO_4403	217
PSPTO_4404	55
PSPTO_4405	23
PSPTO_4406	21
PSPTO_4407	40
PSPTO_4408	17
PSPTO_4409	20
PSPTO_4410	24
PSPTO_4411	19
PSPTO_4412	31
PSPTO_4413	27
PSPTO_4414	34
PSPTO_4415	2
PSPTO_4416	19
PSPTO_4417	24
PSPTO_4418	22
PSPTO_4419	55
PSPTO_4420	6
PSPTO_4421	6
PSPTO_4422	131
PSPTO_4423	17
PSPTO_4424	13
PSPTO_4425	60
PSPTO_4426	68
PSPTO_4427	10
PSPTO_4428	12
PSPTO_4429	16
PSPTO_4430	8
PSPTO_4431	40
PSPTO_4432	31
PSPTO_4433	9
PSPTO_4434	16
PSPTO_4435	15
PSPTO_4436	4
PSPTO_4437	29
PSPTO_4438	39
PSPTO_4439	21
PSPTO_4440	1
PSPTO_4441	46
PSPTO_4442	9
PSPTO_4443	36
PSPTO_4444	82
PSPTO_4445	25
PSPTO_4446	12
PSPTO_4447	35
PSPTO_4448	16
PSPTO_4449	7
PSPTO_4450	4
PSPTO_4451	31
PSPTO_4452	44
PSPTO_4453	43
PSPTO_4454	151
PSPTO_4455	47
PSPTO_4456	10
PSPTO_4457	4
PSPTO_4458	10
PSPTO_4459	95
PSPTO_4460	57
PSPTO_4461	121
PSPTO_4462	17
PSPTO_4463	55
PSPTO_4464	7
PSPTO_4465	64
PSPTO_4466	25
PSPTO_4467	41
PSPTO_4468	23
PSPTO_4469	4
PSPTO_4470	4
PSPTO_4471	12
PSPTO_4472	47
PSPTO_4473	18
PSPTO_4474	28
PSPTO_4475	37
PSPTO_4476	3
PSPTO_4477	9
PSPTO_4478	5
PSPTO_4479	10
PSPTO_4480	20
PSPTO_4481	7
PSPTO_4482	24
PSPTO_4483	10
PSPTO_4484	41
PSPTO_4485	8
PSPTO_4486	58
PSPTO_4487	126
PSPTO_4488	19
PSPTO_4489	7
PSPTO_4490	117
PSPTO_4491	44
PSPTO_4492	12
PSPTO_4493	14
PSPTO_4494	30
PSPTO_4495	33
PSPTO_4496	20
PSPTO_4497	371
PSPTO_4498	25
PSPTO_4499	13
PSPTO_4500	19
PSPTO_4501	151
PSPTO_4502	72
PSPTO_4503	33
PSPTO_4504	51
PSPTO_4505	902
PSPTO_4506	88
PSPTO_4507	62
PSPTO_4508	48
PSPTO_4509	41
PSPTO_4510	4
PSPTO_4511	11
PSPTO_4512	11
PSPTO_4513	10
PSPTO_4514	21
PSPTO_4515	6
PSPTO_4516	62
PSPTO_4517	5
PSPTO_4518	40
PSPTO_4519	69
PSPTO_4520	19
PSPTO_4521	2
PSPTO_4522	11
PSPTO_4523	10
PSPTO_4524	15
PSPTO_4525	0
PSPTO_4526	8
PSPTO_4527	4
PSPTO_4528	26
PSPTO_4529	45
PSPTO_4530	150
PSPTO_4531	218
PSPTO_4532	15
PSPTO_4533	10
PSPTO_4534	19
PSPTO_4535	4
PSPTO_4536	9
PSPTO_4537	11
PSPTO_4538	13
PSPTO_4539	18
PSPTO_4540	9
PSPTO_4541	121
PSPTO_4542	40
PSPTO_4543	227
PSPTO_4544	33
PSPTO_4545	22
PSPTO_4546	43
PSPTO_4547	35
PSPTO_4548	12
PSPTO_4549	5
PSPTO_4550	24
PSPTO_4551	20
PSPTO_4552	0
PSPTO_4553	15
PSPTO_4554	10
PSPTO_4555	16
PSPTO_4556	5
PSPTO_4557	25
PSPTO_4558	58
PSPTO_4559	14
PSPTO_4560	11
PSPTO_4561	22
PSPTO_4562	10
PSPTO_4563	6
PSPTO_4564	13
PSPTO_4565	4
PSPTO_4566	1
PSPTO_4567	26
PSPTO_4568	7
PSPTO_4569	23
PSPTO_4570	10
PSPTO_4571	20
PSPTO_4572	64
PSPTO_4573	10
PSPTO_4574	28
PSPTO_4575	24
PSPTO_4576	8
PSPTO_4577	15
PSPTO_4578	11
PSPTO_4579	14
PSPTO_4580	59
PSPTO_4581	9
PSPTO_4582	21
PSPTO_4583	8
PSPTO_4584	11
PSPTO_4585	52
PSPTO_4586	650
PSPTO_4587	39
PSPTO_4588	3
PSPTO_4589	10
PSPTO_4590	12
PSPTO_4591	2
PSPTO_4592	6
PSPTO_4593	29
PSPTO_4594	8
PSPTO_4595	12
PSPTO_4596	18
PSPTO_4597	2
PSPTO_4599	10
PSPTO_4600	12
PSPTO_4601	7
PSPTO_4602	59
PSPTO_4603	15
PSPTO_4604	39
PSPTO_4605	42
PSPTO_4606	8
PSPTO_4607	62
PSPTO_4608	10
PSPTO_4609	5
PSPTO_4610	43
PSPTO_4611	39
PSPTO_4612	21
PSPTO_4613	64
PSPTO_4614	12
PSPTO_4615	6
PSPTO_4616	38
PSPTO_4617	3
PSPTO_4618	5
PSPTO_4619	18
PSPTO_4620	8
PSPTO_4621	8
PSPTO_4622	20
PSPTO_4623	3
PSPTO_4624	167
PSPTO_4625	9
PSPTO_4626	8
PSPTO_4627	54
PSPTO_4628	7
PSPTO_4629	12
PSPTO_4630	4
PSPTO_4631	56
PSPTO_4632	222
PSPTO_4633	14
PSPTO_4634	13
PSPTO_4635	4
PSPTO_4636	8
PSPTO_4637	10
PSPTO_4638	53
PSPTO_4639	30
PSPTO_4640	29
PSPTO_4641	75
PSPTO_4642	24
PSPTO_4643	30
PSPTO_4644	1
PSPTO_4645	15
PSPTO_4646	5
PSPTO_4647	17
PSPTO_4648	32
PSPTO_4649	2
PSPTO_4650	23
PSPTO_4651	8
PSPTO_4652	4
PSPTO_4653	17
PSPTO_4654	8
PSPTO_4656	17
PSPTO_4657	38
PSPTO_4658	49
PSPTO_4659	9
PSPTO_4660	10
PSPTO_4661	14
PSPTO_4662	5
PSPTO_4663	13
PSPTO_4664	13
PSPTO_4665	13
PSPTO_4666	10
PSPTO_4667	40
PSPTO_4668	3
PSPTO_4669	7
PSPTO_4670	7
PSPTO_4671	9
PSPTO_4672	1
PSPTO_4673	66
PSPTO_4674	5
PSPTO_4675	13
PSPTO_4676	11
PSPTO_4677	11
PSPTO_4678	2
PSPTO_4679	19
PSPTO_4680	24
PSPTO_4681	1
PSPTO_4682	5
PSPTO_4683	16
PSPTO_4684	2
PSPTO_4685	18
PSPTO_4686	84
PSPTO_4687	88
PSPTO_4688	5
PSPTO_4689	10
PSPTO_4690	4
PSPTO_4691	41
PSPTO_4692	1
PSPTO_4693	34
PSPTO_4694	3
PSPTO_4695	4
PSPTO_4696	22
PSPTO_4697	4
PSPTO_4699	256
PSPTO_4702	19
PSPTO_4703	2
PSPTO_4704	5
PSPTO_4705	13
PSPTO_4706	2
PSPTO_4707	5
PSPTO_4708	9
PSPTO_4709	14
PSPTO_4710	15
PSPTO_4711	5
PSPTO_4712	11
PSPTO_4713	7
PSPTO_4714	7
PSPTO_4716	7
PSPTO_4717	8
PSPTO_4718	45
PSPTO_4719	3
PSPTO_4720	23
PSPTO_4721	3
PSPTO_4722	12
PSPTO_4723	13
PSPTO_4724	1
PSPTO_4725	21
PSPTO_4726	16
PSPTO_4727	29
PSPTO_4729	10
PSPTO_4730	7
PSPTO_4732	10
PSPTO_4733	11
PSPTO_4734	6
PSPTO_4735	266
PSPTO_4737	22
PSPTO_4738	3
PSPTO_4741	4
PSPTO_4742	33
PSPTO_4743	32
PSPTO_4744	18
PSPTO_4745	28
PSPTO_4746	17
PSPTO_4747	7
PSPTO_4748	20
PSPTO_4749	15
PSPTO_4750	5
PSPTO_4751	131
PSPTO_4752	171
PSPTO_4753	15
PSPTO_4754	17
PSPTO_4755	19
PSPTO_4756	13
PSPTO_4757	1
PSPTO_4758	0
PSPTO_4759	5
PSPTO_4760	11
PSPTO_4761	49
PSPTO_4762	31
PSPTO_4763	20
PSPTO_4764	29
PSPTO_4765	5
PSPTO_4766	20
PSPTO_4767	10
PSPTO_4768	4
PSPTO_4769	10
PSPTO_4770	22
PSPTO_4771	17
PSPTO_4772	58
PSPTO_4773	7
PSPTO_4774	15
PSPTO_4775	17
PSPTO_4776	29
PSPTO_4777	4
PSPTO_4778	3
PSPTO_4779	15
PSPTO_4780	46
PSPTO_4781	44
PSPTO_4782	28
PSPTO_4784	21
PSPTO_4785	0
PSPTO_4786	10
PSPTO_4787	14
PSPTO_4788	30
PSPTO_4789	24
PSPTO_4790	33
PSPTO_4791	95
PSPTO_4792	10
PSPTO_4793	11
PSPTO_4794	5
PSPTO_4795	30
PSPTO_4796	72
PSPTO_4797	4
PSPTO_4798	7
PSPTO_4799	7
PSPTO_4800	21
PSPTO_4801	1
PSPTO_4802	20
PSPTO_4803	12
PSPTO_4804	24
PSPTO_4805	116
PSPTO_4806	33
PSPTO_4807	54
PSPTO_4808	23
PSPTO_4809	13
PSPTO_4810	13
PSPTO_4811	1
PSPTO_4812	46
PSPTO_4813	7
PSPTO_4814	12
PSPTO_4815	1
PSPTO_4816	8
PSPTO_4817	55
PSPTO_4818	97
PSPTO_4819	16
PSPTO_4820	4
PSPTO_4821	44
PSPTO_4822	18
PSPTO_4823	11
PSPTO_4824	15
PSPTO_4825	9
PSPTO_4826	15
PSPTO_4827	4
PSPTO_4828	11
PSPTO_4829	22
PSPTO_4830	3
PSPTO_4831	16
PSPTO_4832	30
PSPTO_4833	65
PSPTO_4834	15
PSPTO_4835	7
PSPTO_4836	19
PSPTO_4837	67
PSPTO_4838	2
PSPTO_4839	155
PSPTO_4840	67
PSPTO_4841	20
PSPTO_4842	85
PSPTO_4843	45
PSPTO_4844	16
PSPTO_4845	28
PSPTO_4846	7
PSPTO_4847	25
PSPTO_4848	81
PSPTO_4849	34
PSPTO_4850	29
PSPTO_4851	13
PSPTO_4852	17
PSPTO_4853	25
PSPTO_4854	12
PSPTO_4855	16
PSPTO_4856	14
PSPTO_4857	2
PSPTO_4858	18
PSPTO_4859	12
PSPTO_4860	50
PSPTO_4861	125
PSPTO_4862	6
PSPTO_4863	15
PSPTO_4864	10
PSPTO_4865	0
PSPTO_4866	15
PSPTO_4867	19
PSPTO_4868	18
PSPTO_4869	1
PSPTO_4870	7
PSPTO_4871	3
PSPTO_4872	6
PSPTO_4873	8
PSPTO_4874	13
PSPTO_4875	10
PSPTO_4876	5
PSPTO_4877	14
PSPTO_4878	17
PSPTO_4879	18
PSPTO_4880	5
PSPTO_4881	9
PSPTO_4882	7
PSPTO_4883	30
PSPTO_4884	18
PSPTO_4885	34
PSPTO_4886	10
PSPTO_4887	7
PSPTO_4888	2
PSPTO_4889	9
PSPTO_4890	7
PSPTO_4891	8
PSPTO_4892	12
PSPTO_4893	10
PSPTO_4894	7
PSPTO_4895	23
PSPTO_4896	47
PSPTO_4897	65
PSPTO_4898	15
PSPTO_4899	19
PSPTO_4900	42
PSPTO_4901	4
PSPTO_4902	16
PSPTO_4903	77
PSPTO_4905	12
PSPTO_4906	13
PSPTO_4907	45
PSPTO_4908	9
PSPTO_4909	6
PSPTO_4910	8
PSPTO_4911	13
PSPTO_4912	22
PSPTO_4913	20
PSPTO_4914	13
PSPTO_4915	6
PSPTO_4916	5
PSPTO_4917	16
PSPTO_4918	6
PSPTO_4919	122
PSPTO_4920	13
PSPTO_4921	16
PSPTO_4922	33
PSPTO_4923	56
PSPTO_4924	24
PSPTO_4925	100
PSPTO_4926	59
PSPTO_4927	22
PSPTO_4928	44
PSPTO_4929	23
PSPTO_4930	54
PSPTO_4931	75
PSPTO_4932	52
PSPTO_4933	55
PSPTO_4934	34
PSPTO_4935	154
PSPTO_4936	83
PSPTO_4937	59
PSPTO_4938	24
PSPTO_4939	79
PSPTO_4940	75
PSPTO_4941	159
PSPTO_4942	63
PSPTO_4943	64
PSPTO_4944	23
PSPTO_4945	27
PSPTO_4946	10
PSPTO_4947	21
PSPTO_4948	16
PSPTO_4949	11
PSPTO_4950	20
PSPTO_4951	18
PSPTO_4952	143
PSPTO_4953	180
PSPTO_4954	65
PSPTO_4955	62
PSPTO_4956	54
PSPTO_4957	16
PSPTO_4958	17
PSPTO_4959	58
PSPTO_4960	43
PSPTO_4961	9
PSPTO_4962	18
PSPTO_4963	48
PSPTO_4964	20
PSPTO_4965	33
PSPTO_4966	15
PSPTO_4967	7
PSPTO_4968	3
PSPTO_4969	22
PSPTO_4970	58
PSPTO_4971	25
PSPTO_4972	17
PSPTO_4973	31
PSPTO_4974	57
PSPTO_4975	40
PSPTO_4976	202
PSPTO_4977	16
PSPTO_4978	30
PSPTO_4979	7
PSPTO_4980	36
PSPTO_4981	21
PSPTO_4982	14
PSPTO_4983	29
PSPTO_4984	20
PSPTO_4985	12
PSPTO_4986	17
PSPTO_4987	13
PSPTO_4988	12
PSPTO_4989	6
PSPTO_4990	10
PSPTO_4991	19
PSPTO_4992	16
PSPTO_4993	8
PSPTO_4994	29
PSPTO_4995	1
PSPTO_4996	24
PSPTO_4997	28
PSPTO_4998	14
PSPTO_4999	4
PSPTO_5000	13
PSPTO_5001	13
PSPTO_5002	14
PSPTO_5003	19
PSPTO_5004	33
PSPTO_5005	155
PSPTO_5006	82
PSPTO_5007	13
PSPTO_5008	8
PSPTO_5009	20
PSPTO_5010	40
PSPTO_5011	9
PSPTO_5012	6
PSPTO_5013	5
PSPTO_5014	48
PSPTO_5015	17
PSPTO_5016	21
PSPTO_5017	104
PSPTO_5018	13
PSPTO_5019	9
PSPTO_5020	23
PSPTO_5021	20
PSPTO_5022	38
PSPTO_5023	18
PSPTO_5024	133
PSPTO_5025	10
PSPTO_5026	2
PSPTO_5027	14
PSPTO_5028	30
PSPTO_5029	10
PSPTO_5030	98
PSPTO_5031	25
PSPTO_5032	10
PSPTO_5033	11
PSPTO_5034	10
PSPTO_5035	13
PSPTO_5036	16
PSPTO_5037	31
PSPTO_5038	13
PSPTO_5039	25
PSPTO_5040	33
PSPTO_5041	55
PSPTO_5043	19
PSPTO_5044	3
PSPTO_5045	23
PSPTO_5046	15
PSPTO_5047	21
PSPTO_5048	15
PSPTO_5049	12
PSPTO_5050	8
PSPTO_5051	12
PSPTO_5052	8
PSPTO_5053	3
PSPTO_5054	14
PSPTO_5055	42
PSPTO_5056	11
PSPTO_5057	50
PSPTO_5058	55
PSPTO_5059	9
PSPTO_5060	8
PSPTO_5061	3
PSPTO_5062	6
PSPTO_5063	15
PSPTO_5064	4
PSPTO_5065	5
PSPTO_5066	10
PSPTO_5067	12
PSPTO_5068	120
PSPTO_5069	15
PSPTO_5070	40
PSPTO_5071	104
PSPTO_5072	41
PSPTO_5073	8
PSPTO_5074	29
PSPTO_5075	5
PSPTO_5076	10
PSPTO_5077	13
PSPTO_5078	5
PSPTO_5079	9
PSPTO_5080	10
PSPTO_5081	11
PSPTO_5082	8
PSPTO_5083	25
PSPTO_5084	32
PSPTO_5085	4
PSPTO_5086	26
PSPTO_5087	111
PSPTO_5088	1
PSPTO_5089	3
PSPTO_5090	19
PSPTO_5091	41
PSPTO_5092	13
PSPTO_5093	9
PSPTO_5094	11
PSPTO_5095	12
PSPTO_5096	27
PSPTO_5097	8
PSPTO_5098	4
PSPTO_5099	21
PSPTO_5100	8
PSPTO_5101	8
PSPTO_5102	18
PSPTO_5103	2
PSPTO_5104	6
PSPTO_5105	4
PSPTO_5106	1
PSPTO_5107	11
PSPTO_5108	5
PSPTO_5109	8
PSPTO_5110	13
PSPTO_5111	21
PSPTO_5112	49
PSPTO_5113	44
PSPTO_5114	9
PSPTO_5115	19
PSPTO_5116	3
PSPTO_5117	14
PSPTO_5118	22
PSPTO_5119	67
PSPTO_5120	18
PSPTO_5121	30
PSPTO_5122	1
PSPTO_5123	111
PSPTO_5124	1
PSPTO_5125	117
PSPTO_5126	33
PSPTO_5127	33
PSPTO_5128	145
PSPTO_5129	45
PSPTO_5130	31
PSPTO_5131	49
PSPTO_5132	92
PSPTO_5133	26
PSPTO_5134	40
PSPTO_5135	10
PSPTO_5136	18
PSPTO_5137	17
PSPTO_5138	16
PSPTO_5139	13
PSPTO_5140	68
PSPTO_5141	165
PSPTO_5142	10
PSPTO_5143	27
PSPTO_5144	9
PSPTO_5145	9
PSPTO_5146	6
PSPTO_5147	122
PSPTO_5148	25
PSPTO_5149	11
PSPTO_5150	47
PSPTO_5151	12
PSPTO_5152	34
PSPTO_5153	21
PSPTO_5154	18
PSPTO_5155	17
PSPTO_5156	9
PSPTO_5157	18
PSPTO_5158	12
PSPTO_5159	51
PSPTO_5160	9
PSPTO_5161	259
PSPTO_5162	461
PSPTO_5163	19
PSPTO_5164	46
PSPTO_5165	253
PSPTO_5166	22
PSPTO_5167	22
PSPTO_5168	184
PSPTO_5169	60
PSPTO_5170	126
PSPTO_5171	23
PSPTO_5172	12
PSPTO_5173	7
PSPTO_5174	9
PSPTO_5175	85
PSPTO_5176	20
PSPTO_5177	19
PSPTO_5178	55
PSPTO_5179	13
PSPTO_5180	65
PSPTO_5181	18
PSPTO_5182	21
PSPTO_5183	2
PSPTO_5184	2
PSPTO_5185	3
PSPTO_5186	17
PSPTO_5187	7
PSPTO_5188	3
PSPTO_5189	8
PSPTO_5190	6
PSPTO_5191	76
PSPTO_5192	21
PSPTO_5193	20
PSPTO_5194	9
PSPTO_5195	6
PSPTO_5196	3
PSPTO_5197	8
PSPTO_5198	4
PSPTO_5199	1
PSPTO_5200	10
PSPTO_5201	10
PSPTO_5202	46
PSPTO_5203	46
PSPTO_5204	53
PSPTO_5205	1
PSPTO_5206	10
PSPTO_5207	7
PSPTO_5208	4
PSPTO_5209	48
PSPTO_5210	21
PSPTO_5211	10
PSPTO_5212	22
PSPTO_5213	2
PSPTO_5214	2
PSPTO_5215	38
PSPTO_5216	19
PSPTO_5217	5
PSPTO_5218	5
PSPTO_5219	11
PSPTO_5220	38
PSPTO_5221	34
PSPTO_5222	34
PSPTO_5223	23
PSPTO_5224	8
PSPTO_5225	8
PSPTO_5226	55
PSPTO_5227	9
PSPTO_5228	1
PSPTO_5229	7
PSPTO_5230	88
PSPTO_5231	6
PSPTO_5232	21
PSPTO_5233	6
PSPTO_5234	7
PSPTO_5235	8
PSPTO_5236	0
PSPTO_5237	0
PSPTO_5238	29
PSPTO_5239	15
PSPTO_5240	15
PSPTO_5241	38
PSPTO_5242	31
PSPTO_5243	29
PSPTO_5244	3
PSPTO_5245	8
PSPTO_5246	8
PSPTO_5247	7
PSPTO_5248	9
PSPTO_5249	39
PSPTO_5250	119
PSPTO_5251	41
PSPTO_5252	11
PSPTO_5253	54
PSPTO_5254	15
PSPTO_5255	29
PSPTO_5256	15
PSPTO_5257	60
PSPTO_5258	5
PSPTO_5259	9
PSPTO_5260	36
PSPTO_5261	4
PSPTO_5262	12
PSPTO_5263	25
PSPTO_5264	32
PSPTO_5265	14
PSPTO_5266	5
PSPTO_5267	4
PSPTO_5268	17
PSPTO_5269	50
PSPTO_5270	19
PSPTO_5271	21
PSPTO_5272	21
PSPTO_5273	13
PSPTO_5274	19
PSPTO_5275	19
PSPTO_5276	10
PSPTO_5277	20
PSPTO_5278	10
PSPTO_5279	158
PSPTO_5280	4
PSPTO_5281	7
PSPTO_5282	20
PSPTO_5283	17
PSPTO_5284	105
PSPTO_5285	31
PSPTO_5286	4
PSPTO_5287	6
PSPTO_5288	14
PSPTO_5289	1
PSPTO_5290	13
PSPTO_5291	38
PSPTO_5292	49
PSPTO_5293	53
PSPTO_5294	113
PSPTO_5295	30
PSPTO_5296	15
PSPTO_5297	12
PSPTO_5298	4
PSPTO_5299	35
PSPTO_5300	33
PSPTO_5301	20
PSPTO_5302	15
PSPTO_5303	32
PSPTO_5304	27
PSPTO_5305	1
PSPTO_5306	21
PSPTO_5307	96
PSPTO_5308	49
PSPTO_5309	29
PSPTO_5310	41
PSPTO_5311	14
PSPTO_5312	30
PSPTO_5313	0
PSPTO_5314	6
PSPTO_5315	4
PSPTO_5316	4
PSPTO_5317	30
PSPTO_5318	76
PSPTO_5319	2
PSPTO_5320	5
PSPTO_5321	1
PSPTO_5322	10
PSPTO_5323	4
PSPTO_5324	20
PSPTO_5325	4
PSPTO_5326	3
PSPTO_5327	96
PSPTO_5328	40
PSPTO_5329	89
PSPTO_5330	9
PSPTO_5331	35
PSPTO_5332	9
PSPTO_5333	6
PSPTO_5334	19
PSPTO_5335	3
PSPTO_5336	2
PSPTO_5337	14
PSPTO_5338	7
PSPTO_5339	26
PSPTO_5340	420
PSPTO_5341	21
PSPTO_5342	17
PSPTO_5343	10
PSPTO_5344	16
PSPTO_5345	27
PSPTO_5346	5
PSPTO_5347	3
PSPTO_5348	27
PSPTO_5349	1
PSPTO_5350	2
PSPTO_5351	24
PSPTO_5352	228
PSPTO_5353	12
PSPTO_5354	35
PSPTO_5355	9
PSPTO_5356	50
PSPTO_5357	15
PSPTO_5358	55
PSPTO_5359	1
PSPTO_5360	2
PSPTO_5361	6
PSPTO_5362	7
PSPTO_5363	81
PSPTO_5364	0
PSPTO_5365	26
PSPTO_5367	2
PSPTO_5368	39
PSPTO_5370	8
PSPTO_5371	3
PSPTO_5373	28
PSPTO_5374	2
PSPTO_5375	11
PSPTO_5376	3
PSPTO_5377	29
PSPTO_5378	11
PSPTO_5379	7
PSPTO_5380	15
PSPTO_5381	18
PSPTO_5382	30
PSPTO_5383	16
PSPTO_5384	19
PSPTO_5385	20
PSPTO_5386	7
PSPTO_5387	3
PSPTO_5388	2
PSPTO_5389	5
PSPTO_5390	9
PSPTO_5391	26
PSPTO_5392	16
PSPTO_5393	21
PSPTO_5394	13
PSPTO_5395	31
PSPTO_5396	17
PSPTO_5397	26
PSPTO_5398	21
PSPTO_5399	18
PSPTO_5400	10
PSPTO_5401	20
PSPTO_5402	11
PSPTO_5403	2
PSPTO_5404	40
PSPTO_5405	24
PSPTO_5406	78
PSPTO_5407	360
PSPTO_5408	107
PSPTO_5409	21
PSPTO_5410	17
PSPTO_5411	38
PSPTO_5412	4
PSPTO_5413	108
PSPTO_5414	35
PSPTO_5415	43
PSPTO_5416	24
PSPTO_5417	27
PSPTO_5418	74
PSPTO_5419	16
PSPTO_5420	24
PSPTO_5421	2
PSPTO_5422	31
PSPTO_5423	3
PSPTO_5424	29
PSPTO_5425	48
PSPTO_5426	11
PSPTO_5427	18
PSPTO_5428	26
PSPTO_5430	16
PSPTO_5431	21
PSPTO_5432	158
PSPTO_5433	61
PSPTO_5434	48
PSPTO_5435	148
PSPTO_5436	13
PSPTO_5437	21
PSPTO_5438	94
PSPTO_5439	14
PSPTO_5440	32
PSPTO_5441	11
PSPTO_5442	4
PSPTO_5443	29
PSPTO_5444	5
PSPTO_5445	37
PSPTO_5446	10
PSPTO_5447	10
PSPTO_5448	27
PSPTO_5449	5
PSPTO_5450	2
PSPTO_5451	33
PSPTO_5452	13
PSPTO_5453	30
PSPTO_5454	12
PSPTO_5455	2
PSPTO_5456	3
PSPTO_5457	30
PSPTO_5458	7
PSPTO_5460	33
PSPTO_5461	85
PSPTO_5462	2
PSPTO_5463	7
PSPTO_5464	14
PSPTO_5465	13
PSPTO_5466	216
PSPTO_5467	8
PSPTO_5468	4
PSPTO_5469	37
PSPTO_5470	5
PSPTO_5471	1
PSPTO_5472	17
PSPTO_5473	41
PSPTO_5474	3
PSPTO_5475	1
PSPTO_5476	7
PSPTO_5477	11
PSPTO_5478	6
PSPTO_5479	16
PSPTO_5480	15
PSPTO_5481	85
PSPTO_5482	132
PSPTO_5483	29
PSPTO_5484	16
PSPTO_5485	25
PSPTO_5486	13
PSPTO_5487	13
PSPTO_5488	22
PSPTO_5489	14
PSPTO_5490	20
PSPTO_5491	9
PSPTO_5492	29
PSPTO_5493	18
PSPTO_5494	8
PSPTO_5495	3
PSPTO_5496	1
PSPTO_5497	3
PSPTO_5498	34
PSPTO_5499	6
PSPTO_5500	6
PSPTO_5501	19
PSPTO_5502	29
PSPTO_5503	15
PSPTO_5504	12
PSPTO_5505	19
PSPTO_5506	13
PSPTO_5507	21
PSPTO_5508	3
PSPTO_5509	22
PSPTO_5510	109
PSPTO_5511	94
PSPTO_5512	12
PSPTO_5513	8
PSPTO_5514	7
PSPTO_5515	15
PSPTO_5516	43
PSPTO_5517	45
PSPTO_5518	61
PSPTO_5519	32
PSPTO_5520	6
PSPTO_5521	21
PSPTO_5522	27
PSPTO_5523	24
PSPTO_5524	4
PSPTO_5525	10
PSPTO_5526	10
PSPTO_5527	12
PSPTO_5528	77
PSPTO_5529	142
PSPTO_5530	9
PSPTO_5531	10
PSPTO_5532	17
PSPTO_5533	11
PSPTO_5534	8
PSPTO_5535	31
PSPTO_5536	2
PSPTO_5537	24
PSPTO_5538	14
PSPTO_5539	4
PSPTO_5540	3
PSPTO_5541	4
PSPTO_5542	154
PSPTO_5543	27
PSPTO_5544	4
PSPTO_5545	8
PSPTO_5546	5
PSPTO_5547	20
PSPTO_5548	9
PSPTO_5549	19
PSPTO_5550	20
PSPTO_5551	11
PSPTO_5552	0
PSPTO_5553	52
PSPTO_5554	97
PSPTO_5555	6
PSPTO_5556	18
PSPTO_5557	17
PSPTO_5558	12
PSPTO_5559	6
PSPTO_5560	14
PSPTO_5561	3
PSPTO_5562	8
PSPTO_5563	20
PSPTO_5564	25
PSPTO_5565	6
PSPTO_5566	23
PSPTO_5567	7
PSPTO_5568	3
PSPTO_5569	13
PSPTO_5570	2
PSPTO_5571	38
PSPTO_5572	28
PSPTO_5573	19
PSPTO_5574	23
PSPTO_5575	11
PSPTO_5576	3
PSPTO_5577	4
PSPTO_5578	8
PSPTO_5579	15
PSPTO_5580	17
PSPTO_5581	5
PSPTO_5582	20
PSPTO_5583	7
PSPTO_5584	11
PSPTO_5585	5
PSPTO_5586	9
PSPTO_5587	4
PSPTO_5588	12
PSPTO_5589	21
PSPTO_5590	3
PSPTO_5591	31
PSPTO_5592	13
PSPTO_5593	11
PSPTO_5594	69
PSPTO_5595	30
PSPTO_5596	10
PSPTO_5597	40
PSPTO_5598	43
PSPTO_5599	136
PSPTO_5600	60
PSPTO_5601	132
PSPTO_5602	51
PSPTO_5603	55
PSPTO_5604	27
PSPTO_5605	37
PSPTO_5606	5
PSPTO_5607	10
PSPTO_5608	21
PSPTO_5609	13
PSPTO_5610	59
PSPTO_5611	18
PSPTO_5612	24
PSPTO_5613	8
PSPTO_5614	16
PSPTO_5615	14
PSPTO_5616	0
PSPTO_5617	7
PSPTO_5618	3
PSPTO_5619	2
PSPTO_5620	4
PSPTO_5621	8
PSPTO_5622	5
PSPTO_5623	0
PSPTO_5624	89
PSPTO_5625	27
PSPTO_5626	3
PSPTO_5627	5
PSPTO_5628	6
PSPTO_5629	29
PSPTO_5630	12
PSPTO_5631	12
PSPTO_5632	22
PSPTO_5633	48
PSPTO_5634	17
PSPTO_5635	295
PSPTO_5636	141
PSPTO_5637	1
PSPTO_5638	31
PSPTO_5639	4
PSPTO_5640	12
PSPTO_5641	9
PSPTO_5642	4
PSPTO_5643	1
PSPTO_5644	26
PSPTO_5645	48
PSPTO_5646	25
PSPTO_5647	10
PSPTO_5648	2
PSPTO_5649	70
PSPTO_5650	8
PSPTO_5651	16
PSPTO_5652	12
PSPTO_5653	4
PSPTO_5654	2
PSPTO_5655	4
PSPTO_5656	9
PSPTO_5657	32
PSPTO_5658	0
PSPTO_5659	4
PSPTO_5660	4
PSPTO_5661	21494
PSPTO_5662	6
PSPTO_5663	51265
PSPTO_5664	2
PSPTO_5665	3
PSPTO_5666	294
PSPTO_5667	8
PSPTO_5668	3187
PSPTO_5669	959
PSPTO_5670	43
PSPTO_5671	0
PSPTO_5672	4
PSPTO_5673	3
PSPTO_5674	1
PSPTO_5675	9
PSPTO_A0072	114
PSPTO_A0073	1
PSPTO_B0001	14
PSPTO_B0002	9
PSPTO_B0003	54
PSPTO_B0004	2
PSPTO_B0005	88
PSPTO_B0006	1
PSPTO_B0007	56
PSPTO_B0008	3
PSPTO_B0009	16
PSPTO_B0010	295
PSPTO_B0011	90
PSPTO_B0012	20
PSPTO_B0013	11
PSPTO_B0014	9
PSPTO_B0015	8
PSPTO_B0016	16
PSPTO_B0017	2
PSPTO_B0018	28
PSPTO_B0019	2
PSPTO_B0020	74
PSPTO_B0021	192
PSPTO_B0022	5
PSPTO_B0023	29
PSPTO_B0024	3
PSPTO_B0025	16
PSPTO_B0026	39
PSPTO_B0027	36
PSPTO_B0028	6
PSPTO_B0029	3
PSPTO_B0030	18
PSPTO_B0031	0
PSPTO_B0032	23
PSPTO_B0033	2
PSPTO_B0034	16
PSPTO_B0035	14
PSPTO_B0036	52
PSPTO_B0037	8
PSPTO_B0038	9
PSPTO_B0039	7
PSPTO_B0040	16
PSPTO_B0041	10
PSPTO_B0042	44
PSPTO_B0043	35
PSPTO_B0044	13
PSPTO_B0045	19
PSPTO_B0046	15
PSPTO_B0047	2
PSPTO_B0048	5
PSPTO_B0049	4
PSPTO_B0050	1
PSPTO_B0051	14
PSPTO_B0052	19
PSPTO_B0053	22
PSPTO_B0054	2
PSPTO_B0055	13
PSPTO_B0056	4
PSPTO_B0057	117
PSPTO_B0058	1
PSPTO_B0059	6
PSPTO_B0060	6
PSPTO_B0061	20
PSPTO_B0062	4
PSPTO_B0063	3
PSPTO_B0064	13
PSPTO_B0065	0
PSPTO_B0066	26
PSPTO_B0067	19
PSPTO_B0068	17
PSPTO_B0069	41
PSPTO_B0070	48
PSPTO_B0071	81
PSPTO_B0072	28
PSPTO_B0073	8
PSPTO_B0074	5
PSPTO_B0075	13
PSPTO_B0076	39
PSPTO_B0077	3
PSPTO_r01	66
PSPTO_r02	185
PSPTO_r03	2
PSPTO_r04	56
PSPTO_r05	176
PSPTO_r06	2
PSPTO_r07	60
PSPTO_r08	166
PSPTO_r09	1
PSPTO_r10	1
PSPTO_r11	182
PSPTO_r12	64
PSPTO_r13	2
PSPTO_r14	193
PSPTO_r15	74
PSPTO_t01	8
PSPTO_t02	2
PSPTO_t03	7
PSPTO_t04	2
PSPTO_t05	18
PSPTO_t06	3
PSPTO_t07	5
PSPTO_t08	9
PSPTO_t09	2
PSPTO_t10	5
PSPTO_t11	10
PSPTO_t12	5
PSPTO_t13	2
PSPTO_t14	2
PSPTO_t15	7
PSPTO_t16	3
PSPTO_t17	1
PSPTO_t18	14
PSPTO_t19	9
PSPTO_t20	0
PSPTO_t21	1
PSPTO_t22	6
PSPTO_t23	0
PSPTO_t24	28
PSPTO_t25	9
PSPTO_t26	6
PSPTO_t27	4
PSPTO_t28	3
PSPTO_t29	2
PSPTO_t30	3
PSPTO_t31	0
PSPTO_t32	3
PSPTO_t33	7
PSPTO_t34	1
PSPTO_t35	1
PSPTO_t36	3
PSPTO_t37	5
PSPTO_t38	2
PSPTO_t39	1
PSPTO_t40	1
PSPTO_t41	0
PSPTO_t42	7
PSPTO_t43	1
PSPTO_t44	2
PSPTO_t45	5
PSPTO_t46	5
PSPTO_t47	6
PSPTO_t48	3
PSPTO_t49	1
PSPTO_t50	0
PSPTO_t51	3
PSPTO_t52	3
PSPTO_t53	1
PSPTO_t54	0
PSPTO_t55	17
PSPTO_t56	1
PSPTO_t57	8
PSPTO_t58	2
PSPTO_t59	1
PSPTO_t60	0
PSPTO_t61	0
PSPTO_t62	4
PSPTO_t63	1
__no_feature	71987
__ambiguous	4027
__too_low_aQual	0
__not_aligned	20498
__alignment_not_unique	0
