PSPTOA0001	8
PSPTOA0002	6
PSPTOA0003	1
PSPTOA0004	5
PSPTOA0005	6
PSPTOA0006	9
PSPTOA0007	38
PSPTOA0008	28
PSPTOA0009	12
PSPTOA0010	20
PSPTOA0011	20
PSPTOA0012	32
PSPTOA0013	5
PSPTOA0014	21
PSPTOA0015	5
PSPTOA0016	1
PSPTOA0017	10
PSPTOA0018	17
PSPTOA0019	20
PSPTOA0020	4
PSPTOA0021	4
PSPTOA0022	10
PSPTOA0023	4
PSPTOA0024	3
PSPTOA0025	3
PSPTOA0026	1
PSPTOA0027	6
PSPTOA0028	6
PSPTOA0029	10
PSPTOA0030	7
PSPTOA0031	54
PSPTOA0032	67
PSPTOA0033	6
PSPTOA0034	17
PSPTOA0035	52
PSPTOA0036	21
PSPTOA0037	20
PSPTOA0038	8
PSPTOA0039	17
PSPTOA0040	10
PSPTOA0041	1
PSPTOA0042	7
PSPTOA0043	1
PSPTOA0044	3
PSPTOA0045	2
PSPTOA0046	2
PSPTOA0047	2
PSPTOA0048	1
PSPTOA0049	33
PSPTOA0050	3
PSPTOA0051	6
PSPTOA0052	7
PSPTOA0053	7
PSPTOA0054	8
PSPTOA0055	2
PSPTOA0056	4
PSPTOA0057	12
PSPTOA0058	6
PSPTOA0059	3
PSPTOA0060	20
PSPTOA0061	0
PSPTOA0062	11
PSPTOA0063	2
PSPTOA0064	18
PSPTOA0065	38
PSPTOA0066	5
PSPTOA0067	4
PSPTOA0068	9
PSPTOA0069	3
PSPTOA0070	5
PSPTOA0071	0
PSPTO_0001	46
PSPTO_0002	37
PSPTO_0003	16
PSPTO_0004	94
PSPTO_0005	15
PSPTO_0006	10
PSPTO_0007	3
PSPTO_0008	15
PSPTO_0009	11
PSPTO_0011	18
PSPTO_0012	4
PSPTO_0013	1
PSPTO_0014	2
PSPTO_0015	0
PSPTO_0016	3
PSPTO_0017	6
PSPTO_0018	2
PSPTO_0019	8
PSPTO_0020	1
PSPTO_0021	10
PSPTO_0022	19
PSPTO_0023	8
PSPTO_0024	1
PSPTO_0025	8
PSPTO_0026	2
PSPTO_0027	3
PSPTO_0028	3
PSPTO_0029	2
PSPTO_0030	3
PSPTO_0031	4
PSPTO_0032	6
PSPTO_0033	7
PSPTO_0034	6
PSPTO_0035	11
PSPTO_0036	2
PSPTO_0037	61
PSPTO_0038	12
PSPTO_0039	13
PSPTO_0040	0
PSPTO_0041	0
PSPTO_0042	0
PSPTO_0043	17
PSPTO_0044	6
PSPTO_0045	8
PSPTO_0046	10
PSPTO_0047	11
PSPTO_0048	9
PSPTO_0049	3
PSPTO_0050	13
PSPTO_0051	3
PSPTO_0052	19
PSPTO_0053	10
PSPTO_0054	3
PSPTO_0055	2
PSPTO_0056	2
PSPTO_0057	8
PSPTO_0058	13
PSPTO_0059	9
PSPTO_0060	1
PSPTO_0061	4
PSPTO_0062	4
PSPTO_0063	1
PSPTO_0064	34
PSPTO_0065	20
PSPTO_0066	19
PSPTO_0067	1
PSPTO_0068	3
PSPTO_0069	3
PSPTO_0070	4
PSPTO_0071	21
PSPTO_0072	15
PSPTO_0073	59
PSPTO_0074	39
PSPTO_0075	10
PSPTO_0076	6
PSPTO_0077	13
PSPTO_0078	15
PSPTO_0079	31
PSPTO_0080	19
PSPTO_0081	21
PSPTO_0082	92
PSPTO_0083	99
PSPTO_0084	6
PSPTO_0085	8
PSPTO_0086	2
PSPTO_0087	20
PSPTO_0088	0
PSPTO_0089	114
PSPTO_0090	81
PSPTO_0091	5
PSPTO_0092	26
PSPTO_0093	4
PSPTO_0094	7
PSPTO_0095	13
PSPTO_0096	17
PSPTO_0097	2
PSPTO_0098	17
PSPTO_0099	1
PSPTO_0100	2
PSPTO_0101	235
PSPTO_0102	47
PSPTO_0103	70
PSPTO_0104	0
PSPTO_0105	12
PSPTO_0106	1
PSPTO_0107	9
PSPTO_0108	25
PSPTO_0109	55
PSPTO_0110	75
PSPTO_0111	3
PSPTO_0112	9
PSPTO_0113	26
PSPTO_0114	4
PSPTO_0115	18
PSPTO_0116	7
PSPTO_0117	16
PSPTO_0118	5
PSPTO_0119	8
PSPTO_0120	6
PSPTO_0121	6
PSPTO_0123	0
PSPTO_0124	3
PSPTO_0125	21
PSPTO_0126	13
PSPTO_0127	20
PSPTO_0128	12
PSPTO_0129	8
PSPTO_0130	17
PSPTO_0131	10
PSPTO_0132	1
PSPTO_0133	1
PSPTO_0134	23
PSPTO_0135	8
PSPTO_0136	168
PSPTO_0137	5
PSPTO_0138	20
PSPTO_0139	4
PSPTO_0140	10
PSPTO_0141	3
PSPTO_0142	2
PSPTO_0143	9
PSPTO_0144	60
PSPTO_0145	4
PSPTO_0146	3
PSPTO_0147	3
PSPTO_0148	5
PSPTO_0149	11
PSPTO_0150	3
PSPTO_0151	2
PSPTO_0152	24
PSPTO_0153	3
PSPTO_0154	8
PSPTO_0155	10
PSPTO_0156	51
PSPTO_0157	2
PSPTO_0158	14
PSPTO_0159	11
PSPTO_0161	4
PSPTO_0162	27
PSPTO_0163	1
PSPTO_0164	1
PSPTO_0165	12
PSPTO_0166	12
PSPTO_0167	12
PSPTO_0168	15
PSPTO_0169	14
PSPTO_0170	14
PSPTO_0171	5
PSPTO_0172	2
PSPTO_0173	8
PSPTO_0174	11
PSPTO_0175	10
PSPTO_0176	21
PSPTO_0177	15
PSPTO_0178	7
PSPTO_0179	9
PSPTO_0180	7
PSPTO_0181	8
PSPTO_0182	11
PSPTO_0183	4
PSPTO_0184	23
PSPTO_0185	78
PSPTO_0186	4
PSPTO_0187	8
PSPTO_0188	2
PSPTO_0189	3
PSPTO_0190	0
PSPTO_0191	2
PSPTO_0192	2
PSPTO_0193	4
PSPTO_0194	7
PSPTO_0196	15
PSPTO_0197	0
PSPTO_0200	17
PSPTO_0201	12
PSPTO_0202	4
PSPTO_0203	22
PSPTO_0205	12
PSPTO_0206	20
PSPTO_0207	0
PSPTO_0208	7
PSPTO_0209	5
PSPTO_0210	1
PSPTO_0211	4
PSPTO_0212	7
PSPTO_0213	3
PSPTO_0214	1
PSPTO_0215	3
PSPTO_0216	1
PSPTO_0217	32
PSPTO_0218	14
PSPTO_0219	47
PSPTO_0220	24
PSPTO_0221	3
PSPTO_0222	3
PSPTO_0223	10
PSPTO_0224	17
PSPTO_0225	45
PSPTO_0226	5
PSPTO_0227	8
PSPTO_0228	8
PSPTO_0229	3
PSPTO_0230	14
PSPTO_0231	9
PSPTO_0232	1
PSPTO_0233	8
PSPTO_0234	16
PSPTO_0235	2
PSPTO_0236	4
PSPTO_0237	5
PSPTO_0238	17
PSPTO_0239	59
PSPTO_0240	7
PSPTO_0241	3
PSPTO_0242	4
PSPTO_0243	1
PSPTO_0244	2
PSPTO_0245	1
PSPTO_0246	0
PSPTO_0247	1
PSPTO_0248	3
PSPTO_0249	9
PSPTO_0250	4
PSPTO_0251	3
PSPTO_0252	17
PSPTO_0253	0
PSPTO_0254	5
PSPTO_0255	5
PSPTO_0256	3
PSPTO_0257	7
PSPTO_0258	5
PSPTO_0259	6
PSPTO_0260	4
PSPTO_0261	5
PSPTO_0262	1
PSPTO_0263	2
PSPTO_0264	6
PSPTO_0265	3
PSPTO_0266	4
PSPTO_0267	2
PSPTO_0268	4
PSPTO_0269	0
PSPTO_0270	0
PSPTO_0271	2
PSPTO_0272	15
PSPTO_0273	1
PSPTO_0274	3
PSPTO_0275	13
PSPTO_0276	5
PSPTO_0277	2
PSPTO_0278	2
PSPTO_0279	4
PSPTO_0280	2
PSPTO_0281	0
PSPTO_0282	1
PSPTO_0283	2
PSPTO_0284	1
PSPTO_0285	12
PSPTO_0286	44
PSPTO_0287	7
PSPTO_0288	1
PSPTO_0289	1
PSPTO_0290	0
PSPTO_0291	1
PSPTO_0292	2
PSPTO_0293	2
PSPTO_0294	4
PSPTO_0295	1
PSPTO_0296	2
PSPTO_0297	5
PSPTO_0298	4
PSPTO_0299	4
PSPTO_0300	65
PSPTO_0301	36
PSPTO_0302	1
PSPTO_0303	14
PSPTO_0304	28
PSPTO_0305	15
PSPTO_0306	22
PSPTO_0307	3
PSPTO_0308	4
PSPTO_0309	1
PSPTO_0310	3
PSPTO_0311	8
PSPTO_0312	1
PSPTO_0313	3
PSPTO_0314	10
PSPTO_0315	9
PSPTO_0316	18
PSPTO_0317	20
PSPTO_0318	53
PSPTO_0319	14
PSPTO_0320	0
PSPTO_0321	2
PSPTO_0322	16
PSPTO_0323	9
PSPTO_0324	15
PSPTO_0325	30
PSPTO_0326	2
PSPTO_0327	37
PSPTO_0328	24
PSPTO_0329	11
PSPTO_0330	9
PSPTO_0331	1
PSPTO_0332	1
PSPTO_0333	15
PSPTO_0334	27
PSPTO_0335	22
PSPTO_0336	3
PSPTO_0337	5
PSPTO_0338	5
PSPTO_0339	23
PSPTO_0340	33
PSPTO_0341	40
PSPTO_0342	0
PSPTO_0343	8
PSPTO_0344	32
PSPTO_0345	4
PSPTO_0346	14
PSPTO_0347	3
PSPTO_0348	5
PSPTO_0349	4
PSPTO_0350	2
PSPTO_0351	16
PSPTO_0352	5
PSPTO_0353	3
PSPTO_0354	0
PSPTO_0355	2
PSPTO_0356	2
PSPTO_0357	3
PSPTO_0358	5
PSPTO_0359	124
PSPTO_0360	48
PSPTO_0361	213
PSPTO_0362	5
PSPTO_0363	1
PSPTO_0364	5
PSPTO_0365	1
PSPTO_0366	6
PSPTO_0367	3
PSPTO_0368	0
PSPTO_0369	2
PSPTO_0370	3
PSPTO_0371	3
PSPTO_0372	12
PSPTO_0373	24
PSPTO_0374	14
PSPTO_0375	9
PSPTO_0376	5
PSPTO_0377	2
PSPTO_0378	11
PSPTO_0379	6
PSPTO_0380	5
PSPTO_0381	2
PSPTO_0382	6
PSPTO_0383	34
PSPTO_0384	8
PSPTO_0385	145
PSPTO_0386	11
PSPTO_0387	42
PSPTO_0388	11
PSPTO_0389	8
PSPTO_0390	70
PSPTO_0391	5
PSPTO_0393	4
PSPTO_0394	3
PSPTO_0395	2
PSPTO_0396	2
PSPTO_0397	11
PSPTO_0398	0
PSPTO_0399	3
PSPTO_0400	9
PSPTO_0401	4
PSPTO_0402	3
PSPTO_0403	1
PSPTO_0404	24
PSPTO_0405	37
PSPTO_0406	12
PSPTO_0407	6
PSPTO_0408	6
PSPTO_0409	10
PSPTO_0410	3
PSPTO_0411	5
PSPTO_0412	14
PSPTO_0413	15
PSPTO_0414	12
PSPTO_0415	10
PSPTO_0416	3
PSPTO_0417	12
PSPTO_0418	4
PSPTO_0419	14
PSPTO_0420	36
PSPTO_0421	8
PSPTO_0422	4
PSPTO_0423	3
PSPTO_0424	3
PSPTO_0425	8
PSPTO_0426	10
PSPTO_0427	20
PSPTO_0428	23
PSPTO_0429	20
PSPTO_0430	198
PSPTO_0431	4
PSPTO_0432	1
PSPTO_0433	2
PSPTO_0434	20
PSPTO_0435	9
PSPTO_0436	4
PSPTO_0437	2
PSPTO_0438	5
PSPTO_0439	10
PSPTO_0440	14
PSPTO_0441	41
PSPTO_0442	2
PSPTO_0443	46
PSPTO_0444	3
PSPTO_0445	1
PSPTO_0446	1
PSPTO_0447	0
PSPTO_0448	10
PSPTO_0449	5
PSPTO_0450	8
PSPTO_0451	5
PSPTO_0452	5
PSPTO_0453	30
PSPTO_0454	7
PSPTO_0455	13
PSPTO_0456	4
PSPTO_0457	1
PSPTO_0458	7
PSPTO_0459	0
PSPTO_0460	4
PSPTO_0461	5
PSPTO_0462	11
PSPTO_0463	4
PSPTO_0464	9
PSPTO_0465	6
PSPTO_0466	9
PSPTO_0467	0
PSPTO_0468	10
PSPTO_0469	7
PSPTO_0470	7
PSPTO_0471	8
PSPTO_0472	11
PSPTO_0473	10
PSPTO_0474	1
PSPTO_0475	1
PSPTO_0476	0
PSPTO_0477	2
PSPTO_0478	0
PSPTO_0479	0
PSPTO_0480	19
PSPTO_0481	2
PSPTO_0482	0
PSPTO_0483	3
PSPTO_0484	10
PSPTO_0485	3
PSPTO_0486	1
PSPTO_0487	1
PSPTO_0488	2
PSPTO_0489	2
PSPTO_0490	1
PSPTO_0491	5
PSPTO_0492	10
PSPTO_0493	2
PSPTO_0494	25
PSPTO_0495	6
PSPTO_0496	5
PSPTO_0497	8
PSPTO_0498	5
PSPTO_0499	28
PSPTO_0500	19
PSPTO_0501	6
PSPTO_0502	0
PSPTO_0503	0
PSPTO_0505	2
PSPTO_0506	22
PSPTO_0507	12
PSPTO_0508	11
PSPTO_0509	15
PSPTO_0510	8
PSPTO_0511	7
PSPTO_0512	17
PSPTO_0513	28
PSPTO_0514	9
PSPTO_0515	4
PSPTO_0516	2
PSPTO_0517	4
PSPTO_0518	14
PSPTO_0519	3
PSPTO_0520	7
PSPTO_0521	1
PSPTO_0522	13
PSPTO_0523	3
PSPTO_0524	6
PSPTO_0525	1
PSPTO_0526	1
PSPTO_0527	5
PSPTO_0528	6
PSPTO_0529	10
PSPTO_0530	2
PSPTO_0531	7
PSPTO_0532	1
PSPTO_0533	1
PSPTO_0534	7
PSPTO_0535	4
PSPTO_0536	22
PSPTO_0537	318
PSPTO_0538	10
PSPTO_0539	37
PSPTO_0540	14
PSPTO_0541	2
PSPTO_0542	2
PSPTO_0543	2
PSPTO_0544	15
PSPTO_0545	52
PSPTO_0546	54
PSPTO_0547	210
PSPTO_0548	10
PSPTO_0549	7
PSPTO_0550	2
PSPTO_0551	10
PSPTO_0552	17
PSPTO_0553	48
PSPTO_0554	102
PSPTO_0555	18
PSPTO_0556	17
PSPTO_0557	3
PSPTO_0558	4
PSPTO_0559	6
PSPTO_0560	5
PSPTO_0561	0
PSPTO_0562	3
PSPTO_0563	4
PSPTO_0564	1
PSPTO_0565	3
PSPTO_0566	14
PSPTO_0567	14
PSPTO_0568	21
PSPTO_0569	13
PSPTO_0570	1
PSPTO_0571	2
PSPTO_0572	7
PSPTO_0573	3
PSPTO_0574	3
PSPTO_0575	5
PSPTO_0576	0
PSPTO_0577	20
PSPTO_0578	5
PSPTO_0579	4
PSPTO_0580	16
PSPTO_0581	10
PSPTO_0582	5
PSPTO_0583	10
PSPTO_0584	2
PSPTO_0585	0
PSPTO_0586	4
PSPTO_0587	11
PSPTO_0588	2
PSPTO_0589	3
PSPTO_0591	6
PSPTO_0592	15
PSPTO_0593	9
PSPTO_0594	18
PSPTO_0595	8
PSPTO_0596	1
PSPTO_0597	11
PSPTO_0598	9
PSPTO_0599	29
PSPTO_0600	7
PSPTO_0601	7
PSPTO_0602	5
PSPTO_0603	3
PSPTO_0604	24
PSPTO_0605	3
PSPTO_0606	27
PSPTO_0607	41
PSPTO_0608	0
PSPTO_0609	40
PSPTO_0610	6
PSPTO_0611	3
PSPTO_0612	2
PSPTO_0613	36
PSPTO_0614	109
PSPTO_0615	139
PSPTO_0616	282
PSPTO_0617	482
PSPTO_0618	297
PSPTO_0619	623
PSPTO_0620	896
PSPTO_0621	153
PSPTO_0622	258
PSPTO_0623	1320
PSPTO_0624	1454
PSPTO_0625	174
PSPTO_0626	419
PSPTO_0627	399
PSPTO_0628	136
PSPTO_0629	438
PSPTO_0630	181
PSPTO_0631	173
PSPTO_0632	394
PSPTO_0633	225
PSPTO_0634	29
PSPTO_0635	140
PSPTO_0636	227
PSPTO_0637	136
PSPTO_0638	364
PSPTO_0639	188
PSPTO_0640	220
PSPTO_0641	311
PSPTO_0642	151
PSPTO_0643	281
PSPTO_0644	90
PSPTO_0645	234
PSPTO_0646	825
PSPTO_0647	52
PSPTO_0648	174
PSPTO_0649	211
PSPTO_0650	352
PSPTO_0651	711
PSPTO_0652	272
PSPTO_0653	70
PSPTO_0654	61
PSPTO_0655	37
PSPTO_0656	43
PSPTO_0657	1
PSPTO_0658	11
PSPTO_0659	7
PSPTO_0660	1
PSPTO_0661	2
PSPTO_0662	5
PSPTO_0663	3
PSPTO_0664	1
PSPTO_0665	8
PSPTO_0666	11
PSPTO_0667	2
PSPTO_0668	4
PSPTO_0669	1
PSPTO_0670	13
PSPTO_0671	4
PSPTO_0672	0
PSPTO_0673	2
PSPTO_0674	4
PSPTO_0675	4
PSPTO_0676	23
PSPTO_0677	10
PSPTO_0678	12
PSPTO_0679	328
PSPTO_0680	2
PSPTO_0681	8
PSPTO_0682	0
PSPTO_0683	2
PSPTO_0684	2
PSPTO_0685	0
PSPTO_0686	10
PSPTO_0687	5
PSPTO_0688	4
PSPTO_0689	3
PSPTO_0690	14
PSPTO_0691	26
PSPTO_0692	31
PSPTO_0693	5
PSPTO_0694	20
PSPTO_0695	6
PSPTO_0696	13
PSPTO_0697	4
PSPTO_0698	30
PSPTO_0699	6
PSPTO_0700	4
PSPTO_0701	3
PSPTO_0702	4
PSPTO_0703	13
PSPTO_0704	1
PSPTO_0705	1
PSPTO_0706	4
PSPTO_0707	1
PSPTO_0708	0
PSPTO_0709	2
PSPTO_0710	1
PSPTO_0711	1
PSPTO_0712	1
PSPTO_0713	2
PSPTO_0714	13
PSPTO_0715	0
PSPTO_0716	1
PSPTO_0717	1
PSPTO_0718	0
PSPTO_0719	0
PSPTO_0720	0
PSPTO_0721	0
PSPTO_0722	51
PSPTO_0723	5
PSPTO_0724	4
PSPTO_0725	6
PSPTO_0726	3
PSPTO_0727	2
PSPTO_0728	28
PSPTO_0729	14
PSPTO_0730	9
PSPTO_0731	2
PSPTO_0732	4
PSPTO_0733	13
PSPTO_0734	3
PSPTO_0735	7
PSPTO_0736	10
PSPTO_0737	6
PSPTO_0738	3
PSPTO_0739	12
PSPTO_0740	1
PSPTO_0741	6
PSPTO_0742	13
PSPTO_0743	14
PSPTO_0744	15
PSPTO_0745	1
PSPTO_0746	4
PSPTO_0747	4
PSPTO_0748	23
PSPTO_0749	2
PSPTO_0750	11
PSPTO_0751	4
PSPTO_0752	6
PSPTO_0753	14
PSPTO_0754	6
PSPTO_0755	1
PSPTO_0756	5
PSPTO_0757	13
PSPTO_0758	3
PSPTO_0759	6
PSPTO_0760	3
PSPTO_0761	4
PSPTO_0762	5
PSPTO_0763	5
PSPTO_0764	3
PSPTO_0765	6
PSPTO_0766	8
PSPTO_0767	4
PSPTO_0768	0
PSPTO_0769	3
PSPTO_0770	3
PSPTO_0771	4
PSPTO_0772	4
PSPTO_0773	2
PSPTO_0774	7
PSPTO_0775	2
PSPTO_0776	15
PSPTO_0777	19
PSPTO_0778	11
PSPTO_0779	0
PSPTO_0780	9
PSPTO_0781	6
PSPTO_0782	5
PSPTO_0783	2
PSPTO_0784	4
PSPTO_0785	7
PSPTO_0786	2
PSPTO_0787	7
PSPTO_0788	2
PSPTO_0789	5
PSPTO_0790	4
PSPTO_0791	5
PSPTO_0792	0
PSPTO_0793	5
PSPTO_0794	3
PSPTO_0795	1
PSPTO_0796	27
PSPTO_0797	119
PSPTO_0798	139
PSPTO_0799	23
PSPTO_0800	29
PSPTO_0801	14
PSPTO_0802	29
PSPTO_0803	0
PSPTO_0804	1
PSPTO_0805	27
PSPTO_0806	115
PSPTO_0807	24
PSPTO_0808	14
PSPTO_0809	20
PSPTO_0810	1
PSPTO_0811	3
PSPTO_0812	5
PSPTO_0813	1
PSPTO_0814	3
PSPTO_0815	23
PSPTO_0816	3
PSPTO_0817	11
PSPTO_0818	0
PSPTO_0819	2
PSPTO_0820	4
PSPTO_0821	3
PSPTO_0822	1
PSPTO_0823	7
PSPTO_0824	8
PSPTO_0825	2
PSPTO_0826	34
PSPTO_0827	25
PSPTO_0828	6
PSPTO_0829	218
PSPTO_0830	5
PSPTO_0831	8
PSPTO_0832	5
PSPTO_0833	3
PSPTO_0834	5
PSPTO_0835	2
PSPTO_0836	2
PSPTO_0837	2
PSPTO_0838	4
PSPTO_0840	13
PSPTO_0841	2
PSPTO_0842	1
PSPTO_0844	7
PSPTO_0846	8
PSPTO_0847	0
PSPTO_0848	5
PSPTO_0849	5
PSPTO_0850	1
PSPTO_0851	6
PSPTO_0852	5
PSPTO_0853	45
PSPTO_0854	12
PSPTO_0855	5
PSPTO_0856	3
PSPTO_0857	4
PSPTO_0858	4
PSPTO_0859	19
PSPTO_0860	3
PSPTO_0861	3
PSPTO_0862	2
PSPTO_0863	2
PSPTO_0864	6
PSPTO_0865	1
PSPTO_0866	0
PSPTO_0867	0
PSPTO_0868	0
PSPTO_0869	0
PSPTO_0871	6
PSPTO_0873	3
PSPTO_0874	5
PSPTO_0875	7
PSPTO_0876	17
PSPTO_0877	4
PSPTO_0878	3
PSPTO_0879	10
PSPTO_0880	2
PSPTO_0881	9
PSPTO_0882	9
PSPTO_0883	19
PSPTO_0884	4
PSPTO_0885	2
PSPTO_0886	3
PSPTO_0887	0
PSPTO_0888	2
PSPTO_0889	0
PSPTO_0890	4
PSPTO_0891	1
PSPTO_0892	8
PSPTO_0893	8
PSPTO_0894	7
PSPTO_0895	0
PSPTO_0896	6
PSPTO_0897	7
PSPTO_0898	7
PSPTO_0899	1
PSPTO_0900	0
PSPTO_0901	1
PSPTO_0902	16
PSPTO_0903	7
PSPTO_0904	3
PSPTO_0905	9
PSPTO_0906	4
PSPTO_0907	7
PSPTO_0908	2
PSPTO_0909	2
PSPTO_0910	6
PSPTO_0911	3
PSPTO_0912	14
PSPTO_0913	3
PSPTO_0914	2
PSPTO_0915	5
PSPTO_0916	7
PSPTO_0917	83
PSPTO_0918	0
PSPTO_0919	4
PSPTO_0920	8
PSPTO_0921	0
PSPTO_0922	4
PSPTO_0923	11
PSPTO_0924	2
PSPTO_0925	4
PSPTO_0926	14
PSPTO_0927	43
PSPTO_0928	3
PSPTO_0929	15
PSPTO_0930	6
PSPTO_0931	9
PSPTO_0932	6
PSPTO_0933	7
PSPTO_0934	10
PSPTO_0935	7
PSPTO_0936	2
PSPTO_0937	9
PSPTO_0938	14
PSPTO_0939	9
PSPTO_0940	36
PSPTO_0941	45
PSPTO_0942	14
PSPTO_0943	40
PSPTO_0944	85
PSPTO_0945	115
PSPTO_0946	14
PSPTO_0947	2
PSPTO_0948	7
PSPTO_0949	128
PSPTO_0950	5
PSPTO_0951	15
PSPTO_0952	3
PSPTO_0953	5
PSPTO_0954	24
PSPTO_0955	4
PSPTO_0956	11
PSPTO_0957	7
PSPTO_0958	3
PSPTO_0959	48
PSPTO_0960	8
PSPTO_0961	10
PSPTO_0962	5
PSPTO_0963	31
PSPTO_0964	30
PSPTO_0965	13
PSPTO_0966	2
PSPTO_0967	4
PSPTO_0968	5
PSPTO_0969	34
PSPTO_0970	4
PSPTO_0971	4
PSPTO_0972	3
PSPTO_0973	4
PSPTO_0974	1
PSPTO_0975	10
PSPTO_0976	34
PSPTO_0977	15
PSPTO_0978	19
PSPTO_0979	4
PSPTO_0980	4
PSPTO_0981	65
PSPTO_0982	17
PSPTO_0983	100
PSPTO_0984	17
PSPTO_0985	17
PSPTO_0986	5
PSPTO_0987	1
PSPTO_0988	35
PSPTO_0989	8
PSPTO_0990	16
PSPTO_0991	10
PSPTO_0992	3
PSPTO_0993	3
PSPTO_0994	14
PSPTO_0995	8
PSPTO_0996	6
PSPTO_0997	5
PSPTO_0998	4
PSPTO_0999	9
PSPTO_1000	31
PSPTO_1001	31
PSPTO_1002	7
PSPTO_1003	0
PSPTO_1004	8
PSPTO_1005	8
PSPTO_1006	0
PSPTO_1007	6
PSPTO_1008	9
PSPTO_1009	2
PSPTO_1010	4
PSPTO_1011	2
PSPTO_1012	1
PSPTO_1013	2
PSPTO_1014	5
PSPTO_1015	8
PSPTO_1016	17
PSPTO_1017	1
PSPTO_1018	0
PSPTO_1019	2
PSPTO_1020	16
PSPTO_1021	0
PSPTO_1022	3
PSPTO_1023	1
PSPTO_1024	3
PSPTO_1025	8
PSPTO_1026	7
PSPTO_1027	5
PSPTO_1028	12
PSPTO_1029	4
PSPTO_1030	5
PSPTO_1031	4
PSPTO_1032	4
PSPTO_1033	6
PSPTO_1034	3
PSPTO_1035	6
PSPTO_1036	2
PSPTO_1037	15
PSPTO_1038	18
PSPTO_1039	15
PSPTO_1040	3
PSPTO_1041	18
PSPTO_1042	2
PSPTO_1043	2
PSPTO_1044	1
PSPTO_1045	2
PSPTO_1046	2
PSPTO_1047	2
PSPTO_1048	2
PSPTO_1049	2
PSPTO_1050	2
PSPTO_1051	0
PSPTO_1052	2
PSPTO_1053	2
PSPTO_1054	2
PSPTO_1055	0
PSPTO_1056	9
PSPTO_1057	6
PSPTO_1058	3
PSPTO_1059	15
PSPTO_1060	0
PSPTO_1061	3
PSPTO_1062	10
PSPTO_1064	11
PSPTO_1065	9
PSPTO_1066	13
PSPTO_1067	29
PSPTO_1068	6
PSPTO_1069	5
PSPTO_1070	31
PSPTO_1071	38
PSPTO_1072	39
PSPTO_1073	14
PSPTO_1074	58
PSPTO_1075	24
PSPTO_1076	13
PSPTO_1077	5
PSPTO_1078	10
PSPTO_1079	47
PSPTO_1080	22
PSPTO_1081	50
PSPTO_1082	0
PSPTO_1083	3
PSPTO_1084	7
PSPTO_1085	7
PSPTO_1086	17
PSPTO_1087	14
PSPTO_1088	17
PSPTO_1089	44
PSPTO_1090	14
PSPTO_1091	1
PSPTO_1092	1
PSPTO_1093	8
PSPTO_1094	4
PSPTO_1095	8
PSPTO_1096	4
PSPTO_1097	8
PSPTO_1098	19
PSPTO_1099	1
PSPTO_1100	26
PSPTO_1101	36
PSPTO_1102	29
PSPTO_1103	197
PSPTO_1104	105
PSPTO_1105	33
PSPTO_1106	9
PSPTO_1107	28
PSPTO_1108	20
PSPTO_1109	26
PSPTO_1110	25
PSPTO_1111	19
PSPTO_1112	4
PSPTO_1114	4
PSPTO_1115	7
PSPTO_1116	5
PSPTO_1117	2
PSPTO_1118	13
PSPTO_1119	10
PSPTO_1120	1
PSPTO_1121	9
PSPTO_1122	7
PSPTO_1123	10
PSPTO_1124	1
PSPTO_1125	2
PSPTO_1126	13
PSPTO_1127	10
PSPTO_1128	21
PSPTO_1129	10
PSPTO_1130	9
PSPTO_1131	2
PSPTO_1132	5
PSPTO_1133	6
PSPTO_1134	4
PSPTO_1135	13
PSPTO_1136	109
PSPTO_1137	1
PSPTO_1138	17
PSPTO_1139	1
PSPTO_1140	14
PSPTO_1141	2
PSPTO_1142	3
PSPTO_1143	4
PSPTO_1144	24
PSPTO_1145	1
PSPTO_1146	3
PSPTO_1147	6
PSPTO_1148	18
PSPTO_1149	18
PSPTO_1150	11
PSPTO_1151	22
PSPTO_1152	1
PSPTO_1153	1
PSPTO_1154	3
PSPTO_1155	1
PSPTO_1156	1
PSPTO_1157	5
PSPTO_1158	5
PSPTO_1159	6
PSPTO_1160	4
PSPTO_1161	1
PSPTO_1162	3
PSPTO_1163	1
PSPTO_1164	54
PSPTO_1165	12
PSPTO_1166	10
PSPTO_1167	1
PSPTO_1168	7
PSPTO_1169	18
PSPTO_1170	1
PSPTO_1171	27
PSPTO_1172	10
PSPTO_1173	3
PSPTO_1174	2
PSPTO_1175	1
PSPTO_1176	0
PSPTO_1177	5
PSPTO_1178	41
PSPTO_1179	9
PSPTO_1180	9
PSPTO_1181	9
PSPTO_1182	8
PSPTO_1183	8
PSPTO_1184	12
PSPTO_1185	17
PSPTO_1186	4
PSPTO_1187	10
PSPTO_1188	11
PSPTO_1189	19
PSPTO_1190	1
PSPTO_1191	13
PSPTO_1192	6
PSPTO_1193	14
PSPTO_1194	7
PSPTO_1195	9
PSPTO_1196	6
PSPTO_1197	7
PSPTO_1198	0
PSPTO_1199	0
PSPTO_1200	5
PSPTO_1201	2
PSPTO_1202	14
PSPTO_1203	0
PSPTO_1204	3
PSPTO_1205	50
PSPTO_1206	7
PSPTO_1207	7
PSPTO_1208	1
PSPTO_1209	1
PSPTO_1210	1
PSPTO_1211	5
PSPTO_1212	2
PSPTO_1213	4
PSPTO_1214	3
PSPTO_1215	10
PSPTO_1216	9
PSPTO_1217	7
PSPTO_1218	3
PSPTO_1219	0
PSPTO_1220	2
PSPTO_1221	3
PSPTO_1222	0
PSPTO_1223	4
PSPTO_1224	4
PSPTO_1225	7
PSPTO_1226	0
PSPTO_1227	12
PSPTO_1228	3
PSPTO_1229	6
PSPTO_1230	1
PSPTO_1231	14
PSPTO_1232	111
PSPTO_1233	46
PSPTO_1234	14
PSPTO_1235	34
PSPTO_1236	30
PSPTO_1237	41
PSPTO_1238	34
PSPTO_1239	43
PSPTO_1240	43
PSPTO_1241	46
PSPTO_1242	47
PSPTO_1243	318
PSPTO_1244	6
PSPTO_1245	3
PSPTO_1246	48
PSPTO_1247	4
PSPTO_1248	0
PSPTO_1249	1
PSPTO_1250	3
PSPTO_1251	0
PSPTO_1252	0
PSPTO_1253	10
PSPTO_1254	11
PSPTO_1255	22
PSPTO_1256	5
PSPTO_1257	8
PSPTO_1258	14
PSPTO_1259	1
PSPTO_1260	10
PSPTO_1261	4
PSPTO_1262	4
PSPTO_1263	4
PSPTO_1264	3
PSPTO_1265	6
PSPTO_1266	53
PSPTO_1267	9
PSPTO_1268	129
PSPTO_1269	15
PSPTO_1270	8
PSPTO_1271	72
PSPTO_1272	24
PSPTO_1273	17
PSPTO_1274	115
PSPTO_1275	105
PSPTO_1276	243
PSPTO_1277	26
PSPTO_1278	13
PSPTO_1279	18
PSPTO_1280	11
PSPTO_1281	2
PSPTO_1282	3
PSPTO_1283	2
PSPTO_1284	4
PSPTO_1285	8
PSPTO_1286	6
PSPTO_1287	135
PSPTO_1288	75
PSPTO_1289	54
PSPTO_1290	26
PSPTO_1291	10
PSPTO_1292	18
PSPTO_1293	3
PSPTO_1294	6
PSPTO_1295	8
PSPTO_1296	36
PSPTO_1297	0
PSPTO_1298	5
PSPTO_1299	18
PSPTO_1300	56
PSPTO_1301	34
PSPTO_1302	49
PSPTO_1303	2
PSPTO_1304	2
PSPTO_1305	6
PSPTO_1306	4
PSPTO_1307	4
PSPTO_1308	8
PSPTO_1309	5
PSPTO_1310	11
PSPTO_1311	2
PSPTO_1312	0
PSPTO_1313	1
PSPTO_1314	2
PSPTO_1315	16
PSPTO_1316	5
PSPTO_1317	0
PSPTO_1318	1
PSPTO_1319	3
PSPTO_1320	4
PSPTO_1321	0
PSPTO_1322	1
PSPTO_1323	41
PSPTO_1324	13
PSPTO_1325	268
PSPTO_1326	794
PSPTO_1327	160
PSPTO_1328	94
PSPTO_1329	253
PSPTO_1330	28
PSPTO_1331	17
PSPTO_1332	78
PSPTO_1333	8
PSPTO_1334	8
PSPTO_1335	0
PSPTO_1336	3
PSPTO_1337	6
PSPTO_1338	13
PSPTO_1339	4
PSPTO_1340	33
PSPTO_1341	9
PSPTO_1342	10
PSPTO_1343	26
PSPTO_1344	8
PSPTO_1345	15
PSPTO_1346	9
PSPTO_1347	15
PSPTO_1348	9
PSPTO_1349	32
PSPTO_1350	5
PSPTO_1351	0
PSPTO_1352	4
PSPTO_1353	0
PSPTO_1354	1
PSPTO_1355	3
PSPTO_1356	5
PSPTO_1357	2
PSPTO_1358	0
PSPTO_1359	5
PSPTO_1360	3
PSPTO_1361	7
PSPTO_1362	4
PSPTO_1363	8
PSPTO_1364	2
PSPTO_1365	8
PSPTO_1366	1
PSPTO_1367	2
PSPTO_1368	2
PSPTO_1369	2
PSPTO_1370	2
PSPTO_1371	2
PSPTO_1372	5
PSPTO_1373	5
PSPTO_1374	1
PSPTO_1375	6
PSPTO_1376	1
PSPTO_1377	9
PSPTO_1378	2
PSPTO_1379	8
PSPTO_1380	11
PSPTO_1381	2
PSPTO_1382	8
PSPTO_1383	1
PSPTO_1384	2
PSPTO_1385	1
PSPTO_1386	3
PSPTO_1387	0
PSPTO_1388	0
PSPTO_1389	6
PSPTO_1390	1
PSPTO_1391	5
PSPTO_1392	1
PSPTO_1393	1
PSPTO_1394	2
PSPTO_1395	0
PSPTO_1396	3
PSPTO_1397	1
PSPTO_1398	2
PSPTO_1399	0
PSPTO_1400	6
PSPTO_1401	2
PSPTO_1402	4
PSPTO_1403	1
PSPTO_1404	1
PSPTO_1405	8
PSPTO_1406	5
PSPTO_1407	7
PSPTO_1408	0
PSPTO_1409	5
PSPTO_1410	33
PSPTO_1411	3
PSPTO_1412	17
PSPTO_1413	34
PSPTO_1414	24
PSPTO_1415	61
PSPTO_1416	36
PSPTO_1417	280
PSPTO_1418	12
PSPTO_1419	40
PSPTO_1420	12
PSPTO_1421	11
PSPTO_1422	15
PSPTO_1423	77
PSPTO_1424	45
PSPTO_1425	28
PSPTO_1426	27
PSPTO_1427	40
PSPTO_1428	5
PSPTO_1429	6
PSPTO_1430	164
PSPTO_1431	127
PSPTO_1432	19
PSPTO_1433	34
PSPTO_1434	58
PSPTO_1435	47
PSPTO_1436	23
PSPTO_1437	63
PSPTO_1438	29
PSPTO_1439	5
PSPTO_1440	26
PSPTO_1441	24
PSPTO_1443	26
PSPTO_1444	125
PSPTO_1445	6
PSPTO_1446	7
PSPTO_1447	1
PSPTO_1448	6
PSPTO_1449	101
PSPTO_1450	49
PSPTO_1451	27
PSPTO_1452	2
PSPTO_1453	18
PSPTO_1454	4
PSPTO_1455	7
PSPTO_1456	14
PSPTO_1457	1
PSPTO_1458	11
PSPTO_1459	211
PSPTO_1460	11
PSPTO_1461	11
PSPTO_1462	7
PSPTO_1463	1
PSPTO_1464	13
PSPTO_1465	11
PSPTO_1466	3
PSPTO_1467	2
PSPTO_1468	34
PSPTO_1469	2
PSPTO_1470	6
PSPTO_1471	16
PSPTO_1472	50
PSPTO_1473	141
PSPTO_1474	188
PSPTO_1475	288
PSPTO_1476	154
PSPTO_1477	8
PSPTO_1478	5
PSPTO_1479	24
PSPTO_1480	62
PSPTO_1481	48
PSPTO_1482	13
PSPTO_1483	3
PSPTO_1484	3
PSPTO_1485	18
PSPTO_1486	0
PSPTO_1487	4
PSPTO_1488	18
PSPTO_1489	8
PSPTO_1490	14
PSPTO_1491	26
PSPTO_1492	14
PSPTO_1493	9
PSPTO_1494	9
PSPTO_1495	10
PSPTO_1496	6
PSPTO_1497	29
PSPTO_1498	5
PSPTO_1499	24
PSPTO_1500	67
PSPTO_1501	86
PSPTO_1502	5
PSPTO_1503	30
PSPTO_1504	5
PSPTO_1505	0
PSPTO_1506	207
PSPTO_1507	87
PSPTO_1508	23
PSPTO_1509	48
PSPTO_1510	17
PSPTO_1511	27
PSPTO_1512	13
PSPTO_1513	4
PSPTO_1514	6
PSPTO_1515	9
PSPTO_1516	0
PSPTO_1517	2
PSPTO_1518	10
PSPTO_1519	2
PSPTO_1520	12
PSPTO_1521	4
PSPTO_1522	9
PSPTO_1523	9
PSPTO_1524	12
PSPTO_1525	12
PSPTO_1526	2
PSPTO_1527	25
PSPTO_1528	83
PSPTO_1529	27
PSPTO_1530	0
PSPTO_1531	33
PSPTO_1532	50
PSPTO_1533	41
PSPTO_1534	276
PSPTO_1535	187
PSPTO_1536	39
PSPTO_1537	35
PSPTO_1538	18
PSPTO_1539	16
PSPTO_1540	21
PSPTO_1541	35
PSPTO_1542	130
PSPTO_1543	24
PSPTO_1544	30
PSPTO_1545	11
PSPTO_1546	12
PSPTO_1547	17
PSPTO_1548	4
PSPTO_1549	39
PSPTO_1550	44
PSPTO_1551	20
PSPTO_1552	71
PSPTO_1553	26
PSPTO_1554	138
PSPTO_1555	8
PSPTO_1556	8
PSPTO_1557	6
PSPTO_1558	20
PSPTO_1559	13
PSPTO_1560	5
PSPTO_1561	9
PSPTO_1562	7
PSPTO_1563	12
PSPTO_1564	43
PSPTO_1565	66
PSPTO_1566	0
PSPTO_1567	8
PSPTO_1568	1
PSPTO_1570	0
PSPTO_1571	9
PSPTO_1572	1
PSPTO_1573	2
PSPTO_1574	5
PSPTO_1575	1
PSPTO_1576	0
PSPTO_1577	11
PSPTO_1578	3
PSPTO_1579	1
PSPTO_1580	4
PSPTO_1581	2
PSPTO_1582	0
PSPTO_1583	5
PSPTO_1584	3
PSPTO_1585	3
PSPTO_1586	0
PSPTO_1587	23
PSPTO_1588	1
PSPTO_1589	4
PSPTO_1590	14
PSPTO_1591	0
PSPTO_1592	9
PSPTO_1593	24
PSPTO_1594	2
PSPTO_1595	3
PSPTO_1596	12
PSPTO_1597	18
PSPTO_1598	6
PSPTO_1599	1
PSPTO_1600	9
PSPTO_1601	10
PSPTO_1602	4
PSPTO_1603	1
PSPTO_1604	15
PSPTO_1605	13
PSPTO_1606	12
PSPTO_1607	9
PSPTO_1608	26
PSPTO_1609	22
PSPTO_1610	7
PSPTO_1611	0
PSPTO_1612	6
PSPTO_1613	1
PSPTO_1614	2
PSPTO_1615	2
PSPTO_1616	4
PSPTO_1617	7
PSPTO_1618	3
PSPTO_1619	6
PSPTO_1620	25
PSPTO_1621	31
PSPTO_1622	4
PSPTO_1623	6
PSPTO_1624	16
PSPTO_1625	5
PSPTO_1626	0
PSPTO_1627	1
PSPTO_1628	0
PSPTO_1629	1
PSPTO_1630	5
PSPTO_1631	19
PSPTO_1632	29
PSPTO_1633	29
PSPTO_1634	5
PSPTO_1635	14
PSPTO_1636	4
PSPTO_1637	13
PSPTO_1638	5
PSPTO_1639	10
PSPTO_1640	9
PSPTO_1641	0
PSPTO_1642	3
PSPTO_1643	21
PSPTO_1644	30
PSPTO_1645	7
PSPTO_1646	21
PSPTO_1647	1
PSPTO_1648	8
PSPTO_1649	6
PSPTO_1650	9
PSPTO_1651	2
PSPTO_1652	2
PSPTO_1653	9
PSPTO_1654	7
PSPTO_1655	3
PSPTO_1656	12
PSPTO_1657	17
PSPTO_1658	4
PSPTO_1659	2
PSPTO_1660	17
PSPTO_1661	95
PSPTO_1662	0
PSPTO_1663	2
PSPTO_1664	2
PSPTO_1665	2
PSPTO_1666	5
PSPTO_1667	28
PSPTO_1668	0
PSPTO_1669	25
PSPTO_1670	8
PSPTO_1671	380
PSPTO_1672	3
PSPTO_1673	6
PSPTO_1674	1
PSPTO_1675	5
PSPTO_1676	3
PSPTO_1677	5
PSPTO_1678	1
PSPTO_1679	5
PSPTO_1680	5
PSPTO_1681	0
PSPTO_1682	8
PSPTO_1683	2
PSPTO_1684	10
PSPTO_1685	9
PSPTO_1686	11
PSPTO_1687	1
PSPTO_1688	11
PSPTO_1689	3
PSPTO_1690	2
PSPTO_1691	10
PSPTO_1692	15
PSPTO_1693	17
PSPTO_1694	22
PSPTO_1695	10
PSPTO_1696	14
PSPTO_1697	1
PSPTO_1698	67
PSPTO_1699	11
PSPTO_1700	38
PSPTO_1701	10
PSPTO_1702	5
PSPTO_1703	12
PSPTO_1704	4
PSPTO_1705	17
PSPTO_1706	3
PSPTO_1707	11
PSPTO_1708	6
PSPTO_1709	17
PSPTO_1710	1
PSPTO_1711	3
PSPTO_1712	13
PSPTO_1713	11
PSPTO_1714	3
PSPTO_1715	7
PSPTO_1716	3
PSPTO_1717	4
PSPTO_1718	10
PSPTO_1719	7
PSPTO_1720	67
PSPTO_1721	26
PSPTO_1722	3
PSPTO_1723	1
PSPTO_1724	4
PSPTO_1725	25
PSPTO_1726	2
PSPTO_1727	1
PSPTO_1728	7
PSPTO_1729	6
PSPTO_1730	7
PSPTO_1731	18
PSPTO_1732	86
PSPTO_1733	38
PSPTO_1734	37
PSPTO_1735	14
PSPTO_1736	20
PSPTO_1737	15
PSPTO_1738	18
PSPTO_1739	28
PSPTO_1740	11
PSPTO_1741	21
PSPTO_1742	13
PSPTO_1743	16
PSPTO_1744	27
PSPTO_1745	186
PSPTO_1746	68
PSPTO_1747	44
PSPTO_1748	32
PSPTO_1749	56
PSPTO_1750	972
PSPTO_1751	8
PSPTO_1752	2
PSPTO_1753	3
PSPTO_1754	17
PSPTO_1755	11
PSPTO_1756	26
PSPTO_1757	4
PSPTO_1758	24
PSPTO_1759	3
PSPTO_1760	41
PSPTO_1761	18
PSPTO_1762	5
PSPTO_1763	5
PSPTO_1764	4
PSPTO_1765	109
PSPTO_1766	2
PSPTO_1767	1
PSPTO_1768	6
PSPTO_1769	3
PSPTO_1770	2
PSPTO_1771	2
PSPTO_1772	8
PSPTO_1773	16
PSPTO_1774	2
PSPTO_1775	133
PSPTO_1776	3
PSPTO_1777	4
PSPTO_1778	24
PSPTO_1779	53
PSPTO_1780	8
PSPTO_1781	9
PSPTO_1782	23
PSPTO_1783	8
PSPTO_1784	5
PSPTO_1785	18
PSPTO_1786	3
PSPTO_1787	11
PSPTO_1788	3
PSPTO_1789	5
PSPTO_1790	3
PSPTO_1791	3
PSPTO_1792	3
PSPTO_1793	0
PSPTO_1794	5
PSPTO_1795	2
PSPTO_1796	3
PSPTO_1797	0
PSPTO_1798	2
PSPTO_1799	1
PSPTO_1800	4
PSPTO_1801	8
PSPTO_1802	8
PSPTO_1803	7
PSPTO_1804	0
PSPTO_1805	3
PSPTO_1806	15
PSPTO_1807	4
PSPTO_1808	6
PSPTO_1809	6
PSPTO_1810	10
PSPTO_1811	9
PSPTO_1812	5
PSPTO_1813	7
PSPTO_1814	1
PSPTO_1815	59
PSPTO_1816	0
PSPTO_1817	6
PSPTO_1818	6
PSPTO_1819	8
PSPTO_1820	10
PSPTO_1821	36
PSPTO_1822	42
PSPTO_1823	13
PSPTO_1824	23
PSPTO_1825	74
PSPTO_1826	84
PSPTO_1827	7
PSPTO_1828	5
PSPTO_1829	14
PSPTO_1830	15
PSPTO_1831	11
PSPTO_1832	56
PSPTO_1833	24
PSPTO_1834	25
PSPTO_1835	32
PSPTO_1836	38
PSPTO_1838	12
PSPTO_1839	49
PSPTO_1840	14
PSPTO_1841	23
PSPTO_1842	76
PSPTO_1843	43
PSPTO_1844	3
PSPTO_1845	5
PSPTO_1846	8
PSPTO_1847	156
PSPTO_1848	1
PSPTO_1849	0
PSPTO_1850	24
PSPTO_1851	34
PSPTO_1852	21
PSPTO_1853	1
PSPTO_1854	1
PSPTO_1855	12
PSPTO_1856	2
PSPTO_1857	21
PSPTO_1858	2
PSPTO_1859	7
PSPTO_1860	0
PSPTO_1861	4
PSPTO_1862	2
PSPTO_1863	2
PSPTO_1864	2
PSPTO_1865	2
PSPTO_1866	6
PSPTO_1867	2
PSPTO_1868	9
PSPTO_1869	3
PSPTO_1870	32
PSPTO_1871	5
PSPTO_1872	0
PSPTO_1873	10
PSPTO_1874	7
PSPTO_1875	1
PSPTO_1876	5
PSPTO_1877	2
PSPTO_1878	3
PSPTO_1879	40
PSPTO_1880	5
PSPTO_1881	11
PSPTO_1882	4
PSPTO_1883	4
PSPTO_1884	1
PSPTO_1885	1
PSPTO_1886	20
PSPTO_1887	4
PSPTO_1888	0
PSPTO_1889	2
PSPTO_1890	4
PSPTO_1891	5
PSPTO_1892	8
PSPTO_1893	3
PSPTO_1894	2
PSPTO_1895	0
PSPTO_1896	2
PSPTO_1897	4
PSPTO_1898	0
PSPTO_1899	5
PSPTO_1900	1
PSPTO_1901	5
PSPTO_1902	28
PSPTO_1903	0
PSPTO_1904	5
PSPTO_1905	0
PSPTO_1906	0
PSPTO_1907	2
PSPTO_1908	0
PSPTO_1909	18
PSPTO_1910	21
PSPTO_1911	19
PSPTO_1912	4
PSPTO_1913	6
PSPTO_1914	16
PSPTO_1915	6
PSPTO_1916	3
PSPTO_1917	9
PSPTO_1918	10
PSPTO_1919	6
PSPTO_1920	13
PSPTO_1921	7
PSPTO_1922	20
PSPTO_1923	37
PSPTO_1924	46
PSPTO_1925	57
PSPTO_1926	7
PSPTO_1927	27
PSPTO_1928	15
PSPTO_1929	6
PSPTO_1930	8
PSPTO_1931	7
PSPTO_1932	0
PSPTO_1933	14
PSPTO_1934	18
PSPTO_1935	21
PSPTO_1936	54
PSPTO_1937	2
PSPTO_1938	0
PSPTO_1939	19
PSPTO_1940	22
PSPTO_1941	21
PSPTO_1942	18
PSPTO_1943	16
PSPTO_1944	54
PSPTO_1945	60
PSPTO_1946	44
PSPTO_1947	44
PSPTO_1948	11
PSPTO_1949	454
PSPTO_1950	30
PSPTO_1951	214
PSPTO_1952	31
PSPTO_1953	18
PSPTO_1954	47
PSPTO_1955	17
PSPTO_1956	13
PSPTO_1957	11
PSPTO_1958	36
PSPTO_1959	28
PSPTO_1960	22
PSPTO_1961	22
PSPTO_1962	4
PSPTO_1963	9
PSPTO_1964	14
PSPTO_1965	10
PSPTO_1966	20
PSPTO_1967	1
PSPTO_1968	8
PSPTO_1969	24
PSPTO_1970	12
PSPTO_1971	5
PSPTO_1972	8
PSPTO_1973	0
PSPTO_1974	5
PSPTO_1975	7
PSPTO_1976	22
PSPTO_1977	41
PSPTO_1978	14
PSPTO_1979	32
PSPTO_1980	31
PSPTO_1981	58
PSPTO_1982	108
PSPTO_1983	20
PSPTO_1984	4
PSPTO_1985	8
PSPTO_1986	17
PSPTO_1987	21
PSPTO_1988	28
PSPTO_1989	19
PSPTO_1990	10
PSPTO_1991	15
PSPTO_1992	0
PSPTO_1993	61
PSPTO_1994	5
PSPTO_1995	0
PSPTO_1996	12
PSPTO_1997	2
PSPTO_1998	7
PSPTO_1999	11
PSPTO_2000	2
PSPTO_2001	5
PSPTO_2002	4
PSPTO_2003	3
PSPTO_2004	10
PSPTO_2005	6
PSPTO_2006	2
PSPTO_2007	6
PSPTO_2008	12
PSPTO_2009	3
PSPTO_2010	9
PSPTO_2011	11
PSPTO_2012	3
PSPTO_2013	1
PSPTO_2014	13
PSPTO_2015	11
PSPTO_2016	28
PSPTO_2017	3
PSPTO_2018	6
PSPTO_2019	7
PSPTO_2020	42
PSPTO_2021	9
PSPTO_2022	8
PSPTO_2023	1
PSPTO_2024	9
PSPTO_2025	4
PSPTO_2026	6
PSPTO_2027	1
PSPTO_2028	9
PSPTO_2029	5
PSPTO_2030	5
PSPTO_2031	1
PSPTO_2032	9
PSPTO_2033	3
PSPTO_2034	5
PSPTO_2035	13
PSPTO_2036	0
PSPTO_2037	8
PSPTO_2038	5
PSPTO_2039	12
PSPTO_2040	18
PSPTO_2041	7
PSPTO_2042	3
PSPTO_2043	33
PSPTO_2044	7
PSPTO_2045	7
PSPTO_2046	12
PSPTO_2047	5
PSPTO_2048	4
PSPTO_2049	1
PSPTO_2050	0
PSPTO_2051	8
PSPTO_2052	3
PSPTO_2053	3
PSPTO_2054	11
PSPTO_2055	16
PSPTO_2056	28
PSPTO_2057	8
PSPTO_2058	0
PSPTO_2059	7
PSPTO_2060	5
PSPTO_2061	6
PSPTO_2062	4
PSPTO_2063	6
PSPTO_2064	10
PSPTO_2065	6
PSPTO_2066	4
PSPTO_2067	0
PSPTO_2068	1
PSPTO_2069	0
PSPTO_2070	2
PSPTO_2071	6
PSPTO_2072	3
PSPTO_2073	7
PSPTO_2074	2
PSPTO_2075	2
PSPTO_2076	1
PSPTO_2077	2
PSPTO_2078	2
PSPTO_2079	1
PSPTO_2080	1
PSPTO_2081	1
PSPTO_2082	1
PSPTO_2083	14
PSPTO_2084	0
PSPTO_2085	1
PSPTO_2086	0
PSPTO_2087	1
PSPTO_2088	0
PSPTO_2089	8
PSPTO_2090	0
PSPTO_2091	0
PSPTO_2092	7
PSPTO_2093	0
PSPTO_2094	3
PSPTO_2095	1
PSPTO_2096	8
PSPTO_2097	2
PSPTO_2098	1
PSPTO_2099	13
PSPTO_2100	4
PSPTO_2101	44
PSPTO_2102	79
PSPTO_2103	8
PSPTO_2104	7
PSPTO_2105	5
PSPTO_2106	42
PSPTO_2107	6
PSPTO_2108	5
PSPTO_2109	6
PSPTO_2110	6
PSPTO_2111	14
PSPTO_2112	10
PSPTO_2113	9
PSPTO_2114	3
PSPTO_2115	23
PSPTO_2116	5
PSPTO_2117	32
PSPTO_2118	21
PSPTO_2119	78
PSPTO_2120	10
PSPTO_2121	2
PSPTO_2122	2
PSPTO_2123	5
PSPTO_2124	14
PSPTO_2125	2
PSPTO_2126	6
PSPTO_2127	15
PSPTO_2128	3
PSPTO_2129	12
PSPTO_2130	3
PSPTO_2131	6
PSPTO_2132	6
PSPTO_2133	2
PSPTO_2134	2
PSPTO_2135	50
PSPTO_2136	8
PSPTO_2137	3
PSPTO_2138	1
PSPTO_2139	1
PSPTO_2140	4
PSPTO_2141	2
PSPTO_2142	0
PSPTO_2143	2
PSPTO_2144	0
PSPTO_2145	1
PSPTO_2146	2
PSPTO_2147	7
PSPTO_2148	17
PSPTO_2149	9
PSPTO_2150	27
PSPTO_2151	8
PSPTO_2152	4
PSPTO_2153	1
PSPTO_2154	2
PSPTO_2155	5
PSPTO_2156	8
PSPTO_2158	8
PSPTO_2159	3
PSPTO_2160	5
PSPTO_2161	5
PSPTO_2162	6
PSPTO_2163	25
PSPTO_2164	43
PSPTO_2165	1
PSPTO_2166	39
PSPTO_2167	8
PSPTO_2168	4
PSPTO_2169	5
PSPTO_2170	233
PSPTO_2171	16
PSPTO_2172	8
PSPTO_2173	587
PSPTO_2174	330
PSPTO_2175	322
PSPTO_2176	249
PSPTO_2177	0
PSPTO_2178	2
PSPTO_2179	6
PSPTO_2180	4
PSPTO_2181	12
PSPTO_2182	12
PSPTO_2183	12
PSPTO_2184	29
PSPTO_2185	36
PSPTO_2186	63
PSPTO_2187	8
PSPTO_2188	9
PSPTO_2189	9
PSPTO_2190	15
PSPTO_2191	8
PSPTO_2192	4
PSPTO_2193	11
PSPTO_2194	231
PSPTO_2195	103
PSPTO_2196	55
PSPTO_2197	229
PSPTO_2198	162
PSPTO_2199	618
PSPTO_2200	255
PSPTO_2201	361
PSPTO_2202	528
PSPTO_2203	425
PSPTO_2204	6
PSPTO_2205	2
PSPTO_2206	12
PSPTO_2207	206
PSPTO_2208	341
PSPTO_2209	18
PSPTO_2210	86
PSPTO_2211	28
PSPTO_2212	12
PSPTO_2213	13
PSPTO_2214	3
PSPTO_2215	10
PSPTO_2216	11
PSPTO_2217	12
PSPTO_2218	4
PSPTO_2219	1
PSPTO_2220	7
PSPTO_2221	6
PSPTO_2222	7
PSPTO_2223	5
PSPTO_2224	6
PSPTO_2225	5
PSPTO_2226	6
PSPTO_2227	2
PSPTO_2228	3
PSPTO_2229	0
PSPTO_2230	2
PSPTO_2231	5
PSPTO_2232	10
PSPTO_2233	5
PSPTO_2234	5
PSPTO_2235	3
PSPTO_2236	5
PSPTO_2237	15
PSPTO_2238	3
PSPTO_2239	33
PSPTO_2240	1
PSPTO_2241	0
PSPTO_2242	2
PSPTO_2243	6
PSPTO_2244	3
PSPTO_2245	16
PSPTO_2246	2
PSPTO_2247	11
PSPTO_2248	11
PSPTO_2249	3
PSPTO_2250	9
PSPTO_2251	10
PSPTO_2252	3
PSPTO_2253	3
PSPTO_2254	32
PSPTO_2255	4
PSPTO_2256	10
PSPTO_2257	5
PSPTO_2258	14
PSPTO_2259	9
PSPTO_2260	8
PSPTO_2261	5
PSPTO_2262	2
PSPTO_2263	0
PSPTO_2264	2
PSPTO_2265	5
PSPTO_2266	11
PSPTO_2267	1
PSPTO_2268	8
PSPTO_2269	3
PSPTO_2270	14
PSPTO_2271	1
PSPTO_2272	189
PSPTO_2273	0
PSPTO_2274	14
PSPTO_2275	15
PSPTO_2276	7
PSPTO_2277	4
PSPTO_2278	4
PSPTO_2279	14
PSPTO_2280	8
PSPTO_2281	8
PSPTO_2282	6
PSPTO_2283	17
PSPTO_2284	19
PSPTO_2285	0
PSPTO_2286	14
PSPTO_2287	28
PSPTO_2288	25
PSPTO_2289	28
PSPTO_2290	16
PSPTO_2291	10
PSPTO_2292	138
PSPTO_2293	14
PSPTO_2294	9
PSPTO_2295	22
PSPTO_2296	9
PSPTO_2297	49
PSPTO_2298	167
PSPTO_2299	3646
PSPTO_2300	3
PSPTO_2301	7
PSPTO_2302	2
PSPTO_2303	3
PSPTO_2304	1
PSPTO_2305	2
PSPTO_2306	5
PSPTO_2307	7
PSPTO_2308	1
PSPTO_2309	23
PSPTO_2310	29
PSPTO_2311	25
PSPTO_2312	4
PSPTO_2313	4
PSPTO_2314	17
PSPTO_2315	17
PSPTO_2316	10
PSPTO_2317	8
PSPTO_2318	2
PSPTO_2319	1
PSPTO_2320	4
PSPTO_2321	3
PSPTO_2322	2
PSPTO_2323	7
PSPTO_2324	16
PSPTO_2325	1
PSPTO_2326	15
PSPTO_2327	1
PSPTO_2328	9
PSPTO_2329	2
PSPTO_2330	1
PSPTO_2331	15
PSPTO_2332	1
PSPTO_2333	31
PSPTO_2334	21
PSPTO_2335	4
PSPTO_2336	3
PSPTO_2337	14
PSPTO_2338	5
PSPTO_2339	5
PSPTO_2340	5
PSPTO_2341	2
PSPTO_2342	3
PSPTO_2343	3
PSPTO_2344	5
PSPTO_2345	1
PSPTO_2346	14
PSPTO_2347	5
PSPTO_2348	3
PSPTO_2349	3
PSPTO_2350	162
PSPTO_2351	3
PSPTO_2352	5
PSPTO_2353	13
PSPTO_2354	8
PSPTO_2355	10
PSPTO_2356	1
PSPTO_2358	77
PSPTO_2359	6
PSPTO_2360	3
PSPTO_2361	2
PSPTO_2362	9
PSPTO_2363	3
PSPTO_2364	10
PSPTO_2365	0
PSPTO_2366	12
PSPTO_2367	20
PSPTO_2368	22
PSPTO_2369	4
PSPTO_2370	9
PSPTO_2371	5
PSPTO_2372	11
PSPTO_2373	28
PSPTO_2374	1
PSPTO_2375	12
PSPTO_2376	57
PSPTO_2377	28
PSPTO_2378	140
PSPTO_2379	305
PSPTO_2380	269
PSPTO_2381	359
PSPTO_2382	26
PSPTO_2383	65
PSPTO_2384	50
PSPTO_2385	34
PSPTO_2386	5
PSPTO_2387	3
PSPTO_2388	3
PSPTO_2389	4
PSPTO_2390	8
PSPTO_2391	0
PSPTO_2392	0
PSPTO_2394	8
PSPTO_2395	2
PSPTO_2396	0
PSPTO_2397	1
PSPTO_2398	4
PSPTO_2399	2
PSPTO_2400	3
PSPTO_2401	2
PSPTO_2402	1
PSPTO_2403	2
PSPTO_2404	1
PSPTO_2405	3
PSPTO_2406	3
PSPTO_2407	4
PSPTO_2408	2
PSPTO_2409	0
PSPTO_2410	3
PSPTO_2411	0
PSPTO_2412	4
PSPTO_2413	1
PSPTO_2414	1
PSPTO_2415	0
PSPTO_2416	1
PSPTO_2417	2
PSPTO_2418	2
PSPTO_2419	4
PSPTO_2420	0
PSPTO_2421	2
PSPTO_2422	12
PSPTO_2423	1
PSPTO_2424	2
PSPTO_2425	5
PSPTO_2426	13
PSPTO_2427	1
PSPTO_2428	4
PSPTO_2429	4
PSPTO_2430	4
PSPTO_2431	5
PSPTO_2432	15
PSPTO_2433	0
PSPTO_2434	1
PSPTO_2435	2
PSPTO_2436	0
PSPTO_2437	20
PSPTO_2438	9
PSPTO_2439	4
PSPTO_2440	9
PSPTO_2441	42
PSPTO_2442	17
PSPTO_2443	1
PSPTO_2444	5
PSPTO_2445	2
PSPTO_2446	4
PSPTO_2447	2
PSPTO_2448	11
PSPTO_2449	3
PSPTO_2450	8
PSPTO_2451	0
PSPTO_2452	3
PSPTO_2453	1
PSPTO_2454	1
PSPTO_2455	0
PSPTO_2456	1
PSPTO_2457	6
PSPTO_2458	21
PSPTO_2459	2
PSPTO_2460	20
PSPTO_2461	0
PSPTO_2462	1
PSPTO_2463	5
PSPTO_2464	1
PSPTO_2465	19
PSPTO_2466	3
PSPTO_2467	9
PSPTO_2468	0
PSPTO_2469	1
PSPTO_2470	3
PSPTO_2471	8
PSPTO_2472	9
PSPTO_2473	6
PSPTO_2474	8
PSPTO_2475	6
PSPTO_2476	5
PSPTO_2477	0
PSPTO_2478	2
PSPTO_2479	4
PSPTO_2480	10
PSPTO_2481	2
PSPTO_2482	4
PSPTO_2483	3
PSPTO_2484	1
PSPTO_2485	6
PSPTO_2486	3
PSPTO_2487	5
PSPTO_2488	3
PSPTO_2489	7
PSPTO_2490	3
PSPTO_2491	23
PSPTO_2492	3
PSPTO_2493	12
PSPTO_2494	5
PSPTO_2495	1
PSPTO_2496	2
PSPTO_2497	2
PSPTO_2498	0
PSPTO_2499	8
PSPTO_2500	5
PSPTO_2501	3
PSPTO_2502	3
PSPTO_2503	7
PSPTO_2504	1
PSPTO_2505	2
PSPTO_2506	10
PSPTO_2507	7
PSPTO_2508	1
PSPTO_2509	7
PSPTO_2510	2
PSPTO_2511	12
PSPTO_2513	1
PSPTO_2514	10
PSPTO_2515	10
PSPTO_2516	13
PSPTO_2517	3
PSPTO_2518	3
PSPTO_2519	0
PSPTO_2520	3
PSPTO_2521	0
PSPTO_2522	4
PSPTO_2523	0
PSPTO_2524	2
PSPTO_2525	4
PSPTO_2526	4
PSPTO_2527	11
PSPTO_2528	21
PSPTO_2529	0
PSPTO_2530	1
PSPTO_2531	9
PSPTO_2532	27
PSPTO_2533	1
PSPTO_2534	1
PSPTO_2535	9
PSPTO_2536	1
PSPTO_2537	0
PSPTO_2538	3
PSPTO_2539	0
PSPTO_2540	1
PSPTO_2541	8
PSPTO_2542	2
PSPTO_2543	0
PSPTO_2544	3
PSPTO_2545	0
PSPTO_2546	3
PSPTO_2547	1
PSPTO_2548	7
PSPTO_2549	5
PSPTO_2550	0
PSPTO_2551	3
PSPTO_2552	5
PSPTO_2553	0
PSPTO_2554	8
PSPTO_2555	0
PSPTO_2556	3
PSPTO_2557	2
PSPTO_2558	4
PSPTO_2559	2
PSPTO_2560	4
PSPTO_2561	6
PSPTO_2562	3
PSPTO_2563	3
PSPTO_2564	3
PSPTO_2565	0
PSPTO_2566	2
PSPTO_2567	3
PSPTO_2568	6
PSPTO_2569	5
PSPTO_2570	5
PSPTO_2571	1
PSPTO_2572	2
PSPTO_2573	2
PSPTO_2574	0
PSPTO_2575	4
PSPTO_2576	1
PSPTO_2577	2
PSPTO_2578	3
PSPTO_2579	3
PSPTO_2580	3
PSPTO_2581	5
PSPTO_2582	2
PSPTO_2583	2
PSPTO_2584	0
PSPTO_2585	1
PSPTO_2586	2
PSPTO_2587	0
PSPTO_2588	2
PSPTO_2589	9
PSPTO_2590	1
PSPTO_2591	5
PSPTO_2592	16
PSPTO_2593	1
PSPTO_2594	4
PSPTO_2595	7
PSPTO_2596	3
PSPTO_2597	2
PSPTO_2598	2
PSPTO_2599	7
PSPTO_2600	46
PSPTO_2601	4
PSPTO_2602	24
PSPTO_2603	3
PSPTO_2604	5
PSPTO_2605	3
PSPTO_2606	5
PSPTO_2607	8
PSPTO_2608	8
PSPTO_2609	12
PSPTO_2610	1
PSPTO_2611	0
PSPTO_2612	4
PSPTO_2613	4
PSPTO_2614	1
PSPTO_2615	7
PSPTO_2616	28
PSPTO_2617	1
PSPTO_2618	2
PSPTO_2620	1
PSPTO_2621	14
PSPTO_2622	3
PSPTO_2623	5
PSPTO_2624	0
PSPTO_2625	8
PSPTO_2626	5
PSPTO_2627	3
PSPTO_2628	0
PSPTO_2629	0
PSPTO_2630	3
PSPTO_2631	0
PSPTO_2632	19
PSPTO_2633	2
PSPTO_2634	2
PSPTO_2635	1
PSPTO_2636	6
PSPTO_2637	6
PSPTO_2638	2
PSPTO_2639	2
PSPTO_2640	1
PSPTO_2641	0
PSPTO_2642	4
PSPTO_2643	1
PSPTO_2644	3
PSPTO_2645	3
PSPTO_2646	12
PSPTO_2647	11
PSPTO_2648	11
PSPTO_2649	25
PSPTO_2650	3
PSPTO_2651	1
PSPTO_2652	3
PSPTO_2653	32
PSPTO_2654	7
PSPTO_2655	5
PSPTO_2656	6
PSPTO_2657	4
PSPTO_2658	1
PSPTO_2659	11
PSPTO_2660	3
PSPTO_2661	4
PSPTO_2662	3
PSPTO_2663	4
PSPTO_2664	6
PSPTO_2665	5
PSPTO_2666	0
PSPTO_2667	4
PSPTO_2668	5
PSPTO_2669	0
PSPTO_2670	5
PSPTO_2671	14
PSPTO_2672	2
PSPTO_2673	8
PSPTO_2674	1
PSPTO_2675	1
PSPTO_2676	3
PSPTO_2677	3
PSPTO_2678	4
PSPTO_2679	0
PSPTO_2680	20
PSPTO_2681	3
PSPTO_2683	1
PSPTO_2684	90
PSPTO_2685	11
PSPTO_2686	10
PSPTO_2687	18
PSPTO_2688	3
PSPTO_2689	3
PSPTO_2690	1
PSPTO_2691	7
PSPTO_2692	2
PSPTO_2693	9
PSPTO_2694	6
PSPTO_2695	24
PSPTO_2696	7
PSPTO_2697	24
PSPTO_2698	4
PSPTO_2699	10
PSPTO_2700	34
PSPTO_2701	7
PSPTO_2702	6
PSPTO_2703	7
PSPTO_2704	5
PSPTO_2705	2
PSPTO_2706	3
PSPTO_2707	16
PSPTO_2708	10
PSPTO_2709	4
PSPTO_2710	9
PSPTO_2711	11
PSPTO_2712	24
PSPTO_2713	4
PSPTO_2714	0
PSPTO_2715	5
PSPTO_2716	16
PSPTO_2717	14
PSPTO_2718	9
PSPTO_2719	14
PSPTO_2720	14
PSPTO_2721	6
PSPTO_2722	8
PSPTO_2723	2
PSPTO_2724	2
PSPTO_2725	2
PSPTO_2726	2
PSPTO_2727	0
PSPTO_2728	7
PSPTO_2729	18
PSPTO_2730	50
PSPTO_2731	1
PSPTO_2732	63
PSPTO_2733	4
PSPTO_2734	2
PSPTO_2735	14
PSPTO_2736	8
PSPTO_2737	4
PSPTO_2738	15
PSPTO_2739	10
PSPTO_2740	5
PSPTO_2741	4
PSPTO_2742	2
PSPTO_2743	2
PSPTO_2744	5
PSPTO_2745	5
PSPTO_2746	0
PSPTO_2747	8
PSPTO_2748	8
PSPTO_2749	9
PSPTO_2750	9
PSPTO_2751	21
PSPTO_2752	26
PSPTO_2753	7
PSPTO_2754	17
PSPTO_2755	10
PSPTO_2756	5
PSPTO_2757	9
PSPTO_2758	6
PSPTO_2759	6
PSPTO_2760	23
PSPTO_2761	32
PSPTO_2762	27
PSPTO_2763	10
PSPTO_2764	3
PSPTO_2765	3
PSPTO_2766	30
PSPTO_2767	14
PSPTO_2768	0
PSPTO_2769	52
PSPTO_2770	0
PSPTO_2771	1
PSPTO_2772	5
PSPTO_2773	10
PSPTO_2774	4
PSPTO_2775	5
PSPTO_2776	3
PSPTO_2777	3
PSPTO_2778	4
PSPTO_2779	2
PSPTO_2780	9
PSPTO_2781	6
PSPTO_2782	9
PSPTO_2783	16
PSPTO_2784	15
PSPTO_2785	8
PSPTO_2786	1
PSPTO_2787	6
PSPTO_2788	4
PSPTO_2789	2
PSPTO_2790	7
PSPTO_2791	10
PSPTO_2792	2
PSPTO_2793	1
PSPTO_2794	2
PSPTO_2795	10
PSPTO_2796	2
PSPTO_2797	1
PSPTO_2798	1
PSPTO_2799	1
PSPTO_2800	3
PSPTO_2801	5
PSPTO_2802	4
PSPTO_2803	3
PSPTO_2804	3
PSPTO_2805	102
PSPTO_2806	12
PSPTO_2807	3
PSPTO_2808	2
PSPTO_2809	5
PSPTO_2810	3
PSPTO_2811	0
PSPTO_2812	0
PSPTO_2813	5
PSPTO_2814	5
PSPTO_2815	0
PSPTO_2816	1
PSPTO_2817	1
PSPTO_2818	2
PSPTO_2819	7
PSPTO_2820	9
PSPTO_2821	4
PSPTO_2822	1
PSPTO_2823	2
PSPTO_2824	7
PSPTO_2825	3
PSPTO_2826	0
PSPTO_2827	0
PSPTO_2828	0
PSPTO_2829	19
PSPTO_2830	37
PSPTO_2831	1
PSPTO_2832	6
PSPTO_2833	8
PSPTO_2834	3
PSPTO_2835	1
PSPTO_2836	13
PSPTO_2837	1
PSPTO_2838	0
PSPTO_2839	0
PSPTO_2840	21
PSPTO_2841	4
PSPTO_2842	3
PSPTO_2843	7
PSPTO_2844	9
PSPTO_2845	2
PSPTO_2846	5
PSPTO_2847	4
PSPTO_2848	1
PSPTO_2849	8
PSPTO_2850	23
PSPTO_2851	20
PSPTO_2852	1
PSPTO_2853	38
PSPTO_2855	1
PSPTO_2856	60
PSPTO_2857	3
PSPTO_2858	0
PSPTO_2859	9
PSPTO_2860	7
PSPTO_2861	0
PSPTO_2862	0
PSPTO_2863	2
PSPTO_2864	2
PSPTO_2865	1
PSPTO_2866	0
PSPTO_2867	1
PSPTO_2868	6
PSPTO_2869	0
PSPTO_2870	7
PSPTO_2871	22
PSPTO_2872	7
PSPTO_2873	3
PSPTO_2874	1
PSPTO_2875	3
PSPTO_2876	4
PSPTO_2877	4
PSPTO_2878	3
PSPTO_2879	2
PSPTO_2880	3
PSPTO_2881	0
PSPTO_2882	2
PSPTO_2883	3
PSPTO_2885	1
PSPTO_2886	2
PSPTO_2887	10
PSPTO_2888	1
PSPTO_2889	0
PSPTO_2890	1
PSPTO_2891	0
PSPTO_2892	0
PSPTO_2893	2
PSPTO_2894	8
PSPTO_2895	39
PSPTO_2896	22
PSPTO_2897	2
PSPTO_2898	3
PSPTO_2899	1
PSPTO_2900	0
PSPTO_2901	6
PSPTO_2902	1
PSPTO_2903	1
PSPTO_2904	1
PSPTO_2905	3
PSPTO_2906	0
PSPTO_2907	7
PSPTO_2908	5
PSPTO_2909	9
PSPTO_2910	4
PSPTO_2911	2
PSPTO_2912	2
PSPTO_2913	0
PSPTO_2914	1
PSPTO_2915	2
PSPTO_2916	1
PSPTO_2917	2
PSPTO_2918	1
PSPTO_2919	5
PSPTO_2920	3
PSPTO_2921	1
PSPTO_2922	0
PSPTO_2923	3
PSPTO_2924	0
PSPTO_2925	0
PSPTO_2926	3
PSPTO_2927	2
PSPTO_2928	5
PSPTO_2929	0
PSPTO_2930	1
PSPTO_2931	17
PSPTO_2932	2
PSPTO_2933	6
PSPTO_2934	3
PSPTO_2935	5
PSPTO_2936	5
PSPTO_2937	2
PSPTO_2938	5
PSPTO_2939	5
PSPTO_2940	1
PSPTO_2941	3
PSPTO_2942	0
PSPTO_2943	6
PSPTO_2944	5
PSPTO_2945	3
PSPTO_2946	3
PSPTO_2947	2
PSPTO_2948	0
PSPTO_2949	0
PSPTO_2950	4
PSPTO_2951	6
PSPTO_2952	10
PSPTO_2953	0
PSPTO_2954	1
PSPTO_2955	13
PSPTO_2956	2
PSPTO_2957	2
PSPTO_2958	4
PSPTO_2959	3
PSPTO_2960	4
PSPTO_2961	3
PSPTO_2962	1
PSPTO_2963	3
PSPTO_2964	2
PSPTO_2965	0
PSPTO_2966	2
PSPTO_2967	2
PSPTO_2968	4
PSPTO_2969	1
PSPTO_2970	2
PSPTO_2971	26
PSPTO_2972	14
PSPTO_2973	9
PSPTO_2974	6
PSPTO_2975	8
PSPTO_2976	1
PSPTO_2977	8
PSPTO_2978	3
PSPTO_2979	0
PSPTO_2980	3
PSPTO_2981	4
PSPTO_2982	6
PSPTO_2983	0
PSPTO_2984	0
PSPTO_2985	7
PSPTO_2986	1
PSPTO_2987	2
PSPTO_2988	2
PSPTO_2989	3
PSPTO_2990	2
PSPTO_2991	5
PSPTO_2992	4
PSPTO_2993	2
PSPTO_2994	0
PSPTO_2995	2
PSPTO_2996	3
PSPTO_2997	9
PSPTO_2998	13
PSPTO_2999	7
PSPTO_3000	3
PSPTO_3001	5
PSPTO_3002	1
PSPTO_3003	3
PSPTO_3004	6
PSPTO_3005	2
PSPTO_3006	0
PSPTO_3007	5
PSPTO_3008	3
PSPTO_3009	1
PSPTO_3010	1
PSPTO_3011	2
PSPTO_3012	2
PSPTO_3013	2
PSPTO_3014	4
PSPTO_3015	1
PSPTO_3016	1
PSPTO_3017	11
PSPTO_3018	2
PSPTO_3019	5
PSPTO_3020	4
PSPTO_3021	3
PSPTO_3022	8
PSPTO_3023	17
PSPTO_3024	10
PSPTO_3025	5
PSPTO_3026	2
PSPTO_3027	12
PSPTO_3028	20
PSPTO_3029	6
PSPTO_3030	0
PSPTO_3031	3
PSPTO_3032	2
PSPTO_3033	13
PSPTO_3034	2
PSPTO_3035	49
PSPTO_3036	11
PSPTO_3037	5
PSPTO_3038	5
PSPTO_3039	20
PSPTO_3040	7
PSPTO_3041	1
PSPTO_3042	3
PSPTO_3043	3
PSPTO_3044	3
PSPTO_3045	0
PSPTO_3046	4
PSPTO_3047	4
PSPTO_3048	1
PSPTO_3049	4
PSPTO_3050	3
PSPTO_3051	0
PSPTO_3052	4
PSPTO_3053	1
PSPTO_3054	1
PSPTO_3055	0
PSPTO_3056	3
PSPTO_3057	4
PSPTO_3058	4
PSPTO_3059	1
PSPTO_3060	1
PSPTO_3061	4
PSPTO_3062	6
PSPTO_3063	1
PSPTO_3064	4
PSPTO_3065	6
PSPTO_3066	1
PSPTO_3067	4
PSPTO_3068	4
PSPTO_3069	4
PSPTO_3070	4
PSPTO_3071	20
PSPTO_3072	2
PSPTO_3073	3
PSPTO_3074	3
PSPTO_3075	3
PSPTO_3076	6
PSPTO_3077	3
PSPTO_3078	2
PSPTO_3079	3
PSPTO_3080	6
PSPTO_3081	4
PSPTO_3082	3
PSPTO_3083	2
PSPTO_3084	3
PSPTO_3085	2
PSPTO_3086	1
PSPTO_3087	9
PSPTO_3088	5
PSPTO_3089	3
PSPTO_3090	2
PSPTO_3091	3
PSPTO_3092	3
PSPTO_3094	0
PSPTO_3095	0
PSPTO_3096	4
PSPTO_3097	1
PSPTO_3098	4
PSPTO_3099	3
PSPTO_3100	10
PSPTO_3101	2
PSPTO_3102	6
PSPTO_3103	87
PSPTO_3104	0
PSPTO_3105	16
PSPTO_3106	23
PSPTO_3107	15
PSPTO_3108	130
PSPTO_3109	3
PSPTO_3110	5
PSPTO_3111	12
PSPTO_3112	35
PSPTO_3113	82
PSPTO_3114	10
PSPTO_3115	12
PSPTO_3116	5
PSPTO_3117	3
PSPTO_3118	4
PSPTO_3119	27
PSPTO_3120	13
PSPTO_3121	38
PSPTO_3122	41
PSPTO_3123	21
PSPTO_3124	6
PSPTO_3125	69
PSPTO_3126	26
PSPTO_3127	37
PSPTO_3128	51
PSPTO_3129	42
PSPTO_3130	50
PSPTO_3131	7
PSPTO_3132	8
PSPTO_3133	3
PSPTO_3134	2
PSPTO_3135	9
PSPTO_3136	8
PSPTO_3137	2
PSPTO_3138	10
PSPTO_3139	1
PSPTO_3140	5
PSPTO_3141	17
PSPTO_3142	6
PSPTO_3143	9
PSPTO_3144	5
PSPTO_3145	26
PSPTO_3146	15
PSPTO_3147	7
PSPTO_3148	8
PSPTO_3149	42
PSPTO_3150	21
PSPTO_3151	10
PSPTO_3152	22
PSPTO_3153	12
PSPTO_3154	4
PSPTO_3155	283
PSPTO_3156	1
PSPTO_3157	4
PSPTO_3158	14
PSPTO_3159	6
PSPTO_3160	2
PSPTO_3161	8
PSPTO_3162	12
PSPTO_3163	5
PSPTO_3164	6
PSPTO_3165	2
PSPTO_3166	3
PSPTO_3167	1
PSPTO_3168	0
PSPTO_3169	0
PSPTO_3170	7
PSPTO_3171	4
PSPTO_3172	16
PSPTO_3173	8
PSPTO_3174	32
PSPTO_3175	3
PSPTO_3176	36
PSPTO_3177	8
PSPTO_3178	14
PSPTO_3179	28
PSPTO_3180	11
PSPTO_3181	1
PSPTO_3182	6
PSPTO_3183	3
PSPTO_3184	2
PSPTO_3185	4
PSPTO_3186	3
PSPTO_3187	1
PSPTO_3188	2
PSPTO_3189	6
PSPTO_3190	15
PSPTO_3191	5
PSPTO_3192	6
PSPTO_3193	40
PSPTO_3194	10
PSPTO_3195	17
PSPTO_3196	8
PSPTO_3197	3
PSPTO_3198	1
PSPTO_3199	7
PSPTO_3200	0
PSPTO_3201	1
PSPTO_3202	4
PSPTO_3203	0
PSPTO_3204	2
PSPTO_3205	7
PSPTO_3206	6
PSPTO_3207	2
PSPTO_3208	15
PSPTO_3210	6
PSPTO_3211	1
PSPTO_3212	1
PSPTO_3213	28
PSPTO_3214	1
PSPTO_3215	1
PSPTO_3216	19
PSPTO_3217	1
PSPTO_3218	9
PSPTO_3219	1
PSPTO_3220	12
PSPTO_3221	0
PSPTO_3222	4
PSPTO_3223	10
PSPTO_3224	5
PSPTO_3225	3
PSPTO_3226	2
PSPTO_3227	0
PSPTO_3228	3
PSPTO_3229	71
PSPTO_3230	7
PSPTO_3231	3
PSPTO_3232	4
PSPTO_3233	11
PSPTO_3234	3
PSPTO_3235	3
PSPTO_3236	1
PSPTO_3237	26
PSPTO_3238	5
PSPTO_3239	0
PSPTO_3240	3
PSPTO_3241	6
PSPTO_3242	7
PSPTO_3243	5
PSPTO_3244	4
PSPTO_3245	2
PSPTO_3246	3
PSPTO_3247	0
PSPTO_3248	2
PSPTO_3249	2
PSPTO_3250	2
PSPTO_3251	1
PSPTO_3252	6
PSPTO_3253	1
PSPTO_3254	6
PSPTO_3255	4
PSPTO_3256	6
PSPTO_3257	1
PSPTO_3258	2
PSPTO_3259	11
PSPTO_3260	0
PSPTO_3261	1
PSPTO_3262	6
PSPTO_3263	4
PSPTO_3264	5
PSPTO_3265	9
PSPTO_3266	4
PSPTO_3267	1
PSPTO_3268	6
PSPTO_3269	8
PSPTO_3270	25
PSPTO_3271	6
PSPTO_3272	10
PSPTO_3273	3
PSPTO_3274	10
PSPTO_3275	4
PSPTO_3276	1
PSPTO_3277	3
PSPTO_3278	12
PSPTO_3279	4
PSPTO_3280	8
PSPTO_3281	10
PSPTO_3282	7
PSPTO_3283	2
PSPTO_3284	3
PSPTO_3285	3
PSPTO_3286	2
PSPTO_3287	6
PSPTO_3288	1
PSPTO_3289	0
PSPTO_3290	2
PSPTO_3291	7
PSPTO_3292	3
PSPTO_3293	18
PSPTO_3294	6
PSPTO_3295	2
PSPTO_3296	15
PSPTO_3297	19
PSPTO_3298	3
PSPTO_3299	11
PSPTO_3300	3
PSPTO_3301	1
PSPTO_3302	6
PSPTO_3303	0
PSPTO_3304	4
PSPTO_3305	5
PSPTO_3306	7
PSPTO_3307	26
PSPTO_3308	0
PSPTO_3309	8
PSPTO_3310	9
PSPTO_3311	11
PSPTO_3312	8
PSPTO_3313	5
PSPTO_3314	13
PSPTO_3315	9
PSPTO_3316	16
PSPTO_3317	24
PSPTO_3318	14
PSPTO_3319	11
PSPTO_3320	2
PSPTO_3321	4
PSPTO_3322	5
PSPTO_3323	22
PSPTO_3324	0
PSPTO_3325	9
PSPTO_3326	2
PSPTO_3327	6
PSPTO_3328	11
PSPTO_3329	10
PSPTO_3330	5
PSPTO_3331	2
PSPTO_3332	10
PSPTO_3333	134
PSPTO_3334	6
PSPTO_3335	4
PSPTO_3336	1
PSPTO_3337	8
PSPTO_3338	3
PSPTO_3339	5
PSPTO_3340	1
PSPTO_3341	1
PSPTO_3342	20
PSPTO_3343	7
PSPTO_3344	66
PSPTO_3345	57
PSPTO_3346	7
PSPTO_3347	17
PSPTO_3348	18
PSPTO_3349	46
PSPTO_3350	3
PSPTO_3351	6
PSPTO_3352	8
PSPTO_3353	285
PSPTO_3354	17
PSPTO_3355	23
PSPTO_3356	497
PSPTO_3357	6
PSPTO_3358	12
PSPTO_3359	6
PSPTO_3360	41
PSPTO_3361	31
PSPTO_3362	12
PSPTO_3363	12
PSPTO_3364	13
PSPTO_3365	21
PSPTO_3366	208
PSPTO_3367	284
PSPTO_3368	61
PSPTO_3369	160
PSPTO_3370	432
PSPTO_3371	126
PSPTO_3372	56
PSPTO_3373	36
PSPTO_3374	15
PSPTO_3375	160
PSPTO_3376	127
PSPTO_3377	106
PSPTO_3378	3
PSPTO_3379	11
PSPTO_3380	6
PSPTO_3381	3
PSPTO_3382	2
PSPTO_3383	1
PSPTO_3384	1
PSPTO_3385	3
PSPTO_3386	16
PSPTO_3387	60
PSPTO_3388	3
PSPTO_3389	0
PSPTO_3390	2
PSPTO_3391	1
PSPTO_3392	0
PSPTO_3393	4
PSPTO_3394	2
PSPTO_3395	0
PSPTO_3396	4
PSPTO_3397	2
PSPTO_3398	6
PSPTO_3399	1
PSPTO_3400	0
PSPTO_3401	0
PSPTO_3402	1
PSPTO_3403	0
PSPTO_3404	1
PSPTO_3405	1
PSPTO_3406	2
PSPTO_3407	1
PSPTO_3408	0
PSPTO_3409	2
PSPTO_3410	8
PSPTO_3411	0
PSPTO_3412	6
PSPTO_3413	0
PSPTO_3414	0
PSPTO_3415	1
PSPTO_3416	0
PSPTO_3417	2
PSPTO_3418	8
PSPTO_3419	1
PSPTO_3420	0
PSPTO_3421	12
PSPTO_3422	0
PSPTO_3423	0
PSPTO_3424	1
PSPTO_3425	1
PSPTO_3426	1
PSPTO_3427	3
PSPTO_3428	1
PSPTO_3429	0
PSPTO_3430	7
PSPTO_3432	3
PSPTO_3433	4
PSPTO_3435	0
PSPTO_3436	5
PSPTO_3437	32
PSPTO_3438	3
PSPTO_3439	5
PSPTO_3440	3
PSPTO_3441	1
PSPTO_3442	0
PSPTO_3443	6
PSPTO_3444	2
PSPTO_3445	3
PSPTO_3446	3
PSPTO_3447	1
PSPTO_3448	7
PSPTO_3449	6
PSPTO_3450	1
PSPTO_3451	1
PSPTO_3452	2
PSPTO_3453	0
PSPTO_3454	3
PSPTO_3455	27
PSPTO_3456	19
PSPTO_3457	2
PSPTO_3458	1
PSPTO_3459	2
PSPTO_3460	6
PSPTO_3461	8
PSPTO_3462	6
PSPTO_3463	29
PSPTO_3464	13
PSPTO_3465	6
PSPTO_3466	7
PSPTO_3467	2
PSPTO_3468	12
PSPTO_3469	5
PSPTO_3470	1
PSPTO_3471	18
PSPTO_3472	1
PSPTO_3473	12
PSPTO_3474	2
PSPTO_3475	0
PSPTO_3476	1
PSPTO_3477	11
PSPTO_3478	3
PSPTO_3479	4
PSPTO_3480	12
PSPTO_3481	2
PSPTO_3482	5
PSPTO_3483	4
PSPTO_3484	6
PSPTO_3485	34
PSPTO_3486	1
PSPTO_3487	16
PSPTO_3488	4
PSPTO_3489	4
PSPTO_3490	1
PSPTO_3491	6
PSPTO_3492	5
PSPTO_3493	6
PSPTO_3494	2
PSPTO_3495	4
PSPTO_3496	6
PSPTO_3497	7
PSPTO_3498	1
PSPTO_3499	5
PSPTO_3500	8
PSPTO_3501	14
PSPTO_3502	8
PSPTO_3503	12
PSPTO_3504	5
PSPTO_3505	11
PSPTO_3506	8
PSPTO_3507	7
PSPTO_3508	11
PSPTO_3509	0
PSPTO_3510	7
PSPTO_3511	6
PSPTO_3512	19
PSPTO_3513	16
PSPTO_3514	39
PSPTO_3515	4
PSPTO_3516	34
PSPTO_3517	27
PSPTO_3518	2
PSPTO_3519	3
PSPTO_3520	28
PSPTO_3521	65
PSPTO_3522	20
PSPTO_3523	16
PSPTO_3524	11
PSPTO_3525	16
PSPTO_3526	7
PSPTO_3527	20
PSPTO_3528	14
PSPTO_3529	11
PSPTO_3530	18
PSPTO_3531	7
PSPTO_3532	11
PSPTO_3533	16
PSPTO_3534	7
PSPTO_3535	6
PSPTO_3536	9
PSPTO_3537	5
PSPTO_3538	5
PSPTO_3539	5
PSPTO_3540	4
PSPTO_3541	2
PSPTO_3542	3
PSPTO_3543	4
PSPTO_3544	4
PSPTO_3545	20
PSPTO_3546	2
PSPTO_3547	5
PSPTO_3548	10
PSPTO_3549	5
PSPTO_3550	45
PSPTO_3551	65
PSPTO_3552	1
PSPTO_3553	53
PSPTO_3554	39
PSPTO_3555	5
PSPTO_3556	1
PSPTO_3557	1
PSPTO_3558	3
PSPTO_3559	24
PSPTO_3560	9
PSPTO_3561	2
PSPTO_3562	0
PSPTO_3563	4
PSPTO_3564	5
PSPTO_3565	7
PSPTO_3566	15
PSPTO_3567	4
PSPTO_3568	2
PSPTO_3569	234
PSPTO_3570	10
PSPTO_3571	3
PSPTO_3572	5
PSPTO_3573	0
PSPTO_3574	7
PSPTO_3575	7
PSPTO_3576	6
PSPTO_3577	11
PSPTO_3578	1
PSPTO_3579	8
PSPTO_3580	5
PSPTO_3581	5
PSPTO_3582	21
PSPTO_3583	0
PSPTO_3584	14
PSPTO_3585	0
PSPTO_3586	1
PSPTO_3587	0
PSPTO_3588	3
PSPTO_3589	14
PSPTO_3590	5
PSPTO_3591	3
PSPTO_3592	3
PSPTO_3593	3
PSPTO_3594	4
PSPTO_3595	7
PSPTO_3596	3
PSPTO_3597	8
PSPTO_3598	7
PSPTO_3599	5
PSPTO_3600	2
PSPTO_3601	4
PSPTO_3602	20
PSPTO_3603	2
PSPTO_3604	5
PSPTO_3605	32
PSPTO_3606	1
PSPTO_3607	5
PSPTO_3608	6
PSPTO_3609	1
PSPTO_3610	1
PSPTO_3611	0
PSPTO_3612	0
PSPTO_3613	23
PSPTO_3614	0
PSPTO_3615	4
PSPTO_3616	16
PSPTO_3617	2
PSPTO_3618	12
PSPTO_3619	1
PSPTO_3620	5
PSPTO_3621	9
PSPTO_3624	9
PSPTO_3625	10
PSPTO_3626	5
PSPTO_3627	3
PSPTO_3628	1
PSPTO_3629	2
PSPTO_3630	9
PSPTO_3631	2
PSPTO_3632	0
PSPTO_3633	7
PSPTO_3634	3
PSPTO_3635	7
PSPTO_3636	1
PSPTO_3637	0
PSPTO_3638	2
PSPTO_3639	1
PSPTO_3640	3
PSPTO_3641	2
PSPTO_3642	8
PSPTO_3643	0
PSPTO_3644	4
PSPTO_3645	92
PSPTO_3646	42
PSPTO_3647	1
PSPTO_3648	4
PSPTO_3649	3
PSPTO_3650	3
PSPTO_3651	23
PSPTO_3652	0
PSPTO_3653	0
PSPTO_3654	3
PSPTO_3655	8
PSPTO_3656	11
PSPTO_3657	27
PSPTO_3658	34
PSPTO_3659	6
PSPTO_3660	37
PSPTO_3661	62
PSPTO_3662	18
PSPTO_3663	34
PSPTO_3664	10
PSPTO_3665	8
PSPTO_3666	7
PSPTO_3667	0
PSPTO_3668	14
PSPTO_3669	2
PSPTO_3670	8
PSPTO_3671	4
PSPTO_3672	9
PSPTO_3673	0
PSPTO_3674	1
PSPTO_3675	3
PSPTO_3676	5
PSPTO_3677	5
PSPTO_3678	6
PSPTO_3679	6
PSPTO_3680	7
PSPTO_3681	0
PSPTO_3682	2
PSPTO_3683	2
PSPTO_3684	1
PSPTO_3685	6
PSPTO_3686	3
PSPTO_3687	19
PSPTO_3688	3
PSPTO_3689	11
PSPTO_3690	4
PSPTO_3691	9
PSPTO_3692	6
PSPTO_3693	2
PSPTO_3694	10
PSPTO_3695	9
PSPTO_3696	15
PSPTO_3697	0
PSPTO_3698	3
PSPTO_3699	13
PSPTO_3700	35
PSPTO_3701	2
PSPTO_3702	4
PSPTO_3703	3
PSPTO_3704	4
PSPTO_3705	17
PSPTO_3706	11
PSPTO_3707	10
PSPTO_3708	33
PSPTO_3709	29
PSPTO_3710	10
PSPTO_3711	12
PSPTO_3712	6
PSPTO_3713	11
PSPTO_3714	12
PSPTO_3715	33
PSPTO_3716	12
PSPTO_3717	12
PSPTO_3718	4
PSPTO_3719	7
PSPTO_3720	25
PSPTO_3721	65
PSPTO_3722	97
PSPTO_3723	89
PSPTO_3724	207
PSPTO_3725	164
PSPTO_3726	49
PSPTO_3727	127
PSPTO_3728	1
PSPTO_3729	5
PSPTO_3730	7
PSPTO_3731	8
PSPTO_3732	0
PSPTO_3733	22
PSPTO_3734	4
PSPTO_3735	12
PSPTO_3736	0
PSPTO_3737	3
PSPTO_3738	2
PSPTO_3739	5
PSPTO_3740	1
PSPTO_3741	4
PSPTO_3742	49
PSPTO_3743	75
PSPTO_3744	62
PSPTO_3745	19
PSPTO_3746	14
PSPTO_3747	7
PSPTO_3748	1
PSPTO_3749	2
PSPTO_3750	12
PSPTO_3751	2
PSPTO_3752	580
PSPTO_3753	7
PSPTO_3754	6
PSPTO_3755	1
PSPTO_3756	3
PSPTO_3757	176
PSPTO_3758	8
PSPTO_3759	9
PSPTO_3760	8
PSPTO_3761	2
PSPTO_3762	4
PSPTO_3763	8
PSPTO_3764	3
PSPTO_3765	6
PSPTO_3766	19
PSPTO_3767	0
PSPTO_3768	37
PSPTO_3769	6
PSPTO_3770	4
PSPTO_3771	2
PSPTO_3772	4
PSPTO_3773	4
PSPTO_3774	0
PSPTO_3775	2
PSPTO_3776	1
PSPTO_3777	15
PSPTO_3778	6
PSPTO_3779	5
PSPTO_3780	12
PSPTO_3781	15
PSPTO_3782	7
PSPTO_3783	12
PSPTO_3784	10
PSPTO_3785	6
PSPTO_3786	27
PSPTO_3787	17
PSPTO_3788	80
PSPTO_3789	20
PSPTO_3790	13
PSPTO_3791	9
PSPTO_3792	15
PSPTO_3793	19
PSPTO_3794	1
PSPTO_3795	9
PSPTO_3796	5
PSPTO_3797	6
PSPTO_3798	8
PSPTO_3799	7
PSPTO_3800	12
PSPTO_3801	5
PSPTO_3802	8
PSPTO_3803	18
PSPTO_3804	10
PSPTO_3805	10
PSPTO_3806	10
PSPTO_3807	11
PSPTO_3808	2
PSPTO_3809	20
PSPTO_3810	56
PSPTO_3811	91
PSPTO_3812	6
PSPTO_3813	15
PSPTO_3814	31
PSPTO_3815	32
PSPTO_3816	11
PSPTO_3817	2
PSPTO_3818	92
PSPTO_3819	10
PSPTO_3820	3
PSPTO_3821	5
PSPTO_3822	12
PSPTO_3823	6
PSPTO_3824	15
PSPTO_3825	12
PSPTO_3826	9
PSPTO_3827	5
PSPTO_3828	9
PSPTO_3829	10
PSPTO_3830	64
PSPTO_3831	118
PSPTO_3832	64
PSPTO_3833	22
PSPTO_3834	21
PSPTO_3835	57
PSPTO_3836	99
PSPTO_3837	14
PSPTO_3838	13
PSPTO_3839	6
PSPTO_3840	11
PSPTO_3841	198
PSPTO_3842	10
PSPTO_3843	15
PSPTO_3844	0
PSPTO_3845	18
PSPTO_3846	8
PSPTO_3847	6
PSPTO_3848	10
PSPTO_3849	6
PSPTO_3850	2
PSPTO_3851	9
PSPTO_3852	1
PSPTO_3853	2
PSPTO_3854	5
PSPTO_3855	4
PSPTO_3856	1
PSPTO_3857	38
PSPTO_3858	6
PSPTO_3859	3
PSPTO_3860	13
PSPTO_3861	1
PSPTO_3862	3
PSPTO_3863	5
PSPTO_3864	10
PSPTO_3865	2
PSPTO_3866	2
PSPTO_3867	2
PSPTO_3868	1
PSPTO_3869	0
PSPTO_3870	6
PSPTO_3871	11
PSPTO_3872	12
PSPTO_3873	52
PSPTO_3874	17
PSPTO_3875	1
PSPTO_3876	40
PSPTO_3877	3
PSPTO_3878	12
PSPTO_3879	3
PSPTO_3880	2
PSPTO_3881	5
PSPTO_3882	3
PSPTO_3883	5
PSPTO_3884	21
PSPTO_3885	74
PSPTO_3886	4
PSPTO_3887	6
PSPTO_3888	10
PSPTO_3889	6
PSPTO_3890	87
PSPTO_3891	5
PSPTO_3892	2
PSPTO_3893	4
PSPTO_3894	13
PSPTO_3895	1
PSPTO_3896	0
PSPTO_3897	12
PSPTO_3898	5
PSPTO_3899	9
PSPTO_3900	22
PSPTO_3901	21
PSPTO_3902	18
PSPTO_3903	8
PSPTO_3904	2
PSPTO_3905	4
PSPTO_3906	5
PSPTO_3907	0
PSPTO_3908	10
PSPTO_3909	9
PSPTO_3910	10
PSPTO_3911	15
PSPTO_3912	8
PSPTO_3913	16
PSPTO_3914	21
PSPTO_3915	5
PSPTO_3916	2
PSPTO_3917	12
PSPTO_3918	1
PSPTO_3919	15
PSPTO_3920	8
PSPTO_3921	7
PSPTO_3922	17
PSPTO_3923	5
PSPTO_3924	21
PSPTO_3925	16
PSPTO_3926	1
PSPTO_3927	16
PSPTO_3929	2
PSPTO_3930	16
PSPTO_3931	0
PSPTO_3932	0
PSPTO_3933	1
PSPTO_3934	1
PSPTO_3935	0
PSPTO_3936	1
PSPTO_3937	2
PSPTO_3938	1
PSPTO_3939	4
PSPTO_3940	1
PSPTO_3941	0
PSPTO_3942	1
PSPTO_3943	0
PSPTO_3944	1
PSPTO_3945	1
PSPTO_3946	0
PSPTO_3947	0
PSPTO_3948	0
PSPTO_3949	16
PSPTO_3950	38
PSPTO_3951	17
PSPTO_3952	49
PSPTO_3953	53
PSPTO_3954	10
PSPTO_3955	16
PSPTO_3956	2
PSPTO_3957	2
PSPTO_3958	21
PSPTO_3959	24
PSPTO_3960	2
PSPTO_3961	5
PSPTO_3962	0
PSPTO_3963	14
PSPTO_3965	4
PSPTO_3966	1
PSPTO_3968	12
PSPTO_3969	9
PSPTO_3970	133
PSPTO_3971	425
PSPTO_3972	134
PSPTO_3973	34
PSPTO_3974	21
PSPTO_3975	24
PSPTO_3976	9
PSPTO_3977	15
PSPTO_3978	8
PSPTO_3979	5
PSPTO_3980	36
PSPTO_3981	148
PSPTO_3982	1
PSPTO_3983	58
PSPTO_3984	7
PSPTO_3985	1
PSPTO_3986	4
PSPTO_3987	138
PSPTO_3988	76
PSPTO_3989	30
PSPTO_3990	7
PSPTO_3991	22
PSPTO_3992	21
PSPTO_3993	11
PSPTO_3994	10
PSPTO_3995	20
PSPTO_3996	22
PSPTO_3997	1
PSPTO_3998	0
PSPTO_3999	20
PSPTO_4001	0
PSPTO_4002	2
PSPTO_4003	0
PSPTO_4004	2
PSPTO_4005	0
PSPTO_4006	9
PSPTO_4007	1
PSPTO_4008	1
PSPTO_4009	0
PSPTO_4010	34
PSPTO_4011	2
PSPTO_4012	4
PSPTO_4013	4
PSPTO_4014	1
PSPTO_4015	2
PSPTO_4016	1
PSPTO_4017	4
PSPTO_4018	12
PSPTO_4019	29
PSPTO_4020	3
PSPTO_4021	7
PSPTO_4022	4
PSPTO_4023	4
PSPTO_4024	47
PSPTO_4025	6
PSPTO_4026	4
PSPTO_4027	12
PSPTO_4028	1
PSPTO_4029	4
PSPTO_4030	19
PSPTO_4031	15
PSPTO_4032	8
PSPTO_4033	39
PSPTO_4034	6
PSPTO_4035	2
PSPTO_4036	3
PSPTO_4037	1
PSPTO_4038	6
PSPTO_4039	1
PSPTO_4040	0
PSPTO_4041	10
PSPTO_4042	0
PSPTO_4043	1
PSPTO_4044	0
PSPTO_4045	2
PSPTO_4046	7
PSPTO_4047	7
PSPTO_4048	0
PSPTO_4049	0
PSPTO_4050	3
PSPTO_4051	1
PSPTO_4052	2
PSPTO_4053	0
PSPTO_4054	6
PSPTO_4055	0
PSPTO_4056	0
PSPTO_4057	1
PSPTO_4058	47
PSPTO_4059	8
PSPTO_4060	12
PSPTO_4061	3
PSPTO_4062	3
PSPTO_4063	3
PSPTO_4064	2
PSPTO_4065	1
PSPTO_4066	1
PSPTO_4067	2
PSPTO_4068	7
PSPTO_4069	1
PSPTO_4070	1
PSPTO_4071	7
PSPTO_4072	2
PSPTO_4073	5
PSPTO_4074	0
PSPTO_4075	4
PSPTO_4076	5
PSPTO_4077	1
PSPTO_4078	0
PSPTO_4079	9
PSPTO_4080	1
PSPTO_4081	14
PSPTO_4082	5
PSPTO_4083	5
PSPTO_4084	15
PSPTO_4087	1
PSPTO_4088	7
PSPTO_4089	4
PSPTO_4090	8
PSPTO_4091	19
PSPTO_4092	9
PSPTO_4093	14
PSPTO_4094	13
PSPTO_4095	42
PSPTO_4096	1
PSPTO_4097	15
PSPTO_4098	8
PSPTO_4099	1
PSPTO_4100	7
PSPTO_4101	6
PSPTO_4102	0
PSPTO_4103	19
PSPTO_4104	43
PSPTO_4105	7
PSPTO_4106	8
PSPTO_4107	6
PSPTO_4108	32
PSPTO_4109	4
PSPTO_4110	3
PSPTO_4111	6
PSPTO_4112	5
PSPTO_4113	13
PSPTO_4114	23
PSPTO_4115	14
PSPTO_4116	3
PSPTO_4117	26
PSPTO_4118	1
PSPTO_4119	18
PSPTO_4120	20
PSPTO_4121	1
PSPTO_4122	2
PSPTO_4123	9
PSPTO_4124	2
PSPTO_4125	1
PSPTO_4126	9
PSPTO_4127	4
PSPTO_4128	6
PSPTO_4129	15
PSPTO_4130	7
PSPTO_4131	0
PSPTO_4132	6
PSPTO_4133	31
PSPTO_4134	6
PSPTO_4135	6
PSPTO_4136	7
PSPTO_4137	3
PSPTO_4138	2
PSPTO_4139	6
PSPTO_4140	6
PSPTO_4141	13
PSPTO_4142	3
PSPTO_4143	22
PSPTO_4144	11
PSPTO_4145	408
PSPTO_4146	13
PSPTO_4147	66
PSPTO_4148	8
PSPTO_4149	8
PSPTO_4150	1
PSPTO_4151	2
PSPTO_4152	6
PSPTO_4153	1
PSPTO_4154	1
PSPTO_4155	77
PSPTO_4156	10
PSPTO_4157	28
PSPTO_4158	18
PSPTO_4159	1
PSPTO_4160	117
PSPTO_4161	25
PSPTO_4162	9
PSPTO_4163	11
PSPTO_4164	18
PSPTO_4165	8
PSPTO_4166	5
PSPTO_4167	35
PSPTO_4168	110
PSPTO_4169	13
PSPTO_4170	556
PSPTO_4171	9
PSPTO_4172	2
PSPTO_4173	3
PSPTO_4174	1
PSPTO_4175	10
PSPTO_4176	6
PSPTO_4177	11
PSPTO_4178	5
PSPTO_4179	10
PSPTO_4180	6
PSPTO_4181	4
PSPTO_4182	15
PSPTO_4183	1
PSPTO_4184	1
PSPTO_4185	3
PSPTO_4186	2
PSPTO_4187	3
PSPTO_4188	0
PSPTO_4189	2
PSPTO_4190	1
PSPTO_4191	14
PSPTO_4192	2
PSPTO_4193	7
PSPTO_4194	2
PSPTO_4195	3
PSPTO_4196	26
PSPTO_4197	4
PSPTO_4198	2
PSPTO_4199	1
PSPTO_4200	6
PSPTO_4201	6
PSPTO_4202	4
PSPTO_4203	3
PSPTO_4204	4
PSPTO_4205	7
PSPTO_4206	7
PSPTO_4207	0
PSPTO_4208	13
PSPTO_4209	4
PSPTO_4210	77
PSPTO_4211	9
PSPTO_4212	8
PSPTO_4213	13
PSPTO_4214	3
PSPTO_4215	10
PSPTO_4216	20
PSPTO_4217	13
PSPTO_4218	3
PSPTO_4219	41
PSPTO_4220	70
PSPTO_4221	134
PSPTO_4222	239
PSPTO_4223	709
PSPTO_4224	213
PSPTO_4225	12
PSPTO_4226	1
PSPTO_4227	2
PSPTO_4228	25
PSPTO_4229	17
PSPTO_4230	6
PSPTO_4231	5
PSPTO_4232	1
PSPTO_4233	1
PSPTO_4234	8
PSPTO_4235	2
PSPTO_4236	24
PSPTO_4237	54
PSPTO_4238	1
PSPTO_4239	2
PSPTO_4240	2
PSPTO_4241	1
PSPTO_4242	2
PSPTO_4243	8
PSPTO_4244	6
PSPTO_4245	7
PSPTO_4246	0
PSPTO_4247	3
PSPTO_4248	3
PSPTO_4249	1
PSPTO_4250	13
PSPTO_4251	18
PSPTO_4252	0
PSPTO_4253	12
PSPTO_4254	10
PSPTO_4255	0
PSPTO_4256	2
PSPTO_4257	0
PSPTO_4258	1
PSPTO_4259	2
PSPTO_4260	1
PSPTO_4261	4
PSPTO_4262	2
PSPTO_4263	3
PSPTO_4264	0
PSPTO_4265	1
PSPTO_4266	3
PSPTO_4267	10
PSPTO_4268	1
PSPTO_4269	4
PSPTO_4270	5
PSPTO_4271	1
PSPTO_4272	4
PSPTO_4273	3
PSPTO_4274	5
PSPTO_4275	7
PSPTO_4276	4
PSPTO_4277	3
PSPTO_4278	4
PSPTO_4279	1
PSPTO_4280	2
PSPTO_4281	1
PSPTO_4282	0
PSPTO_4283	26
PSPTO_4284	76
PSPTO_4285	219
PSPTO_4286	18
PSPTO_4287	11
PSPTO_4288	2
PSPTO_4289	5
PSPTO_4290	31
PSPTO_4291	9
PSPTO_4292	9
PSPTO_4293	22
PSPTO_4294	29
PSPTO_4295	15
PSPTO_4296	4
PSPTO_4297	10
PSPTO_4298	6
PSPTO_4299	2
PSPTO_4300	9
PSPTO_4301	4
PSPTO_4302	4
PSPTO_4303	17
PSPTO_4304	58
PSPTO_4305	34
PSPTO_4306	6
PSPTO_4307	3
PSPTO_4308	5
PSPTO_4309	7
PSPTO_4310	4
PSPTO_4312	22
PSPTO_4313	3
PSPTO_4314	27
PSPTO_4315	58
PSPTO_4316	13
PSPTO_4317	6
PSPTO_4318	1
PSPTO_4319	4
PSPTO_4320	5
PSPTO_4321	24
PSPTO_4322	54
PSPTO_4323	14
PSPTO_4324	1
PSPTO_4325	15
PSPTO_4326	4
PSPTO_4327	2
PSPTO_4328	2
PSPTO_4329	4
PSPTO_4330	2
PSPTO_4331	1
PSPTO_4332	3
PSPTO_4333	9
PSPTO_4334	5
PSPTO_4335	9
PSPTO_4336	5
PSPTO_4337	160
PSPTO_4338	7
PSPTO_4339	75
PSPTO_4340	17
PSPTO_4341	7
PSPTO_4342	9
PSPTO_4343	5
PSPTO_4344	3
PSPTO_4345	1
PSPTO_4346	1
PSPTO_4347	6
PSPTO_4348	1
PSPTO_4349	4
PSPTO_4350	6
PSPTO_4351	3
PSPTO_4352	2
PSPTO_4353	0
PSPTO_4354	2
PSPTO_4355	2
PSPTO_4356	1
PSPTO_4357	6
PSPTO_4358	22
PSPTO_4359	13
PSPTO_4360	7
PSPTO_4361	2
PSPTO_4362	1
PSPTO_4363	109
PSPTO_4364	2
PSPTO_4365	12
PSPTO_4366	21
PSPTO_4367	6
PSPTO_4368	12
PSPTO_4369	15
PSPTO_4370	11
PSPTO_4371	4
PSPTO_4372	1
PSPTO_4373	13
PSPTO_4374	6
PSPTO_4375	2
PSPTO_4376	830
PSPTO_4377	102
PSPTO_4378	1
PSPTO_4379	7
PSPTO_4380	7
PSPTO_4381	83
PSPTO_4382	1
PSPTO_4383	10
PSPTO_4384	1
PSPTO_4385	14
PSPTO_4386	9
PSPTO_4387	2
PSPTO_4388	0
PSPTO_4389	23
PSPTO_4390	0
PSPTO_4392	55
PSPTO_4393	25
PSPTO_4394	7
PSPTO_4395	9
PSPTO_4396	9
PSPTO_4397	12
PSPTO_4398	10
PSPTO_4399	32
PSPTO_4400	211
PSPTO_4401	3
PSPTO_4402	162
PSPTO_4403	242
PSPTO_4404	66
PSPTO_4405	21
PSPTO_4406	21
PSPTO_4407	67
PSPTO_4408	18
PSPTO_4409	41
PSPTO_4410	32
PSPTO_4411	29
PSPTO_4412	48
PSPTO_4413	56
PSPTO_4414	42
PSPTO_4415	5
PSPTO_4416	19
PSPTO_4417	31
PSPTO_4418	3
PSPTO_4419	48
PSPTO_4420	1
PSPTO_4421	3
PSPTO_4422	47
PSPTO_4423	14
PSPTO_4424	11
PSPTO_4425	210
PSPTO_4426	229
PSPTO_4427	3
PSPTO_4428	20
PSPTO_4429	21
PSPTO_4430	6
PSPTO_4431	18
PSPTO_4432	55
PSPTO_4433	23
PSPTO_4434	11
PSPTO_4435	15
PSPTO_4436	3
PSPTO_4437	46
PSPTO_4438	49
PSPTO_4439	28
PSPTO_4440	0
PSPTO_4441	61
PSPTO_4442	6
PSPTO_4443	20
PSPTO_4444	35
PSPTO_4445	11
PSPTO_4446	4
PSPTO_4447	14
PSPTO_4448	15
PSPTO_4449	3
PSPTO_4450	2
PSPTO_4451	33
PSPTO_4452	22
PSPTO_4453	27
PSPTO_4454	32
PSPTO_4455	20
PSPTO_4456	19
PSPTO_4457	1
PSPTO_4458	0
PSPTO_4459	2
PSPTO_4460	1
PSPTO_4461	1
PSPTO_4462	1
PSPTO_4463	41
PSPTO_4464	3
PSPTO_4465	48
PSPTO_4466	12
PSPTO_4467	21
PSPTO_4468	23
PSPTO_4469	11
PSPTO_4470	4
PSPTO_4471	11
PSPTO_4472	93
PSPTO_4473	22
PSPTO_4474	74
PSPTO_4475	65
PSPTO_4476	11
PSPTO_4477	5
PSPTO_4478	14
PSPTO_4479	3
PSPTO_4480	3
PSPTO_4481	7
PSPTO_4482	21
PSPTO_4483	2
PSPTO_4484	9
PSPTO_4485	5
PSPTO_4486	128
PSPTO_4487	194
PSPTO_4488	35
PSPTO_4489	10
PSPTO_4490	235
PSPTO_4491	112
PSPTO_4492	23
PSPTO_4493	32
PSPTO_4494	45
PSPTO_4495	43
PSPTO_4496	11
PSPTO_4497	242
PSPTO_4498	30
PSPTO_4499	13
PSPTO_4500	29
PSPTO_4501	154
PSPTO_4502	68
PSPTO_4503	53
PSPTO_4504	93
PSPTO_4505	1398
PSPTO_4506	106
PSPTO_4507	16
PSPTO_4508	24
PSPTO_4509	34
PSPTO_4510	2
PSPTO_4511	1
PSPTO_4512	2
PSPTO_4513	4
PSPTO_4514	9
PSPTO_4515	5
PSPTO_4516	24
PSPTO_4517	2
PSPTO_4518	23
PSPTO_4519	23
PSPTO_4520	9
PSPTO_4521	1
PSPTO_4522	9
PSPTO_4523	1
PSPTO_4524	8
PSPTO_4525	1
PSPTO_4526	7
PSPTO_4527	2
PSPTO_4528	8
PSPTO_4529	32
PSPTO_4530	143
PSPTO_4531	4
PSPTO_4532	4
PSPTO_4533	2
PSPTO_4534	10
PSPTO_4535	3
PSPTO_4536	5
PSPTO_4537	3
PSPTO_4538	3
PSPTO_4539	3
PSPTO_4540	6
PSPTO_4541	8
PSPTO_4542	7
PSPTO_4543	11
PSPTO_4544	2
PSPTO_4545	3
PSPTO_4546	6
PSPTO_4547	17
PSPTO_4548	1
PSPTO_4549	2
PSPTO_4550	14
PSPTO_4551	9
PSPTO_4552	0
PSPTO_4553	8
PSPTO_4554	7
PSPTO_4555	18
PSPTO_4556	4
PSPTO_4557	12
PSPTO_4558	44
PSPTO_4559	5
PSPTO_4560	28
PSPTO_4561	13
PSPTO_4562	11
PSPTO_4563	4
PSPTO_4564	11
PSPTO_4565	2
PSPTO_4566	1
PSPTO_4567	21
PSPTO_4568	4
PSPTO_4569	10
PSPTO_4570	3
PSPTO_4571	1
PSPTO_4572	38
PSPTO_4573	6
PSPTO_4574	14
PSPTO_4575	10
PSPTO_4576	4
PSPTO_4577	8
PSPTO_4578	8
PSPTO_4579	24
PSPTO_4580	6
PSPTO_4581	17
PSPTO_4582	7
PSPTO_4583	6
PSPTO_4584	6
PSPTO_4585	30
PSPTO_4586	323
PSPTO_4587	22
PSPTO_4588	0
PSPTO_4589	3
PSPTO_4590	0
PSPTO_4591	4
PSPTO_4592	3
PSPTO_4593	14
PSPTO_4594	3
PSPTO_4595	3
PSPTO_4596	7
PSPTO_4597	1
PSPTO_4599	3
PSPTO_4600	1
PSPTO_4601	6
PSPTO_4602	41
PSPTO_4603	6
PSPTO_4604	14
PSPTO_4605	13
PSPTO_4606	4
PSPTO_4607	28
PSPTO_4608	6
PSPTO_4609	1
PSPTO_4610	28
PSPTO_4611	40
PSPTO_4612	8
PSPTO_4613	26
PSPTO_4614	0
PSPTO_4615	5
PSPTO_4616	12
PSPTO_4617	1
PSPTO_4618	0
PSPTO_4619	1
PSPTO_4620	1
PSPTO_4621	3
PSPTO_4622	5
PSPTO_4623	1
PSPTO_4624	7
PSPTO_4625	6
PSPTO_4626	6
PSPTO_4627	17
PSPTO_4628	2
PSPTO_4629	1
PSPTO_4630	1
PSPTO_4631	29
PSPTO_4632	158
PSPTO_4633	11
PSPTO_4634	6
PSPTO_4635	1
PSPTO_4636	5
PSPTO_4637	4
PSPTO_4638	18
PSPTO_4639	9
PSPTO_4640	25
PSPTO_4641	17
PSPTO_4642	6
PSPTO_4643	8
PSPTO_4644	0
PSPTO_4645	14
PSPTO_4646	2
PSPTO_4647	26
PSPTO_4648	43
PSPTO_4649	0
PSPTO_4650	11
PSPTO_4651	1
PSPTO_4652	1
PSPTO_4653	8
PSPTO_4654	5
PSPTO_4656	5
PSPTO_4657	5
PSPTO_4658	8
PSPTO_4659	3
PSPTO_4660	16
PSPTO_4661	2
PSPTO_4662	0
PSPTO_4663	5
PSPTO_4664	14
PSPTO_4665	7
PSPTO_4666	9
PSPTO_4667	15
PSPTO_4668	5
PSPTO_4669	4
PSPTO_4670	4
PSPTO_4671	1
PSPTO_4672	1
PSPTO_4673	3
PSPTO_4674	0
PSPTO_4675	4
PSPTO_4676	1
PSPTO_4677	1
PSPTO_4678	2
PSPTO_4679	1
PSPTO_4680	4
PSPTO_4681	0
PSPTO_4682	0
PSPTO_4683	4
PSPTO_4684	4
PSPTO_4685	1
PSPTO_4686	21
PSPTO_4687	16
PSPTO_4688	1
PSPTO_4689	1
PSPTO_4690	1
PSPTO_4691	4
PSPTO_4692	1
PSPTO_4693	17
PSPTO_4694	2
PSPTO_4695	1
PSPTO_4696	10
PSPTO_4697	5
PSPTO_4699	49
PSPTO_4702	19
PSPTO_4703	1
PSPTO_4704	5
PSPTO_4705	11
PSPTO_4706	0
PSPTO_4707	0
PSPTO_4708	2
PSPTO_4709	7
PSPTO_4710	6
PSPTO_4711	1
PSPTO_4712	2
PSPTO_4713	0
PSPTO_4714	2
PSPTO_4716	2
PSPTO_4717	2
PSPTO_4718	12
PSPTO_4719	1
PSPTO_4720	7
PSPTO_4721	0
PSPTO_4722	2
PSPTO_4723	0
PSPTO_4724	2
PSPTO_4725	5
PSPTO_4726	3
PSPTO_4727	1
PSPTO_4729	6
PSPTO_4730	9
PSPTO_4732	2
PSPTO_4733	4
PSPTO_4734	2
PSPTO_4735	322
PSPTO_4737	17
PSPTO_4738	2
PSPTO_4741	1
PSPTO_4742	9
PSPTO_4743	6
PSPTO_4744	10
PSPTO_4745	12
PSPTO_4746	6
PSPTO_4747	1
PSPTO_4748	5
PSPTO_4749	1
PSPTO_4750	0
PSPTO_4751	27
PSPTO_4752	79
PSPTO_4753	17
PSPTO_4754	2
PSPTO_4755	12
PSPTO_4756	0
PSPTO_4757	0
PSPTO_4758	0
PSPTO_4759	2
PSPTO_4760	7
PSPTO_4761	34
PSPTO_4762	24
PSPTO_4763	7
PSPTO_4764	16
PSPTO_4765	0
PSPTO_4766	10
PSPTO_4767	6
PSPTO_4768	5
PSPTO_4769	5
PSPTO_4770	11
PSPTO_4771	5
PSPTO_4772	20
PSPTO_4773	0
PSPTO_4774	2
PSPTO_4775	6
PSPTO_4776	9
PSPTO_4777	4
PSPTO_4778	3
PSPTO_4779	3
PSPTO_4780	12
PSPTO_4781	12
PSPTO_4782	10
PSPTO_4784	4
PSPTO_4785	0
PSPTO_4786	3
PSPTO_4787	2
PSPTO_4788	16
PSPTO_4789	10
PSPTO_4790	11
PSPTO_4791	19
PSPTO_4792	2
PSPTO_4793	3
PSPTO_4794	4
PSPTO_4795	21
PSPTO_4796	11
PSPTO_4797	3
PSPTO_4798	8
PSPTO_4799	6
PSPTO_4800	35
PSPTO_4801	1
PSPTO_4802	11
PSPTO_4803	3
PSPTO_4804	55
PSPTO_4805	63
PSPTO_4806	19
PSPTO_4807	31
PSPTO_4808	18
PSPTO_4809	8
PSPTO_4810	0
PSPTO_4811	0
PSPTO_4812	62
PSPTO_4813	21
PSPTO_4814	16
PSPTO_4815	0
PSPTO_4816	1
PSPTO_4817	22
PSPTO_4818	38
PSPTO_4819	21
PSPTO_4820	8
PSPTO_4821	44
PSPTO_4822	18
PSPTO_4823	11
PSPTO_4824	7
PSPTO_4825	17
PSPTO_4826	14
PSPTO_4827	17
PSPTO_4828	14
PSPTO_4829	41
PSPTO_4830	5
PSPTO_4831	13
PSPTO_4832	5
PSPTO_4833	22
PSPTO_4834	2
PSPTO_4835	2
PSPTO_4836	12
PSPTO_4837	7
PSPTO_4838	1
PSPTO_4839	38
PSPTO_4840	17
PSPTO_4841	8
PSPTO_4842	35
PSPTO_4843	6
PSPTO_4844	2
PSPTO_4845	23
PSPTO_4846	3
PSPTO_4847	4
PSPTO_4848	12
PSPTO_4849	3
PSPTO_4850	4
PSPTO_4851	5
PSPTO_4852	6
PSPTO_4853	9
PSPTO_4854	4
PSPTO_4855	4
PSPTO_4856	3
PSPTO_4857	0
PSPTO_4858	6
PSPTO_4859	11
PSPTO_4860	28
PSPTO_4861	89
PSPTO_4862	6
PSPTO_4863	12
PSPTO_4864	26
PSPTO_4865	9
PSPTO_4866	34
PSPTO_4867	34
PSPTO_4868	18
PSPTO_4869	4
PSPTO_4870	2
PSPTO_4871	1
PSPTO_4872	2
PSPTO_4873	1
PSPTO_4874	12
PSPTO_4875	5
PSPTO_4876	4
PSPTO_4877	18
PSPTO_4878	7
PSPTO_4879	7
PSPTO_4880	0
PSPTO_4881	7
PSPTO_4882	4
PSPTO_4883	3
PSPTO_4884	7
PSPTO_4885	3
PSPTO_4886	4
PSPTO_4887	2
PSPTO_4888	4
PSPTO_4889	1
PSPTO_4890	5
PSPTO_4891	6
PSPTO_4892	6
PSPTO_4893	5
PSPTO_4894	1
PSPTO_4895	6
PSPTO_4896	15
PSPTO_4897	34
PSPTO_4898	12
PSPTO_4899	4
PSPTO_4900	2
PSPTO_4901	4
PSPTO_4902	2
PSPTO_4903	7
PSPTO_4905	6
PSPTO_4906	39
PSPTO_4907	8
PSPTO_4908	2
PSPTO_4909	1
PSPTO_4910	2
PSPTO_4911	4
PSPTO_4912	4
PSPTO_4913	8
PSPTO_4914	9
PSPTO_4915	3
PSPTO_4916	5
PSPTO_4917	8
PSPTO_4918	3
PSPTO_4919	27
PSPTO_4920	4
PSPTO_4921	10
PSPTO_4922	15
PSPTO_4923	3
PSPTO_4924	4
PSPTO_4925	12
PSPTO_4926	29
PSPTO_4927	3
PSPTO_4928	51
PSPTO_4929	17
PSPTO_4930	226
PSPTO_4931	439
PSPTO_4932	200
PSPTO_4933	262
PSPTO_4934	36
PSPTO_4935	95
PSPTO_4936	8
PSPTO_4937	53
PSPTO_4938	31
PSPTO_4939	57
PSPTO_4940	46
PSPTO_4941	96
PSPTO_4942	46
PSPTO_4943	22
PSPTO_4944	31
PSPTO_4945	11
PSPTO_4946	3
PSPTO_4947	13
PSPTO_4948	8
PSPTO_4949	10
PSPTO_4950	6
PSPTO_4951	10
PSPTO_4952	10
PSPTO_4953	11
PSPTO_4954	14
PSPTO_4955	27
PSPTO_4956	23
PSPTO_4957	29
PSPTO_4958	22
PSPTO_4959	65
PSPTO_4960	36
PSPTO_4961	6
PSPTO_4962	12
PSPTO_4963	22
PSPTO_4964	20
PSPTO_4965	12
PSPTO_4966	1
PSPTO_4967	1
PSPTO_4968	2
PSPTO_4969	4
PSPTO_4970	11
PSPTO_4971	15
PSPTO_4972	8
PSPTO_4973	19
PSPTO_4974	40
PSPTO_4975	3
PSPTO_4976	29
PSPTO_4977	10
PSPTO_4978	15
PSPTO_4979	3
PSPTO_4980	28
PSPTO_4981	13
PSPTO_4982	12
PSPTO_4983	28
PSPTO_4984	14
PSPTO_4985	8
PSPTO_4986	9
PSPTO_4987	9
PSPTO_4988	13
PSPTO_4989	7
PSPTO_4990	6
PSPTO_4991	14
PSPTO_4992	53
PSPTO_4993	12
PSPTO_4994	19
PSPTO_4995	0
PSPTO_4996	6
PSPTO_4997	15
PSPTO_4998	8
PSPTO_4999	2
PSPTO_5000	6
PSPTO_5001	5
PSPTO_5002	11
PSPTO_5003	9
PSPTO_5004	29
PSPTO_5005	388
PSPTO_5006	113
PSPTO_5007	10
PSPTO_5008	8
PSPTO_5009	7
PSPTO_5010	2
PSPTO_5011	7
PSPTO_5012	2
PSPTO_5013	2
PSPTO_5014	14
PSPTO_5015	63
PSPTO_5016	33
PSPTO_5017	326
PSPTO_5018	2
PSPTO_5019	1
PSPTO_5020	7
PSPTO_5021	3
PSPTO_5022	12
PSPTO_5023	12
PSPTO_5024	42
PSPTO_5025	2
PSPTO_5026	1
PSPTO_5027	9
PSPTO_5028	8
PSPTO_5029	2
PSPTO_5030	51
PSPTO_5031	17
PSPTO_5032	10
PSPTO_5033	9
PSPTO_5034	6
PSPTO_5035	9
PSPTO_5036	7
PSPTO_5037	21
PSPTO_5038	7
PSPTO_5039	11
PSPTO_5040	30
PSPTO_5041	15
PSPTO_5043	7
PSPTO_5044	2
PSPTO_5045	15
PSPTO_5046	6
PSPTO_5047	12
PSPTO_5048	2
PSPTO_5049	8
PSPTO_5050	10
PSPTO_5051	5
PSPTO_5052	7
PSPTO_5053	2
PSPTO_5054	2
PSPTO_5055	3
PSPTO_5056	4
PSPTO_5057	51
PSPTO_5058	17
PSPTO_5059	1
PSPTO_5060	5
PSPTO_5061	4
PSPTO_5062	2
PSPTO_5063	4
PSPTO_5064	1
PSPTO_5065	3
PSPTO_5066	2
PSPTO_5067	4
PSPTO_5068	160
PSPTO_5069	31
PSPTO_5070	54
PSPTO_5071	19
PSPTO_5072	6
PSPTO_5073	0
PSPTO_5074	6
PSPTO_5075	3
PSPTO_5076	4
PSPTO_5077	7
PSPTO_5078	4
PSPTO_5079	2
PSPTO_5080	1
PSPTO_5081	0
PSPTO_5082	4
PSPTO_5083	4
PSPTO_5084	2
PSPTO_5085	2
PSPTO_5086	4
PSPTO_5087	6
PSPTO_5088	0
PSPTO_5089	2
PSPTO_5090	6
PSPTO_5091	9
PSPTO_5092	1
PSPTO_5093	0
PSPTO_5094	1
PSPTO_5095	3
PSPTO_5096	5
PSPTO_5097	5
PSPTO_5098	4
PSPTO_5099	3
PSPTO_5100	2
PSPTO_5101	1
PSPTO_5102	8
PSPTO_5103	3
PSPTO_5104	1
PSPTO_5105	1
PSPTO_5106	2
PSPTO_5107	8
PSPTO_5108	3
PSPTO_5109	7
PSPTO_5110	3
PSPTO_5111	3
PSPTO_5112	8
PSPTO_5113	19
PSPTO_5114	3
PSPTO_5115	2
PSPTO_5116	5
PSPTO_5117	2
PSPTO_5118	11
PSPTO_5119	10
PSPTO_5120	7
PSPTO_5121	10
PSPTO_5122	0
PSPTO_5123	46
PSPTO_5124	2
PSPTO_5125	65
PSPTO_5126	21
PSPTO_5127	6
PSPTO_5128	14
PSPTO_5129	7
PSPTO_5130	3
PSPTO_5131	6
PSPTO_5132	7
PSPTO_5133	27
PSPTO_5134	34
PSPTO_5135	3
PSPTO_5136	71
PSPTO_5137	8
PSPTO_5138	27
PSPTO_5139	9
PSPTO_5140	26
PSPTO_5141	96
PSPTO_5142	8
PSPTO_5143	7
PSPTO_5144	3
PSPTO_5145	8
PSPTO_5146	1
PSPTO_5147	46
PSPTO_5148	12
PSPTO_5149	3
PSPTO_5150	17
PSPTO_5151	9
PSPTO_5152	14
PSPTO_5153	11
PSPTO_5154	11
PSPTO_5155	5
PSPTO_5156	7
PSPTO_5157	12
PSPTO_5158	10
PSPTO_5159	11
PSPTO_5160	7
PSPTO_5161	83
PSPTO_5162	121
PSPTO_5163	6
PSPTO_5164	32
PSPTO_5165	39
PSPTO_5166	5
PSPTO_5167	7
PSPTO_5168	18
PSPTO_5169	16
PSPTO_5170	29
PSPTO_5171	13
PSPTO_5172	6
PSPTO_5173	4
PSPTO_5174	6
PSPTO_5175	36
PSPTO_5176	13
PSPTO_5177	4
PSPTO_5178	12
PSPTO_5179	10
PSPTO_5180	12
PSPTO_5181	4
PSPTO_5182	9
PSPTO_5183	2
PSPTO_5184	3
PSPTO_5185	0
PSPTO_5186	6
PSPTO_5187	2
PSPTO_5188	3
PSPTO_5189	1
PSPTO_5190	3
PSPTO_5191	21
PSPTO_5192	8
PSPTO_5193	8
PSPTO_5194	1
PSPTO_5195	2
PSPTO_5196	0
PSPTO_5197	2
PSPTO_5198	6
PSPTO_5199	0
PSPTO_5200	4
PSPTO_5201	5
PSPTO_5202	15
PSPTO_5203	13
PSPTO_5204	12
PSPTO_5205	3
PSPTO_5206	3
PSPTO_5207	0
PSPTO_5208	1
PSPTO_5209	6
PSPTO_5210	1
PSPTO_5211	0
PSPTO_5212	15
PSPTO_5213	0
PSPTO_5214	0
PSPTO_5215	18
PSPTO_5216	3
PSPTO_5217	6
PSPTO_5218	2
PSPTO_5219	4
PSPTO_5220	8
PSPTO_5221	21
PSPTO_5222	14
PSPTO_5223	16
PSPTO_5224	7
PSPTO_5225	5
PSPTO_5226	18
PSPTO_5227	7
PSPTO_5228	7
PSPTO_5229	2
PSPTO_5230	11
PSPTO_5231	1
PSPTO_5232	4
PSPTO_5233	1
PSPTO_5234	3
PSPTO_5235	0
PSPTO_5236	2
PSPTO_5237	0
PSPTO_5238	8
PSPTO_5239	14
PSPTO_5240	14
PSPTO_5241	28
PSPTO_5242	55
PSPTO_5243	42
PSPTO_5244	2
PSPTO_5245	4
PSPTO_5246	1
PSPTO_5247	1
PSPTO_5248	3
PSPTO_5249	23
PSPTO_5250	54
PSPTO_5251	33
PSPTO_5252	4
PSPTO_5253	14
PSPTO_5254	3
PSPTO_5255	14
PSPTO_5256	6
PSPTO_5257	12
PSPTO_5258	4
PSPTO_5259	7
PSPTO_5260	17
PSPTO_5261	4
PSPTO_5262	11
PSPTO_5263	17
PSPTO_5264	12
PSPTO_5265	1
PSPTO_5266	3
PSPTO_5267	1
PSPTO_5268	8
PSPTO_5269	18
PSPTO_5270	17
PSPTO_5271	6
PSPTO_5272	4
PSPTO_5273	7
PSPTO_5274	3
PSPTO_5275	11
PSPTO_5276	6
PSPTO_5277	16
PSPTO_5278	5
PSPTO_5279	35
PSPTO_5280	2
PSPTO_5281	0
PSPTO_5282	21
PSPTO_5283	9
PSPTO_5284	74
PSPTO_5285	25
PSPTO_5286	7
PSPTO_5287	1
PSPTO_5288	8
PSPTO_5289	4
PSPTO_5290	1
PSPTO_5291	13
PSPTO_5292	25
PSPTO_5293	31
PSPTO_5294	38
PSPTO_5295	9
PSPTO_5296	8
PSPTO_5297	3
PSPTO_5298	1
PSPTO_5299	10
PSPTO_5300	12
PSPTO_5301	4
PSPTO_5302	4
PSPTO_5303	7
PSPTO_5304	22
PSPTO_5305	0
PSPTO_5306	13
PSPTO_5307	30
PSPTO_5308	14
PSPTO_5309	17
PSPTO_5310	34
PSPTO_5311	4
PSPTO_5312	4
PSPTO_5313	2
PSPTO_5314	3
PSPTO_5315	2
PSPTO_5316	5
PSPTO_5317	11
PSPTO_5318	66
PSPTO_5319	1
PSPTO_5320	5
PSPTO_5321	2
PSPTO_5322	0
PSPTO_5323	2
PSPTO_5324	23
PSPTO_5325	6
PSPTO_5326	4
PSPTO_5327	40
PSPTO_5328	20
PSPTO_5329	39
PSPTO_5330	9
PSPTO_5331	16
PSPTO_5332	7
PSPTO_5333	2
PSPTO_5334	12
PSPTO_5335	4
PSPTO_5336	5
PSPTO_5337	13
PSPTO_5338	16
PSPTO_5339	13
PSPTO_5340	18
PSPTO_5341	32
PSPTO_5342	14
PSPTO_5343	3
PSPTO_5344	13
PSPTO_5345	8
PSPTO_5346	5
PSPTO_5347	1
PSPTO_5348	11
PSPTO_5349	1
PSPTO_5350	2
PSPTO_5351	8
PSPTO_5352	13
PSPTO_5353	1
PSPTO_5354	10
PSPTO_5355	3
PSPTO_5356	7
PSPTO_5357	6
PSPTO_5358	11
PSPTO_5359	7
PSPTO_5360	4
PSPTO_5361	4
PSPTO_5362	4
PSPTO_5363	4
PSPTO_5364	0
PSPTO_5365	20
PSPTO_5367	0
PSPTO_5368	13
PSPTO_5370	5
PSPTO_5371	1
PSPTO_5373	5
PSPTO_5374	4
PSPTO_5375	3
PSPTO_5376	2
PSPTO_5377	15
PSPTO_5378	13
PSPTO_5379	11
PSPTO_5380	31
PSPTO_5381	26
PSPTO_5382	10
PSPTO_5383	3
PSPTO_5384	1
PSPTO_5385	0
PSPTO_5386	1
PSPTO_5387	0
PSPTO_5388	1
PSPTO_5389	1
PSPTO_5390	2
PSPTO_5391	19
PSPTO_5392	4
PSPTO_5393	7
PSPTO_5394	2
PSPTO_5395	9
PSPTO_5396	9
PSPTO_5397	13
PSPTO_5398	4
PSPTO_5399	4
PSPTO_5400	1
PSPTO_5401	5
PSPTO_5402	12
PSPTO_5403	3
PSPTO_5404	7
PSPTO_5405	13
PSPTO_5406	8
PSPTO_5407	17
PSPTO_5408	8
PSPTO_5409	5
PSPTO_5410	4
PSPTO_5411	14
PSPTO_5412	1
PSPTO_5413	26
PSPTO_5414	14
PSPTO_5415	19
PSPTO_5416	8
PSPTO_5417	9
PSPTO_5418	21
PSPTO_5419	4
PSPTO_5420	12
PSPTO_5421	3
PSPTO_5422	15
PSPTO_5423	1
PSPTO_5424	14
PSPTO_5425	32
PSPTO_5426	1
PSPTO_5427	12
PSPTO_5428	14
PSPTO_5430	36
PSPTO_5431	48
PSPTO_5432	346
PSPTO_5433	103
PSPTO_5434	39
PSPTO_5435	141
PSPTO_5436	18
PSPTO_5437	4
PSPTO_5438	50
PSPTO_5439	5
PSPTO_5440	3
PSPTO_5441	2
PSPTO_5442	2
PSPTO_5443	20
PSPTO_5444	1
PSPTO_5445	12
PSPTO_5446	2
PSPTO_5447	14
PSPTO_5448	9
PSPTO_5449	0
PSPTO_5450	0
PSPTO_5451	24
PSPTO_5452	10
PSPTO_5453	19
PSPTO_5454	14
PSPTO_5455	1
PSPTO_5456	5
PSPTO_5457	10
PSPTO_5458	3
PSPTO_5460	18
PSPTO_5461	31
PSPTO_5462	0
PSPTO_5463	8
PSPTO_5464	3
PSPTO_5465	28
PSPTO_5466	498
PSPTO_5467	16
PSPTO_5468	11
PSPTO_5469	24
PSPTO_5470	1
PSPTO_5471	1
PSPTO_5472	5
PSPTO_5473	14
PSPTO_5474	2
PSPTO_5475	2
PSPTO_5476	8
PSPTO_5477	3
PSPTO_5478	2
PSPTO_5479	8
PSPTO_5480	3
PSPTO_5481	11
PSPTO_5482	16
PSPTO_5483	13
PSPTO_5484	8
PSPTO_5485	7
PSPTO_5486	8
PSPTO_5487	6
PSPTO_5488	15
PSPTO_5489	4
PSPTO_5490	13
PSPTO_5491	10
PSPTO_5492	11
PSPTO_5493	13
PSPTO_5494	11
PSPTO_5495	1
PSPTO_5496	1
PSPTO_5497	0
PSPTO_5498	7
PSPTO_5499	32
PSPTO_5500	28
PSPTO_5501	9
PSPTO_5502	12
PSPTO_5503	5
PSPTO_5504	4
PSPTO_5505	7
PSPTO_5506	7
PSPTO_5507	11
PSPTO_5508	1
PSPTO_5509	5
PSPTO_5510	176
PSPTO_5511	150
PSPTO_5512	3
PSPTO_5513	1
PSPTO_5514	2
PSPTO_5515	11
PSPTO_5516	39
PSPTO_5517	28
PSPTO_5518	14
PSPTO_5519	3
PSPTO_5520	3
PSPTO_5521	5
PSPTO_5522	12
PSPTO_5523	4
PSPTO_5524	7
PSPTO_5525	3
PSPTO_5526	4
PSPTO_5527	5
PSPTO_5528	11
PSPTO_5529	19
PSPTO_5530	6
PSPTO_5531	8
PSPTO_5532	0
PSPTO_5533	5
PSPTO_5534	5
PSPTO_5535	8
PSPTO_5536	4
PSPTO_5537	12
PSPTO_5538	1
PSPTO_5539	0
PSPTO_5540	0
PSPTO_5541	2
PSPTO_5542	33
PSPTO_5543	17
PSPTO_5544	0
PSPTO_5545	4
PSPTO_5546	1
PSPTO_5547	2
PSPTO_5548	5
PSPTO_5549	4
PSPTO_5550	1
PSPTO_5551	2
PSPTO_5552	1
PSPTO_5553	5
PSPTO_5554	14
PSPTO_5555	0
PSPTO_5556	9
PSPTO_5557	8
PSPTO_5558	3
PSPTO_5559	2
PSPTO_5560	5
PSPTO_5561	2
PSPTO_5562	2
PSPTO_5563	0
PSPTO_5564	9
PSPTO_5565	3
PSPTO_5566	17
PSPTO_5567	1
PSPTO_5568	0
PSPTO_5569	12
PSPTO_5570	1
PSPTO_5571	13
PSPTO_5572	8
PSPTO_5573	6
PSPTO_5574	9
PSPTO_5575	4
PSPTO_5576	7
PSPTO_5577	0
PSPTO_5578	2
PSPTO_5579	3
PSPTO_5580	1
PSPTO_5581	1
PSPTO_5582	8
PSPTO_5583	1
PSPTO_5584	1
PSPTO_5585	2
PSPTO_5586	4
PSPTO_5587	1
PSPTO_5588	5
PSPTO_5589	2
PSPTO_5590	0
PSPTO_5591	23
PSPTO_5592	4
PSPTO_5593	5
PSPTO_5594	57
PSPTO_5595	8
PSPTO_5596	5
PSPTO_5597	40
PSPTO_5598	120
PSPTO_5599	457
PSPTO_5600	259
PSPTO_5601	639
PSPTO_5602	170
PSPTO_5603	243
PSPTO_5604	114
PSPTO_5605	58
PSPTO_5606	9
PSPTO_5607	13
PSPTO_5608	25
PSPTO_5609	16
PSPTO_5610	81
PSPTO_5611	4
PSPTO_5612	71
PSPTO_5613	9
PSPTO_5614	57
PSPTO_5615	29
PSPTO_5616	1
PSPTO_5617	1
PSPTO_5618	4
PSPTO_5619	0
PSPTO_5620	0
PSPTO_5621	21
PSPTO_5622	2
PSPTO_5623	0
PSPTO_5624	4
PSPTO_5625	2
PSPTO_5626	0
PSPTO_5627	1
PSPTO_5628	0
PSPTO_5629	8
PSPTO_5630	5
PSPTO_5631	6
PSPTO_5632	29
PSPTO_5633	18
PSPTO_5634	6
PSPTO_5635	15
PSPTO_5636	51
PSPTO_5637	3
PSPTO_5638	0
PSPTO_5639	1
PSPTO_5640	9
PSPTO_5641	4
PSPTO_5642	2
PSPTO_5643	1
PSPTO_5644	12
PSPTO_5645	25
PSPTO_5646	6
PSPTO_5647	41
PSPTO_5648	4
PSPTO_5649	2
PSPTO_5650	13
PSPTO_5651	25
PSPTO_5652	28
PSPTO_5653	6
PSPTO_5654	2
PSPTO_5655	1
PSPTO_5656	10
PSPTO_5657	2
PSPTO_5658	0
PSPTO_5659	1
PSPTO_5660	8
PSPTO_5661	7335
PSPTO_5662	16
PSPTO_5663	14285
PSPTO_5664	0
PSPTO_5665	0
PSPTO_5666	286
PSPTO_5667	4
PSPTO_5668	799
PSPTO_5669	118
PSPTO_5670	25
PSPTO_5671	9
PSPTO_5672	0
PSPTO_5673	16
PSPTO_5674	6
PSPTO_5675	1
PSPTO_A0072	28
PSPTO_A0073	0
PSPTO_B0001	14
PSPTO_B0002	8
PSPTO_B0003	23
PSPTO_B0004	2
PSPTO_B0005	46
PSPTO_B0006	0
PSPTO_B0007	0
PSPTO_B0008	2
PSPTO_B0009	15
PSPTO_B0010	167
PSPTO_B0011	52
PSPTO_B0012	31
PSPTO_B0013	6
PSPTO_B0014	6
PSPTO_B0015	4
PSPTO_B0016	2
PSPTO_B0017	0
PSPTO_B0018	8
PSPTO_B0019	10
PSPTO_B0020	38
PSPTO_B0021	56
PSPTO_B0022	7
PSPTO_B0023	16
PSPTO_B0024	6
PSPTO_B0025	4
PSPTO_B0026	8
PSPTO_B0027	23
PSPTO_B0028	4
PSPTO_B0029	0
PSPTO_B0030	4
PSPTO_B0031	1
PSPTO_B0032	4
PSPTO_B0033	1
PSPTO_B0034	6
PSPTO_B0035	4
PSPTO_B0036	12
PSPTO_B0037	3
PSPTO_B0038	6
PSPTO_B0039	6
PSPTO_B0040	4
PSPTO_B0041	6
PSPTO_B0042	6
PSPTO_B0043	8
PSPTO_B0044	4
PSPTO_B0045	15
PSPTO_B0046	1
PSPTO_B0047	2
PSPTO_B0048	1
PSPTO_B0049	7
PSPTO_B0050	5
PSPTO_B0051	3
PSPTO_B0052	4
PSPTO_B0053	7
PSPTO_B0054	0
PSPTO_B0055	2
PSPTO_B0056	1
PSPTO_B0057	38
PSPTO_B0058	2
PSPTO_B0059	3
PSPTO_B0060	6
PSPTO_B0061	5
PSPTO_B0062	3
PSPTO_B0063	2
PSPTO_B0064	0
PSPTO_B0065	0
PSPTO_B0066	17
PSPTO_B0067	5
PSPTO_B0068	1
PSPTO_B0069	11
PSPTO_B0070	17
PSPTO_B0071	36
PSPTO_B0072	8
PSPTO_B0073	2
PSPTO_B0074	5
PSPTO_B0075	2
PSPTO_B0076	16
PSPTO_B0077	2
PSPTO_r01	98
PSPTO_r02	427
PSPTO_r03	0
PSPTO_r04	112
PSPTO_r05	442
PSPTO_r06	1
PSPTO_r07	95
PSPTO_r08	402
PSPTO_r09	0
PSPTO_r10	1
PSPTO_r11	436
PSPTO_r12	114
PSPTO_r13	2
PSPTO_r14	484
PSPTO_r15	140
PSPTO_t01	0
PSPTO_t02	0
PSPTO_t03	6
PSPTO_t04	11
PSPTO_t05	30
PSPTO_t06	1
PSPTO_t07	6
PSPTO_t08	7
PSPTO_t09	7
PSPTO_t10	15
PSPTO_t11	21
PSPTO_t12	9
PSPTO_t13	12
PSPTO_t14	10
PSPTO_t15	6
PSPTO_t16	21
PSPTO_t17	0
PSPTO_t18	32
PSPTO_t19	0
PSPTO_t20	1
PSPTO_t21	2
PSPTO_t22	7
PSPTO_t23	1
PSPTO_t24	1
PSPTO_t25	7
PSPTO_t26	7
PSPTO_t27	0
PSPTO_t28	2
PSPTO_t29	4
PSPTO_t30	1
PSPTO_t31	9
PSPTO_t32	1
PSPTO_t33	2
PSPTO_t34	0
PSPTO_t35	0
PSPTO_t36	0
PSPTO_t37	2
PSPTO_t38	0
PSPTO_t39	2
PSPTO_t40	0
PSPTO_t41	16
PSPTO_t42	12
PSPTO_t43	0
PSPTO_t44	4
PSPTO_t45	18
PSPTO_t46	5
PSPTO_t47	17
PSPTO_t48	8
PSPTO_t49	7
PSPTO_t50	1
PSPTO_t51	7
PSPTO_t52	2
PSPTO_t53	2
PSPTO_t54	0
PSPTO_t55	4
PSPTO_t56	1
PSPTO_t57	7
PSPTO_t58	2
PSPTO_t59	2
PSPTO_t60	0
PSPTO_t61	0
PSPTO_t62	12
PSPTO_t63	8
__no_feature	25785
__ambiguous	2813
__too_low_aQual	0
__not_aligned	16660
__alignment_not_unique	0
