gene0	5
gene1	88
gene10	7
gene100	15
gene1000	13
gene1001	1
gene1002	12
gene1003	55
gene1004	2
gene1005	317
gene1006	27
gene1007	38
gene1008	14
gene1009	9
gene101	28
gene1010	0
gene1011	0
gene1012	1
gene1013	0
gene1014	0
gene1015	2
gene1016	17
gene1017	22
gene1018	173
gene1019	29
gene102	16
gene1020	41
gene1021	22
gene1022	651
gene1023	1
gene1024	2
gene1025	3
gene1026	4
gene1027	9
gene1028	0
gene1029	2
gene103	620
gene1030	1
gene1031	2
gene1032	0
gene1033	94
gene1034	88
gene1035	52
gene1036	9
gene1037	10
gene1038	0
gene1039	1
gene104	7
gene1040	6
gene1041	0
gene1042	3
gene1043	5
gene1044	0
gene1045	0
gene1046	3
gene1047	15
gene1048	19
gene1049	13
gene105	17
gene1050	432
gene1051	317
gene1052	6
gene1053	57
gene1054	9
gene1055	50
gene1056	152
gene1057	33
gene1058	1
gene1059	0
gene106	1
gene1060	77
gene1061	61
gene1062	29
gene1063	989
gene1064	30
gene1065	333
gene1066	5
gene1067	81
gene1068	90
gene1069	84
gene107	50
gene1070	8
gene1071	207
gene1072	189
gene1073	501
gene1074	707
gene1075	423
gene1076	1369
gene1077	2878
gene1078	1210
gene1079	1304
gene108	20
gene1080	335
gene1081	268
gene1082	198
gene1083	713
gene1084	595
gene1085	858
gene1086	0
gene1087	95
gene1088	52
gene1089	7
gene109	26
gene1090	299
gene1091	278
gene1092	152
gene1093	239
gene1094	331
gene1095	696
gene1096	2457
gene1097	705
gene1098	25
gene1099	18
gene11	1
gene110	25
gene1100	11
gene1101	21
gene1102	25
gene1103	88
gene1104	8
gene1105	69
gene1106	29
gene1107	71
gene1108	31
gene1109	61
gene111	177
gene1110	91
gene1111	39
gene1112	1
gene1113	89
gene1114	1
gene1115	21
gene1116	204
gene1117	1
gene1118	28
gene1119	35
gene112	1936
gene1120	61
gene1121	68
gene1122	97
gene1123	0
gene1124	0
gene1125	228
gene1126	5
gene1127	5
gene1128	18
gene1129	37
gene113	1007
gene1130	157
gene1131	68
gene1132	88
gene1133	471
gene1134	85
gene1135	170
gene1136	10
gene1137	28
gene1138	9105
gene1139	15
gene114	5797
gene1140	18
gene1141	10
gene1142	9
gene1143	1
gene1144	0
gene1145	28
gene1146	9
gene1147	19
gene1148	2
gene1149	1
gene115	1
gene1150	1
gene1151	1
gene1152	0
gene1153	1
gene1154	0
gene1155	2
gene1156	2
gene1157	1
gene1158	1
gene1159	1
gene116	16948
gene1160	3
gene1161	5
gene1162	0
gene1163	0
gene1164	1
gene1165	51
gene1166	18
gene1167	3
gene1168	0
gene1169	1
gene117	50
gene1170	0
gene1171	2
gene1172	0
gene1173	6
gene1174	3
gene1175	6
gene1176	0
gene1177	2
gene1178	49
gene1179	295
gene118	188
gene1180	132
gene1181	13
gene1182	22
gene1183	31
gene1184	30
gene1185	5
gene1186	2
gene1187	2
gene1188	3
gene1189	43
gene119	210
gene1190	80
gene1191	113
gene1192	26
gene1193	2002
gene1194	968
gene1195	97
gene1196	21
gene1197	35
gene1198	246
gene1199	2
gene12	0
gene120	11
gene1200	0
gene1201	34
gene1202	65
gene1203	49
gene1204	114
gene1205	18
gene1206	8
gene1207	242
gene1208	49
gene1209	203
gene121	44
gene1210	33
gene1211	2343
gene1212	516
gene1213	55
gene1214	95
gene1215	35
gene1216	10
gene1217	2
gene1218	53
gene1219	272
gene122	29
gene1220	4
gene1221	5
gene1222	1
gene1223	0
gene1224	8
gene1225	0
gene1226	15
gene1227	2
gene1228	7
gene1229	111
gene123	102
gene1230	6
gene1231	84
gene1232	43
gene1233	3
gene1234	6
gene1235	8
gene1236	1
gene1237	2
gene1238	1
gene1239	0
gene124	287
gene1240	0
gene1241	39
gene1242	52
gene1243	73
gene1244	18
gene1245	32
gene1246	22
gene1247	177
gene1248	2044
gene1249	16
gene125	44
gene1250	3
gene1251	298
gene1252	10
gene1253	0
gene1254	0
gene1255	3513
gene1256	209
gene1257	213
gene1258	318
gene1259	317
gene126	26
gene1260	24
gene1261	77
gene1262	12
gene1263	66
gene1264	30
gene1265	15
gene1266	43
gene1267	37
gene1268	35
gene1269	1
gene127	14
gene1270	1
gene1271	0
gene1272	36
gene1273	64
gene1274	20
gene1275	4
gene1276	3
gene1277	0
gene1278	31
gene1279	41
gene128	17
gene1280	6
gene1281	34
gene1282	28
gene1283	64
gene1284	90
gene1285	107
gene1286	311
gene1287	68
gene1288	73
gene1289	758
gene129	67
gene1290	80
gene1291	26
gene1292	31
gene1293	59
gene1294	188
gene1295	44
gene1296	7
gene1297	54
gene1298	20
gene1299	292
gene13	747
gene130	18
gene1300	16
gene1301	1066
gene1302	8
gene1303	19
gene1304	29
gene1305	6
gene1306	12
gene1307	39
gene1308	10
gene1309	64
gene131	196
gene1310	264
gene1311	99
gene1312	69
gene1313	32
gene1314	22
gene1315	24
gene1316	20
gene1317	67
gene1318	3
gene1319	8
gene132	172
gene1320	3
gene1321	267
gene1322	3
gene1323	2
gene1324	4
gene1325	0
gene1326	7
gene1327	3
gene1328	3
gene1329	5
gene133	1
gene1330	0
gene1331	1
gene1332	0
gene1333	2
gene1334	23
gene1335	12
gene1336	11
gene1337	115
gene1338	1155
gene1339	63
gene134	0
gene1340	34
gene1341	1
gene1342	1
gene1343	8
gene1344	366
gene1345	42
gene1346	9
gene1347	0
gene1348	0
gene1349	0
gene135	0
gene1350	0
gene1351	0
gene1352	0
gene1353	0
gene1354	0
gene1355	0
gene1356	0
gene1357	0
gene1358	0
gene1359	0
gene136	0
gene1360	0
gene1361	0
gene1362	0
gene1363	0
gene1364	0
gene1365	0
gene1366	0
gene1367	0
gene1368	0
gene1369	0
gene137	2
gene1370	0
gene1371	0
gene1372	0
gene1373	0
gene1374	0
gene1375	0
gene1376	0
gene1377	0
gene1378	0
gene1379	0
gene138	0
gene1380	0
gene1381	0
gene1382	0
gene1383	0
gene1384	0
gene1385	1
gene1386	0
gene1387	0
gene1388	0
gene1389	0
gene139	1
gene1390	0
gene1391	27
gene1392	2
gene1393	0
gene1394	432
gene1395	135
gene1396	5
gene1397	38
gene1398	42
gene1399	1
gene14	107
gene140	14
gene1400	10
gene1401	250
gene1402	43
gene1403	8
gene1404	8
gene1405	5
gene1406	0
gene1407	4
gene1408	2
gene1409	6
gene141	389
gene1410	7
gene1411	2
gene1412	14
gene1413	1
gene1414	193
gene1415	374
gene1416	111
gene1417	74
gene1418	63
gene1419	1
gene142	14
gene1420	3
gene1421	0
gene1422	23
gene1423	6
gene1424	0
gene1425	0
gene1426	11
gene1427	5
gene1428	37
gene1429	137
gene143	574
gene1430	32
gene1431	10363
gene1432	96
gene1433	34
gene1434	10
gene1435	5
gene1436	9
gene1437	0
gene1438	434
gene1439	882
gene144	57
gene1440	57
gene1441	226
gene1442	24
gene1443	13
gene1444	8
gene1445	23
gene1446	29
gene1447	47
gene1448	0
gene1449	76
gene145	14
gene1450	22
gene1451	5
gene1452	87
gene1453	1
gene1454	5
gene1455	26
gene1456	42
gene1457	55
gene1458	15
gene1459	6
gene146	76
gene1460	18
gene1461	137
gene1462	2
gene1463	45
gene1464	7
gene1465	7
gene1466	39
gene1467	1
gene1468	46
gene1469	162
gene147	107
gene1470	14
gene1471	2
gene1472	1
gene1473	7
gene1474	2
gene1475	3
gene1476	0
gene1477	2
gene1478	7
gene1479	4
gene148	86
gene1480	8
gene1481	39
gene1482	0
gene1483	2
gene1484	4
gene1485	7
gene1486	4
gene1487	0
gene1488	0
gene1489	0
gene149	13
gene1490	8
gene1491	6
gene1492	2
gene1493	2
gene1494	14
gene1495	29
gene1496	535
gene1497	126
gene1498	1
gene1499	115
gene15	9
gene150	11
gene1500	13
gene1501	10
gene1502	11
gene1503	7
gene1504	45
gene1505	6
gene1506	18
gene1507	6
gene1508	62
gene1509	7
gene151	15
gene1510	1
gene1511	9
gene1512	12
gene1513	2
gene1514	13
gene1515	366
gene1516	2
gene1517	3
gene1518	1
gene1519	0
gene152	317
gene1520	0
gene1521	2
gene1522	1
gene1523	28
gene1524	5
gene1525	20
gene1526	25
gene1527	256
gene1528	222
gene1529	183
gene153	29
gene1530	46
gene1531	40
gene1532	248
gene1533	196
gene1534	50
gene1535	49
gene1536	1
gene1537	28
gene1538	2
gene1539	4
gene154	136
gene1540	23
gene1541	46
gene1542	10
gene1543	2
gene1544	7
gene1545	12
gene1546	5
gene1547	7
gene1548	3
gene1549	33
gene155	7
gene1550	10
gene1551	32
gene1552	1
gene1553	3
gene1554	179
gene1555	247
gene1556	41
gene1557	2
gene1558	4
gene1559	1
gene156	22
gene1560	0
gene1561	2
gene1562	0
gene1563	1
gene1564	0
gene1565	0
gene1566	0
gene1567	41
gene1568	0
gene1569	0
gene157	200
gene1570	0
gene1571	1
gene1572	0
gene1573	0
gene1574	3
gene1575	6
gene1576	8
gene1577	0
gene1578	1
gene1579	11
gene158	60
gene1580	24
gene1581	18
gene1582	0
gene1583	85
gene1584	0
gene1585	1
gene1586	0
gene1587	63
gene1588	1
gene1589	0
gene159	260
gene1590	0
gene1591	1
gene1592	0
gene1593	1
gene1594	1
gene1595	0
gene1596	3
gene1597	0
gene1598	3
gene1599	7
gene16	1
gene160	47
gene1600	6
gene1601	48
gene1602	53
gene1603	16
gene1604	12
gene1605	2
gene1606	7
gene1607	4
gene1608	5
gene1609	20
gene161	397
gene1610	9
gene1611	20
gene1612	94
gene1613	5
gene1614	13
gene1615	3
gene1616	25
gene1617	4
gene1618	3
gene1619	6
gene162	7
gene1620	544
gene1621	817
gene1622	324
gene1623	5
gene1624	9
gene1625	15
gene1626	46
gene1627	34
gene1628	18
gene1629	1313
gene163	288
gene1630	2114
gene1631	143
gene1632	129
gene1633	6
gene1634	5
gene1635	26
gene1636	101
gene1637	81
gene1638	9
gene1639	40
gene164	213
gene1640	59
gene1641	269
gene1642	152
gene1643	14
gene1644	1
gene1645	13
gene1646	22
gene1647	13
gene1648	75
gene1649	42
gene165	223
gene1650	15
gene1651	12
gene1652	14
gene1653	218
gene1654	228
gene1655	40
gene1656	252
gene1657	127
gene1658	3
gene1659	50
gene166	109
gene1660	463
gene1661	102
gene1662	1
gene1663	4
gene1664	9
gene1665	14
gene1666	40
gene1667	5
gene1668	25
gene1669	252
gene167	1828
gene1670	142
gene1671	31
gene1672	115
gene1673	161
gene1674	155
gene1675	1419
gene1676	9
gene1677	132
gene1678	16
gene1679	20
gene168	1139
gene1680	115
gene1681	62
gene1682	27
gene1683	149
gene1684	0
gene1685	0
gene1686	137
gene1687	10
gene1688	5
gene1689	3
gene169	443
gene1690	3
gene1691	6
gene1692	13
gene1693	3
gene1694	18
gene1695	242
gene1696	9216
gene1697	28
gene1698	2
gene1699	20
gene17	0
gene170	674
gene1700	27
gene1701	13
gene1702	31
gene1703	9
gene1704	2
gene1705	8
gene1706	29
gene1707	288
gene1708	48
gene1709	1
gene171	44
gene1710	1
gene1711	0
gene1712	2
gene1713	1
gene1714	32
gene1715	5
gene1716	0
gene1717	16
gene1718	1
gene1719	4
gene172	219
gene1720	4
gene1721	0
gene1722	3
gene1723	4272
gene1724	113
gene1725	32
gene1726	0
gene1727	191
gene1728	8
gene1729	50
gene173	123
gene1730	29
gene1731	39
gene1732	24
gene1733	361
gene1734	571
gene1735	231
gene1736	5
gene1737	688
gene1738	349
gene1739	1542
gene174	238
gene1740	1459
gene1741	0
gene1742	0
gene1743	9
gene1744	20
gene1745	6
gene1746	65
gene1747	24
gene1748	71
gene1749	1
gene175	999
gene1750	83
gene1751	1
gene1752	3
gene1753	75
gene1754	18
gene1755	10
gene1756	14
gene1757	2
gene1758	24
gene1759	46
gene176	448
gene1760	103
gene1761	64
gene1762	17
gene1763	127
gene1764	21
gene1765	124
gene1766	246
gene1767	371
gene1768	324
gene1769	880
gene177	343
gene1770	170
gene1771	0
gene1772	10
gene1773	7
gene1774	8
gene1775	21
gene1776	6
gene1777	5
gene1778	27
gene1779	14
gene178	104
gene1780	3
gene1781	55
gene1782	168
gene1783	5
gene1784	241
gene1785	417
gene1786	137
gene1787	86
gene1788	33
gene1789	27
gene179	156
gene1790	6
gene1791	52
gene1792	5
gene1793	3
gene1794	3
gene1795	4
gene1796	0
gene1797	13
gene1798	738
gene1799	1319
gene18	1
gene180	92
gene1800	2789
gene1801	117
gene1802	31
gene1803	606
gene1804	71
gene1805	18
gene1806	1
gene1807	14
gene1808	28
gene1809	2
gene181	24
gene1810	3
gene1811	12
gene1812	4
gene1813	16
gene1814	11
gene1815	84
gene1816	17
gene1817	0
gene1818	5
gene1819	7
gene182	163
gene1820	63
gene1821	19
gene1822	3
gene1823	1
gene1824	6
gene1825	161
gene1826	1124
gene1827	40
gene1828	20
gene1829	87
gene183	313
gene1830	131
gene1831	15
gene1832	31
gene1833	17
gene1834	13
gene1835	378
gene1836	5
gene1837	122
gene1838	175
gene1839	102
gene184	32
gene1840	122
gene1841	4
gene1842	3
gene1843	36
gene1844	1092
gene1845	120
gene1846	19
gene1847	33
gene1848	16
gene1849	188
gene185	15
gene1850	3
gene1851	228
gene1852	373
gene1853	281
gene1854	49
gene1855	14
gene1856	44
gene1857	15
gene1858	6
gene1859	7
gene186	36
gene1860	8
gene1861	264
gene1862	0
gene1863	13
gene1864	13
gene1865	15
gene1866	25
gene1867	25
gene1868	23
gene1869	38
gene187	22
gene1870	26
gene1871	41
gene1872	47
gene1873	375
gene1874	143
gene1875	30
gene1876	160
gene1877	84
gene1878	603
gene1879	58
gene188	29
gene1880	133
gene1881	67
gene1882	33
gene1883	11
gene1884	72
gene1885	55
gene1886	1
gene1887	25
gene1888	118
gene1889	39
gene189	26
gene1890	218
gene1891	26
gene1892	7
gene1893	32
gene1894	9
gene1895	21
gene1896	16
gene1897	1
gene1898	41
gene1899	19
gene19	49
gene190	0
gene1900	247
gene1901	2
gene1902	50
gene1903	327
gene1904	144
gene1905	102
gene1906	68
gene1907	61
gene1908	65
gene1909	345
gene191	29
gene1910	741
gene1911	162
gene1912	531
gene1913	85
gene1914	187
gene1915	66
gene1916	78
gene1917	13
gene1918	1
gene1919	20
gene192	5
gene1920	6
gene1921	13
gene1922	10
gene1923	47
gene1924	71
gene1925	5
gene1926	2
gene1927	36
gene1928	120
gene1929	1
gene193	761
gene1930	13
gene1931	122
gene1932	11
gene1933	8
gene1934	46
gene1935	93
gene1936	124
gene1937	99
gene1938	16
gene1939	24
gene194	27
gene1940	25
gene1941	26
gene1942	94
gene1943	528
gene1944	415
gene1945	899
gene1946	6408
gene1947	737
gene1948	90
gene1949	66
gene195	47
gene1950	155
gene1951	37
gene1952	275
gene1953	24
gene1954	10
gene1955	1
gene1956	2
gene1957	10
gene1958	0
gene1959	326
gene196	115
gene1960	611
gene1961	375
gene1962	198
gene1963	288
gene1964	63
gene1965	272
gene1966	289
gene1967	411
gene1968	122
gene1969	47
gene197	12
gene1970	59
gene1971	18
gene1972	31
gene1973	16
gene1974	18
gene1975	5
gene1976	1
gene1977	11
gene1978	29
gene1979	13
gene198	15
gene1980	24
gene1981	6
gene1982	10
gene1983	88
gene1984	15
gene1985	3
gene1986	2
gene1987	86
gene1988	11
gene1989	8
gene199	57
gene1990	1
gene1991	12
gene1992	3
gene1993	6
gene1994	0
gene1995	1
gene1996	1269
gene1997	33
gene1998	28
gene1999	2
gene2	50
gene20	11
gene200	58
gene2000	40
gene2001	192
gene2002	87
gene2003	1
gene2004	14
gene2005	9
gene2006	3
gene2007	3
gene2008	0
gene2009	22
gene201	9
gene2010	28
gene2011	8
gene2012	12
gene2013	7
gene2014	3
gene2015	2
gene2016	2
gene2017	1
gene2018	4
gene2019	1
gene202	2
gene2020	559
gene2021	22
gene2022	1
gene2023	1
gene2024	0
gene2025	0
gene2026	1
gene2027	1
gene2028	149
gene2029	43
gene203	416
gene2030	73
gene2031	7
gene2032	92
gene2033	18
gene2034	28
gene2035	81
gene2036	11
gene2037	67
gene2038	5
gene2039	20
gene204	0
gene2040	4
gene2041	11
gene2042	16
gene2043	16
gene2044	49
gene2045	13
gene2046	15
gene2047	28
gene2048	31
gene2049	287
gene205	3
gene2050	18
gene2051	1607
gene2052	49
gene2053	0
gene2054	79
gene2055	42
gene2056	64
gene2057	46
gene2058	141
gene2059	42
gene206	51
gene2060	50
gene2061	115
gene2062	136
gene2063	156
gene2064	635
gene2065	9
gene2066	9
gene2067	3
gene2068	7
gene2069	3
gene207	21
gene2070	2
gene2071	4
gene2072	2
gene2073	1
gene2074	1
gene2075	0
gene2076	1
gene2077	0
gene2078	0
gene2079	1
gene208	43
gene2080	0
gene2081	2
gene2082	3
gene2083	0
gene2084	1
gene2085	25
gene2086	132
gene2087	121
gene2088	40
gene2089	98
gene209	4
gene2090	9
gene2091	6
gene2092	17
gene2093	0
gene2094	5
gene2095	0
gene2096	35
gene2097	20
gene2098	7
gene2099	22
gene21	3
gene210	780
gene2100	11
gene2101	6
gene2102	5
gene2103	8
gene2104	15
gene2105	33
gene2106	2
gene2107	10
gene2108	1
gene2109	3
gene211	37
gene2110	14
gene2111	36
gene2112	3
gene2113	4
gene2114	137
gene2115	1918
gene2116	196
gene2117	278
gene2118	9
gene2119	1332
gene212	24
gene2120	1188
gene2121	157
gene2122	35
gene2123	14
gene2124	9
gene2125	19
gene2126	6
gene2127	3
gene2128	12
gene2129	4
gene213	20
gene2130	3
gene2131	9
gene2132	2
gene2133	3
gene2134	0
gene2135	0
gene2136	5
gene2137	354
gene2138	264
gene2139	7
gene214	76
gene2140	16
gene2141	1
gene2142	2
gene2143	0
gene2144	3
gene2145	3
gene2146	2
gene2147	6
gene2148	33
gene2149	23
gene215	6
gene2150	13
gene2151	4
gene2152	0
gene2153	3
gene2154	4
gene2155	7
gene2156	161
gene2157	553
gene2158	31
gene2159	4
gene216	3
gene2160	12
gene2161	5
gene2162	2
gene2163	0
gene2164	3
gene2165	1
gene2166	3
gene2167	22
gene2168	6
gene2169	0
gene217	1
gene2170	19
gene2171	9
gene2172	352
gene2173	692
gene2174	6317
gene2175	82
gene2176	33
gene2177	257
gene2178	187
gene2179	34
gene218	0
gene2180	28
gene2181	53
gene2182	39
gene2183	35
gene2184	14
gene2185	5
gene2186	1
gene2187	11
gene2188	22
gene2189	41
gene219	17
gene2190	21
gene2191	38
gene2192	6
gene2193	17
gene2194	6
gene2195	2
gene2196	73
gene2197	86
gene2198	8
gene2199	5
gene22	19
gene220	99
gene2200	684
gene2201	92
gene2202	72
gene2203	19
gene2204	13
gene2205	72
gene2206	140
gene2207	17
gene2208	18
gene2209	25
gene221	236
gene2210	365
gene2211	127
gene2212	22
gene2213	82
gene2214	0
gene2215	26
gene2216	11
gene2217	71
gene2218	19
gene2219	7
gene222	419
gene2220	35
gene2221	10
gene2222	1
gene2223	10
gene2224	5
gene2225	9
gene2226	18
gene2227	1
gene2228	9
gene2229	18
gene223	92
gene2230	118
gene2231	1
gene2232	11
gene2233	267
gene2234	19
gene2235	29
gene2236	8
gene2237	19
gene2238	8
gene2239	8979
gene224	23
gene2240	0
gene2241	160
gene2242	222
gene2243	69
gene2244	0
gene2245	0
gene2246	23
gene2247	31
gene2248	3
gene2249	0
gene225	15
gene2250	0
gene2251	3
gene2252	1
gene2253	8
gene2254	11
gene2255	0
gene2256	6
gene2257	1064
gene2258	88
gene2259	26
gene226	43
gene2260	318
gene2261	162
gene2262	11
gene2263	22
gene2264	0
gene2265	38
gene2266	37
gene2267	2
gene2268	4
gene2269	9
gene227	5
gene2270	16
gene2271	9
gene2272	2
gene2273	4
gene2274	10
gene2275	3
gene2276	27
gene2277	18
gene2278	6
gene2279	2
gene228	27
gene2280	4
gene2281	2
gene2282	9
gene2283	3
gene2284	3
gene2285	0
gene2286	0
gene2287	76
gene2288	33
gene2289	40
gene229	5
gene2290	64
gene2291	7
gene2292	43
gene2293	64
gene2294	63
gene2295	19
gene2296	36
gene2297	1
gene2298	5
gene2299	1
gene23	359
gene230	3
gene2300	6
gene2301	2
gene2302	2
gene2303	1
gene2304	546
gene2305	683
gene2306	655
gene2307	34
gene2308	125
gene2309	160
gene231	11
gene2310	374
gene2311	1570
gene2312	651
gene2313	229
gene2314	1041
gene2315	597
gene2316	384
gene2317	19
gene2318	2
gene2319	14
gene232	1
gene2320	96
gene2321	15
gene2322	50
gene2323	63
gene2324	79
gene2325	74
gene2326	273
gene2327	609
gene2328	3
gene2329	143
gene233	4
gene2330	113
gene2331	15
gene2332	1
gene2333	51
gene2334	82
gene2335	8
gene2336	32
gene2337	12
gene2338	29
gene2339	232
gene234	3
gene2340	418
gene2341	20
gene2342	403
gene2343	187
gene2344	89
gene2345	143
gene2346	669
gene2347	40
gene2348	48
gene2349	89
gene235	0
gene2350	248
gene2351	46
gene2352	4
gene2353	1096
gene2354	84
gene2355	26
gene2356	28
gene2357	17
gene2358	57
gene2359	193
gene236	0
gene2360	203
gene2361	43
gene2362	12
gene2363	2
gene2364	0
gene2365	0
gene2366	1
gene2367	2
gene2368	9
gene2369	0
gene237	695
gene2370	78
gene2371	280
gene2372	195
gene2373	87
gene2374	588
gene2375	2
gene2376	181
gene2377	4
gene2378	1
gene2379	18
gene238	147
gene2380	11
gene2381	47
gene2382	33
gene2383	1
gene2384	0
gene2385	0
gene2386	0
gene2387	0
gene2388	0
gene2389	2
gene239	75
gene2390	3
gene2391	0
gene2392	0
gene2393	0
gene2394	0
gene2395	11
gene2396	67
gene2397	33
gene2398	54
gene2399	4
gene24	2
gene240	502
gene2400	1
gene2401	23
gene2402	32
gene2403	2
gene2404	0
gene2405	5
gene2406	2
gene2407	3
gene2408	2
gene2409	7
gene241	1
gene2410	16
gene2411	48
gene2412	8
gene2413	7
gene2414	11
gene2415	8
gene2416	4
gene2417	6
gene2418	4
gene2419	0
gene242	97
gene2420	123
gene2421	2
gene2422	5
gene2423	34
gene2424	110
gene2425	10
gene2426	73
gene2427	2
gene2428	5
gene2429	42
gene243	99
gene2430	35
gene2431	528
gene2432	7
gene2433	70
gene2434	6
gene2435	0
gene2436	14
gene2437	7
gene2438	4
gene2439	1
gene244	2
gene2440	4
gene2441	57
gene2442	4
gene2443	64
gene2444	161
gene2445	41
gene2446	1325
gene2447	488
gene2448	1184
gene2449	683
gene245	0
gene2450	63
gene2451	6
gene2452	10
gene2453	49
gene2454	74
gene2455	14
gene2456	14
gene2457	53
gene2458	324
gene2459	10
gene246	0
gene2460	30
gene2461	18
gene2462	14
gene2463	96
gene2464	64
gene2465	6
gene2466	17
gene2467	50
gene2468	46
gene2469	9
gene247	0
gene2470	15
gene2471	7
gene2472	25
gene2473	31
gene2474	1
gene2475	2
gene2476	3
gene2477	5
gene2478	7
gene2479	0
gene248	0
gene2480	10
gene2481	12
gene2482	8
gene2483	5
gene2484	6
gene2485	1
gene2486	1139
gene2487	16
gene2488	56
gene2489	6
gene249	0
gene2490	35
gene2491	9
gene2492	17
gene2493	6
gene2494	12
gene2495	26
gene2496	3
gene2497	43
gene2498	47
gene2499	63
gene25	152
gene250	1
gene2500	847
gene2501	345
gene2502	530
gene2503	36
gene2504	134
gene2505	3
gene2506	4
gene2507	0
gene2508	4
gene2509	0
gene251	76
gene2510	1
gene2511	2
gene2512	1
gene2513	1
gene2514	1
gene2515	3
gene2516	3
gene2517	49
gene2518	93
gene2519	35
gene252	1
gene2520	97
gene2521	615
gene2522	1095
gene2523	710
gene2524	235
gene2525	135
gene2526	105
gene2527	3
gene2528	36
gene2529	0
gene253	1
gene2530	3
gene2531	1934
gene2532	1214
gene2533	71
gene2534	5
gene2535	97
gene2536	227
gene2537	98
gene2538	269
gene2539	195
gene254	19
gene2540	155
gene2541	176
gene2542	1606
gene2543	17
gene2544	213
gene2545	992
gene2546	12
gene2547	69
gene2548	425
gene2549	31
gene255	4
gene2550	45
gene2551	228
gene2552	37
gene2553	150
gene2554	186
gene2555	628
gene2556	207
gene2557	144
gene2558	90
gene2559	2
gene256	2
gene2560	194
gene2561	38
gene2562	409
gene2563	34
gene2564	2
gene2565	2
gene2566	5
gene2567	9
gene2568	8
gene2569	11
gene257	13
gene2570	8
gene2571	3
gene2572	7
gene2573	2
gene2574	13
gene2575	23
gene2576	4597
gene2577	328
gene2578	80
gene2579	28
gene258	5
gene2580	14
gene2581	27
gene2582	207
gene2583	1410
gene2584	20
gene2585	29
gene2586	26
gene2587	25
gene2588	5
gene2589	11
gene259	14
gene2590	76
gene2591	18
gene2592	142
gene2593	72
gene2594	148
gene2595	407
gene2596	12
gene2597	118
gene2598	239
gene2599	176
gene26	788
gene260	13
gene2600	6
gene2601	16
gene2602	92
gene2603	16
gene2604	3
gene2605	12
gene2606	53
gene2607	87
gene2608	50
gene2609	9
gene261	5
gene2610	869
gene2611	372
gene2612	18
gene2613	833
gene2614	0
gene2615	275
gene2616	274
gene2617	69
gene2618	292
gene2619	40
gene262	34
gene2620	56
gene2621	255
gene2622	1232
gene2623	0
gene2624	40
gene2625	33
gene2626	28
gene2627	1
gene2628	7
gene2629	16
gene263	3
gene2630	15
gene2631	434
gene2632	911
gene2633	720
gene2634	259
gene2635	331
gene2636	25
gene2637	18
gene2638	302
gene2639	36
gene264	0
gene2640	62
gene2641	128
gene2642	19
gene2643	39
gene2644	85
gene2645	41192
gene2646	45
gene2647	8
gene2648	0
gene2649	12
gene265	0
gene2650	1
gene2651	45
gene2652	48
gene2653	3
gene2654	45
gene2655	9
gene2656	3
gene2657	1
gene2658	0
gene2659	0
gene266	1
gene2660	1
gene2661	6
gene2662	0
gene2663	6
gene2664	0
gene2665	0
gene2666	20
gene2667	0
gene2668	0
gene2669	0
gene267	26
gene2670	1
gene2671	0
gene2672	25
gene2673	0
gene2674	3
gene2675	1
gene2676	2
gene2677	0
gene2678	0
gene2679	0
gene268	7
gene2680	0
gene2681	225
gene2682	115
gene2683	166
gene2684	173
gene2685	74
gene2686	40
gene2687	54
gene2688	2
gene2689	1
gene269	1
gene2690	8
gene2691	6
gene2692	42
gene2693	7
gene2694	14
gene2695	1
gene2696	1
gene2697	7
gene2698	4
gene2699	80
gene27	54
gene270	29
gene2700	63
gene2701	387
gene2702	2
gene2703	0
gene2704	56
gene2705	11
gene2706	156
gene2707	46
gene2708	29
gene2709	159
gene271	55
gene2710	0
gene2711	244
gene2712	29
gene2713	50
gene2714	20
gene2715	31
gene2716	105
gene2717	33
gene2718	105
gene2719	232
gene272	7
gene2720	870
gene2721	3
gene2722	769
gene2723	86
gene2724	22
gene2725	21
gene2726	23
gene2727	8
gene2728	44
gene2729	2
gene273	14
gene2730	33
gene2731	47
gene2732	36
gene2733	6
gene2734	7
gene2735	21
gene2736	4
gene2737	36
gene2738	11
gene2739	16
gene274	42
gene2740	22
gene2741	3
gene2742	2
gene2743	1
gene2744	2
gene2745	0
gene2746	1
gene2747	0
gene2748	0
gene2749	2
gene275	11
gene2750	13
gene2751	0
gene2752	18
gene2753	13
gene2754	6
gene2755	8
gene2756	218
gene2757	2
gene2758	81
gene2759	3
gene276	1
gene2760	21
gene2761	3
gene2762	7
gene2763	4
gene2764	1139
gene2765	989
gene2766	101
gene2767	117
gene2768	181
gene2769	42
gene277	1
gene2770	54
gene2771	67
gene2772	7
gene2773	13
gene2774	76
gene2775	44
gene2776	14
gene2777	1
gene2778	5
gene2779	5
gene278	6
gene2780	3
gene2781	5
gene2782	2
gene2783	3
gene2784	10
gene2785	86
gene2786	171
gene2787	137
gene2788	21
gene2789	6
gene279	2
gene2790	0
gene2791	5
gene2792	5
gene2793	0
gene2794	1
gene2795	5
gene2796	0
gene2797	0
gene2798	6
gene2799	19
gene28	46
gene280	1
gene2800	1
gene2801	1533
gene2802	834
gene2803	71
gene2804	11
gene2805	23
gene2806	349
gene2807	70
gene2808	79
gene2809	10
gene281	1
gene2810	8
gene2811	27
gene2812	75
gene2813	29
gene2814	5
gene2815	8191
gene2816	20
gene2817	71
gene2818	437
gene2819	155
gene282	112
gene2820	53
gene2821	62
gene2822	71
gene2823	17
gene2824	11
gene2825	29
gene2826	18
gene2827	25
gene2828	137
gene2829	36
gene283	33
gene2830	5
gene2831	24
gene2832	1433
gene2833	7
gene2834	54
gene2835	20
gene2836	23
gene2837	47
gene2838	5
gene2839	24
gene284	0
gene2840	4
gene2841	172
gene2842	17
gene2843	70
gene2844	138
gene2845	89
gene2846	129
gene2847	7
gene2848	4
gene2849	9
gene285	3
gene2850	10
gene2851	95
gene2852	55
gene2853	427
gene2854	161
gene2855	21
gene2856	10
gene2857	58
gene2858	115
gene2859	18
gene286	3
gene2860	56
gene2861	0
gene2862	0
gene2863	36
gene2864	16
gene2865	20
gene2866	32
gene2867	20
gene2868	28
gene2869	21
gene287	1
gene2870	686
gene2871	37
gene2872	2
gene2873	2
gene2874	1
gene2875	0
gene2876	1
gene2877	2
gene2878	0
gene2879	1
gene288	0
gene2880	0
gene2881	0
gene2882	0
gene2883	0
gene2884	0
gene2885	0
gene2886	2
gene2887	0
gene2888	0
gene2889	2
gene289	29
gene2890	2
gene2891	78
gene2892	22
gene2893	7
gene2894	8
gene2895	239
gene2896	12
gene2897	2
gene2898	7
gene2899	0
gene29	72
gene290	2
gene2900	17
gene2901	23
gene2902	19
gene2903	7
gene2904	16
gene2905	5
gene2906	1
gene2907	15
gene2908	2
gene2909	9
gene291	3
gene2910	16
gene2911	2
gene2912	15
gene2913	9
gene2914	9
gene2915	467
gene2916	257
gene2917	69
gene2918	36
gene2919	41
gene292	7
gene2920	88
gene2921	58
gene2922	98
gene2923	581
gene2924	119
gene2925	24
gene2926	164
gene2927	91
gene2928	3284
gene2929	1074
gene293	3
gene2930	2121
gene2931	121
gene2932	151
gene2933	427
gene2934	193
gene2935	68
gene2936	7053
gene2937	21
gene2938	13
gene2939	152
gene294	0
gene2940	344
gene2941	1
gene2942	61
gene2943	3
gene2944	3
gene2945	5
gene2946	7
gene2947	9
gene2948	103
gene2949	6
gene295	1
gene2950	29
gene2951	2011
gene2952	1456
gene2953	230
gene2954	26
gene2955	32
gene2956	3
gene2957	2
gene2958	8
gene2959	1
gene296	1
gene2960	2530
gene2961	305
gene2962	157
gene2963	1052
gene2964	47
gene2965	0
gene2966	9
gene2967	182
gene2968	8
gene2969	6
gene297	1
gene2970	3
gene2971	30
gene2972	123
gene2973	62
gene2974	9
gene2975	5
gene2976	47
gene2977	53
gene2978	11
gene2979	50
gene298	2
gene2980	61
gene2981	3
gene2982	13
gene2983	29
gene2984	130
gene2985	37
gene2986	29
gene2987	24
gene2988	28
gene2989	172
gene299	2
gene2990	110
gene2991	3
gene2992	0
gene2993	4
gene2994	0
gene2995	0
gene2996	2
gene2997	6
gene2998	84
gene2999	13
gene3	106
gene30	199
gene300	1
gene3000	366
gene3001	41
gene3002	39
gene3003	33
gene3004	73
gene3005	643
gene3006	1
gene3007	9
gene3008	3
gene3009	4
gene301	2
gene3010	3
gene3011	0
gene3012	2
gene3013	85
gene3014	104
gene3015	2
gene3016	1
gene3017	6
gene3018	15
gene3019	55
gene302	8
gene3020	19
gene3021	18
gene3022	23
gene3023	0
gene3024	0
gene3025	4
gene3026	111
gene3027	123
gene3028	9
gene3029	28
gene303	1
gene3030	58
gene3031	25
gene3032	46
gene3033	16
gene3034	85
gene3035	50
gene3036	1
gene3037	0
gene3038	60
gene3039	144
gene304	0
gene3040	51
gene3041	281
gene3042	358
gene3043	12
gene3044	8
gene3045	2
gene3046	29
gene3047	3
gene3048	8
gene3049	2
gene305	13
gene3050	89
gene3051	202
gene3052	142
gene3053	31
gene3054	168
gene3055	20
gene3056	30
gene3057	672
gene3058	2
gene3059	142
gene306	10
gene3060	298
gene3061	9
gene3062	46
gene3063	79
gene3064	69
gene3065	1
gene3066	0
gene3067	0
gene3068	5
gene3069	2
gene307	35
gene3070	1
gene3071	92
gene3072	2
gene3073	7
gene3074	51
gene3075	209
gene3076	89
gene3077	41
gene3078	88
gene3079	118
gene308	60
gene3080	54
gene3081	9
gene3082	35
gene3083	2
gene3084	0
gene3085	2
gene3086	5
gene3087	82
gene3088	641
gene3089	142
gene309	25
gene3090	637
gene3091	69
gene3092	0
gene3093	22
gene3094	11
gene3095	748
gene3096	33
gene3097	15
gene3098	26
gene3099	65
gene31	84
gene310	1
gene3100	4
gene3101	23
gene3102	2
gene3103	8
gene3104	198
gene3105	7
gene3106	2
gene3107	18
gene3108	11
gene3109	2
gene311	35
gene3110	69
gene3111	5
gene3112	11
gene3113	447
gene3114	10
gene3115	199
gene3116	356
gene3117	46
gene3118	61
gene3119	26
gene312	80
gene3120	12
gene3121	30
gene3122	26
gene3123	33
gene3124	27
gene3125	1
gene3126	13
gene3127	37
gene3128	1
gene3129	65
gene313	52
gene3130	10
gene3131	35
gene3132	25
gene3133	8
gene3134	10
gene3135	0
gene3136	20
gene3137	6
gene3138	9
gene3139	34
gene314	37
gene3140	11
gene3141	22
gene3142	0
gene3143	0
gene3144	1
gene3145	13875
gene3146	6
gene3147	12
gene3148	4
gene3149	11
gene315	5
gene3150	18
gene3151	25
gene3152	22
gene3153	72
gene3154	51
gene3155	24
gene3156	9
gene3157	19
gene3158	14
gene3159	3
gene316	12
gene3160	0
gene3161	1
gene3162	0
gene3163	1
gene3164	2
gene3165	0
gene3166	11
gene3167	4
gene3168	41
gene3169	170
gene317	4
gene3170	6
gene3171	70
gene3172	94
gene3173	58
gene3174	12
gene3175	4
gene3176	12
gene3177	9
gene3178	79
gene3179	129
gene318	5
gene3180	2
gene3181	1
gene3182	23
gene3183	19
gene3184	60
gene3185	647
gene3186	2367
gene3187	1
gene3188	595
gene3189	88
gene319	3
gene3190	36
gene3191	1019
gene3192	429
gene3193	70
gene3194	41
gene3195	42
gene3196	3
gene3197	0
gene3198	415
gene3199	517
gene32	2779
gene320	8
gene3200	86
gene3201	694
gene3202	92
gene3203	162
gene3204	35
gene3205	40
gene3206	40
gene3207	22
gene3208	240
gene3209	247
gene321	6
gene3210	203
gene3211	6
gene3212	279
gene3213	54
gene3214	39
gene3215	77
gene3216	23
gene3217	39
gene3218	58
gene3219	36
gene322	0
gene3220	95
gene3221	53
gene3222	52
gene3223	82
gene3224	104
gene3225	313
gene3226	162
gene3227	145
gene3228	117
gene3229	6
gene323	0
gene3230	218
gene3231	36
gene3232	151
gene3233	9
gene3234	183
gene3235	2
gene3236	118
gene3237	29
gene3238	7
gene3239	1
gene324	30
gene3240	3
gene3241	27
gene3242	89
gene3243	4
gene3244	4
gene3245	13
gene3246	7
gene3247	14
gene3248	39
gene3249	41
gene325	38
gene3250	78
gene3251	7
gene3252	211
gene3253	532
gene3254	842
gene3255	973
gene3256	47
gene3257	163
gene3258	118
gene3259	42
gene326	1
gene3260	6064
gene3261	87
gene3262	4
gene3263	8
gene3264	6
gene3265	2
gene3266	0
gene3267	16
gene3268	97
gene3269	130
gene327	3
gene3270	134
gene3271	15
gene3272	15
gene3273	109
gene3274	478
gene3275	49
gene3276	168
gene3277	292
gene3278	652
gene3279	4
gene328	12
gene3280	11
gene3281	27
gene3282	194
gene3283	50
gene3284	5
gene3285	18
gene3286	0
gene3287	0
gene3288	15
gene3289	2
gene329	26
gene3290	9
gene3291	3
gene3292	2
gene3293	6
gene3294	0
gene3295	1
gene3296	0
gene3297	236
gene3298	47
gene3299	43
gene33	5795
gene330	55
gene3300	694
gene3301	431
gene3302	19
gene3303	13
gene3304	3
gene3305	37
gene3306	2479
gene3307	66
gene3308	42
gene3309	132
gene331	0
gene3310	37
gene3311	336
gene3312	22
gene3313	5
gene3314	2
gene3315	0
gene3316	5
gene3317	11
gene3318	0
gene3319	3049
gene332	0
gene3320	3054
gene3321	1340
gene3322	1793
gene3323	1374
gene3324	596
gene3325	210
gene3326	174
gene3327	6010
gene3328	28
gene3329	16
gene333	5
gene3330	130
gene3331	2
gene3332	128
gene3333	49
gene3334	110
gene3335	1
gene3336	254
gene3337	312
gene3338	48
gene3339	66
gene334	11
gene3340	166
gene3341	93
gene3342	121
gene3343	124
gene3344	3181
gene3345	205
gene3346	0
gene3347	19
gene3348	9
gene3349	4
gene335	899
gene3350	36
gene3351	247
gene3352	76
gene3353	17
gene3354	2
gene3355	4
gene3356	32
gene3357	4
gene3358	10
gene3359	22
gene336	1196
gene3360	10
gene3361	55
gene3362	4
gene3363	7
gene3364	1952
gene3365	8
gene3366	65
gene3367	27
gene3368	62
gene3369	5
gene337	10
gene3370	394
gene3371	67
gene3372	127
gene3373	87
gene3374	28
gene3375	118
gene3376	22
gene3377	202
gene3378	227
gene3379	173
gene338	3
gene3380	443
gene3381	58
gene3382	195
gene3383	32
gene3384	26
gene3385	6
gene3386	31
gene3387	684
gene3388	7
gene3389	30
gene339	2
gene3390	194
gene3391	77
gene3392	102
gene3393	134
gene3394	103
gene3395	59
gene3396	8
gene3397	1817
gene3398	8
gene3399	8
gene34	62
gene340	6
gene3400	14
gene3401	2
gene3402	3
gene3403	0
gene3404	0
gene3405	0
gene3406	1
gene3407	7
gene3408	2
gene3409	0
gene341	8
gene3410	25
gene3411	3057
gene3412	382
gene3413	166
gene3414	242
gene3415	10
gene3416	0
gene3417	144
gene3418	43
gene3419	78
gene342	8
gene3420	172
gene3421	50
gene3422	9
gene3423	1
gene3424	5
gene3425	7
gene3426	0
gene3427	2
gene3428	2
gene3429	3
gene343	47
gene3430	1
gene3431	3
gene3432	9
gene3433	7
gene3434	484
gene3435	2186
gene3436	96
gene3437	113
gene3438	176
gene3439	117
gene344	81
gene3440	580
gene3441	146
gene3442	6
gene3443	405
gene3444	2
gene3445	2
gene3446	131
gene3447	70
gene3448	43
gene3449	21
gene345	114
gene3450	12
gene3451	0
gene3452	317
gene3453	0
gene3454	9
gene3455	56
gene3456	29
gene3457	60
gene3458	38
gene3459	401
gene346	6
gene3460	2301
gene3461	702
gene3462	300
gene3463	661
gene3464	25
gene3465	90
gene3466	92
gene3467	87
gene3468	102
gene3469	169
gene347	2
gene3470	90
gene3471	243
gene3472	146
gene3473	241
gene3474	47
gene3475	39
gene3476	7
gene3477	5
gene3478	92
gene3479	98
gene348	4
gene3480	4
gene3481	24
gene3482	146
gene3483	77
gene3484	57
gene3485	18
gene3486	0
gene3487	1
gene3488	81
gene3489	4
gene349	3
gene3490	136
gene3491	57
gene3492	75
gene3493	78
gene3494	93
gene3495	53
gene3496	2
gene3497	32
gene3498	238
gene3499	181
gene35	1
gene350	2
gene3500	51
gene3501	155
gene3502	142
gene3503	92
gene3504	6
gene3505	22
gene3506	0
gene3507	22
gene3508	12
gene3509	12
gene351	7
gene3510	88
gene3511	11
gene3512	12
gene3513	21
gene3514	18
gene3515	46
gene3516	8
gene3517	30
gene3518	43
gene3519	53
gene352	5
gene3520	43
gene3521	52
gene3522	60
gene3523	377
gene3524	58
gene3525	457
gene3526	354
gene3527	211
gene3528	46
gene3529	3
gene353	32
gene3530	1
gene3531	67
gene3532	26
gene3533	33
gene3534	19
gene3535	44
gene3536	57
gene3537	0
gene3538	43
gene3539	15
gene354	43
gene3540	10
gene3541	299
gene3542	31
gene3543	1
gene3544	1
gene3545	0
gene3546	298
gene3547	46
gene3548	57
gene3549	47
gene355	150
gene3550	13
gene3551	55
gene3552	199
gene3553	1368
gene3554	85
gene3555	157
gene3556	267
gene3557	41
gene3558	44
gene3559	33
gene356	33
gene3560	81
gene3561	5
gene3562	161
gene3563	0
gene3564	131
gene3565	13
gene3566	231
gene3567	927
gene3568	795
gene3569	1271
gene357	2
gene3570	812
gene3571	4219
gene3572	1627
gene3573	3357
gene3574	858
gene3575	502
gene3576	1063
gene3577	38
gene3578	13
gene3579	12
gene358	0
gene3580	27
gene3581	45
gene3582	7
gene3583	2
gene3584	3
gene3585	1
gene3586	3
gene3587	3
gene3588	9
gene3589	0
gene359	1
gene3590	24
gene3591	143
gene3592	103
gene3593	54
gene3594	2
gene3595	1
gene3596	11
gene3597	7
gene3598	851
gene3599	9
gene36	2
gene360	2
gene3600	15576
gene3601	7
gene3602	590
gene3603	80
gene3604	404
gene3605	3
gene3606	25
gene3607	131
gene3608	135
gene3609	101
gene361	3
gene3610	17
gene3611	511
gene3612	15
gene3613	55
gene3614	7
gene3615	40
gene3616	4
gene3617	3
gene3618	4
gene3619	2
gene362	3
gene3620	2
gene3621	37
gene3622	182
gene3623	29
gene3624	3
gene3625	53
gene3626	5
gene3627	2
gene3628	0
gene3629	0
gene363	0
gene3630	2
gene3631	7
gene3632	3
gene3633	4
gene3634	6
gene3635	8
gene3636	2
gene3637	7
gene3638	56
gene3639	74
gene364	5
gene3640	29
gene3641	4
gene3642	16
gene3643	15
gene3644	9
gene3645	182
gene3646	34
gene3647	4
gene3648	16
gene3649	4
gene365	2
gene3650	2
gene3651	24
gene3652	21
gene3653	2
gene3654	8
gene3655	5
gene3656	14
gene3657	67
gene3658	57
gene3659	31
gene366	0
gene3660	119
gene3661	40
gene3662	293
gene3663	75
gene3664	92
gene3665	27
gene3666	7
gene3667	39
gene3668	154
gene3669	117
gene367	5
gene3670	24
gene3671	123
gene3672	159
gene3673	141
gene3674	136
gene3675	687
gene3676	87
gene3677	18
gene3678	18
gene3679	63
gene368	190
gene3680	42
gene3681	29
gene3682	10
gene3683	10
gene3684	32
gene3685	16
gene3686	16
gene3687	21
gene3688	10
gene3689	20
gene369	0
gene3690	47
gene3691	48
gene3692	97
gene3693	280
gene3694	32
gene3695	1850
gene3696	1868
gene3697	3
gene3698	26
gene3699	96
gene37	9
gene370	2
gene3700	126
gene3701	240
gene3702	168
gene3703	630
gene3704	550
gene3705	181
gene3706	21
gene3707	82
gene3708	25
gene3709	240
gene371	5
gene3710	48
gene3711	42
gene3712	16
gene3713	170
gene3714	705
gene3715	3
gene3716	12
gene3717	0
gene3718	3
gene3719	7
gene372	0
gene3720	2
gene3721	18
gene3722	46
gene3723	102
gene3724	0
gene3725	158
gene3726	0
gene3727	2
gene3728	17
gene3729	5
gene373	1
gene3730	4
gene3731	8
gene3732	5
gene3733	3
gene3734	5
gene3735	3
gene3736	0
gene3737	5
gene3738	13
gene3739	42
gene374	0
gene3740	3
gene3741	121
gene3742	26
gene3743	435
gene3744	23
gene3745	28
gene3746	29
gene3747	107
gene3748	28
gene3749	19
gene375	41
gene3750	3
gene3751	2
gene3752	6
gene3753	3
gene3754	173
gene3755	411
gene3756	0
gene3757	0
gene3758	1
gene3759	28
gene376	9
gene3760	5
gene3761	115
gene3762	316
gene3763	6
gene3764	67
gene3765	7
gene3766	12
gene3767	8
gene3768	5
gene3769	138
gene377	40
gene3770	2
gene3771	2148
gene3772	88
gene3773	47
gene3774	94
gene3775	105
gene3776	3
gene3777	0
gene3778	21
gene3779	24
gene378	2
gene3780	0
gene3781	67
gene3782	10
gene3783	6
gene3784	6
gene3785	9
gene3786	3
gene3787	26
gene3788	47
gene3789	910
gene379	43
gene3790	75
gene3791	102
gene3792	409
gene3793	101
gene3794	16
gene3795	19
gene3796	8
gene3797	8
gene3798	32
gene3799	9
gene38	7
gene380	110
gene3800	6
gene3801	6
gene3802	0
gene3803	9
gene3804	15
gene3805	1
gene3806	1
gene3807	5
gene3808	20
gene3809	4
gene381	200
gene3810	2
gene3811	0
gene3812	5
gene3813	8
gene3814	1
gene3815	9
gene3816	12
gene3817	9
gene3818	216
gene3819	54
gene382	94
gene3820	144
gene3821	8
gene3822	80
gene3823	815
gene3824	20
gene3825	143
gene3826	22
gene3827	4
gene3828	0
gene3829	1
gene383	5
gene3830	2
gene3831	183
gene3832	276
gene3833	84
gene3834	1
gene3835	3
gene3836	0
gene3837	5
gene3838	4
gene3839	3
gene384	3
gene3840	2
gene3841	3
gene3842	2
gene3843	5
gene3844	8
gene3845	4
gene3846	17
gene3847	226
gene3848	13
gene3849	20
gene385	126
gene3850	169
gene3851	62
gene3852	22
gene3853	3
gene3854	20
gene3855	170
gene3856	68
gene3857	62
gene3858	196
gene3859	14
gene386	16
gene3860	24
gene3861	7
gene3862	4
gene3863	7
gene3864	2
gene3865	2
gene3866	212
gene3867	17
gene3868	14
gene3869	46
gene387	14
gene3870	57
gene3871	13
gene3872	37
gene3873	0
gene3874	2
gene3875	8
gene3876	0
gene3877	1
gene3878	16
gene3879	2
gene388	7
gene3880	59
gene3881	19
gene3882	85
gene3883	2
gene3884	4
gene3885	23
gene3886	462
gene3887	398
gene3888	181
gene3889	251
gene389	2
gene3890	163
gene3891	270
gene3892	6
gene3893	46
gene3894	11
gene3895	25
gene3896	52
gene3897	6
gene3898	6
gene3899	14
gene39	11
gene390	76
gene3900	671
gene3901	193
gene3902	115
gene3903	31
gene3904	233
gene3905	54
gene3906	26
gene3907	6
gene3908	1
gene3909	50
gene391	3
gene3910	7
gene3911	195
gene3912	22
gene3913	269
gene3914	135
gene3915	6136
gene3916	51
gene3917	55
gene3918	9
gene3919	27
gene392	109
gene3920	245
gene3921	60
gene3922	72
gene3923	5
gene3924	2
gene3925	1
gene3926	0
gene3927	1
gene3928	111
gene3929	149
gene393	41
gene3930	184
gene3931	26
gene3932	113
gene3933	80
gene3934	188
gene3935	15
gene3936	4
gene3937	3
gene3938	5
gene3939	3
gene394	12
gene3940	2
gene3941	5
gene3942	10
gene3943	31
gene3944	7
gene3945	2
gene3946	13
gene3947	1
gene3948	0
gene3949	38
gene395	94
gene3950	3
gene3951	0
gene3952	4
gene3953	5
gene3954	77
gene3955	0
gene3956	4
gene3957	6
gene3958	22
gene3959	99
gene396	37
gene3960	1133
gene3961	59
gene3962	46
gene3963	7
gene3964	32
gene3965	84
gene3966	18
gene3967	19
gene3968	4
gene3969	1190
gene397	18
gene3970	73
gene3971	375
gene3972	69
gene3973	24
gene3974	11
gene3975	6
gene3976	1493
gene3977	1323
gene3978	7562
gene3979	4407
gene398	14
gene3980	14
gene3981	12
gene3982	88
gene3983	3
gene3984	1
gene3985	4
gene3986	0
gene3987	1
gene3988	0
gene3989	0
gene399	43
gene3990	0
gene3991	1
gene3992	1
gene3993	7
gene3994	1
gene3995	3
gene3996	3
gene3997	616
gene3998	1169
gene3999	683
gene4	3
gene40	0
gene400	13
gene4000	315
gene4001	1328
gene4002	287
gene4003	518
gene4004	1154
gene4005	574
gene4006	98
gene4007	195
gene4008	1348
gene4009	525
gene401	20
gene4010	1646
gene4011	707
gene4012	604
gene4013	1122
gene4014	441
gene4015	937
gene4016	51
gene4017	844
gene4018	2237
gene4019	183
gene402	17
gene4020	990
gene4021	810
gene4022	1356
gene4023	2700
gene4024	666
gene4025	13
gene4026	13
gene4027	15
gene4028	83
gene4029	57
gene403	10
gene4030	65
gene4031	156
gene4032	96
gene4033	24
gene4034	121
gene4035	48
gene4036	20
gene4037	35
gene4038	7
gene4039	62
gene404	136
gene4040	56
gene4041	5
gene4042	3
gene4043	374
gene4044	0
gene4045	1
gene4046	11
gene4047	4
gene4048	10168
gene4049	18199
gene405	285
gene4050	1704
gene4051	4
gene4052	107
gene4053	290
gene4054	33
gene4055	64
gene4056	39
gene4057	31
gene4058	8
gene4059	309
gene406	323
gene4060	1
gene4061	0
gene4062	0
gene4063	9
gene4064	1
gene4065	7
gene4066	110
gene4067	166
gene4068	3096
gene4069	394
gene407	110
gene4070	2463
gene4071	302
gene4072	1
gene4073	95
gene4074	96
gene4075	367
gene4076	32
gene4077	122
gene4078	27
gene4079	31
gene408	38
gene4080	33
gene4081	0
gene4082	1
gene4083	73
gene4084	7
gene4085	57
gene4086	157
gene4087	88
gene4088	105
gene4089	261
gene409	358
gene4090	58
gene4091	42
gene4092	164
gene4093	400
gene4094	0
gene4095	11
gene4096	95
gene4097	4
gene4098	2
gene4099	179
gene41	0
gene410	9
gene4100	42
gene4101	5
gene4102	2061
gene4103	455
gene4104	3615
gene4105	10
gene4106	3
gene4107	1
gene4108	6
gene4109	5
gene411	55
gene4110	1
gene4111	1
gene4112	17
gene4113	69
gene4114	15
gene4115	0
gene4116	1
gene4117	0
gene4118	1
gene4119	4
gene412	115
gene4120	10
gene4121	0
gene4122	2
gene4123	5
gene4124	9
gene4125	32
gene4126	6
gene4127	2
gene4128	5
gene4129	1
gene413	148
gene4130	2
gene4131	1
gene4132	1
gene4133	2
gene4134	1
gene4135	3
gene4136	0
gene4137	1
gene4138	3
gene4139	0
gene414	144
gene4140	3
gene4141	0
gene4142	6
gene4143	40
gene4144	98
gene4145	151
gene4146	104
gene4147	12
gene4148	10
gene4149	1
gene415	50
gene4150	4
gene4151	0
gene4152	9
gene4153	38
gene4154	228
gene4155	86
gene4156	4
gene4157	9
gene4158	3
gene4159	50
gene416	35
gene4160	101
gene4161	3
gene4162	5
gene4163	0
gene4164	0
gene4165	202
gene4166	5
gene4167	5
gene4168	1
gene4169	2
gene417	71
gene4170	0
gene4171	51
gene4172	47
gene4173	17
gene4174	79
gene4175	2974
gene4176	6
gene4177	4
gene4178	223
gene4179	1493
gene418	395
gene4180	291
gene4181	1
gene4182	45
gene4183	683
gene4184	7
gene4185	10
gene4186	22
gene4187	10
gene4188	20
gene4189	25
gene419	207
gene4190	25
gene4191	59
gene4192	255
gene4193	5
gene4194	5
gene4195	0
gene4196	2
gene4197	56
gene4198	101
gene4199	110
gene42	4
gene420	83
gene4200	53
gene4201	17
gene4202	8
gene4203	1
gene4204	25
gene4205	28
gene4206	5
gene4207	45
gene4208	76
gene4209	292
gene421	34
gene4210	349
gene4211	244
gene4212	362
gene4213	241
gene4214	1
gene4215	882
gene4216	20
gene4217	253
gene4218	36
gene4219	0
gene422	30
gene4220	2
gene4221	0
gene4222	0
gene4223	1
gene4224	0
gene4225	14
gene4226	92
gene4227	185
gene4228	14
gene4229	40
gene423	26
gene4230	7
gene4231	12
gene4232	2
gene4233	4
gene4234	9
gene4235	4
gene4236	7
gene4237	1
gene4238	814
gene4239	157
gene424	249
gene4240	124
gene4241	610
gene4242	2
gene4243	0
gene4244	81
gene4245	464
gene4246	525
gene4247	17
gene4248	9
gene4249	11
gene425	42
gene4250	10
gene4251	181
gene4252	45
gene4253	3
gene4254	171
gene4255	123
gene4256	25
gene4257	51
gene4258	60
gene4259	80
gene426	1106
gene4260	31
gene4261	3
gene4262	11
gene4263	25
gene4264	1019
gene4265	119
gene4266	37
gene4267	11
gene4268	16
gene4269	366
gene427	235
gene4270	214
gene4271	58
gene4272	116
gene4273	7
gene4274	4
gene4275	30
gene4276	206
gene4277	453
gene4278	27
gene4279	113
gene428	484
gene4280	3072
gene4281	4999
gene4282	8792
gene4283	34
gene4284	10
gene4285	7
gene4286	11
gene4287	6
gene4288	5
gene4289	26
gene429	3094
gene4290	279
gene4291	11
gene4292	1
gene4293	643
gene4294	32
gene4295	429
gene4296	57
gene4297	61
gene4298	46
gene4299	4
gene43	3
gene430	2578
gene4300	5
gene4301	5
gene4302	4
gene4303	9
gene4304	7
gene4305	1
gene4306	12
gene4307	0
gene4308	1
gene4309	1
gene431	65
gene4310	11
gene4311	0
gene4312	59
gene4313	6
gene4314	16
gene4315	1
gene4316	0
gene4317	0
gene4318	4
gene4319	2
gene432	123
gene4320	0
gene4321	0
gene4322	0
gene4323	33
gene4324	13
gene4325	27
gene4326	69
gene4327	280
gene4328	7
gene4329	11
gene433	85
gene4330	8
gene4331	1
gene4332	138
gene4333	2
gene4334	42
gene4335	13
gene4336	11
gene4337	4
gene4338	2
gene4339	2
gene434	2119
gene4340	7
gene4341	7
gene4342	0
gene4343	7
gene4344	18
gene4345	18
gene4346	31
gene4347	4
gene4348	0
gene4349	13
gene435	261
gene4350	7
gene4351	8
gene4352	2
gene4353	1588
gene4354	85
gene4355	35
gene4356	70
gene4357	12
gene4358	12
gene4359	24
gene436	378
gene4360	31
gene4361	378
gene4362	350
gene4363	52
gene4364	0
gene4365	2
gene4366	20
gene4367	37
gene4368	1
gene4369	5
gene437	391
gene4370	3
gene4371	13
gene4372	3
gene4373	4
gene4374	10
gene4375	3
gene4376	6
gene4377	0
gene4378	4
gene4379	15
gene438	2543
gene4380	1
gene4381	215
gene4382	25
gene4383	17
gene4384	57
gene4385	1
gene4386	35
gene4387	77
gene4388	631
gene4389	79
gene439	260
gene4390	54
gene4391	1
gene4392	14
gene4393	250
gene4394	16
gene4395	33
gene4396	3
gene4397	163
gene4398	26
gene4399	14
gene44	1
gene440	15
gene4400	11
gene4401	1
gene4402	7
gene4403	0
gene4404	0
gene4405	83
gene4406	0
gene4407	8
gene4408	9
gene4409	4
gene441	7
gene4410	75
gene4411	13
gene4412	6
gene4413	31
gene4414	179
gene4415	34
gene4416	17
gene4417	21
gene4418	15
gene4419	4
gene442	45
gene4420	6
gene4421	35
gene4422	54
gene4423	346
gene4424	368
gene4425	29
gene4426	65
gene4427	15
gene4428	58
gene4429	84
gene443	10
gene4430	87
gene4431	801
gene4432	82
gene4433	41
gene4434	19
gene4435	124
gene4436	260
gene4437	34
gene4438	23
gene4439	11
gene444	11
gene4440	5
gene4441	1005
gene4442	1
gene4443	15
gene445	23
gene446	22
gene447	21
gene448	0
gene449	10
gene45	2
gene450	39
gene451	27
gene452	6
gene453	6
gene454	3
gene455	17
gene456	56
gene457	46
gene458	8
gene459	17
gene46	6
gene460	364
gene461	167
gene462	16
gene463	53
gene464	4
gene465	10
gene466	11
gene467	37
gene468	101
gene469	82
gene47	28
gene470	102
gene471	204
gene472	1092
gene473	49
gene474	8
gene475	72
gene476	142
gene477	21
gene478	142
gene479	27
gene48	71
gene480	17
gene481	14
gene482	60
gene483	3
gene484	3
gene485	20
gene486	18
gene487	71
gene488	9
gene489	10
gene49	42
gene490	67
gene491	26
gene492	17
gene493	18
gene494	31
gene495	15
gene496	1
gene497	3
gene498	0
gene499	5
gene5	48
gene50	25
gene500	25
gene501	2
gene502	5
gene503	65
gene504	10
gene505	2
gene506	0
gene507	0
gene508	3
gene509	8
gene51	71
gene510	0
gene511	5
gene512	8
gene513	9
gene514	2
gene515	2
gene516	2
gene517	3
gene518	3
gene519	132
gene52	71
gene520	53
gene521	33
gene522	293
gene523	132
gene524	2
gene525	11
gene526	142
gene527	0
gene528	1
gene529	0
gene53	221
gene530	1
gene531	1
gene532	0
gene533	5
gene534	38
gene535	0
gene536	0
gene537	1
gene538	0
gene539	1
gene54	502
gene540	5
gene541	0
gene542	1
gene543	8
gene544	0
gene545	0
gene546	1
gene547	0
gene548	0
gene549	1
gene55	24
gene550	9
gene551	2052
gene552	0
gene553	2
gene554	0
gene555	0
gene556	35
gene557	0
gene558	2
gene559	0
gene56	11
gene560	1
gene561	1
gene562	1
gene563	2
gene564	790
gene565	1
gene566	4
gene567	18
gene568	10
gene569	14
gene57	1
gene570	20
gene571	0
gene572	0
gene573	4
gene574	9
gene575	10
gene576	38
gene577	136
gene578	5
gene579	7
gene58	4
gene580	7
gene581	1
gene582	13
gene583	1
gene584	20
gene585	2
gene586	1
gene587	18
gene588	2
gene589	9
gene59	26
gene590	1
gene591	1
gene592	13
gene593	16
gene594	14
gene595	5
gene596	8
gene597	3
gene598	5
gene599	2389
gene6	16
gene60	32
gene600	123
gene601	9
gene602	12
gene603	5
gene604	0
gene605	3
gene606	9
gene607	4349
gene608	146
gene609	256
gene61	7
gene610	13
gene611	63
gene612	28
gene613	3
gene614	0
gene615	0
gene616	1
gene617	1
gene618	0
gene619	0
gene62	18
gene620	18
gene621	4
gene622	9
gene623	3
gene624	4
gene625	1101
gene626	5
gene627	3
gene628	10
gene629	70
gene63	17
gene630	340
gene631	1
gene632	36
gene633	21
gene634	151
gene635	105
gene636	30
gene637	47
gene638	18
gene639	26
gene64	246
gene640	7
gene641	17
gene642	35
gene643	51
gene644	471
gene645	68
gene646	5
gene647	0
gene648	4
gene649	0
gene65	47
gene650	2
gene651	6
gene652	19
gene653	559
gene654	57
gene655	39
gene656	55
gene657	822
gene658	6
gene659	52
gene66	6
gene660	151
gene661	42
gene662	82
gene663	128
gene664	81
gene665	5
gene666	4
gene667	2
gene668	5
gene669	5
gene67	7
gene670	1
gene671	5
gene672	81
gene673	89
gene674	97
gene675	105
gene676	163
gene677	1023
gene678	516
gene679	50
gene68	31
gene680	6
gene681	352
gene682	324
gene683	7
gene684	43
gene685	88
gene686	320
gene687	4
gene688	0
gene689	0
gene69	33
gene690	5
gene691	3
gene692	8
gene693	21
gene694	0
gene695	3
gene696	3
gene697	0
gene698	3
gene699	11
gene7	1698
gene70	17
gene700	0
gene701	2
gene702	0
gene703	0
gene704	0
gene705	1
gene706	5
gene707	15
gene708	5
gene709	77
gene71	18
gene710	49
gene711	63
gene712	29
gene713	19
gene714	5
gene715	0
gene716	2
gene717	1
gene718	1
gene719	3113
gene72	9
gene720	1130
gene721	331
gene722	3124
gene723	1253
gene724	5312
gene725	3398
gene726	4249
gene727	2873
gene728	11
gene729	4
gene73	15
gene730	16
gene731	545
gene732	287
gene733	1
gene734	27
gene735	23
gene736	51
gene737	15
gene738	60
gene739	362
gene74	16
gene740	606
gene741	218
gene742	147
gene743	25
gene744	47
gene745	22
gene746	38
gene747	42
gene748	6
gene749	24
gene75	23
gene750	19
gene751	22
gene752	13
gene753	109
gene754	531
gene755	100
gene756	101
gene757	40
gene758	89
gene759	36
gene76	0
gene760	29
gene761	48
gene762	133
gene763	42
gene764	81
gene765	50
gene766	95
gene767	1
gene768	3
gene769	1
gene77	8
gene770	0
gene771	91
gene772	24
gene773	12
gene774	4
gene775	2
gene776	3
gene777	5
gene778	130
gene779	57
gene78	20
gene780	93
gene781	69
gene782	30
gene783	8
gene784	27
gene785	71
gene786	0
gene787	4
gene788	4
gene789	2
gene79	5
gene790	153
gene791	15
gene792	12
gene793	40
gene794	43
gene795	23
gene796	2
gene797	9
gene798	61
gene799	83
gene8	144
gene80	529
gene800	146
gene801	5
gene802	3
gene803	3
gene804	11
gene805	2
gene806	32
gene807	6
gene808	588
gene809	394
gene81	56
gene810	4667
gene811	353
gene812	2
gene813	366
gene814	14
gene815	1
gene816	42
gene817	47
gene818	30
gene819	50
gene82	73
gene820	88
gene821	17
gene822	14
gene823	7
gene824	0
gene825	4
gene826	43
gene827	89
gene828	46
gene829	83
gene83	9
gene830	120
gene831	30
gene832	12
gene833	4
gene834	2
gene835	51
gene836	4
gene837	12
gene838	166
gene839	75
gene84	71
gene840	49
gene841	34
gene842	25
gene843	5
gene844	32
gene845	19
gene846	36
gene847	0
gene848	27
gene849	5
gene85	112
gene850	8
gene851	15
gene852	72
gene853	51
gene854	45
gene855	12
gene856	9
gene857	3
gene858	4
gene859	6
gene86	92
gene860	9
gene861	11
gene862	17
gene863	21
gene864	106
gene865	45
gene866	65
gene867	23
gene868	31
gene869	56
gene87	38
gene870	29
gene871	90
gene872	23
gene873	2
gene874	0
gene875	8
gene876	4
gene877	57
gene878	77
gene879	18
gene88	79
gene880	26
gene881	2196
gene882	35
gene883	885
gene884	2
gene885	185
gene886	14
gene887	65
gene888	51
gene889	424
gene89	40
gene890	224
gene891	230
gene892	46
gene893	39
gene894	476
gene895	7
gene896	2
gene897	3
gene898	56
gene899	11
gene9	8
gene90	48
gene900	52
gene901	6
gene902	4
gene903	66
gene904	1326
gene905	20
gene906	28
gene907	7
gene908	143
gene909	16
gene91	107
gene910	5
gene911	154
gene912	4564
gene913	303
gene914	23
gene915	102
gene916	33
gene917	9
gene918	20
gene919	111
gene92	79
gene920	32
gene921	11
gene922	54
gene923	83
gene924	46
gene925	389
gene926	73
gene927	210
gene928	149
gene929	1359
gene93	51
gene930	17175
gene931	297
gene932	153
gene933	767
gene934	4
gene935	1
gene936	2
gene937	1
gene938	1
gene939	4
gene94	148
gene940	0
gene941	5
gene942	7
gene943	1
gene944	1
gene945	5
gene946	308
gene947	102
gene948	48
gene949	137
gene95	610
gene950	124
gene951	17
gene952	45
gene953	20
gene954	1810
gene955	310
gene956	134
gene957	46
gene958	7905
gene959	61
gene96	1220
gene960	40
gene961	16
gene962	9
gene963	91
gene964	457
gene965	2
gene966	61
gene967	45
gene968	87
gene969	11
gene97	88
gene970	23
gene971	380
gene972	1
gene973	0
gene974	0
gene975	1
gene976	4
gene977	0
gene978	2
gene979	5
gene98	284
gene980	5
gene981	16
gene982	10
gene983	0
gene984	3
gene985	5
gene986	1
gene987	1
gene988	3
gene989	3
gene99	15
gene990	0
gene991	0
gene992	3
gene993	0
gene994	3
gene995	4
gene996	13
gene997	8
gene998	35
gene999	2
__no_feature	329441
__ambiguous	99106
__too_low_aQual	0
__not_aligned	0
__alignment_not_unique	0
