gene0	28
gene1	238
gene10	1
gene100	19
gene1000	8
gene1001	5
gene1002	26
gene1003	72
gene1004	0
gene1005	418
gene1006	39
gene1007	149
gene1008	41
gene1009	14
gene101	45
gene1010	0
gene1011	1
gene1012	1
gene1013	1
gene1014	1
gene1015	5
gene1016	25
gene1017	54
gene1018	123
gene1019	46
gene102	37
gene1020	59
gene1021	34
gene1022	682
gene1023	4
gene1024	9
gene1025	2
gene1026	17
gene1027	9
gene1028	1
gene1029	1
gene103	486
gene1030	0
gene1031	1
gene1032	1
gene1033	148
gene1034	118
gene1035	60
gene1036	24
gene1037	29
gene1038	12
gene1039	4
gene104	6
gene1040	26
gene1041	2
gene1042	9
gene1043	1
gene1044	0
gene1045	1
gene1046	3
gene1047	14
gene1048	28
gene1049	9
gene105	5
gene1050	356
gene1051	267
gene1052	4
gene1053	232
gene1054	15
gene1055	71
gene1056	80
gene1057	75
gene1058	7
gene1059	1
gene106	1
gene1060	107
gene1061	98
gene1062	13
gene1063	149
gene1064	61
gene1065	571
gene1066	9
gene1067	76
gene1068	102
gene1069	79
gene107	70
gene1070	29
gene1071	40
gene1072	47
gene1073	162
gene1074	168
gene1075	137
gene1076	366
gene1077	808
gene1078	292
gene1079	385
gene108	43
gene1080	109
gene1081	90
gene1082	76
gene1083	114
gene1084	122
gene1085	715
gene1086	0
gene1087	112
gene1088	116
gene1089	11
gene109	64
gene1090	502
gene1091	278
gene1092	186
gene1093	288
gene1094	475
gene1095	976
gene1096	2880
gene1097	789
gene1098	28
gene1099	36
gene11	0
gene110	28
gene1100	25
gene1101	38
gene1102	43
gene1103	147
gene1104	86
gene1105	102
gene1106	67
gene1107	106
gene1108	38
gene1109	56
gene111	162
gene1110	77
gene1111	76
gene1112	29
gene1113	53
gene1114	2
gene1115	82
gene1116	235
gene1117	1
gene1118	63
gene1119	52
gene112	2164
gene1120	96
gene1121	143
gene1122	135
gene1123	1
gene1124	0
gene1125	463
gene1126	24
gene1127	11
gene1128	79
gene1129	110
gene113	1319
gene1130	207
gene1131	144
gene1132	176
gene1133	151
gene1134	52
gene1135	183
gene1136	16
gene1137	28
gene1138	11917
gene1139	6
gene114	3708
gene1140	15
gene1141	27
gene1142	5
gene1143	0
gene1144	0
gene1145	32
gene1146	6
gene1147	50
gene1148	0
gene1149	3
gene115	5
gene1150	1
gene1151	2
gene1152	1
gene1153	1
gene1154	0
gene1155	0
gene1156	0
gene1157	2
gene1158	2
gene1159	0
gene116	14558
gene1160	2
gene1161	8
gene1162	0
gene1163	0
gene1164	2
gene1165	91
gene1166	16
gene1167	4
gene1168	2
gene1169	3
gene117	59
gene1170	0
gene1171	2
gene1172	2
gene1173	15
gene1174	19
gene1175	14
gene1176	0
gene1177	3
gene1178	137
gene1179	463
gene118	108
gene1180	226
gene1181	24
gene1182	21
gene1183	49
gene1184	110
gene1185	23
gene1186	7
gene1187	0
gene1188	1
gene1189	60
gene119	124
gene1190	88
gene1191	141
gene1192	65
gene1193	3348
gene1194	1812
gene1195	13
gene1196	46
gene1197	72
gene1198	7
gene1199	20
gene12	0
gene120	33
gene1200	2
gene1201	74
gene1202	145
gene1203	104
gene1204	251
gene1205	55
gene1206	22
gene1207	230
gene1208	52
gene1209	157
gene121	80
gene1210	22
gene1211	1069
gene1212	342
gene1213	71
gene1214	151
gene1215	60
gene1216	19
gene1217	2
gene1218	77
gene1219	336
gene122	46
gene1220	5
gene1221	10
gene1222	1
gene1223	0
gene1224	12
gene1225	0
gene1226	54
gene1227	7
gene1228	28
gene1229	141
gene123	127
gene1230	9
gene1231	130
gene1232	54
gene1233	3
gene1234	13
gene1235	6
gene1236	4
gene1237	3
gene1238	2
gene1239	0
gene124	242
gene1240	0
gene1241	19
gene1242	24
gene1243	97
gene1244	54
gene1245	67
gene1246	47
gene1247	296
gene1248	2075
gene1249	51
gene125	70
gene1250	11
gene1251	786
gene1252	29
gene1253	0
gene1254	1
gene1255	4825
gene1256	377
gene1257	367
gene1258	451
gene1259	566
gene126	55
gene1260	34
gene1261	141
gene1262	19
gene1263	158
gene1264	173
gene1265	25
gene1266	53
gene1267	86
gene1268	17
gene1269	7
gene127	7
gene1270	2
gene1271	9
gene1272	65
gene1273	57
gene1274	42
gene1275	6
gene1276	3
gene1277	1
gene1278	45
gene1279	56
gene128	8
gene1280	17
gene1281	84
gene1282	41
gene1283	68
gene1284	133
gene1285	125
gene1286	488
gene1287	125
gene1288	65
gene1289	1396
gene129	194
gene1290	71
gene1291	37
gene1292	69
gene1293	97
gene1294	67
gene1295	9
gene1296	34
gene1297	53
gene1298	74
gene1299	137
gene13	2129
gene130	30
gene1300	10
gene1301	1370
gene1302	15
gene1303	30
gene1304	54
gene1305	14
gene1306	23
gene1307	72
gene1308	14
gene1309	104
gene131	356
gene1310	248
gene1311	88
gene1312	57
gene1313	71
gene1314	37
gene1315	52
gene1316	26
gene1317	102
gene1318	3
gene1319	6
gene132	262
gene1320	5
gene1321	173
gene1322	6
gene1323	3
gene1324	0
gene1325	1
gene1326	6
gene1327	5
gene1328	3
gene1329	5
gene133	5
gene1330	0
gene1331	0
gene1332	0
gene1333	1
gene1334	24
gene1335	44
gene1336	37
gene1337	143
gene1338	1039
gene1339	120
gene134	0
gene1340	48
gene1341	0
gene1342	6
gene1343	13
gene1344	289
gene1345	63
gene1346	10
gene1347	0
gene1348	0
gene1349	0
gene135	2
gene1350	0
gene1351	0
gene1352	0
gene1353	0
gene1354	0
gene1355	0
gene1356	0
gene1357	0
gene1358	0
gene1359	0
gene136	1
gene1360	0
gene1361	0
gene1362	0
gene1363	0
gene1364	0
gene1365	0
gene1366	0
gene1367	0
gene1368	0
gene1369	0
gene137	0
gene1370	0
gene1371	0
gene1372	0
gene1373	0
gene1374	0
gene1375	0
gene1376	0
gene1377	0
gene1378	0
gene1379	0
gene138	0
gene1380	0
gene1381	0
gene1382	0
gene1383	0
gene1384	0
gene1385	0
gene1386	1
gene1387	0
gene1388	0
gene1389	1
gene139	0
gene1390	0
gene1391	27
gene1392	2
gene1393	0
gene1394	153
gene1395	136
gene1396	21
gene1397	72
gene1398	60
gene1399	0
gene14	310
gene140	10
gene1400	21
gene1401	209
gene1402	62
gene1403	12
gene1404	4
gene1405	10
gene1406	2
gene1407	5
gene1408	2
gene1409	8
gene141	205
gene1410	1
gene1411	2
gene1412	9
gene1413	2
gene1414	115
gene1415	150
gene1416	92
gene1417	65
gene1418	133
gene1419	2
gene142	13
gene1420	8
gene1421	0
gene1422	22
gene1423	4
gene1424	1
gene1425	0
gene1426	12
gene1427	13
gene1428	38
gene1429	172
gene143	691
gene1430	155
gene1431	13651
gene1432	191
gene1433	48
gene1434	19
gene1435	2
gene1436	16
gene1437	1
gene1438	39
gene1439	606
gene144	67
gene1440	99
gene1441	279
gene1442	60
gene1443	18
gene1444	14
gene1445	22
gene1446	56
gene1447	93
gene1448	0
gene1449	98
gene145	17
gene1450	8
gene1451	6
gene1452	79
gene1453	21
gene1454	5
gene1455	18
gene1456	53
gene1457	102
gene1458	27
gene1459	15
gene146	105
gene1460	28
gene1461	407
gene1462	1
gene1463	87
gene1464	7
gene1465	15
gene1466	66
gene1467	8
gene1468	36
gene1469	2570
gene147	161
gene1470	9
gene1471	4
gene1472	0
gene1473	3
gene1474	0
gene1475	7
gene1476	0
gene1477	0
gene1478	30
gene1479	5
gene148	534
gene1480	17
gene1481	49
gene1482	3
gene1483	2
gene1484	8
gene1485	30
gene1486	8
gene1487	0
gene1488	0
gene1489	0
gene149	54
gene1490	25
gene1491	9
gene1492	2
gene1493	2
gene1494	26
gene1495	228
gene1496	363
gene1497	494
gene1498	23
gene1499	326
gene15	31
gene150	20
gene1500	20
gene1501	9
gene1502	10
gene1503	31
gene1504	102
gene1505	19
gene1506	26
gene1507	23
gene1508	81
gene1509	22
gene151	54
gene1510	19
gene1511	23
gene1512	8
gene1513	7
gene1514	1
gene1515	61
gene1516	0
gene1517	16
gene1518	1
gene1519	1
gene152	397
gene1520	1
gene1521	1
gene1522	0
gene1523	44
gene1524	5
gene1525	27
gene1526	33
gene1527	224
gene1528	142
gene1529	69
gene153	67
gene1530	28
gene1531	26
gene1532	130
gene1533	93
gene1534	31
gene1535	66
gene1536	5
gene1537	10
gene1538	9
gene1539	5
gene154	223
gene1540	24
gene1541	67
gene1542	18
gene1543	1
gene1544	8
gene1545	16
gene1546	3
gene1547	8
gene1548	0
gene1549	57
gene155	20
gene1550	29
gene1551	109
gene1552	9
gene1553	6
gene1554	287
gene1555	305
gene1556	62
gene1557	9
gene1558	9
gene1559	3
gene156	21
gene1560	0
gene1561	5
gene1562	0
gene1563	0
gene1564	0
gene1565	0
gene1566	1
gene1567	46
gene1568	0
gene1569	2
gene157	264
gene1570	0
gene1571	1
gene1572	1
gene1573	0
gene1574	24
gene1575	0
gene1576	6
gene1577	0
gene1578	2
gene1579	34
gene158	120
gene1580	42
gene1581	30
gene1582	0
gene1583	9
gene1584	1
gene1585	1
gene1586	0
gene1587	60
gene1588	0
gene1589	1
gene159	686
gene1590	2
gene1591	0
gene1592	0
gene1593	0
gene1594	2
gene1595	0
gene1596	5
gene1597	1
gene1598	6
gene1599	17
gene16	3
gene160	44
gene1600	12
gene1601	57
gene1602	87
gene1603	44
gene1604	39
gene1605	4
gene1606	12
gene1607	2
gene1608	13
gene1609	20
gene161	420
gene1610	8
gene1611	28
gene1612	115
gene1613	9
gene1614	11
gene1615	4
gene1616	36
gene1617	8
gene1618	11
gene1619	13
gene162	3
gene1620	731
gene1621	965
gene1622	334
gene1623	11
gene1624	26
gene1625	33
gene1626	104
gene1627	91
gene1628	38
gene1629	410
gene163	469
gene1630	843
gene1631	209
gene1632	287
gene1633	4
gene1634	2
gene1635	11
gene1636	76
gene1637	505
gene1638	17
gene1639	18
gene164	112
gene1640	87
gene1641	356
gene1642	229
gene1643	13
gene1644	8
gene1645	35
gene1646	36
gene1647	23
gene1648	72
gene1649	25
gene165	262
gene1650	12
gene1651	16
gene1652	21
gene1653	73
gene1654	575
gene1655	86
gene1656	412
gene1657	111
gene1658	7
gene1659	85
gene166	32
gene1660	954
gene1661	158
gene1662	16
gene1663	10
gene1664	12
gene1665	67
gene1666	64
gene1667	6
gene1668	23
gene1669	186
gene167	1189
gene1670	168
gene1671	27
gene1672	104
gene1673	212
gene1674	60
gene1675	473
gene1676	9
gene1677	115
gene1678	23
gene1679	14
gene168	840
gene1680	305
gene1681	145
gene1682	97
gene1683	263
gene1684	0
gene1685	0
gene1686	364
gene1687	23
gene1688	4
gene1689	4
gene169	213
gene1690	4
gene1691	3
gene1692	6
gene1693	4
gene1694	32
gene1695	308
gene1696	14136
gene1697	94
gene1698	30
gene1699	123
gene17	0
gene170	683
gene1700	135
gene1701	69
gene1702	172
gene1703	51
gene1704	4
gene1705	40
gene1706	28
gene1707	270
gene1708	86
gene1709	1
gene171	60
gene1710	0
gene1711	0
gene1712	3
gene1713	1
gene1714	40
gene1715	3
gene1716	3
gene1717	25
gene1718	0
gene1719	4
gene172	234
gene1720	3
gene1721	0
gene1722	7
gene1723	4931
gene1724	184
gene1725	45
gene1726	21
gene1727	143
gene1728	15
gene1729	81
gene173	152
gene1730	30
gene1731	62
gene1732	33
gene1733	520
gene1734	523
gene1735	174
gene1736	5
gene1737	828
gene1738	425
gene1739	1822
gene174	336
gene1740	2010
gene1741	1
gene1742	7
gene1743	1
gene1744	104
gene1745	49
gene1746	151
gene1747	38
gene1748	66
gene1749	1
gene175	1176
gene1750	41
gene1751	2
gene1752	7
gene1753	258
gene1754	28
gene1755	5
gene1756	9
gene1757	7
gene1758	16
gene1759	28
gene176	474
gene1760	469
gene1761	206
gene1762	9
gene1763	5
gene1764	94
gene1765	200
gene1766	396
gene1767	506
gene1768	372
gene1769	743
gene177	479
gene1770	151
gene1771	3
gene1772	2
gene1773	10
gene1774	7
gene1775	33
gene1776	17
gene1777	10
gene1778	10
gene1779	15
gene178	207
gene1780	11
gene1781	15
gene1782	403
gene1783	6
gene1784	322
gene1785	657
gene1786	293
gene1787	133
gene1788	45
gene1789	38
gene179	264
gene1790	5
gene1791	26
gene1792	6
gene1793	2
gene1794	5
gene1795	1
gene1796	5
gene1797	3
gene1798	292
gene1799	584
gene18	0
gene180	247
gene1800	2955
gene1801	106
gene1802	50
gene1803	428
gene1804	295
gene1805	58
gene1806	1
gene1807	19
gene1808	50
gene1809	3
gene181	39
gene1810	5
gene1811	21
gene1812	9
gene1813	22
gene1814	20
gene1815	113
gene1816	53
gene1817	1
gene1818	12
gene1819	28
gene182	282
gene1820	53
gene1821	30
gene1822	3
gene1823	4
gene1824	4
gene1825	75
gene1826	933
gene1827	98
gene1828	49
gene1829	80
gene183	421
gene1830	207
gene1831	38
gene1832	45
gene1833	24
gene1834	23
gene1835	265
gene1836	13
gene1837	119
gene1838	342
gene1839	172
gene184	55
gene1840	279
gene1841	9
gene1842	1
gene1843	36
gene1844	864
gene1845	206
gene1846	68
gene1847	79
gene1848	16
gene1849	137
gene185	21
gene1850	5
gene1851	758
gene1852	455
gene1853	306
gene1854	109
gene1855	26
gene1856	63
gene1857	30
gene1858	37
gene1859	23
gene186	62
gene1860	7
gene1861	1415
gene1862	0
gene1863	19
gene1864	19
gene1865	20
gene1866	18
gene1867	53
gene1868	77
gene1869	29
gene187	57
gene1870	108
gene1871	118
gene1872	29
gene1873	9
gene1874	172
gene1875	56
gene1876	272
gene1877	84
gene1878	568
gene1879	64
gene188	89
gene1880	158
gene1881	58
gene1882	36
gene1883	23
gene1884	96
gene1885	51
gene1886	2
gene1887	35
gene1888	188
gene1889	72
gene189	22
gene1890	474
gene1891	27
gene1892	13
gene1893	55
gene1894	39
gene1895	50
gene1896	30
gene1897	6
gene1898	63
gene1899	33
gene19	73
gene190	3
gene1900	267
gene1901	1
gene1902	8
gene1903	79
gene1904	38
gene1905	23
gene1906	5
gene1907	9
gene1908	7
gene1909	43
gene191	35
gene1910	57
gene1911	21
gene1912	52
gene1913	5
gene1914	15
gene1915	54
gene1916	69
gene1917	15
gene1918	4
gene1919	54
gene192	7
gene1920	18
gene1921	10
gene1922	9
gene1923	36
gene1924	271
gene1925	16
gene1926	0
gene1927	14
gene1928	79
gene1929	5
gene193	531
gene1930	22
gene1931	328
gene1932	12
gene1933	6
gene1934	68
gene1935	117
gene1936	167
gene1937	142
gene1938	32
gene1939	51
gene194	18
gene1940	39
gene1941	38
gene1942	92
gene1943	275
gene1944	60
gene1945	187
gene1946	723
gene1947	55
gene1948	9
gene1949	9
gene195	68
gene1950	138
gene1951	108
gene1952	64
gene1953	7
gene1954	4
gene1955	5
gene1956	1
gene1957	0
gene1958	1
gene1959	65
gene196	241
gene1960	198
gene1961	111
gene1962	76
gene1963	77
gene1964	16
gene1965	71
gene1966	67
gene1967	99
gene1968	33
gene1969	11
gene197	52
gene1970	16
gene1971	2
gene1972	6
gene1973	75
gene1974	30
gene1975	12
gene1976	2
gene1977	21
gene1978	41
gene1979	57
gene198	32
gene1980	26
gene1981	5
gene1982	9
gene1983	89
gene1984	39
gene1985	4
gene1986	10
gene1987	247
gene1988	34
gene1989	19
gene199	60
gene1990	5
gene1991	21
gene1992	4
gene1993	1
gene1994	12
gene1995	2
gene1996	875
gene1997	33
gene1998	47
gene1999	1
gene2	132
gene20	30
gene200	307
gene2000	77
gene2001	245
gene2002	109
gene2003	2
gene2004	15
gene2005	13
gene2006	10
gene2007	7
gene2008	0
gene2009	51
gene201	1
gene2010	46
gene2011	21
gene2012	16
gene2013	12
gene2014	7
gene2015	1
gene2016	3
gene2017	11
gene2018	7
gene2019	3
gene202	2
gene2020	485
gene2021	21
gene2022	1
gene2023	0
gene2024	0
gene2025	0
gene2026	2
gene2027	2
gene2028	262
gene2029	63
gene203	518
gene2030	94
gene2031	19
gene2032	99
gene2033	11
gene2034	19
gene2035	59
gene2036	14
gene2037	163
gene2038	13
gene2039	28
gene204	0
gene2040	8
gene2041	40
gene2042	57
gene2043	48
gene2044	85
gene2045	32
gene2046	65
gene2047	49
gene2048	46
gene2049	353
gene205	2
gene2050	44
gene2051	1577
gene2052	120
gene2053	0
gene2054	109
gene2055	65
gene2056	116
gene2057	58
gene2058	258
gene2059	81
gene206	24
gene2060	63
gene2061	183
gene2062	164
gene2063	214
gene2064	702
gene2065	12
gene2066	7
gene2067	2
gene2068	5
gene2069	8
gene207	51
gene2070	10
gene2071	11
gene2072	7
gene2073	4
gene2074	10
gene2075	17
gene2076	1
gene2077	4
gene2078	1
gene2079	6
gene208	105
gene2080	1
gene2081	8
gene2082	8
gene2083	0
gene2084	3
gene2085	38
gene2086	167
gene2087	235
gene2088	41
gene2089	99
gene209	5
gene2090	13
gene2091	9
gene2092	14
gene2093	2
gene2094	2
gene2095	3
gene2096	47
gene2097	13
gene2098	9
gene2099	18
gene21	4
gene210	1335
gene2100	15
gene2101	3
gene2102	8
gene2103	30
gene2104	100
gene2105	51
gene2106	5
gene2107	16
gene2108	3
gene2109	4
gene211	55
gene2110	39
gene2111	49
gene2112	4
gene2113	7
gene2114	178
gene2115	968
gene2116	117
gene2117	125
gene2118	10
gene2119	903
gene212	28
gene2120	902
gene2121	749
gene2122	9
gene2123	7
gene2124	8
gene2125	30
gene2126	13
gene2127	120
gene2128	160
gene2129	14
gene213	37
gene2130	9
gene2131	36
gene2132	0
gene2133	7
gene2134	0
gene2135	2
gene2136	22
gene2137	250
gene2138	341
gene2139	10
gene214	111
gene2140	15
gene2141	0
gene2142	1
gene2143	0
gene2144	4
gene2145	6
gene2146	2
gene2147	27
gene2148	33
gene2149	34
gene215	2
gene2150	26
gene2151	14
gene2152	4
gene2153	13
gene2154	8
gene2155	32
gene2156	272
gene2157	678
gene2158	41
gene2159	44
gene216	0
gene2160	22
gene2161	15
gene2162	1
gene2163	1
gene2164	18
gene2165	3
gene2166	4
gene2167	34
gene2168	14
gene2169	1
gene217	0
gene2170	11
gene2171	10
gene2172	54
gene2173	123
gene2174	1030
gene2175	22
gene2176	31
gene2177	194
gene2178	264
gene2179	1529
gene218	0
gene2180	39
gene2181	69
gene2182	28
gene2183	79
gene2184	43
gene2185	2
gene2186	6
gene2187	11
gene2188	71
gene2189	97
gene219	32
gene2190	27
gene2191	81
gene2192	22
gene2193	15
gene2194	7
gene2195	6
gene2196	72
gene2197	47
gene2198	30
gene2199	14
gene22	26
gene220	381
gene2200	1554
gene2201	74
gene2202	79
gene2203	22
gene2204	17
gene2205	58
gene2206	125
gene2207	47
gene2208	80
gene2209	34
gene221	639
gene2210	237
gene2211	87
gene2212	42
gene2213	139
gene2214	5
gene2215	50
gene2216	11
gene2217	50
gene2218	26
gene2219	10
gene222	605
gene2220	22
gene2221	4
gene2222	1
gene2223	15
gene2224	4
gene2225	11
gene2226	20
gene2227	8
gene2228	9
gene2229	11
gene223	123
gene2230	74
gene2231	0
gene2232	8
gene2233	427
gene2234	33
gene2235	81
gene2236	8
gene2237	19
gene2238	13
gene2239	14723
gene224	123
gene2240	0
gene2241	246
gene2242	214
gene2243	124
gene2244	0
gene2245	0
gene2246	3
gene2247	22
gene2248	0
gene2249	0
gene225	23
gene2250	2
gene2251	3
gene2252	0
gene2253	0
gene2254	10
gene2255	0
gene2256	6
gene2257	826
gene2258	144
gene2259	41
gene226	71
gene2260	430
gene2261	192
gene2262	13
gene2263	37
gene2264	0
gene2265	31
gene2266	19
gene2267	1
gene2268	1
gene2269	3
gene227	5
gene2270	11
gene2271	41
gene2272	6
gene2273	9
gene2274	11
gene2275	1
gene2276	54
gene2277	6
gene2278	20
gene2279	2
gene228	20
gene2280	23
gene2281	14
gene2282	28
gene2283	7
gene2284	7
gene2285	1
gene2286	2
gene2287	80
gene2288	33
gene2289	69
gene229	1
gene2290	97
gene2291	5
gene2292	62
gene2293	85
gene2294	335
gene2295	39
gene2296	30
gene2297	8
gene2298	10
gene2299	0
gene23	748
gene230	2
gene2300	14
gene2301	0
gene2302	2
gene2303	2
gene2304	896
gene2305	1166
gene2306	966
gene2307	40
gene2308	194
gene2309	245
gene231	17
gene2310	502
gene2311	1938
gene2312	907
gene2313	275
gene2314	1319
gene2315	691
gene2316	582
gene2317	43
gene2318	4
gene2319	12
gene232	9
gene2320	63
gene2321	22
gene2322	50
gene2323	129
gene2324	94
gene2325	118
gene2326	463
gene2327	699
gene2328	3
gene2329	106
gene233	1
gene2330	103
gene2331	26
gene2332	8
gene2333	69
gene2334	145
gene2335	24
gene2336	81
gene2337	42
gene2338	73
gene2339	431
gene234	2
gene2340	850
gene2341	35
gene2342	66
gene2343	35
gene2344	139
gene2345	89
gene2346	886
gene2347	71
gene2348	49
gene2349	109
gene235	0
gene2350	248
gene2351	29
gene2352	8
gene2353	1526
gene2354	66
gene2355	14
gene2356	29
gene2357	26
gene2358	52
gene2359	231
gene236	1
gene2360	227
gene2361	50
gene2362	55
gene2363	1
gene2364	1
gene2365	1
gene2366	0
gene2367	1
gene2368	18
gene2369	1
gene237	1109
gene2370	207
gene2371	397
gene2372	223
gene2373	71
gene2374	871
gene2375	0
gene2376	237
gene2377	10
gene2378	3
gene2379	20
gene238	135
gene2380	28
gene2381	93
gene2382	32
gene2383	6
gene2384	5
gene2385	0
gene2386	0
gene2387	0
gene2388	0
gene2389	1
gene239	109
gene2390	3
gene2391	0
gene2392	0
gene2393	0
gene2394	0
gene2395	16
gene2396	18
gene2397	16
gene2398	37
gene2399	1
gene24	6
gene240	1051
gene2400	2
gene2401	78
gene2402	67
gene2403	0
gene2404	2
gene2405	6
gene2406	2
gene2407	2
gene2408	0
gene2409	38
gene241	1
gene2410	19
gene2411	105
gene2412	17
gene2413	24
gene2414	10
gene2415	9
gene2416	1
gene2417	1
gene2418	0
gene2419	1
gene242	163
gene2420	174
gene2421	15
gene2422	27
gene2423	153
gene2424	183
gene2425	25
gene2426	66
gene2427	1
gene2428	3
gene2429	29
gene243	219
gene2430	20
gene2431	557
gene2432	9
gene2433	57
gene2434	1
gene2435	2
gene2436	25
gene2437	8
gene2438	3
gene2439	6
gene244	5
gene2440	12
gene2441	105
gene2442	3
gene2443	126
gene2444	246
gene2445	51
gene2446	735
gene2447	790
gene2448	1883
gene2449	1129
gene245	2
gene2450	84
gene2451	5
gene2452	20
gene2453	49
gene2454	42
gene2455	16
gene2456	13
gene2457	34
gene2458	209
gene2459	14
gene246	0
gene2460	37
gene2461	23
gene2462	28
gene2463	284
gene2464	103
gene2465	19
gene2466	57
gene2467	48
gene2468	32
gene2469	13
gene247	0
gene2470	31
gene2471	28
gene2472	47
gene2473	74
gene2474	7
gene2475	7
gene2476	6
gene2477	4
gene2478	10
gene2479	2
gene248	0
gene2480	24
gene2481	19
gene2482	13
gene2483	7
gene2484	8
gene2485	0
gene2486	1241
gene2487	73
gene2488	231
gene2489	24
gene249	0
gene2490	46
gene2491	12
gene2492	31
gene2493	27
gene2494	20
gene2495	69
gene2496	15
gene2497	39
gene2498	32
gene2499	39
gene25	184
gene250	0
gene2500	85
gene2501	550
gene2502	758
gene2503	71
gene2504	330
gene2505	0
gene2506	1
gene2507	0
gene2508	0
gene2509	0
gene251	25
gene2510	5
gene2511	4
gene2512	1
gene2513	2
gene2514	0
gene2515	4
gene2516	2
gene2517	93
gene2518	145
gene2519	106
gene252	4
gene2520	83
gene2521	14
gene2522	94
gene2523	59
gene2524	37
gene2525	211
gene2526	152
gene2527	4
gene2528	70
gene2529	0
gene253	1
gene2530	0
gene2531	629
gene2532	268
gene2533	53
gene2534	14
gene2535	201
gene2536	431
gene2537	166
gene2538	462
gene2539	228
gene254	32
gene2540	296
gene2541	125
gene2542	500
gene2543	27
gene2544	375
gene2545	1141
gene2546	24
gene2547	60
gene2548	306
gene2549	39
gene255	7
gene2550	42
gene2551	257
gene2552	55
gene2553	252
gene2554	268
gene2555	960
gene2556	445
gene2557	197
gene2558	36
gene2559	1
gene256	3
gene2560	420
gene2561	75
gene2562	455
gene2563	39
gene2564	4
gene2565	1
gene2566	9
gene2567	13
gene2568	18
gene2569	11
gene257	11
gene2570	16
gene2571	4
gene2572	6
gene2573	3
gene2574	5
gene2575	41
gene2576	2811
gene2577	146
gene2578	116
gene2579	47
gene258	11
gene2580	27
gene2581	53
gene2582	463
gene2583	152
gene2584	18
gene2585	15
gene2586	41
gene2587	17
gene2588	1
gene2589	39
gene259	19
gene2590	124
gene2591	19
gene2592	116
gene2593	111
gene2594	213
gene2595	541
gene2596	52
gene2597	260
gene2598	682
gene2599	517
gene26	898
gene260	17
gene2600	4
gene2601	22
gene2602	120
gene2603	25
gene2604	7
gene2605	34
gene2606	57
gene2607	162
gene2608	77
gene2609	12
gene261	4
gene2610	617
gene2611	344
gene2612	8
gene2613	1566
gene2614	0
gene2615	309
gene2616	86
gene2617	227
gene2618	911
gene2619	39
gene262	47
gene2620	90
gene2621	414
gene2622	1540
gene2623	0
gene2624	40
gene2625	50
gene2626	50
gene2627	6
gene2628	18
gene2629	14
gene263	2
gene2630	21
gene2631	416
gene2632	992
gene2633	833
gene2634	361
gene2635	386
gene2636	52
gene2637	57
gene2638	410
gene2639	60
gene264	0
gene2640	54
gene2641	217
gene2642	21
gene2643	85
gene2644	99
gene2645	117103
gene2646	123
gene2647	23
gene2648	2
gene2649	12
gene265	0
gene2650	1
gene2651	86
gene2652	74
gene2653	1
gene2654	80
gene2655	22
gene2656	2
gene2657	1
gene2658	0
gene2659	0
gene266	4
gene2660	1
gene2661	3
gene2662	0
gene2663	4
gene2664	2
gene2665	1
gene2666	20
gene2667	0
gene2668	0
gene2669	0
gene267	22
gene2670	0
gene2671	0
gene2672	29
gene2673	0
gene2674	0
gene2675	0
gene2676	0
gene2677	0
gene2678	1
gene2679	3
gene268	11
gene2680	0
gene2681	526
gene2682	246
gene2683	349
gene2684	437
gene2685	80
gene2686	56
gene2687	256
gene2688	31
gene2689	3
gene269	2
gene2690	9
gene2691	44
gene2692	278
gene2693	15
gene2694	74
gene2695	26
gene2696	10
gene2697	122
gene2698	41
gene2699	493
gene27	59
gene270	20
gene2700	329
gene2701	1046
gene2702	0
gene2703	1
gene2704	72
gene2705	13
gene2706	130
gene2707	16
gene2708	13
gene2709	374
gene271	33
gene2710	0
gene2711	387
gene2712	47
gene2713	58
gene2714	18
gene2715	39
gene2716	77
gene2717	44
gene2718	113
gene2719	395
gene272	10
gene2720	1364
gene2721	7
gene2722	706
gene2723	86
gene2724	41
gene2725	8
gene2726	22
gene2727	1
gene2728	28
gene2729	2
gene273	24
gene2730	27
gene2731	48
gene2732	64
gene2733	7
gene2734	3
gene2735	14
gene2736	5
gene2737	49
gene2738	20
gene2739	13
gene274	62
gene2740	23
gene2741	1
gene2742	6
gene2743	0
gene2744	2
gene2745	1
gene2746	3
gene2747	0
gene2748	0
gene2749	0
gene275	22
gene2750	8
gene2751	1
gene2752	12
gene2753	11
gene2754	16
gene2755	11
gene2756	181
gene2757	2
gene2758	52
gene2759	3
gene276	0
gene2760	6
gene2761	1
gene2762	5
gene2763	5
gene2764	2892
gene2765	1460
gene2766	107
gene2767	114
gene2768	147
gene2769	41
gene277	1
gene2770	45
gene2771	82
gene2772	9
gene2773	10
gene2774	51
gene2775	25
gene2776	18
gene2777	8
gene2778	9
gene2779	4
gene278	11
gene2780	6
gene2781	12
gene2782	3
gene2783	4
gene2784	9
gene2785	34
gene2786	40
gene2787	35
gene2788	19
gene2789	8
gene279	8
gene2790	0
gene2791	8
gene2792	12
gene2793	1
gene2794	2
gene2795	6
gene2796	1
gene2797	0
gene2798	8
gene2799	31
gene28	55
gene280	2
gene2800	0
gene2801	2433
gene2802	637
gene2803	79
gene2804	18
gene2805	32
gene2806	353
gene2807	62
gene2808	102
gene2809	21
gene281	2
gene2810	1
gene2811	5
gene2812	166
gene2813	19
gene2814	13
gene2815	26006
gene2816	43
gene2817	90
gene2818	326
gene2819	152
gene282	145
gene2820	69
gene2821	33
gene2822	146
gene2823	38
gene2824	9
gene2825	32
gene2826	28
gene2827	51
gene2828	183
gene2829	66
gene283	90
gene2830	17
gene2831	38
gene2832	1610
gene2833	64
gene2834	65
gene2835	21
gene2836	55
gene2837	126
gene2838	10
gene2839	10
gene284	2
gene2840	1
gene2841	199
gene2842	23
gene2843	72
gene2844	138
gene2845	112
gene2846	131
gene2847	2
gene2848	4
gene2849	7
gene285	3
gene2850	2
gene2851	139
gene2852	114
gene2853	445
gene2854	181
gene2855	35
gene2856	21
gene2857	79
gene2858	129
gene2859	25
gene286	8
gene2860	84
gene2861	0
gene2862	4
gene2863	55
gene2864	89
gene2865	14
gene2866	60
gene2867	33
gene2868	9
gene2869	9
gene287	7
gene2870	677
gene2871	54
gene2872	1
gene2873	6
gene2874	1
gene2875	2
gene2876	2
gene2877	1
gene2878	0
gene2879	0
gene288	6
gene2880	0
gene2881	0
gene2882	0
gene2883	0
gene2884	1
gene2885	0
gene2886	1
gene2887	3
gene2888	1
gene2889	4
gene289	19
gene2890	4
gene2891	119
gene2892	7
gene2893	3
gene2894	6
gene2895	365
gene2896	20
gene2897	11
gene2898	13
gene2899	7
gene29	117
gene290	4
gene2900	14
gene2901	66
gene2902	27
gene2903	17
gene2904	30
gene2905	7
gene2906	0
gene2907	26
gene2908	3
gene2909	15
gene291	7
gene2910	20
gene2911	4
gene2912	9
gene2913	0
gene2914	22
gene2915	468
gene2916	368
gene2917	93
gene2918	51
gene2919	51
gene292	8
gene2920	82
gene2921	53
gene2922	88
gene2923	532
gene2924	169
gene2925	30
gene2926	227
gene2927	29
gene2928	1188
gene2929	399
gene293	6
gene2930	935
gene2931	148
gene2932	161
gene2933	426
gene2934	187
gene2935	183
gene2936	4614
gene2937	15
gene2938	19
gene2939	232
gene294	1
gene2940	412
gene2941	3
gene2942	59
gene2943	6
gene2944	2
gene2945	1
gene2946	4
gene2947	3
gene2948	194
gene2949	8
gene295	14
gene2950	111
gene2951	1953
gene2952	1809
gene2953	188
gene2954	33
gene2955	26
gene2956	4
gene2957	9
gene2958	1
gene2959	0
gene296	2
gene2960	3363
gene2961	226
gene2962	141
gene2963	542
gene2964	29
gene2965	0
gene2966	7
gene2967	240
gene2968	6
gene2969	12
gene297	1
gene2970	1
gene2971	39
gene2972	108
gene2973	126
gene2974	37
gene2975	6
gene2976	52
gene2977	65
gene2978	6
gene2979	31
gene298	0
gene2980	69
gene2981	2
gene2982	33
gene2983	28
gene2984	246
gene2985	105
gene2986	35
gene2987	41
gene2988	19
gene2989	61
gene299	0
gene2990	104
gene2991	7
gene2992	2
gene2993	1
gene2994	1
gene2995	1
gene2996	3
gene2997	9
gene2998	61
gene2999	25
gene3	215
gene30	89
gene300	1
gene3000	328
gene3001	38
gene3002	35
gene3003	28
gene3004	47
gene3005	273
gene3006	2
gene3007	6
gene3008	2
gene3009	2
gene301	3
gene3010	1
gene3011	1
gene3012	3
gene3013	69
gene3014	238
gene3015	11
gene3016	8
gene3017	5
gene3018	17
gene3019	34
gene302	11
gene3020	2
gene3021	4
gene3022	11
gene3023	1
gene3024	9
gene3025	25
gene3026	58
gene3027	105
gene3028	65
gene3029	178
gene303	3
gene3030	383
gene3031	49
gene3032	36
gene3033	39
gene3034	114
gene3035	185
gene3036	6
gene3037	2
gene3038	51
gene3039	174
gene304	0
gene3040	64
gene3041	292
gene3042	110
gene3043	40
gene3044	29
gene3045	9
gene3046	111
gene3047	8
gene3048	11
gene3049	0
gene305	8
gene3050	51
gene3051	272
gene3052	126
gene3053	46
gene3054	155
gene3055	20
gene3056	44
gene3057	957
gene3058	4
gene3059	153
gene306	8
gene3060	324
gene3061	10
gene3062	123
gene3063	2745
gene3064	142
gene3065	1
gene3066	1
gene3067	1
gene3068	8
gene3069	0
gene307	17
gene3070	1
gene3071	322
gene3072	2
gene3073	11
gene3074	53
gene3075	199
gene3076	156
gene3077	60
gene3078	167
gene3079	190
gene308	40
gene3080	62
gene3081	21
gene3082	65
gene3083	4
gene3084	0
gene3085	0
gene3086	2
gene3087	75
gene3088	508
gene3089	190
gene309	18
gene3090	1021
gene3091	148
gene3092	0
gene3093	75
gene3094	33
gene3095	83
gene3096	168
gene3097	5
gene3098	25
gene3099	21
gene31	91
gene310	1
gene3100	4
gene3101	3
gene3102	2
gene3103	5
gene3104	185
gene3105	10
gene3106	2
gene3107	12
gene3108	13
gene3109	1
gene311	78
gene3110	63
gene3111	20
gene3112	10
gene3113	1092
gene3114	6
gene3115	87
gene3116	164
gene3117	19
gene3118	113
gene3119	75
gene312	132
gene3120	11
gene3121	84
gene3122	82
gene3123	93
gene3124	85
gene3125	2
gene3126	39
gene3127	56
gene3128	0
gene3129	106
gene313	68
gene3130	4
gene3131	152
gene3132	25
gene3133	12
gene3134	8
gene3135	4
gene3136	18
gene3137	5
gene3138	14
gene3139	25
gene314	69
gene3140	8
gene3141	9
gene3142	0
gene3143	2
gene3144	1
gene3145	33530
gene3146	29
gene3147	34
gene3148	3
gene3149	5
gene315	9
gene3150	27
gene3151	25
gene3152	46
gene3153	157
gene3154	25
gene3155	22
gene3156	11
gene3157	17
gene3158	6
gene3159	0
gene316	17
gene3160	2
gene3161	2
gene3162	0
gene3163	1
gene3164	1
gene3165	0
gene3166	9
gene3167	7
gene3168	48
gene3169	241
gene317	2
gene3170	11
gene3171	59
gene3172	156
gene3173	18
gene3174	16
gene3175	8
gene3176	16
gene3177	11
gene3178	92
gene3179	157
gene318	12
gene3180	1
gene3181	2
gene3182	38
gene3183	23
gene3184	137
gene3185	814
gene3186	2077
gene3187	0
gene3188	500
gene3189	83
gene319	3
gene3190	46
gene3191	1096
gene3192	458
gene3193	100
gene3194	101
gene3195	121
gene3196	6
gene3197	1
gene3198	316
gene3199	369
gene32	145
gene320	3
gene3200	43
gene3201	1278
gene3202	309
gene3203	143
gene3204	143
gene3205	64
gene3206	112
gene3207	55
gene3208	359
gene3209	476
gene321	5
gene3210	269
gene3211	8
gene3212	275
gene3213	55
gene3214	49
gene3215	184
gene3216	69
gene3217	87
gene3218	140
gene3219	44
gene322	0
gene3220	108
gene3221	68
gene3222	52
gene3223	70
gene3224	92
gene3225	426
gene3226	235
gene3227	233
gene3228	196
gene3229	22
gene323	3
gene3230	891
gene3231	41
gene3232	173
gene3233	4
gene3234	302
gene3235	1
gene3236	120
gene3237	42
gene3238	3
gene3239	1
gene324	20
gene3240	5
gene3241	58
gene3242	112
gene3243	7
gene3244	6
gene3245	8
gene3246	15
gene3247	10
gene3248	23
gene3249	27
gene325	88
gene3250	114
gene3251	2
gene3252	247
gene3253	726
gene3254	559
gene3255	716
gene3256	72
gene3257	401
gene3258	185
gene3259	70
gene326	0
gene3260	5840
gene3261	66
gene3262	3
gene3263	10
gene3264	7
gene3265	5
gene3266	0
gene3267	53
gene3268	161
gene3269	167
gene327	5
gene3270	123
gene3271	35
gene3272	21
gene3273	92
gene3274	583
gene3275	128
gene3276	181
gene3277	227
gene3278	466
gene3279	3
gene328	3
gene3280	15
gene3281	56
gene3282	180
gene3283	63
gene3284	8
gene3285	22
gene3286	0
gene3287	1
gene3288	13
gene3289	2
gene329	102
gene3290	28
gene3291	5
gene3292	2
gene3293	6
gene3294	0
gene3295	0
gene3296	0
gene3297	293
gene3298	11
gene3299	153
gene33	413
gene330	58
gene3300	63
gene3301	49
gene3302	14
gene3303	5
gene3304	3
gene3305	32
gene3306	1606
gene3307	88
gene3308	59
gene3309	176
gene331	10
gene3310	39
gene3311	493
gene3312	1473
gene3313	289
gene3314	318
gene3315	13
gene3316	413
gene3317	677
gene3318	6
gene3319	4374
gene332	6
gene3320	3952
gene3321	1042
gene3322	1317
gene3323	929
gene3324	407
gene3325	247
gene3326	236
gene3327	5082
gene3328	32
gene3329	17
gene333	14
gene3330	110
gene3331	9
gene3332	73
gene3333	69
gene3334	91
gene3335	0
gene3336	272
gene3337	127
gene3338	149
gene3339	53
gene334	16
gene3340	146
gene3341	79
gene3342	119
gene3343	131
gene3344	1444
gene3345	284
gene3346	0
gene3347	46
gene3348	14
gene3349	5
gene335	11
gene3350	60
gene3351	296
gene3352	55
gene3353	19
gene3354	0
gene3355	3
gene3356	11
gene3357	0
gene3358	1
gene3359	11
gene336	66
gene3360	7
gene3361	41
gene3362	1
gene3363	12
gene3364	2396
gene3365	8
gene3366	96
gene3367	51
gene3368	83
gene3369	14
gene337	10
gene3370	342
gene3371	42
gene3372	78
gene3373	122
gene3374	67
gene3375	254
gene3376	33
gene3377	450
gene3378	380
gene3379	171
gene338	4
gene3380	452
gene3381	36
gene3382	136
gene3383	87
gene3384	37
gene3385	22
gene3386	41
gene3387	898
gene3388	8
gene3389	9
gene339	6
gene3390	305
gene3391	86
gene3392	829
gene3393	267
gene3394	187
gene3395	89
gene3396	7
gene3397	2692
gene3398	12
gene3399	8
gene34	17
gene340	4
gene3400	15
gene3401	4
gene3402	5
gene3403	0
gene3404	0
gene3405	0
gene3406	2
gene3407	9
gene3408	3
gene3409	7
gene341	8
gene3410	26
gene3411	4291
gene3412	807
gene3413	463
gene3414	334
gene3415	6
gene3416	0
gene3417	150
gene3418	32
gene3419	96
gene342	4
gene3420	253
gene3421	49
gene3422	10
gene3423	1
gene3424	3
gene3425	8
gene3426	1
gene3427	4
gene3428	3
gene3429	2
gene343	17
gene3430	1
gene3431	5
gene3432	12
gene3433	5
gene3434	542
gene3435	1041
gene3436	37
gene3437	58
gene3438	158
gene3439	117
gene344	69
gene3440	1801
gene3441	163
gene3442	6
gene3443	459
gene3444	7
gene3445	4
gene3446	242
gene3447	140
gene3448	56
gene3449	25
gene345	68
gene3450	6
gene3451	1
gene3452	394
gene3453	2
gene3454	2
gene3455	166
gene3456	54
gene3457	67
gene3458	50
gene3459	395
gene346	4
gene3460	2326
gene3461	913
gene3462	226
gene3463	406
gene3464	23
gene3465	30
gene3466	92
gene3467	105
gene3468	163
gene3469	133
gene347	7
gene3470	77
gene3471	195
gene3472	79
gene3473	335
gene3474	174
gene3475	56
gene3476	13
gene3477	2
gene3478	43
gene3479	97
gene348	7
gene3480	10
gene3481	48
gene3482	89
gene3483	95
gene3484	83
gene3485	16
gene3486	1
gene3487	1
gene3488	267
gene3489	3
gene349	1
gene3490	249
gene3491	29
gene3492	69
gene3493	56
gene3494	157
gene3495	62
gene3496	2
gene3497	32
gene3498	507
gene3499	264
gene35	4
gene350	3
gene3500	88
gene3501	262
gene3502	256
gene3503	162
gene3504	6
gene3505	25
gene3506	1
gene3507	3
gene3508	1
gene3509	3
gene351	6
gene3510	89
gene3511	21
gene3512	16
gene3513	30
gene3514	30
gene3515	53
gene3516	21
gene3517	81
gene3518	58
gene3519	85
gene352	9
gene3520	55
gene3521	113
gene3522	108
gene3523	618
gene3524	140
gene3525	682
gene3526	437
gene3527	221
gene3528	68
gene3529	0
gene353	40
gene3530	5
gene3531	36
gene3532	27
gene3533	21
gene3534	40
gene3535	73
gene3536	53
gene3537	0
gene3538	52
gene3539	34
gene354	67
gene3540	6
gene3541	266
gene3542	67
gene3543	0
gene3544	0
gene3545	1
gene3546	400
gene3547	11
gene3548	228
gene3549	45
gene355	258
gene3550	15
gene3551	44
gene3552	138
gene3553	1014
gene3554	40
gene3555	70
gene3556	101
gene3557	56
gene3558	68
gene3559	43
gene356	69
gene3560	32
gene3561	7
gene3562	180
gene3563	1
gene3564	147
gene3565	27
gene3566	318
gene3567	903
gene3568	1305
gene3569	1462
gene357	5
gene3570	1081
gene3571	4729
gene3572	1911
gene3573	3995
gene3574	997
gene3575	639
gene3576	1251
gene3577	36
gene3578	11
gene3579	12
gene358	0
gene3580	33
gene3581	48
gene3582	3
gene3583	0
gene3584	4
gene3585	1
gene3586	1
gene3587	6
gene3588	21
gene3589	4
gene359	0
gene3590	19
gene3591	56
gene3592	171
gene3593	68
gene3594	0
gene3595	2
gene3596	12
gene3597	2
gene3598	1086
gene3599	4
gene36	3
gene360	0
gene3600	19971
gene3601	10
gene3602	857
gene3603	96
gene3604	436
gene3605	6
gene3606	36
gene3607	188
gene3608	216
gene3609	132
gene361	3
gene3610	14
gene3611	416
gene3612	23
gene3613	62
gene3614	12
gene3615	38
gene3616	13
gene3617	3
gene3618	7
gene3619	4
gene362	0
gene3620	7
gene3621	35
gene3622	121
gene3623	75
gene3624	9
gene3625	60
gene3626	2
gene3627	1
gene3628	1
gene3629	2
gene363	0
gene3630	0
gene3631	15
gene3632	8
gene3633	7
gene3634	6
gene3635	11
gene3636	1
gene3637	2
gene3638	22
gene3639	101
gene364	4
gene3640	139
gene3641	11
gene3642	54
gene3643	30
gene3644	14
gene3645	12
gene3646	34
gene3647	3
gene3648	20
gene3649	4
gene365	1
gene3650	1
gene3651	46
gene3652	30
gene3653	1
gene3654	2
gene3655	3
gene3656	14
gene3657	171
gene3658	7
gene3659	38
gene366	0
gene3660	94
gene3661	31
gene3662	318
gene3663	157
gene3664	108
gene3665	18
gene3666	0
gene3667	20
gene3668	184
gene3669	65
gene367	4
gene3670	5
gene3671	71
gene3672	135
gene3673	190
gene3674	178
gene3675	637
gene3676	87
gene3677	10
gene3678	20
gene3679	93
gene368	150
gene3680	116
gene3681	83
gene3682	32
gene3683	21
gene3684	62
gene3685	42
gene3686	44
gene3687	41
gene3688	23
gene3689	32
gene369	0
gene3690	39
gene3691	60
gene3692	114
gene3693	346
gene3694	71
gene3695	1411
gene3696	1379
gene3697	2
gene3698	25
gene3699	68
gene37	7
gene370	5
gene3700	89
gene3701	161
gene3702	101
gene3703	356
gene3704	382
gene3705	214
gene3706	4
gene3707	83
gene3708	20
gene3709	116
gene371	14
gene3710	53
gene3711	130
gene3712	22
gene3713	147
gene3714	412
gene3715	2
gene3716	7
gene3717	1
gene3718	1
gene3719	7
gene372	1
gene3720	3
gene3721	53
gene3722	64
gene3723	119
gene3724	0
gene3725	512
gene3726	0
gene3727	1
gene3728	18
gene3729	5
gene373	10
gene3730	13
gene3731	9
gene3732	11
gene3733	10
gene3734	7
gene3735	0
gene3736	1
gene3737	1
gene3738	21
gene3739	67
gene374	0
gene3740	13
gene3741	134
gene3742	41
gene3743	969
gene3744	40
gene3745	33
gene3746	38
gene3747	163
gene3748	35
gene3749	16
gene375	77
gene3750	0
gene3751	0
gene3752	5
gene3753	9
gene3754	368
gene3755	648
gene3756	3
gene3757	4
gene3758	0
gene3759	64
gene376	14
gene3760	30
gene3761	177
gene3762	390
gene3763	5
gene3764	85
gene3765	9
gene3766	38
gene3767	21
gene3768	4
gene3769	147
gene377	37
gene3770	2
gene3771	6524
gene3772	294
gene3773	247
gene3774	282
gene3775	328
gene3776	3
gene3777	1
gene3778	25
gene3779	55
gene378	14
gene3780	2
gene3781	90
gene3782	23
gene3783	6
gene3784	9
gene3785	14
gene3786	7
gene3787	35
gene3788	63
gene3789	863
gene379	56
gene3790	128
gene3791	62
gene3792	6
gene3793	73
gene3794	29
gene3795	29
gene3796	27
gene3797	13
gene3798	42
gene3799	9
gene38	3
gene380	236
gene3800	9
gene3801	45
gene3802	0
gene3803	51
gene3804	12
gene3805	1
gene3806	3
gene3807	7
gene3808	84
gene3809	17
gene381	340
gene3810	2
gene3811	3
gene3812	18
gene3813	7
gene3814	1
gene3815	10
gene3816	7
gene3817	5
gene3818	258
gene3819	59
gene382	183
gene3820	292
gene3821	23
gene3822	114
gene3823	1899
gene3824	21
gene3825	145
gene3826	50
gene3827	5
gene3828	1
gene3829	0
gene383	24
gene3830	8
gene3831	681
gene3832	631
gene3833	211
gene3834	4
gene3835	0
gene3836	0
gene3837	13
gene3838	9
gene3839	0
gene384	3
gene3840	2
gene3841	0
gene3842	0
gene3843	0
gene3844	28
gene3845	12
gene3846	23
gene3847	220
gene3848	21
gene3849	34
gene385	151
gene3850	479
gene3851	96
gene3852	60
gene3853	8
gene3854	15
gene3855	236
gene3856	68
gene3857	131
gene3858	458
gene3859	37
gene386	31
gene3860	52
gene3861	8
gene3862	6
gene3863	15
gene3864	4
gene3865	3
gene3866	242
gene3867	30
gene3868	12
gene3869	45
gene387	30
gene3870	35
gene3871	35
gene3872	148
gene3873	1
gene3874	2
gene3875	12
gene3876	0
gene3877	0
gene3878	25
gene3879	0
gene388	19
gene3880	148
gene3881	35
gene3882	92
gene3883	7
gene3884	6
gene3885	11
gene3886	722
gene3887	1010
gene3888	476
gene3889	685
gene389	12
gene3890	526
gene3891	728
gene3892	5
gene3893	72
gene3894	45
gene3895	40
gene3896	51
gene3897	10
gene3898	14
gene3899	12
gene39	12
gene390	123
gene3900	1012
gene3901	160
gene3902	118
gene3903	24
gene3904	319
gene3905	57
gene3906	40
gene3907	8
gene3908	11
gene3909	129
gene391	7
gene3910	17
gene3911	185
gene3912	29
gene3913	260
gene3914	115
gene3915	7086
gene3916	56
gene3917	86
gene3918	13
gene3919	49
gene392	132
gene3920	199
gene3921	140
gene3922	66
gene3923	12
gene3924	3
gene3925	0
gene3926	1
gene3927	6
gene3928	190
gene3929	267
gene393	53
gene3930	292
gene3931	55
gene3932	119
gene3933	89
gene3934	238
gene3935	19
gene3936	8
gene3937	1
gene3938	2
gene3939	1
gene394	18
gene3940	3
gene3941	4
gene3942	4
gene3943	48
gene3944	7
gene3945	2
gene3946	5
gene3947	1
gene3948	3
gene3949	90
gene395	89
gene3950	5
gene3951	0
gene3952	2
gene3953	5
gene3954	189
gene3955	7
gene3956	18
gene3957	6
gene3958	40
gene3959	127
gene396	24
gene3960	1375
gene3961	104
gene3962	83
gene3963	4
gene3964	19
gene3965	85
gene3966	19
gene3967	18
gene3968	9
gene3969	909
gene397	22
gene3970	59
gene3971	473
gene3972	116
gene3973	29
gene3974	9
gene3975	15
gene3976	1369
gene3977	1335
gene3978	7215
gene3979	4477
gene398	13
gene3980	25
gene3981	64
gene3982	126
gene3983	6
gene3984	1
gene3985	2
gene3986	2
gene3987	0
gene3988	0
gene3989	0
gene399	79
gene3990	0
gene3991	1
gene3992	1
gene3993	5
gene3994	0
gene3995	2
gene3996	4
gene3997	656
gene3998	1087
gene3999	627
gene4	7
gene40	1
gene400	39
gene4000	211
gene4001	892
gene4002	162
gene4003	362
gene4004	805
gene4005	438
gene4006	28
gene4007	192
gene4008	1344
gene4009	532
gene401	43
gene4010	1227
gene4011	556
gene4012	540
gene4013	823
gene4014	310
gene4015	700
gene4016	51
gene4017	882
gene4018	2082
gene4019	309
gene402	13
gene4020	928
gene4021	715
gene4022	1496
gene4023	2383
gene4024	629
gene4025	27
gene4026	27
gene4027	22
gene4028	240
gene4029	73
gene403	30
gene4030	108
gene4031	178
gene4032	134
gene4033	37
gene4034	172
gene4035	84
gene4036	24
gene4037	33
gene4038	10
gene4039	76
gene404	237
gene4040	271
gene4041	0
gene4042	0
gene4043	449
gene4044	0
gene4045	1
gene4046	19
gene4047	10
gene4048	14230
gene4049	25205
gene405	306
gene4050	3121
gene4051	0
gene4052	80
gene4053	338
gene4054	56
gene4055	25
gene4056	84
gene4057	56
gene4058	12
gene4059	400
gene406	439
gene4060	23
gene4061	2
gene4062	0
gene4063	6
gene4064	4
gene4065	7
gene4066	76
gene4067	102
gene4068	1324
gene4069	197
gene407	210
gene4070	588
gene4071	187
gene4072	1
gene4073	84
gene4074	105
gene4075	375
gene4076	48
gene4077	138
gene4078	25
gene4079	154
gene408	66
gene4080	59
gene4081	0
gene4082	2
gene4083	94
gene4084	7
gene4085	164
gene4086	149
gene4087	64
gene4088	149
gene4089	294
gene409	347
gene4090	133
gene4091	89
gene4092	151
gene4093	383
gene4094	5
gene4095	20
gene4096	30
gene4097	6
gene4098	2
gene4099	6
gene41	2
gene410	11
gene4100	49
gene4101	3
gene4102	2478
gene4103	456
gene4104	3875
gene4105	12
gene4106	1
gene4107	0
gene4108	1
gene4109	5
gene411	100
gene4110	0
gene4111	1
gene4112	49
gene4113	76
gene4114	35
gene4115	0
gene4116	2
gene4117	0
gene4118	0
gene4119	8
gene412	171
gene4120	17
gene4121	0
gene4122	2
gene4123	2
gene4124	6
gene4125	55
gene4126	13
gene4127	6
gene4128	6
gene4129	4
gene413	152
gene4130	1
gene4131	2
gene4132	1
gene4133	1
gene4134	1
gene4135	2
gene4136	0
gene4137	0
gene4138	1
gene4139	1
gene414	139
gene4140	3
gene4141	0
gene4142	21
gene4143	96
gene4144	33
gene4145	20
gene4146	152
gene4147	15
gene4148	25
gene4149	4
gene415	52
gene4150	3
gene4151	1
gene4152	7
gene4153	9
gene4154	60
gene4155	28
gene4156	17
gene4157	3
gene4158	3
gene4159	63
gene416	81
gene4160	88
gene4161	12
gene4162	21
gene4163	0
gene4164	1
gene4165	717
gene4166	7
gene4167	2
gene4168	1
gene4169	7
gene417	121
gene4170	0
gene4171	120
gene4172	95
gene4173	41
gene4174	65
gene4175	1481
gene4176	33
gene4177	17
gene4178	605
gene4179	3708
gene418	282
gene4180	453
gene4181	11
gene4182	78
gene4183	577
gene4184	4
gene4185	109
gene4186	31
gene4187	35
gene4188	18
gene4189	21
gene419	172
gene4190	14
gene4191	41
gene4192	190
gene4193	11
gene4194	5
gene4195	0
gene4196	1
gene4197	163
gene4198	214
gene4199	187
gene42	7
gene420	66
gene4200	92
gene4201	74
gene4202	8
gene4203	5
gene4204	24
gene4205	70
gene4206	18
gene4207	62
gene4208	138
gene4209	701
gene421	37
gene4210	461
gene4211	565
gene4212	690
gene4213	507
gene4214	2
gene4215	1719
gene4216	32
gene4217	661
gene4218	80
gene4219	1
gene422	51
gene4220	0
gene4221	1
gene4222	0
gene4223	1
gene4224	2
gene4225	44
gene4226	163
gene4227	301
gene4228	22
gene4229	35
gene423	37
gene4230	8
gene4231	5
gene4232	1
gene4233	3
gene4234	13
gene4235	11
gene4236	8
gene4237	1
gene4238	510
gene4239	131
gene424	349
gene4240	81
gene4241	393
gene4242	1
gene4243	0
gene4244	147
gene4245	330
gene4246	1063
gene4247	8
gene4248	24
gene4249	18
gene425	46
gene4250	17
gene4251	182
gene4252	83
gene4253	0
gene4254	189
gene4255	323
gene4256	52
gene4257	125
gene4258	116
gene4259	175
gene426	1783
gene4260	67
gene4261	1
gene4262	4
gene4263	14
gene4264	814
gene4265	126
gene4266	14
gene4267	8
gene4268	14
gene4269	574
gene427	332
gene4270	284
gene4271	95
gene4272	183
gene4273	17
gene4274	3
gene4275	37
gene4276	86
gene4277	178
gene4278	15
gene4279	351
gene428	588
gene4280	1743
gene4281	222
gene4282	363
gene4283	3
gene4284	6
gene4285	4
gene4286	21
gene4287	15
gene4288	9
gene4289	11
gene429	3695
gene4290	417
gene4291	37
gene4292	0
gene4293	930
gene4294	55
gene4295	691
gene4296	87
gene4297	92
gene4298	93
gene4299	15
gene43	5
gene430	2595
gene4300	11
gene4301	6
gene4302	3
gene4303	9
gene4304	23
gene4305	0
gene4306	40
gene4307	3
gene4308	0
gene4309	2
gene431	64
gene4310	23
gene4311	0
gene4312	60
gene4313	8
gene4314	54
gene4315	3
gene4316	0
gene4317	6
gene4318	8
gene4319	1
gene432	159
gene4320	4
gene4321	0
gene4322	0
gene4323	68
gene4324	18
gene4325	35
gene4326	107
gene4327	409
gene4328	28
gene4329	41
gene433	216
gene4330	11
gene4331	0
gene4332	150
gene4333	5
gene4334	44
gene4335	10
gene4336	7
gene4337	7
gene4338	5
gene4339	6
gene434	1354
gene4340	3
gene4341	13
gene4342	0
gene4343	9
gene4344	27
gene4345	15
gene4346	26
gene4347	4
gene4348	7
gene4349	18
gene435	374
gene4350	1
gene4351	15
gene4352	3
gene4353	337
gene4354	29
gene4355	18
gene4356	23
gene4357	1
gene4358	5
gene4359	15
gene436	630
gene4360	14
gene4361	178
gene4362	177
gene4363	68
gene4364	0
gene4365	5
gene4366	32
gene4367	53
gene4368	0
gene4369	3
gene437	734
gene4370	5
gene4371	8
gene4372	3
gene4373	2
gene4374	3
gene4375	13
gene4376	5
gene4377	1
gene4378	18
gene4379	35
gene438	2104
gene4380	0
gene4381	131
gene4382	41
gene4383	10
gene4384	39
gene4385	6
gene4386	21
gene4387	55
gene4388	370
gene4389	97
gene439	559
gene4390	71
gene4391	2
gene4392	23
gene4393	24
gene4394	10
gene4395	15
gene4396	2
gene4397	266
gene4398	37
gene4399	36
gene44	0
gene440	17
gene4400	33
gene4401	3
gene4402	8
gene4403	0
gene4404	2
gene4405	878
gene4406	23
gene4407	7
gene4408	3
gene4409	1
gene441	6
gene4410	89
gene4411	17
gene4412	14
gene4413	33
gene4414	168
gene4415	273
gene4416	92
gene4417	29
gene4418	28
gene4419	2
gene442	58
gene4420	11
gene4421	42
gene4422	84
gene4423	522
gene4424	387
gene4425	52
gene4426	56
gene4427	23
gene4428	83
gene4429	89
gene443	10
gene4430	109
gene4431	874
gene4432	207
gene4433	41
gene4434	19
gene4435	108
gene4436	343
gene4437	48
gene4438	31
gene4439	41
gene444	21
gene4440	4
gene4441	1142
gene4442	1
gene4443	22
gene445	11
gene446	29
gene447	18
gene448	0
gene449	15
gene45	2
gene450	65
gene451	118
gene452	25
gene453	2
gene454	20
gene455	18
gene456	66
gene457	34
gene458	26
gene459	62
gene46	12
gene460	655
gene461	264
gene462	42
gene463	134
gene464	5
gene465	36
gene466	41
gene467	97
gene468	159
gene469	106
gene47	41
gene470	95
gene471	469
gene472	508
gene473	37
gene474	8
gene475	69
gene476	220
gene477	24
gene478	294
gene479	9
gene48	71
gene480	22
gene481	51
gene482	123
gene483	6
gene484	7
gene485	45
gene486	64
gene487	117
gene488	17
gene489	21
gene49	69
gene490	224
gene491	81
gene492	71
gene493	42
gene494	72
gene495	19
gene496	0
gene497	1
gene498	0
gene499	11
gene5	65
gene50	32
gene500	13
gene501	3
gene502	3
gene503	143
gene504	4
gene505	2
gene506	0
gene507	0
gene508	2
gene509	14
gene51	96
gene510	6
gene511	11
gene512	39
gene513	11
gene514	2
gene515	4
gene516	4
gene517	2
gene518	2
gene519	27
gene52	75
gene520	8
gene521	32
gene522	440
gene523	168
gene524	1
gene525	9
gene526	99
gene527	2
gene528	0
gene529	1
gene53	419
gene530	1
gene531	2
gene532	1
gene533	6
gene534	56
gene535	1
gene536	0
gene537	0
gene538	3
gene539	1
gene54	670
gene540	5
gene541	2
gene542	9
gene543	16
gene544	0
gene545	0
gene546	0
gene547	0
gene548	0
gene549	1
gene55	55
gene550	6
gene551	2503
gene552	2
gene553	3
gene554	0
gene555	0
gene556	34
gene557	0
gene558	2
gene559	1
gene56	10
gene560	1
gene561	5
gene562	2
gene563	0
gene564	942
gene565	4
gene566	7
gene567	36
gene568	12
gene569	19
gene57	0
gene570	26
gene571	0
gene572	0
gene573	3
gene574	12
gene575	40
gene576	96
gene577	203
gene578	19
gene579	10
gene58	7
gene580	22
gene581	0
gene582	26
gene583	22
gene584	527
gene585	165
gene586	4
gene587	606
gene588	3
gene589	43
gene59	60
gene590	18
gene591	35
gene592	94
gene593	74
gene594	452
gene595	470
gene596	300
gene597	185
gene598	80
gene599	3334
gene6	11
gene60	16
gene600	237
gene601	19
gene602	10
gene603	8
gene604	5
gene605	1
gene606	23
gene607	5390
gene608	273
gene609	662
gene61	4
gene610	20
gene611	141
gene612	51
gene613	2
gene614	0
gene615	0
gene616	1
gene617	0
gene618	0
gene619	0
gene62	26
gene620	25
gene621	10
gene622	9
gene623	13
gene624	5
gene625	3022
gene626	6
gene627	4
gene628	13
gene629	112
gene63	16
gene630	246
gene631	1
gene632	30
gene633	72
gene634	191
gene635	153
gene636	40
gene637	62
gene638	30
gene639	27
gene64	235
gene640	11
gene641	29
gene642	64
gene643	84
gene644	679
gene645	179
gene646	3
gene647	0
gene648	0
gene649	1
gene65	96
gene650	0
gene651	11
gene652	12
gene653	273
gene654	71
gene655	47
gene656	66
gene657	1136
gene658	8
gene659	57
gene66	26
gene660	202
gene661	70
gene662	187
gene663	137
gene664	104
gene665	1
gene666	3
gene667	2
gene668	1
gene669	2
gene67	63
gene670	1
gene671	4
gene672	107
gene673	129
gene674	156
gene675	87
gene676	128
gene677	627
gene678	422
gene679	27
gene68	172
gene680	0
gene681	511
gene682	340
gene683	17
gene684	49
gene685	105
gene686	483
gene687	2
gene688	1
gene689	1
gene69	36
gene690	9
gene691	4
gene692	12
gene693	72
gene694	3
gene695	9
gene696	0
gene697	0
gene698	6
gene699	10
gene7	2125
gene70	9
gene700	0
gene701	1
gene702	2
gene703	1
gene704	0
gene705	0
gene706	12
gene707	22
gene708	3
gene709	247
gene71	28
gene710	145
gene711	142
gene712	65
gene713	14
gene714	2
gene715	0
gene716	2
gene717	0
gene718	2
gene719	4311
gene72	24
gene720	818
gene721	210
gene722	2876
gene723	1223
gene724	5985
gene725	4117
gene726	5330
gene727	3365
gene728	26
gene729	2
gene73	21
gene730	18
gene731	1037
gene732	604
gene733	3
gene734	63
gene735	34
gene736	50
gene737	22
gene738	86
gene739	709
gene74	22
gene740	794
gene741	265
gene742	147
gene743	32
gene744	31
gene745	31
gene746	23
gene747	27
gene748	4
gene749	20
gene75	15
gene750	31
gene751	24
gene752	88
gene753	269
gene754	1192
gene755	227
gene756	62
gene757	35
gene758	58
gene759	49
gene76	5
gene760	66
gene761	123
gene762	90
gene763	47
gene764	54
gene765	42
gene766	199
gene767	5
gene768	3
gene769	4
gene77	17
gene770	5
gene771	237
gene772	35
gene773	7
gene774	7
gene775	3
gene776	0
gene777	4
gene778	169
gene779	79
gene78	41
gene780	231
gene781	256
gene782	136
gene783	11
gene784	137
gene785	141
gene786	2
gene787	2
gene788	11
gene789	8
gene79	11
gene790	288
gene791	17
gene792	20
gene793	60
gene794	47
gene795	23
gene796	12
gene797	4
gene798	44
gene799	121
gene8	102
gene80	442
gene800	166
gene801	3
gene802	12
gene803	21
gene804	147
gene805	5
gene806	25
gene807	16
gene808	559
gene809	389
gene81	94
gene810	3232
gene811	763
gene812	10
gene813	674
gene814	8
gene815	0
gene816	230
gene817	76
gene818	33
gene819	200
gene82	109
gene820	275
gene821	108
gene822	35
gene823	7
gene824	0
gene825	5
gene826	34
gene827	107
gene828	78
gene829	82
gene83	14
gene830	74
gene831	24
gene832	16
gene833	9
gene834	4
gene835	44
gene836	16
gene837	20
gene838	340
gene839	219
gene84	137
gene840	65
gene841	88
gene842	26
gene843	21
gene844	71
gene845	30
gene846	31
gene847	1
gene848	59
gene849	14
gene85	148
gene850	6
gene851	11
gene852	51
gene853	46
gene854	76
gene855	49
gene856	19
gene857	6
gene858	4
gene859	4
gene86	108
gene860	13
gene861	8
gene862	40
gene863	35
gene864	119
gene865	69
gene866	102
gene867	77
gene868	56
gene869	66
gene87	66
gene870	96
gene871	187
gene872	54
gene873	3
gene874	2
gene875	9
gene876	25
gene877	109
gene878	173
gene879	41
gene88	103
gene880	66
gene881	4207
gene882	36
gene883	1647
gene884	2
gene885	100
gene886	43
gene887	152
gene888	107
gene889	358
gene89	88
gene890	398
gene891	525
gene892	100
gene893	92
gene894	746
gene895	8
gene896	0
gene897	5
gene898	267
gene899	17
gene9	10
gene90	98
gene900	83
gene901	13
gene902	5
gene903	67
gene904	2079
gene905	65
gene906	44
gene907	6
gene908	403
gene909	71
gene91	136
gene910	3
gene911	125
gene912	3461
gene913	1157
gene914	17
gene915	209
gene916	58
gene917	24
gene918	15
gene919	92
gene92	117
gene920	41
gene921	13
gene922	86
gene923	93
gene924	56
gene925	525
gene926	89
gene927	398
gene928	247
gene929	1065
gene93	121
gene930	9976
gene931	536
gene932	200
gene933	788
gene934	7
gene935	1
gene936	6
gene937	2
gene938	2
gene939	9
gene94	229
gene940	0
gene941	6
gene942	10
gene943	1
gene944	1
gene945	7
gene946	14
gene947	159
gene948	109
gene949	145
gene95	997
gene950	118
gene951	22
gene952	41
gene953	15
gene954	13985
gene955	489
gene956	169
gene957	50
gene958	14139
gene959	52
gene96	1490
gene960	37
gene961	19
gene962	12
gene963	171
gene964	239
gene965	6
gene966	137
gene967	123
gene968	68
gene969	28
gene97	64
gene970	35
gene971	877
gene972	0
gene973	0
gene974	2
gene975	3
gene976	3
gene977	0
gene978	2
gene979	8
gene98	416
gene980	9
gene981	21
gene982	19
gene983	1
gene984	4
gene985	3
gene986	1
gene987	1
gene988	0
gene989	2
gene99	9
gene990	1
gene991	0
gene992	18
gene993	1
gene994	4
gene995	1
gene996	18
gene997	8
gene998	23
gene999	0
__no_feature	18789
__ambiguous	116496
__too_low_aQual	0
__not_aligned	0
__alignment_not_unique	0
