PSPTOA0001	30
PSPTOA0002	13
PSPTOA0003	12
PSPTOA0004	28
PSPTOA0005	23
PSPTOA0006	51
PSPTOA0007	34
PSPTOA0008	41
PSPTOA0009	48
PSPTOA0010	88
PSPTOA0011	34
PSPTOA0012	71
PSPTOA0013	13
PSPTOA0014	44
PSPTOA0015	19
PSPTOA0016	16
PSPTOA0017	15
PSPTOA0018	55
PSPTOA0019	75
PSPTOA0020	6
PSPTOA0021	24
PSPTOA0022	25
PSPTOA0023	22
PSPTOA0024	19
PSPTOA0025	21
PSPTOA0026	6
PSPTOA0027	25
PSPTOA0028	4
PSPTOA0029	62
PSPTOA0030	31
PSPTOA0031	110
PSPTOA0032	125
PSPTOA0033	22
PSPTOA0034	45
PSPTOA0035	58
PSPTOA0036	51
PSPTOA0037	76
PSPTOA0038	25
PSPTOA0039	39
PSPTOA0040	38
PSPTOA0041	4
PSPTOA0042	10
PSPTOA0043	3
PSPTOA0044	17
PSPTOA0045	22
PSPTOA0046	7
PSPTOA0047	12
PSPTOA0048	16
PSPTOA0049	101
PSPTOA0050	10
PSPTOA0051	16
PSPTOA0052	20
PSPTOA0053	30
PSPTOA0054	11
PSPTOA0055	11
PSPTOA0056	7
PSPTOA0057	17
PSPTOA0058	10
PSPTOA0059	26
PSPTOA0060	70
PSPTOA0061	10
PSPTOA0062	45
PSPTOA0063	11
PSPTOA0064	78
PSPTOA0065	70
PSPTOA0066	37
PSPTOA0067	36
PSPTOA0068	64
PSPTOA0069	4
PSPTOA0070	12
PSPTOA0071	15
PSPTO_0001	48
PSPTO_0002	23
PSPTO_0003	20
PSPTO_0004	76
PSPTO_0005	44
PSPTO_0006	30
PSPTO_0007	14
PSPTO_0008	45
PSPTO_0009	26
PSPTO_0011	23
PSPTO_0012	5
PSPTO_0013	14
PSPTO_0014	4
PSPTO_0015	9
PSPTO_0016	14
PSPTO_0017	31
PSPTO_0018	12
PSPTO_0019	15
PSPTO_0020	14
PSPTO_0021	38
PSPTO_0022	8
PSPTO_0023	12
PSPTO_0024	4
PSPTO_0025	20
PSPTO_0026	17
PSPTO_0027	11
PSPTO_0028	33
PSPTO_0029	17
PSPTO_0030	16
PSPTO_0031	19
PSPTO_0032	22
PSPTO_0033	10
PSPTO_0034	23
PSPTO_0035	27
PSPTO_0036	4
PSPTO_0037	104
PSPTO_0038	37
PSPTO_0039	21
PSPTO_0040	3
PSPTO_0041	8
PSPTO_0042	18
PSPTO_0043	38
PSPTO_0044	10
PSPTO_0045	7
PSPTO_0046	39
PSPTO_0047	28
PSPTO_0048	17
PSPTO_0049	20
PSPTO_0050	32
PSPTO_0051	16
PSPTO_0052	33
PSPTO_0053	15
PSPTO_0054	11
PSPTO_0055	12
PSPTO_0056	15
PSPTO_0057	13
PSPTO_0058	35
PSPTO_0059	8
PSPTO_0060	13
PSPTO_0061	5
PSPTO_0062	12
PSPTO_0063	9
PSPTO_0064	29
PSPTO_0065	42
PSPTO_0066	10
PSPTO_0067	14
PSPTO_0068	5
PSPTO_0069	26
PSPTO_0070	17
PSPTO_0071	13
PSPTO_0072	16
PSPTO_0073	41
PSPTO_0074	18
PSPTO_0075	22
PSPTO_0076	10
PSPTO_0077	12
PSPTO_0078	14
PSPTO_0079	18
PSPTO_0080	11
PSPTO_0081	9
PSPTO_0082	43
PSPTO_0083	65
PSPTO_0084	6
PSPTO_0085	24
PSPTO_0086	11
PSPTO_0087	15
PSPTO_0088	2
PSPTO_0089	64
PSPTO_0090	58
PSPTO_0091	11
PSPTO_0092	28
PSPTO_0093	6
PSPTO_0094	10
PSPTO_0095	32
PSPTO_0096	22
PSPTO_0097	6
PSPTO_0098	25
PSPTO_0099	9
PSPTO_0100	8
PSPTO_0101	145
PSPTO_0102	28
PSPTO_0103	50
PSPTO_0104	1
PSPTO_0105	18
PSPTO_0106	12
PSPTO_0107	28
PSPTO_0108	18
PSPTO_0109	47
PSPTO_0110	32
PSPTO_0111	28
PSPTO_0112	11
PSPTO_0113	26
PSPTO_0114	29
PSPTO_0115	33
PSPTO_0116	12
PSPTO_0117	28
PSPTO_0118	20
PSPTO_0119	14
PSPTO_0120	15
PSPTO_0121	27
PSPTO_0123	8
PSPTO_0124	24
PSPTO_0125	28
PSPTO_0126	19
PSPTO_0127	13
PSPTO_0128	11
PSPTO_0129	7
PSPTO_0130	22
PSPTO_0131	32
PSPTO_0132	4
PSPTO_0133	2
PSPTO_0134	10
PSPTO_0135	15
PSPTO_0136	201
PSPTO_0137	14
PSPTO_0138	39
PSPTO_0139	12
PSPTO_0140	10
PSPTO_0141	41
PSPTO_0142	1
PSPTO_0143	3
PSPTO_0144	48
PSPTO_0145	10
PSPTO_0146	12
PSPTO_0147	7
PSPTO_0148	32
PSPTO_0149	21
PSPTO_0150	7
PSPTO_0151	10
PSPTO_0152	19
PSPTO_0153	20
PSPTO_0154	10
PSPTO_0155	10
PSPTO_0156	48
PSPTO_0157	15
PSPTO_0158	29
PSPTO_0159	15
PSPTO_0161	15
PSPTO_0162	30
PSPTO_0163	7
PSPTO_0164	24
PSPTO_0165	21
PSPTO_0166	17
PSPTO_0167	22
PSPTO_0168	47
PSPTO_0169	21
PSPTO_0170	14
PSPTO_0171	20
PSPTO_0172	10
PSPTO_0173	20
PSPTO_0174	17
PSPTO_0175	30
PSPTO_0176	19
PSPTO_0177	8
PSPTO_0178	22
PSPTO_0179	33
PSPTO_0180	20
PSPTO_0181	32
PSPTO_0182	13
PSPTO_0183	5
PSPTO_0184	31
PSPTO_0185	60
PSPTO_0186	9
PSPTO_0187	12
PSPTO_0188	8
PSPTO_0189	5
PSPTO_0190	9
PSPTO_0191	4
PSPTO_0192	21
PSPTO_0193	8
PSPTO_0194	16
PSPTO_0196	36
PSPTO_0197	5
PSPTO_0200	45
PSPTO_0201	38
PSPTO_0202	22
PSPTO_0203	35
PSPTO_0205	21
PSPTO_0206	21
PSPTO_0207	1
PSPTO_0208	7
PSPTO_0209	14
PSPTO_0210	9
PSPTO_0211	13
PSPTO_0212	12
PSPTO_0213	4
PSPTO_0214	6
PSPTO_0215	4
PSPTO_0216	2
PSPTO_0217	32
PSPTO_0218	21
PSPTO_0219	25
PSPTO_0220	25
PSPTO_0221	10
PSPTO_0222	6
PSPTO_0223	10
PSPTO_0224	14
PSPTO_0225	35
PSPTO_0226	2
PSPTO_0227	10
PSPTO_0228	7
PSPTO_0229	10
PSPTO_0230	39
PSPTO_0231	7
PSPTO_0232	4
PSPTO_0233	26
PSPTO_0234	27
PSPTO_0235	4
PSPTO_0236	5
PSPTO_0237	14
PSPTO_0238	29
PSPTO_0239	43
PSPTO_0240	11
PSPTO_0241	9
PSPTO_0242	7
PSPTO_0243	9
PSPTO_0244	9
PSPTO_0245	15
PSPTO_0246	5
PSPTO_0247	12
PSPTO_0248	18
PSPTO_0249	19
PSPTO_0250	7
PSPTO_0251	9
PSPTO_0252	41
PSPTO_0253	3
PSPTO_0254	31
PSPTO_0255	17
PSPTO_0256	16
PSPTO_0257	28
PSPTO_0258	11
PSPTO_0259	19
PSPTO_0260	20
PSPTO_0261	14
PSPTO_0262	4
PSPTO_0263	26
PSPTO_0264	21
PSPTO_0265	14
PSPTO_0266	16
PSPTO_0267	26
PSPTO_0268	26
PSPTO_0269	3
PSPTO_0270	6
PSPTO_0271	14
PSPTO_0272	16
PSPTO_0273	7
PSPTO_0274	2
PSPTO_0275	17
PSPTO_0276	24
PSPTO_0277	12
PSPTO_0278	6
PSPTO_0279	11
PSPTO_0280	14
PSPTO_0281	9
PSPTO_0282	9
PSPTO_0283	4
PSPTO_0284	9
PSPTO_0285	16
PSPTO_0286	60
PSPTO_0287	12
PSPTO_0288	0
PSPTO_0289	4
PSPTO_0290	5
PSPTO_0291	7
PSPTO_0292	16
PSPTO_0293	8
PSPTO_0294	4
PSPTO_0295	7
PSPTO_0296	3
PSPTO_0297	9
PSPTO_0298	16
PSPTO_0299	20
PSPTO_0300	42
PSPTO_0301	33
PSPTO_0302	1
PSPTO_0303	37
PSPTO_0304	23
PSPTO_0305	22
PSPTO_0306	33
PSPTO_0307	3
PSPTO_0308	16
PSPTO_0309	8
PSPTO_0310	7
PSPTO_0311	17
PSPTO_0312	7
PSPTO_0313	18
PSPTO_0314	17
PSPTO_0315	20
PSPTO_0316	25
PSPTO_0317	9
PSPTO_0318	44
PSPTO_0319	18
PSPTO_0320	5
PSPTO_0321	12
PSPTO_0322	32
PSPTO_0323	28
PSPTO_0324	25
PSPTO_0325	17
PSPTO_0326	7
PSPTO_0327	45
PSPTO_0328	15
PSPTO_0329	30
PSPTO_0330	5
PSPTO_0331	1
PSPTO_0332	3
PSPTO_0333	27
PSPTO_0334	45
PSPTO_0335	29
PSPTO_0336	4
PSPTO_0337	10
PSPTO_0338	13
PSPTO_0339	38
PSPTO_0340	16
PSPTO_0341	29
PSPTO_0342	4
PSPTO_0343	16
PSPTO_0344	43
PSPTO_0345	8
PSPTO_0346	13
PSPTO_0347	10
PSPTO_0348	28
PSPTO_0349	27
PSPTO_0350	23
PSPTO_0351	18
PSPTO_0352	25
PSPTO_0353	4
PSPTO_0354	0
PSPTO_0355	3
PSPTO_0356	4
PSPTO_0357	3
PSPTO_0358	24
PSPTO_0359	121
PSPTO_0360	41
PSPTO_0361	170
PSPTO_0362	5
PSPTO_0363	7
PSPTO_0364	19
PSPTO_0365	14
PSPTO_0366	15
PSPTO_0367	5
PSPTO_0368	6
PSPTO_0369	11
PSPTO_0370	27
PSPTO_0371	8
PSPTO_0372	22
PSPTO_0373	45
PSPTO_0374	16
PSPTO_0375	34
PSPTO_0376	19
PSPTO_0377	45
PSPTO_0378	16
PSPTO_0379	19
PSPTO_0380	5
PSPTO_0381	7
PSPTO_0382	25
PSPTO_0383	18
PSPTO_0384	9
PSPTO_0385	80
PSPTO_0386	13
PSPTO_0387	20
PSPTO_0388	2
PSPTO_0389	15
PSPTO_0390	36
PSPTO_0391	8
PSPTO_0393	7
PSPTO_0394	16
PSPTO_0395	7
PSPTO_0396	20
PSPTO_0397	37
PSPTO_0398	24
PSPTO_0399	11
PSPTO_0400	19
PSPTO_0401	12
PSPTO_0402	18
PSPTO_0403	5
PSPTO_0404	15
PSPTO_0405	32
PSPTO_0406	43
PSPTO_0407	26
PSPTO_0408	11
PSPTO_0409	28
PSPTO_0410	14
PSPTO_0411	12
PSPTO_0412	23
PSPTO_0413	12
PSPTO_0414	9
PSPTO_0415	15
PSPTO_0416	6
PSPTO_0417	5
PSPTO_0418	22
PSPTO_0419	11
PSPTO_0420	26
PSPTO_0421	18
PSPTO_0422	5
PSPTO_0423	8
PSPTO_0424	16
PSPTO_0425	22
PSPTO_0426	27
PSPTO_0427	37
PSPTO_0428	11
PSPTO_0429	19
PSPTO_0430	124
PSPTO_0431	11
PSPTO_0432	15
PSPTO_0433	3
PSPTO_0434	17
PSPTO_0435	10
PSPTO_0436	12
PSPTO_0437	11
PSPTO_0438	25
PSPTO_0439	45
PSPTO_0440	16
PSPTO_0441	29
PSPTO_0442	1
PSPTO_0443	36
PSPTO_0444	5
PSPTO_0445	30
PSPTO_0446	16
PSPTO_0447	1
PSPTO_0448	6
PSPTO_0449	3
PSPTO_0450	21
PSPTO_0451	12
PSPTO_0452	19
PSPTO_0453	16
PSPTO_0454	8
PSPTO_0455	24
PSPTO_0456	11
PSPTO_0457	14
PSPTO_0458	39
PSPTO_0459	1
PSPTO_0460	8
PSPTO_0461	14
PSPTO_0462	17
PSPTO_0463	6
PSPTO_0464	18
PSPTO_0465	14
PSPTO_0466	21
PSPTO_0467	3
PSPTO_0468	8
PSPTO_0469	8
PSPTO_0470	8
PSPTO_0471	20
PSPTO_0472	11
PSPTO_0473	41
PSPTO_0474	10
PSPTO_0475	11
PSPTO_0476	12
PSPTO_0477	4
PSPTO_0478	14
PSPTO_0479	19
PSPTO_0480	14
PSPTO_0481	5
PSPTO_0482	4
PSPTO_0483	6
PSPTO_0484	10
PSPTO_0485	11
PSPTO_0486	10
PSPTO_0487	16
PSPTO_0488	17
PSPTO_0489	24
PSPTO_0490	14
PSPTO_0491	24
PSPTO_0492	11
PSPTO_0493	15
PSPTO_0494	27
PSPTO_0495	20
PSPTO_0496	18
PSPTO_0497	22
PSPTO_0498	10
PSPTO_0499	15
PSPTO_0500	29
PSPTO_0501	16
PSPTO_0502	17
PSPTO_0503	4
PSPTO_0505	27
PSPTO_0506	30
PSPTO_0507	12
PSPTO_0508	26
PSPTO_0509	14
PSPTO_0510	3
PSPTO_0511	17
PSPTO_0512	16
PSPTO_0513	5
PSPTO_0514	39
PSPTO_0515	8
PSPTO_0516	17
PSPTO_0517	11
PSPTO_0518	26
PSPTO_0519	7
PSPTO_0520	13
PSPTO_0521	11
PSPTO_0522	19
PSPTO_0523	13
PSPTO_0524	12
PSPTO_0525	5
PSPTO_0526	2
PSPTO_0527	25
PSPTO_0528	17
PSPTO_0529	17
PSPTO_0530	7
PSPTO_0531	5
PSPTO_0532	2
PSPTO_0533	12
PSPTO_0534	23
PSPTO_0535	25
PSPTO_0536	39
PSPTO_0537	162
PSPTO_0538	26
PSPTO_0539	24
PSPTO_0540	14
PSPTO_0541	8
PSPTO_0542	6
PSPTO_0543	1
PSPTO_0544	21
PSPTO_0545	62
PSPTO_0546	59
PSPTO_0547	164
PSPTO_0548	2
PSPTO_0549	6
PSPTO_0550	4
PSPTO_0551	12
PSPTO_0552	28
PSPTO_0553	26
PSPTO_0554	90
PSPTO_0555	17
PSPTO_0556	30
PSPTO_0557	22
PSPTO_0558	21
PSPTO_0559	56
PSPTO_0560	5
PSPTO_0561	1
PSPTO_0562	11
PSPTO_0563	10
PSPTO_0564	14
PSPTO_0565	10
PSPTO_0566	17
PSPTO_0567	17
PSPTO_0568	24
PSPTO_0569	24
PSPTO_0570	9
PSPTO_0571	11
PSPTO_0572	17
PSPTO_0573	5
PSPTO_0574	5
PSPTO_0575	10
PSPTO_0576	4
PSPTO_0577	12
PSPTO_0578	4
PSPTO_0579	2
PSPTO_0580	37
PSPTO_0581	31
PSPTO_0582	19
PSPTO_0583	18
PSPTO_0584	11
PSPTO_0585	3
PSPTO_0586	16
PSPTO_0587	40
PSPTO_0588	6
PSPTO_0589	23
PSPTO_0591	17
PSPTO_0592	14
PSPTO_0593	16
PSPTO_0594	31
PSPTO_0595	11
PSPTO_0596	5
PSPTO_0597	8
PSPTO_0598	18
PSPTO_0599	26
PSPTO_0600	10
PSPTO_0601	17
PSPTO_0602	12
PSPTO_0603	7
PSPTO_0604	25
PSPTO_0605	7
PSPTO_0606	14
PSPTO_0607	52
PSPTO_0608	2
PSPTO_0609	24
PSPTO_0610	19
PSPTO_0611	13
PSPTO_0612	8
PSPTO_0613	20
PSPTO_0614	35
PSPTO_0615	51
PSPTO_0616	144
PSPTO_0617	245
PSPTO_0618	149
PSPTO_0619	291
PSPTO_0620	433
PSPTO_0621	58
PSPTO_0622	168
PSPTO_0623	605
PSPTO_0624	638
PSPTO_0625	41
PSPTO_0626	161
PSPTO_0627	211
PSPTO_0628	67
PSPTO_0629	157
PSPTO_0630	122
PSPTO_0631	81
PSPTO_0632	251
PSPTO_0633	121
PSPTO_0634	18
PSPTO_0635	76
PSPTO_0636	125
PSPTO_0637	48
PSPTO_0638	232
PSPTO_0639	71
PSPTO_0640	85
PSPTO_0641	214
PSPTO_0642	49
PSPTO_0643	63
PSPTO_0644	39
PSPTO_0645	79
PSPTO_0646	330
PSPTO_0647	25
PSPTO_0648	95
PSPTO_0649	231
PSPTO_0650	131
PSPTO_0651	331
PSPTO_0652	115
PSPTO_0653	34
PSPTO_0654	56
PSPTO_0655	30
PSPTO_0656	57
PSPTO_0657	6
PSPTO_0658	16
PSPTO_0659	12
PSPTO_0660	10
PSPTO_0661	21
PSPTO_0662	14
PSPTO_0663	9
PSPTO_0664	30
PSPTO_0665	13
PSPTO_0666	12
PSPTO_0667	13
PSPTO_0668	13
PSPTO_0669	4
PSPTO_0670	24
PSPTO_0671	26
PSPTO_0672	4
PSPTO_0673	8
PSPTO_0674	12
PSPTO_0675	12
PSPTO_0676	33
PSPTO_0677	23
PSPTO_0678	16
PSPTO_0679	361
PSPTO_0680	8
PSPTO_0681	21
PSPTO_0682	4
PSPTO_0683	15
PSPTO_0684	2
PSPTO_0685	11
PSPTO_0686	13
PSPTO_0687	13
PSPTO_0688	11
PSPTO_0689	13
PSPTO_0690	25
PSPTO_0691	18
PSPTO_0692	23
PSPTO_0693	5
PSPTO_0694	19
PSPTO_0695	14
PSPTO_0696	18
PSPTO_0697	15
PSPTO_0698	38
PSPTO_0699	21
PSPTO_0700	6
PSPTO_0701	21
PSPTO_0702	17
PSPTO_0703	19
PSPTO_0704	20
PSPTO_0705	17
PSPTO_0706	12
PSPTO_0707	1
PSPTO_0708	3
PSPTO_0709	4
PSPTO_0710	7
PSPTO_0711	21
PSPTO_0712	7
PSPTO_0713	12
PSPTO_0714	29
PSPTO_0715	12
PSPTO_0716	6
PSPTO_0717	8
PSPTO_0718	7
PSPTO_0719	2
PSPTO_0720	14
PSPTO_0721	8
PSPTO_0722	35
PSPTO_0723	11
PSPTO_0724	5
PSPTO_0725	8
PSPTO_0726	17
PSPTO_0727	16
PSPTO_0728	44
PSPTO_0729	36
PSPTO_0730	3
PSPTO_0731	1
PSPTO_0732	15
PSPTO_0733	25
PSPTO_0734	3
PSPTO_0735	9
PSPTO_0736	9
PSPTO_0737	19
PSPTO_0738	9
PSPTO_0739	5
PSPTO_0740	11
PSPTO_0741	9
PSPTO_0742	16
PSPTO_0743	33
PSPTO_0744	35
PSPTO_0745	9
PSPTO_0746	28
PSPTO_0747	11
PSPTO_0748	30
PSPTO_0749	5
PSPTO_0750	45
PSPTO_0751	3
PSPTO_0752	5
PSPTO_0753	23
PSPTO_0754	15
PSPTO_0755	14
PSPTO_0756	16
PSPTO_0757	13
PSPTO_0758	7
PSPTO_0759	12
PSPTO_0760	15
PSPTO_0761	18
PSPTO_0762	20
PSPTO_0763	13
PSPTO_0764	18
PSPTO_0765	21
PSPTO_0766	14
PSPTO_0767	13
PSPTO_0768	17
PSPTO_0769	38
PSPTO_0770	6
PSPTO_0771	1
PSPTO_0772	24
PSPTO_0773	10
PSPTO_0774	17
PSPTO_0775	22
PSPTO_0776	38
PSPTO_0777	71
PSPTO_0778	32
PSPTO_0779	13
PSPTO_0780	18
PSPTO_0781	17
PSPTO_0782	25
PSPTO_0783	15
PSPTO_0784	18
PSPTO_0785	31
PSPTO_0786	21
PSPTO_0787	13
PSPTO_0788	19
PSPTO_0789	19
PSPTO_0790	21
PSPTO_0791	22
PSPTO_0792	6
PSPTO_0793	18
PSPTO_0794	18
PSPTO_0795	10
PSPTO_0796	30
PSPTO_0797	54
PSPTO_0798	45
PSPTO_0799	25
PSPTO_0800	27
PSPTO_0801	18
PSPTO_0802	15
PSPTO_0803	0
PSPTO_0804	14
PSPTO_0805	24
PSPTO_0806	73
PSPTO_0807	8
PSPTO_0808	12
PSPTO_0809	17
PSPTO_0810	9
PSPTO_0811	5
PSPTO_0812	6
PSPTO_0813	9
PSPTO_0814	4
PSPTO_0815	44
PSPTO_0816	6
PSPTO_0817	22
PSPTO_0818	4
PSPTO_0819	15
PSPTO_0820	44
PSPTO_0821	17
PSPTO_0822	8
PSPTO_0823	19
PSPTO_0824	15
PSPTO_0825	3
PSPTO_0826	34
PSPTO_0827	18
PSPTO_0828	12
PSPTO_0829	154
PSPTO_0830	23
PSPTO_0831	25
PSPTO_0832	15
PSPTO_0833	12
PSPTO_0834	41
PSPTO_0835	12
PSPTO_0836	15
PSPTO_0837	18
PSPTO_0838	35
PSPTO_0840	16
PSPTO_0841	9
PSPTO_0842	9
PSPTO_0844	24
PSPTO_0846	25
PSPTO_0847	5
PSPTO_0848	11
PSPTO_0849	5
PSPTO_0850	7
PSPTO_0851	26
PSPTO_0852	21
PSPTO_0853	20
PSPTO_0854	11
PSPTO_0855	16
PSPTO_0856	21
PSPTO_0857	7
PSPTO_0858	10
PSPTO_0859	23
PSPTO_0860	6
PSPTO_0861	6
PSPTO_0862	13
PSPTO_0863	14
PSPTO_0864	11
PSPTO_0865	9
PSPTO_0866	3
PSPTO_0867	6
PSPTO_0868	0
PSPTO_0869	3
PSPTO_0871	23
PSPTO_0873	25
PSPTO_0874	34
PSPTO_0875	28
PSPTO_0876	44
PSPTO_0877	17
PSPTO_0878	6
PSPTO_0879	18
PSPTO_0880	12
PSPTO_0881	10
PSPTO_0882	14
PSPTO_0883	94
PSPTO_0884	15
PSPTO_0885	12
PSPTO_0886	15
PSPTO_0887	9
PSPTO_0888	12
PSPTO_0889	25
PSPTO_0890	25
PSPTO_0891	4
PSPTO_0892	43
PSPTO_0893	7
PSPTO_0894	23
PSPTO_0895	10
PSPTO_0896	17
PSPTO_0897	10
PSPTO_0898	35
PSPTO_0899	5
PSPTO_0900	9
PSPTO_0901	9
PSPTO_0902	31
PSPTO_0903	17
PSPTO_0904	24
PSPTO_0905	30
PSPTO_0906	9
PSPTO_0907	15
PSPTO_0908	18
PSPTO_0909	2
PSPTO_0910	4
PSPTO_0911	11
PSPTO_0912	26
PSPTO_0913	35
PSPTO_0914	8
PSPTO_0915	6
PSPTO_0916	23
PSPTO_0917	47
PSPTO_0918	0
PSPTO_0919	2
PSPTO_0920	8
PSPTO_0921	1
PSPTO_0922	6
PSPTO_0923	15
PSPTO_0924	19
PSPTO_0925	22
PSPTO_0926	26
PSPTO_0927	36
PSPTO_0928	10
PSPTO_0929	19
PSPTO_0930	11
PSPTO_0931	7
PSPTO_0932	11
PSPTO_0933	11
PSPTO_0934	25
PSPTO_0935	11
PSPTO_0936	7
PSPTO_0937	17
PSPTO_0938	20
PSPTO_0939	14
PSPTO_0940	21
PSPTO_0941	31
PSPTO_0942	20
PSPTO_0943	33
PSPTO_0944	39
PSPTO_0945	46
PSPTO_0946	19
PSPTO_0947	19
PSPTO_0948	11
PSPTO_0949	82
PSPTO_0950	9
PSPTO_0951	12
PSPTO_0952	10
PSPTO_0953	10
PSPTO_0954	60
PSPTO_0955	20
PSPTO_0956	35
PSPTO_0957	27
PSPTO_0958	8
PSPTO_0959	35
PSPTO_0960	27
PSPTO_0961	19
PSPTO_0962	12
PSPTO_0963	36
PSPTO_0964	32
PSPTO_0965	27
PSPTO_0966	0
PSPTO_0967	13
PSPTO_0968	21
PSPTO_0969	19
PSPTO_0970	12
PSPTO_0971	11
PSPTO_0972	7
PSPTO_0973	11
PSPTO_0974	5
PSPTO_0975	16
PSPTO_0976	43
PSPTO_0977	41
PSPTO_0978	6
PSPTO_0979	9
PSPTO_0980	7
PSPTO_0981	51
PSPTO_0982	10
PSPTO_0983	47
PSPTO_0984	21
PSPTO_0985	23
PSPTO_0986	10
PSPTO_0987	6
PSPTO_0988	46
PSPTO_0989	11
PSPTO_0990	38
PSPTO_0991	23
PSPTO_0992	14
PSPTO_0993	11
PSPTO_0994	7
PSPTO_0995	11
PSPTO_0996	6
PSPTO_0997	22
PSPTO_0998	7
PSPTO_0999	21
PSPTO_1000	20
PSPTO_1001	30
PSPTO_1002	28
PSPTO_1003	8
PSPTO_1004	12
PSPTO_1005	27
PSPTO_1006	1
PSPTO_1007	9
PSPTO_1008	23
PSPTO_1009	2
PSPTO_1010	22
PSPTO_1011	3
PSPTO_1012	7
PSPTO_1013	13
PSPTO_1014	21
PSPTO_1015	26
PSPTO_1016	59
PSPTO_1017	4
PSPTO_1018	3
PSPTO_1019	8
PSPTO_1020	24
PSPTO_1021	1
PSPTO_1022	22
PSPTO_1023	11
PSPTO_1024	17
PSPTO_1025	25
PSPTO_1026	19
PSPTO_1027	18
PSPTO_1028	33
PSPTO_1029	26
PSPTO_1030	77
PSPTO_1031	8
PSPTO_1032	14
PSPTO_1033	19
PSPTO_1034	31
PSPTO_1035	21
PSPTO_1036	3
PSPTO_1037	9
PSPTO_1038	16
PSPTO_1039	25
PSPTO_1040	8
PSPTO_1041	29
PSPTO_1042	15
PSPTO_1043	3
PSPTO_1044	3
PSPTO_1045	6
PSPTO_1046	4
PSPTO_1047	11
PSPTO_1048	18
PSPTO_1049	12
PSPTO_1050	6
PSPTO_1051	12
PSPTO_1052	9
PSPTO_1053	10
PSPTO_1054	16
PSPTO_1055	0
PSPTO_1056	25
PSPTO_1057	3
PSPTO_1058	6
PSPTO_1059	33
PSPTO_1060	3
PSPTO_1061	22
PSPTO_1062	8
PSPTO_1064	16
PSPTO_1065	30
PSPTO_1066	34
PSPTO_1067	26
PSPTO_1068	28
PSPTO_1069	5
PSPTO_1070	25
PSPTO_1071	30
PSPTO_1072	28
PSPTO_1073	22
PSPTO_1074	123
PSPTO_1075	12
PSPTO_1076	10
PSPTO_1077	10
PSPTO_1078	13
PSPTO_1079	30
PSPTO_1080	18
PSPTO_1081	64
PSPTO_1082	2
PSPTO_1083	14
PSPTO_1084	19
PSPTO_1085	16
PSPTO_1086	17
PSPTO_1087	29
PSPTO_1088	17
PSPTO_1089	54
PSPTO_1090	24
PSPTO_1091	10
PSPTO_1092	4
PSPTO_1093	46
PSPTO_1094	7
PSPTO_1095	14
PSPTO_1096	11
PSPTO_1097	69
PSPTO_1098	35
PSPTO_1099	6
PSPTO_1100	34
PSPTO_1101	24
PSPTO_1102	27
PSPTO_1103	90
PSPTO_1104	78
PSPTO_1105	26
PSPTO_1106	13
PSPTO_1107	36
PSPTO_1108	22
PSPTO_1109	28
PSPTO_1110	15
PSPTO_1111	20
PSPTO_1112	14
PSPTO_1114	3
PSPTO_1115	6
PSPTO_1116	18
PSPTO_1117	16
PSPTO_1118	19
PSPTO_1119	14
PSPTO_1120	2
PSPTO_1121	17
PSPTO_1122	21
PSPTO_1123	19
PSPTO_1124	1
PSPTO_1125	3
PSPTO_1126	21
PSPTO_1127	15
PSPTO_1128	24
PSPTO_1129	15
PSPTO_1130	16
PSPTO_1131	9
PSPTO_1132	4
PSPTO_1133	11
PSPTO_1134	8
PSPTO_1135	16
PSPTO_1136	54
PSPTO_1137	4
PSPTO_1138	20
PSPTO_1139	2
PSPTO_1140	15
PSPTO_1141	3
PSPTO_1142	2
PSPTO_1143	15
PSPTO_1144	20
PSPTO_1145	6
PSPTO_1146	24
PSPTO_1147	7
PSPTO_1148	19
PSPTO_1149	34
PSPTO_1150	17
PSPTO_1151	49
PSPTO_1152	12
PSPTO_1153	4
PSPTO_1154	8
PSPTO_1155	3
PSPTO_1156	10
PSPTO_1157	12
PSPTO_1158	5
PSPTO_1159	8
PSPTO_1160	29
PSPTO_1161	1
PSPTO_1162	14
PSPTO_1163	30
PSPTO_1164	35
PSPTO_1165	23
PSPTO_1166	21
PSPTO_1167	25
PSPTO_1168	5
PSPTO_1169	45
PSPTO_1170	3
PSPTO_1171	11
PSPTO_1172	6
PSPTO_1173	12
PSPTO_1174	15
PSPTO_1175	22
PSPTO_1176	4
PSPTO_1177	12
PSPTO_1178	35
PSPTO_1179	4
PSPTO_1180	10
PSPTO_1181	8
PSPTO_1182	11
PSPTO_1183	7
PSPTO_1184	13
PSPTO_1185	20
PSPTO_1186	13
PSPTO_1187	8
PSPTO_1188	18
PSPTO_1189	33
PSPTO_1190	0
PSPTO_1191	25
PSPTO_1192	14
PSPTO_1193	13
PSPTO_1194	19
PSPTO_1195	43
PSPTO_1196	12
PSPTO_1197	6
PSPTO_1198	1
PSPTO_1199	1
PSPTO_1200	9
PSPTO_1201	3
PSPTO_1202	25
PSPTO_1203	4
PSPTO_1204	20
PSPTO_1205	76
PSPTO_1206	43
PSPTO_1207	17
PSPTO_1208	25
PSPTO_1209	6
PSPTO_1210	5
PSPTO_1211	22
PSPTO_1212	6
PSPTO_1213	13
PSPTO_1214	14
PSPTO_1215	8
PSPTO_1216	16
PSPTO_1217	37
PSPTO_1218	38
PSPTO_1219	0
PSPTO_1220	14
PSPTO_1221	26
PSPTO_1222	4
PSPTO_1223	11
PSPTO_1224	6
PSPTO_1225	33
PSPTO_1226	1
PSPTO_1227	31
PSPTO_1228	25
PSPTO_1229	14
PSPTO_1230	3
PSPTO_1231	55
PSPTO_1232	72
PSPTO_1233	60
PSPTO_1234	41
PSPTO_1235	25
PSPTO_1236	38
PSPTO_1237	38
PSPTO_1238	61
PSPTO_1239	37
PSPTO_1240	40
PSPTO_1241	35
PSPTO_1242	26
PSPTO_1243	206
PSPTO_1244	10
PSPTO_1245	13
PSPTO_1246	51
PSPTO_1247	14
PSPTO_1248	4
PSPTO_1249	13
PSPTO_1250	5
PSPTO_1251	9
PSPTO_1252	6
PSPTO_1253	16
PSPTO_1254	11
PSPTO_1255	37
PSPTO_1256	14
PSPTO_1257	12
PSPTO_1258	17
PSPTO_1259	10
PSPTO_1260	22
PSPTO_1261	10
PSPTO_1262	8
PSPTO_1263	10
PSPTO_1264	3
PSPTO_1265	14
PSPTO_1266	37
PSPTO_1267	9
PSPTO_1268	71
PSPTO_1269	12
PSPTO_1270	12
PSPTO_1271	61
PSPTO_1272	10
PSPTO_1273	24
PSPTO_1274	49
PSPTO_1275	55
PSPTO_1276	194
PSPTO_1277	9
PSPTO_1278	29
PSPTO_1279	13
PSPTO_1280	27
PSPTO_1281	11
PSPTO_1282	5
PSPTO_1283	12
PSPTO_1284	32
PSPTO_1285	21
PSPTO_1286	6
PSPTO_1287	137
PSPTO_1288	54
PSPTO_1289	23
PSPTO_1290	23
PSPTO_1291	29
PSPTO_1292	15
PSPTO_1293	11
PSPTO_1294	10
PSPTO_1295	16
PSPTO_1296	26
PSPTO_1297	0
PSPTO_1298	21
PSPTO_1299	15
PSPTO_1300	58
PSPTO_1301	40
PSPTO_1302	37
PSPTO_1303	6
PSPTO_1304	4
PSPTO_1305	18
PSPTO_1306	16
PSPTO_1307	16
PSPTO_1308	43
PSPTO_1309	19
PSPTO_1310	28
PSPTO_1311	13
PSPTO_1312	15
PSPTO_1313	12
PSPTO_1314	9
PSPTO_1315	23
PSPTO_1316	11
PSPTO_1317	16
PSPTO_1318	14
PSPTO_1319	5
PSPTO_1320	8
PSPTO_1321	2
PSPTO_1322	10
PSPTO_1323	40
PSPTO_1324	13
PSPTO_1325	144
PSPTO_1326	392
PSPTO_1327	65
PSPTO_1328	41
PSPTO_1329	64
PSPTO_1330	25
PSPTO_1331	9
PSPTO_1332	58
PSPTO_1333	9
PSPTO_1334	19
PSPTO_1335	13
PSPTO_1336	4
PSPTO_1337	11
PSPTO_1338	11
PSPTO_1339	17
PSPTO_1340	20
PSPTO_1341	14
PSPTO_1342	19
PSPTO_1343	28
PSPTO_1344	8
PSPTO_1345	26
PSPTO_1346	16
PSPTO_1347	22
PSPTO_1348	27
PSPTO_1349	95
PSPTO_1350	16
PSPTO_1351	4
PSPTO_1352	4
PSPTO_1353	1
PSPTO_1354	10
PSPTO_1355	27
PSPTO_1356	10
PSPTO_1357	19
PSPTO_1358	19
PSPTO_1359	16
PSPTO_1360	24
PSPTO_1361	31
PSPTO_1362	4
PSPTO_1363	23
PSPTO_1364	7
PSPTO_1365	5
PSPTO_1366	1
PSPTO_1367	6
PSPTO_1368	7
PSPTO_1369	8
PSPTO_1370	7
PSPTO_1371	5
PSPTO_1372	24
PSPTO_1373	12
PSPTO_1374	11
PSPTO_1375	20
PSPTO_1376	4
PSPTO_1377	55
PSPTO_1378	21
PSPTO_1379	19
PSPTO_1380	18
PSPTO_1381	3
PSPTO_1382	18
PSPTO_1383	2
PSPTO_1384	8
PSPTO_1385	9
PSPTO_1386	9
PSPTO_1387	3
PSPTO_1388	8
PSPTO_1389	27
PSPTO_1390	2
PSPTO_1391	10
PSPTO_1392	11
PSPTO_1393	11
PSPTO_1394	0
PSPTO_1395	18
PSPTO_1396	4
PSPTO_1397	10
PSPTO_1398	2
PSPTO_1399	4
PSPTO_1400	12
PSPTO_1401	20
PSPTO_1402	11
PSPTO_1403	15
PSPTO_1404	8
PSPTO_1405	29
PSPTO_1406	21
PSPTO_1407	12
PSPTO_1408	3
PSPTO_1409	16
PSPTO_1410	76
PSPTO_1411	21
PSPTO_1412	16
PSPTO_1413	27
PSPTO_1414	16
PSPTO_1415	43
PSPTO_1416	19
PSPTO_1417	164
PSPTO_1418	16
PSPTO_1419	35
PSPTO_1420	14
PSPTO_1421	13
PSPTO_1422	8
PSPTO_1423	50
PSPTO_1424	22
PSPTO_1425	12
PSPTO_1426	16
PSPTO_1427	32
PSPTO_1428	9
PSPTO_1429	7
PSPTO_1430	78
PSPTO_1431	56
PSPTO_1432	15
PSPTO_1433	22
PSPTO_1434	28
PSPTO_1435	36
PSPTO_1436	28
PSPTO_1437	44
PSPTO_1438	45
PSPTO_1439	27
PSPTO_1440	22
PSPTO_1441	11
PSPTO_1443	26
PSPTO_1444	103
PSPTO_1445	4
PSPTO_1446	24
PSPTO_1447	1
PSPTO_1448	10
PSPTO_1449	65
PSPTO_1450	49
PSPTO_1451	46
PSPTO_1452	1
PSPTO_1453	37
PSPTO_1454	19
PSPTO_1455	23
PSPTO_1456	17
PSPTO_1457	11
PSPTO_1458	16
PSPTO_1459	116
PSPTO_1460	7
PSPTO_1461	12
PSPTO_1462	7
PSPTO_1463	4
PSPTO_1464	20
PSPTO_1465	9
PSPTO_1466	2
PSPTO_1467	7
PSPTO_1468	23
PSPTO_1469	15
PSPTO_1470	14
PSPTO_1471	5
PSPTO_1472	52
PSPTO_1473	60
PSPTO_1474	78
PSPTO_1475	147
PSPTO_1476	168
PSPTO_1477	17
PSPTO_1478	6
PSPTO_1479	11
PSPTO_1480	44
PSPTO_1481	36
PSPTO_1482	60
PSPTO_1483	37
PSPTO_1484	12
PSPTO_1485	16
PSPTO_1486	9
PSPTO_1487	18
PSPTO_1488	32
PSPTO_1489	27
PSPTO_1490	30
PSPTO_1491	31
PSPTO_1492	48
PSPTO_1493	41
PSPTO_1494	10
PSPTO_1495	29
PSPTO_1496	4
PSPTO_1497	55
PSPTO_1498	22
PSPTO_1499	19
PSPTO_1500	44
PSPTO_1501	86
PSPTO_1502	14
PSPTO_1503	26
PSPTO_1504	15
PSPTO_1505	5
PSPTO_1506	152
PSPTO_1507	78
PSPTO_1508	71
PSPTO_1509	19
PSPTO_1510	19
PSPTO_1511	16
PSPTO_1512	9
PSPTO_1513	18
PSPTO_1514	17
PSPTO_1515	20
PSPTO_1516	2
PSPTO_1517	4
PSPTO_1518	12
PSPTO_1519	9
PSPTO_1520	34
PSPTO_1521	8
PSPTO_1522	14
PSPTO_1523	20
PSPTO_1524	39
PSPTO_1525	17
PSPTO_1526	6
PSPTO_1527	38
PSPTO_1528	34
PSPTO_1529	22
PSPTO_1530	6
PSPTO_1531	21
PSPTO_1532	65
PSPTO_1533	25
PSPTO_1534	202
PSPTO_1535	72
PSPTO_1536	46
PSPTO_1537	23
PSPTO_1538	17
PSPTO_1539	13
PSPTO_1540	30
PSPTO_1541	26
PSPTO_1542	84
PSPTO_1543	12
PSPTO_1544	33
PSPTO_1545	12
PSPTO_1546	17
PSPTO_1547	21
PSPTO_1548	11
PSPTO_1549	70
PSPTO_1550	35
PSPTO_1551	40
PSPTO_1552	67
PSPTO_1553	18
PSPTO_1554	79
PSPTO_1555	4
PSPTO_1556	11
PSPTO_1557	10
PSPTO_1558	14
PSPTO_1559	19
PSPTO_1560	10
PSPTO_1561	19
PSPTO_1562	16
PSPTO_1563	13
PSPTO_1564	35
PSPTO_1565	79
PSPTO_1566	1
PSPTO_1567	26
PSPTO_1568	19
PSPTO_1570	7
PSPTO_1571	33
PSPTO_1572	7
PSPTO_1573	3
PSPTO_1574	14
PSPTO_1575	8
PSPTO_1576	4
PSPTO_1577	9
PSPTO_1578	13
PSPTO_1579	12
PSPTO_1580	16
PSPTO_1581	10
PSPTO_1582	14
PSPTO_1583	6
PSPTO_1584	19
PSPTO_1585	7
PSPTO_1586	7
PSPTO_1587	31
PSPTO_1588	6
PSPTO_1589	10
PSPTO_1590	14
PSPTO_1591	3
PSPTO_1592	5
PSPTO_1593	28
PSPTO_1594	2
PSPTO_1595	7
PSPTO_1596	11
PSPTO_1597	29
PSPTO_1598	16
PSPTO_1599	6
PSPTO_1600	32
PSPTO_1601	11
PSPTO_1602	9
PSPTO_1603	1
PSPTO_1604	11
PSPTO_1605	12
PSPTO_1606	22
PSPTO_1607	11
PSPTO_1608	27
PSPTO_1609	22
PSPTO_1610	18
PSPTO_1611	2
PSPTO_1612	20
PSPTO_1613	12
PSPTO_1614	8
PSPTO_1615	18
PSPTO_1616	16
PSPTO_1617	14
PSPTO_1618	17
PSPTO_1619	21
PSPTO_1620	9
PSPTO_1621	36
PSPTO_1622	20
PSPTO_1623	12
PSPTO_1624	28
PSPTO_1625	4
PSPTO_1626	14
PSPTO_1627	4
PSPTO_1628	1
PSPTO_1629	7
PSPTO_1630	2
PSPTO_1631	28
PSPTO_1632	33
PSPTO_1633	26
PSPTO_1634	10
PSPTO_1635	14
PSPTO_1636	10
PSPTO_1637	31
PSPTO_1638	6
PSPTO_1639	44
PSPTO_1640	27
PSPTO_1641	4
PSPTO_1642	5
PSPTO_1643	7
PSPTO_1644	37
PSPTO_1645	14
PSPTO_1646	50
PSPTO_1647	2
PSPTO_1648	28
PSPTO_1649	58
PSPTO_1650	57
PSPTO_1651	4
PSPTO_1652	8
PSPTO_1653	26
PSPTO_1654	10
PSPTO_1655	8
PSPTO_1656	27
PSPTO_1657	23
PSPTO_1658	6
PSPTO_1659	12
PSPTO_1660	38
PSPTO_1661	83
PSPTO_1662	4
PSPTO_1663	2
PSPTO_1664	2
PSPTO_1665	2
PSPTO_1666	10
PSPTO_1667	28
PSPTO_1668	7
PSPTO_1669	23
PSPTO_1670	32
PSPTO_1671	298
PSPTO_1672	20
PSPTO_1673	28
PSPTO_1674	11
PSPTO_1675	16
PSPTO_1676	14
PSPTO_1677	12
PSPTO_1678	6
PSPTO_1679	10
PSPTO_1680	21
PSPTO_1681	5
PSPTO_1682	19
PSPTO_1683	6
PSPTO_1684	21
PSPTO_1685	16
PSPTO_1686	15
PSPTO_1687	4
PSPTO_1688	12
PSPTO_1689	5
PSPTO_1690	7
PSPTO_1691	26
PSPTO_1692	10
PSPTO_1693	18
PSPTO_1694	48
PSPTO_1695	15
PSPTO_1696	22
PSPTO_1697	2
PSPTO_1698	63
PSPTO_1699	17
PSPTO_1700	22
PSPTO_1701	31
PSPTO_1702	26
PSPTO_1703	13
PSPTO_1704	4
PSPTO_1705	18
PSPTO_1706	11
PSPTO_1707	31
PSPTO_1708	11
PSPTO_1709	30
PSPTO_1710	19
PSPTO_1711	22
PSPTO_1712	21
PSPTO_1713	27
PSPTO_1714	14
PSPTO_1715	28
PSPTO_1716	17
PSPTO_1717	32
PSPTO_1718	33
PSPTO_1719	14
PSPTO_1720	36
PSPTO_1721	25
PSPTO_1722	4
PSPTO_1723	5
PSPTO_1724	29
PSPTO_1725	18
PSPTO_1726	2
PSPTO_1727	0
PSPTO_1728	8
PSPTO_1729	19
PSPTO_1730	7
PSPTO_1731	35
PSPTO_1732	67
PSPTO_1733	18
PSPTO_1734	29
PSPTO_1735	26
PSPTO_1736	30
PSPTO_1737	40
PSPTO_1738	15
PSPTO_1739	27
PSPTO_1740	16
PSPTO_1741	17
PSPTO_1742	31
PSPTO_1743	30
PSPTO_1744	31
PSPTO_1745	94
PSPTO_1746	47
PSPTO_1747	40
PSPTO_1748	47
PSPTO_1749	29
PSPTO_1750	496
PSPTO_1751	6
PSPTO_1752	8
PSPTO_1753	16
PSPTO_1754	19
PSPTO_1755	24
PSPTO_1756	30
PSPTO_1757	7
PSPTO_1758	11
PSPTO_1759	9
PSPTO_1760	27
PSPTO_1761	7
PSPTO_1762	7
PSPTO_1763	6
PSPTO_1764	22
PSPTO_1765	58
PSPTO_1766	9
PSPTO_1767	7
PSPTO_1768	7
PSPTO_1769	20
PSPTO_1770	7
PSPTO_1771	4
PSPTO_1772	19
PSPTO_1773	22
PSPTO_1774	4
PSPTO_1775	100
PSPTO_1776	12
PSPTO_1777	15
PSPTO_1778	18
PSPTO_1779	27
PSPTO_1780	8
PSPTO_1781	9
PSPTO_1782	27
PSPTO_1783	18
PSPTO_1784	10
PSPTO_1785	4
PSPTO_1786	9
PSPTO_1787	16
PSPTO_1788	16
PSPTO_1789	38
PSPTO_1790	26
PSPTO_1791	14
PSPTO_1792	21
PSPTO_1793	6
PSPTO_1794	17
PSPTO_1795	19
PSPTO_1796	12
PSPTO_1797	13
PSPTO_1798	12
PSPTO_1799	7
PSPTO_1800	6
PSPTO_1801	24
PSPTO_1802	10
PSPTO_1803	24
PSPTO_1804	3
PSPTO_1805	11
PSPTO_1806	15
PSPTO_1807	2
PSPTO_1808	5
PSPTO_1809	12
PSPTO_1810	12
PSPTO_1811	9
PSPTO_1812	13
PSPTO_1813	17
PSPTO_1814	4
PSPTO_1815	43
PSPTO_1816	0
PSPTO_1817	28
PSPTO_1818	2
PSPTO_1819	18
PSPTO_1820	11
PSPTO_1821	16
PSPTO_1822	34
PSPTO_1823	40
PSPTO_1824	19
PSPTO_1825	56
PSPTO_1826	32
PSPTO_1827	8
PSPTO_1828	11
PSPTO_1829	21
PSPTO_1830	17
PSPTO_1831	23
PSPTO_1832	40
PSPTO_1833	25
PSPTO_1834	23
PSPTO_1835	36
PSPTO_1836	28
PSPTO_1838	6
PSPTO_1839	24
PSPTO_1840	4
PSPTO_1841	24
PSPTO_1842	58
PSPTO_1843	27
PSPTO_1844	5
PSPTO_1845	7
PSPTO_1846	16
PSPTO_1847	172
PSPTO_1848	4
PSPTO_1849	4
PSPTO_1850	32
PSPTO_1851	55
PSPTO_1852	33
PSPTO_1853	3
PSPTO_1854	4
PSPTO_1855	27
PSPTO_1856	23
PSPTO_1857	22
PSPTO_1858	10
PSPTO_1859	17
PSPTO_1860	5
PSPTO_1861	9
PSPTO_1862	10
PSPTO_1863	5
PSPTO_1864	3
PSPTO_1865	15
PSPTO_1866	7
PSPTO_1867	7
PSPTO_1868	16
PSPTO_1869	11
PSPTO_1870	31
PSPTO_1871	11
PSPTO_1872	1
PSPTO_1873	10
PSPTO_1874	23
PSPTO_1875	15
PSPTO_1876	3
PSPTO_1877	8
PSPTO_1878	17
PSPTO_1879	19
PSPTO_1880	18
PSPTO_1881	14
PSPTO_1882	23
PSPTO_1883	7
PSPTO_1884	13
PSPTO_1885	15
PSPTO_1886	30
PSPTO_1887	8
PSPTO_1888	27
PSPTO_1889	22
PSPTO_1890	9
PSPTO_1891	26
PSPTO_1892	30
PSPTO_1893	25
PSPTO_1894	8
PSPTO_1895	6
PSPTO_1896	6
PSPTO_1897	25
PSPTO_1898	13
PSPTO_1899	30
PSPTO_1900	1
PSPTO_1901	7
PSPTO_1902	39
PSPTO_1903	17
PSPTO_1904	35
PSPTO_1905	5
PSPTO_1906	19
PSPTO_1907	15
PSPTO_1908	14
PSPTO_1909	19
PSPTO_1910	33
PSPTO_1911	33
PSPTO_1912	7
PSPTO_1913	9
PSPTO_1914	9
PSPTO_1915	7
PSPTO_1916	22
PSPTO_1917	24
PSPTO_1918	38
PSPTO_1919	8
PSPTO_1920	18
PSPTO_1921	29
PSPTO_1922	30
PSPTO_1923	30
PSPTO_1924	27
PSPTO_1925	35
PSPTO_1926	8
PSPTO_1927	32
PSPTO_1928	19
PSPTO_1929	25
PSPTO_1930	17
PSPTO_1931	7
PSPTO_1932	2
PSPTO_1933	11
PSPTO_1934	10
PSPTO_1935	20
PSPTO_1936	55
PSPTO_1937	30
PSPTO_1938	10
PSPTO_1939	22
PSPTO_1940	40
PSPTO_1941	22
PSPTO_1942	19
PSPTO_1943	27
PSPTO_1944	36
PSPTO_1945	40
PSPTO_1946	48
PSPTO_1947	42
PSPTO_1948	18
PSPTO_1949	616
PSPTO_1950	17
PSPTO_1951	149
PSPTO_1952	22
PSPTO_1953	4
PSPTO_1954	36
PSPTO_1955	19
PSPTO_1956	28
PSPTO_1957	13
PSPTO_1958	27
PSPTO_1959	23
PSPTO_1960	26
PSPTO_1961	30
PSPTO_1962	8
PSPTO_1963	6
PSPTO_1964	18
PSPTO_1965	20
PSPTO_1966	42
PSPTO_1967	1
PSPTO_1968	8
PSPTO_1969	12
PSPTO_1970	9
PSPTO_1971	14
PSPTO_1972	12
PSPTO_1973	1
PSPTO_1974	10
PSPTO_1975	10
PSPTO_1976	29
PSPTO_1977	40
PSPTO_1978	14
PSPTO_1979	18
PSPTO_1980	18
PSPTO_1981	37
PSPTO_1982	59
PSPTO_1983	32
PSPTO_1984	7
PSPTO_1985	9
PSPTO_1986	19
PSPTO_1987	17
PSPTO_1988	16
PSPTO_1989	9
PSPTO_1990	13
PSPTO_1991	13
PSPTO_1992	7
PSPTO_1993	37
PSPTO_1994	17
PSPTO_1995	3
PSPTO_1996	44
PSPTO_1997	5
PSPTO_1998	18
PSPTO_1999	9
PSPTO_2000	2
PSPTO_2001	17
PSPTO_2002	1
PSPTO_2003	9
PSPTO_2004	14
PSPTO_2005	14
PSPTO_2006	4
PSPTO_2007	21
PSPTO_2008	16
PSPTO_2009	35
PSPTO_2010	21
PSPTO_2011	66
PSPTO_2012	9
PSPTO_2013	15
PSPTO_2014	24
PSPTO_2015	7
PSPTO_2016	60
PSPTO_2017	21
PSPTO_2018	8
PSPTO_2019	14
PSPTO_2020	50
PSPTO_2021	32
PSPTO_2022	8
PSPTO_2023	8
PSPTO_2024	10
PSPTO_2025	0
PSPTO_2026	19
PSPTO_2027	1
PSPTO_2028	6
PSPTO_2029	14
PSPTO_2030	14
PSPTO_2031	4
PSPTO_2032	8
PSPTO_2033	4
PSPTO_2034	10
PSPTO_2035	12
PSPTO_2036	3
PSPTO_2037	2
PSPTO_2038	1
PSPTO_2039	10
PSPTO_2040	23
PSPTO_2041	17
PSPTO_2042	25
PSPTO_2043	23
PSPTO_2044	19
PSPTO_2045	10
PSPTO_2046	8
PSPTO_2047	20
PSPTO_2048	9
PSPTO_2049	4
PSPTO_2050	3
PSPTO_2051	9
PSPTO_2052	10
PSPTO_2053	17
PSPTO_2054	5
PSPTO_2055	11
PSPTO_2056	20
PSPTO_2057	5
PSPTO_2058	1
PSPTO_2059	24
PSPTO_2060	11
PSPTO_2061	9
PSPTO_2062	2
PSPTO_2063	18
PSPTO_2064	11
PSPTO_2065	11
PSPTO_2066	7
PSPTO_2067	1
PSPTO_2068	7
PSPTO_2069	3
PSPTO_2070	11
PSPTO_2071	7
PSPTO_2072	10
PSPTO_2073	16
PSPTO_2074	6
PSPTO_2075	4
PSPTO_2076	9
PSPTO_2077	11
PSPTO_2078	4
PSPTO_2079	1
PSPTO_2080	3
PSPTO_2081	0
PSPTO_2082	25
PSPTO_2083	20
PSPTO_2084	2
PSPTO_2085	9
PSPTO_2086	2
PSPTO_2087	4
PSPTO_2088	7
PSPTO_2089	41
PSPTO_2090	8
PSPTO_2091	11
PSPTO_2092	33
PSPTO_2093	7
PSPTO_2094	13
PSPTO_2095	3
PSPTO_2096	11
PSPTO_2097	10
PSPTO_2098	11
PSPTO_2099	43
PSPTO_2100	6
PSPTO_2101	71
PSPTO_2102	51
PSPTO_2103	14
PSPTO_2104	13
PSPTO_2105	17
PSPTO_2106	42
PSPTO_2107	14
PSPTO_2108	8
PSPTO_2109	13
PSPTO_2110	11
PSPTO_2111	26
PSPTO_2112	16
PSPTO_2113	8
PSPTO_2114	9
PSPTO_2115	23
PSPTO_2116	6
PSPTO_2117	46
PSPTO_2118	10
PSPTO_2119	41
PSPTO_2120	18
PSPTO_2121	6
PSPTO_2122	4
PSPTO_2123	13
PSPTO_2124	12
PSPTO_2125	13
PSPTO_2126	26
PSPTO_2127	12
PSPTO_2128	3
PSPTO_2129	26
PSPTO_2130	10
PSPTO_2131	17
PSPTO_2132	13
PSPTO_2133	9
PSPTO_2134	8
PSPTO_2135	235
PSPTO_2136	24
PSPTO_2137	3
PSPTO_2138	16
PSPTO_2139	23
PSPTO_2140	7
PSPTO_2141	15
PSPTO_2142	12
PSPTO_2143	3
PSPTO_2144	7
PSPTO_2145	12
PSPTO_2146	20
PSPTO_2147	60
PSPTO_2148	128
PSPTO_2149	92
PSPTO_2150	145
PSPTO_2151	12
PSPTO_2152	27
PSPTO_2153	22
PSPTO_2154	20
PSPTO_2155	5
PSPTO_2156	19
PSPTO_2158	20
PSPTO_2159	30
PSPTO_2160	13
PSPTO_2161	41
PSPTO_2162	11
PSPTO_2163	21
PSPTO_2164	34
PSPTO_2165	20
PSPTO_2166	21
PSPTO_2167	25
PSPTO_2168	5
PSPTO_2169	13
PSPTO_2170	118
PSPTO_2171	37
PSPTO_2172	16
PSPTO_2173	248
PSPTO_2174	226
PSPTO_2175	209
PSPTO_2176	125
PSPTO_2177	19
PSPTO_2178	10
PSPTO_2179	18
PSPTO_2180	23
PSPTO_2181	23
PSPTO_2182	25
PSPTO_2183	20
PSPTO_2184	39
PSPTO_2185	22
PSPTO_2186	33
PSPTO_2187	12
PSPTO_2188	4
PSPTO_2189	16
PSPTO_2190	28
PSPTO_2191	9
PSPTO_2192	3
PSPTO_2193	16
PSPTO_2194	163
PSPTO_2195	45
PSPTO_2196	27
PSPTO_2197	129
PSPTO_2198	61
PSPTO_2199	357
PSPTO_2200	124
PSPTO_2201	196
PSPTO_2202	220
PSPTO_2203	246
PSPTO_2204	18
PSPTO_2205	9
PSPTO_2206	27
PSPTO_2207	189
PSPTO_2208	200
PSPTO_2209	18
PSPTO_2210	52
PSPTO_2211	25
PSPTO_2212	20
PSPTO_2213	21
PSPTO_2214	5
PSPTO_2215	15
PSPTO_2216	11
PSPTO_2217	13
PSPTO_2218	17
PSPTO_2219	0
PSPTO_2220	7
PSPTO_2221	17
PSPTO_2222	15
PSPTO_2223	12
PSPTO_2224	46
PSPTO_2225	24
PSPTO_2226	18
PSPTO_2227	9
PSPTO_2228	12
PSPTO_2229	3
PSPTO_2230	6
PSPTO_2231	36
PSPTO_2232	28
PSPTO_2233	21
PSPTO_2234	22
PSPTO_2235	8
PSPTO_2236	24
PSPTO_2237	38
PSPTO_2238	2
PSPTO_2239	64
PSPTO_2240	4
PSPTO_2241	4
PSPTO_2242	24
PSPTO_2243	38
PSPTO_2244	7
PSPTO_2245	55
PSPTO_2246	21
PSPTO_2247	17
PSPTO_2248	15
PSPTO_2249	18
PSPTO_2250	39
PSPTO_2251	24
PSPTO_2252	19
PSPTO_2253	5
PSPTO_2254	43
PSPTO_2255	12
PSPTO_2256	36
PSPTO_2257	7
PSPTO_2258	11
PSPTO_2259	33
PSPTO_2260	17
PSPTO_2261	15
PSPTO_2262	9
PSPTO_2263	14
PSPTO_2264	8
PSPTO_2265	13
PSPTO_2266	46
PSPTO_2267	11
PSPTO_2268	19
PSPTO_2269	7
PSPTO_2270	19
PSPTO_2271	1
PSPTO_2272	68
PSPTO_2273	5
PSPTO_2274	10
PSPTO_2275	34
PSPTO_2276	21
PSPTO_2277	16
PSPTO_2278	12
PSPTO_2279	21
PSPTO_2280	14
PSPTO_2281	17
PSPTO_2282	26
PSPTO_2283	24
PSPTO_2284	14
PSPTO_2285	6
PSPTO_2286	28
PSPTO_2287	19
PSPTO_2288	12
PSPTO_2289	60
PSPTO_2290	21
PSPTO_2291	10
PSPTO_2292	83
PSPTO_2293	21
PSPTO_2294	19
PSPTO_2295	25
PSPTO_2296	7
PSPTO_2297	34
PSPTO_2298	119
PSPTO_2299	2749
PSPTO_2300	9
PSPTO_2301	51
PSPTO_2302	12
PSPTO_2303	27
PSPTO_2304	18
PSPTO_2305	13
PSPTO_2306	3
PSPTO_2307	13
PSPTO_2308	1
PSPTO_2309	15
PSPTO_2310	51
PSPTO_2311	35
PSPTO_2312	16
PSPTO_2313	9
PSPTO_2314	17
PSPTO_2315	12
PSPTO_2316	5
PSPTO_2317	28
PSPTO_2318	8
PSPTO_2319	8
PSPTO_2320	16
PSPTO_2321	12
PSPTO_2322	4
PSPTO_2323	32
PSPTO_2324	17
PSPTO_2325	6
PSPTO_2326	33
PSPTO_2327	4
PSPTO_2328	25
PSPTO_2329	10
PSPTO_2330	3
PSPTO_2331	32
PSPTO_2332	9
PSPTO_2333	13
PSPTO_2334	39
PSPTO_2335	25
PSPTO_2336	6
PSPTO_2337	26
PSPTO_2338	13
PSPTO_2339	6
PSPTO_2340	24
PSPTO_2341	31
PSPTO_2342	6
PSPTO_2343	9
PSPTO_2344	19
PSPTO_2345	8
PSPTO_2346	29
PSPTO_2347	7
PSPTO_2348	8
PSPTO_2349	11
PSPTO_2350	79
PSPTO_2351	10
PSPTO_2352	11
PSPTO_2353	42
PSPTO_2354	18
PSPTO_2355	25
PSPTO_2356	9
PSPTO_2358	55
PSPTO_2359	22
PSPTO_2360	5
PSPTO_2361	0
PSPTO_2362	10
PSPTO_2363	1
PSPTO_2364	12
PSPTO_2365	8
PSPTO_2366	15
PSPTO_2367	20
PSPTO_2368	19
PSPTO_2369	18
PSPTO_2370	25
PSPTO_2371	12
PSPTO_2372	6
PSPTO_2373	26
PSPTO_2374	2
PSPTO_2375	3
PSPTO_2376	38
PSPTO_2377	34
PSPTO_2378	117
PSPTO_2379	264
PSPTO_2380	239
PSPTO_2381	89
PSPTO_2382	37
PSPTO_2383	49
PSPTO_2384	33
PSPTO_2385	15
PSPTO_2386	9
PSPTO_2387	12
PSPTO_2388	16
PSPTO_2389	15
PSPTO_2390	12
PSPTO_2391	7
PSPTO_2392	9
PSPTO_2394	27
PSPTO_2395	11
PSPTO_2396	7
PSPTO_2397	13
PSPTO_2398	34
PSPTO_2399	8
PSPTO_2400	8
PSPTO_2401	10
PSPTO_2402	20
PSPTO_2403	18
PSPTO_2404	7
PSPTO_2405	15
PSPTO_2406	6
PSPTO_2407	11
PSPTO_2408	18
PSPTO_2409	16
PSPTO_2410	23
PSPTO_2411	13
PSPTO_2412	14
PSPTO_2413	8
PSPTO_2414	12
PSPTO_2415	4
PSPTO_2416	17
PSPTO_2417	9
PSPTO_2418	17
PSPTO_2419	9
PSPTO_2420	8
PSPTO_2421	18
PSPTO_2422	26
PSPTO_2423	13
PSPTO_2424	22
PSPTO_2425	19
PSPTO_2426	23
PSPTO_2427	16
PSPTO_2428	19
PSPTO_2429	20
PSPTO_2430	19
PSPTO_2431	25
PSPTO_2432	15
PSPTO_2433	1
PSPTO_2434	13
PSPTO_2435	32
PSPTO_2436	2
PSPTO_2437	36
PSPTO_2438	37
PSPTO_2439	26
PSPTO_2440	15
PSPTO_2441	42
PSPTO_2442	20
PSPTO_2443	1
PSPTO_2444	5
PSPTO_2445	0
PSPTO_2446	13
PSPTO_2447	13
PSPTO_2448	20
PSPTO_2449	7
PSPTO_2450	35
PSPTO_2451	3
PSPTO_2452	11
PSPTO_2453	4
PSPTO_2454	11
PSPTO_2455	7
PSPTO_2456	0
PSPTO_2457	65
PSPTO_2458	35
PSPTO_2459	8
PSPTO_2460	33
PSPTO_2461	3
PSPTO_2462	4
PSPTO_2463	24
PSPTO_2464	8
PSPTO_2465	15
PSPTO_2466	7
PSPTO_2467	29
PSPTO_2468	0
PSPTO_2469	4
PSPTO_2470	9
PSPTO_2471	13
PSPTO_2472	40
PSPTO_2473	11
PSPTO_2474	6
PSPTO_2475	21
PSPTO_2476	7
PSPTO_2477	11
PSPTO_2478	35
PSPTO_2479	15
PSPTO_2480	27
PSPTO_2481	13
PSPTO_2482	11
PSPTO_2483	3
PSPTO_2484	25
PSPTO_2485	24
PSPTO_2486	12
PSPTO_2487	13
PSPTO_2488	15
PSPTO_2489	19
PSPTO_2490	35
PSPTO_2491	27
PSPTO_2492	15
PSPTO_2493	16
PSPTO_2494	14
PSPTO_2495	10
PSPTO_2496	13
PSPTO_2497	3
PSPTO_2498	5
PSPTO_2499	10
PSPTO_2500	22
PSPTO_2501	1
PSPTO_2502	2
PSPTO_2503	4
PSPTO_2504	12
PSPTO_2505	17
PSPTO_2506	8
PSPTO_2507	11
PSPTO_2508	5
PSPTO_2509	19
PSPTO_2510	25
PSPTO_2511	16
PSPTO_2513	2
PSPTO_2514	10
PSPTO_2515	10
PSPTO_2516	24
PSPTO_2517	28
PSPTO_2518	11
PSPTO_2519	30
PSPTO_2520	26
PSPTO_2521	3
PSPTO_2522	4
PSPTO_2523	13
PSPTO_2524	25
PSPTO_2525	15
PSPTO_2526	29
PSPTO_2527	18
PSPTO_2528	10
PSPTO_2529	3
PSPTO_2530	1
PSPTO_2531	13
PSPTO_2532	30
PSPTO_2533	14
PSPTO_2534	12
PSPTO_2535	27
PSPTO_2536	5
PSPTO_2537	3
PSPTO_2538	19
PSPTO_2539	9
PSPTO_2540	12
PSPTO_2541	19
PSPTO_2542	9
PSPTO_2543	12
PSPTO_2544	23
PSPTO_2545	4
PSPTO_2546	33
PSPTO_2547	15
PSPTO_2548	38
PSPTO_2549	18
PSPTO_2550	0
PSPTO_2551	9
PSPTO_2552	23
PSPTO_2553	8
PSPTO_2554	47
PSPTO_2555	10
PSPTO_2556	10
PSPTO_2557	7
PSPTO_2558	13
PSPTO_2559	7
PSPTO_2560	10
PSPTO_2561	16
PSPTO_2562	10
PSPTO_2563	7
PSPTO_2564	11
PSPTO_2565	6
PSPTO_2566	13
PSPTO_2567	13
PSPTO_2568	34
PSPTO_2569	34
PSPTO_2570	19
PSPTO_2571	12
PSPTO_2572	16
PSPTO_2573	17
PSPTO_2574	9
PSPTO_2575	14
PSPTO_2576	16
PSPTO_2577	21
PSPTO_2578	18
PSPTO_2579	5
PSPTO_2580	19
PSPTO_2581	11
PSPTO_2582	20
PSPTO_2583	10
PSPTO_2584	9
PSPTO_2585	26
PSPTO_2586	14
PSPTO_2587	3
PSPTO_2588	11
PSPTO_2589	12
PSPTO_2590	9
PSPTO_2591	28
PSPTO_2592	60
PSPTO_2593	11
PSPTO_2594	6
PSPTO_2595	20
PSPTO_2596	3
PSPTO_2597	31
PSPTO_2598	18
PSPTO_2599	20
PSPTO_2600	212
PSPTO_2601	17
PSPTO_2602	87
PSPTO_2603	18
PSPTO_2604	27
PSPTO_2605	22
PSPTO_2606	24
PSPTO_2607	39
PSPTO_2608	17
PSPTO_2609	10
PSPTO_2610	6
PSPTO_2611	7
PSPTO_2612	8
PSPTO_2613	7
PSPTO_2614	7
PSPTO_2615	6
PSPTO_2616	34
PSPTO_2617	19
PSPTO_2618	13
PSPTO_2620	7
PSPTO_2621	37
PSPTO_2622	13
PSPTO_2623	16
PSPTO_2624	5
PSPTO_2625	17
PSPTO_2626	19
PSPTO_2627	24
PSPTO_2628	5
PSPTO_2629	14
PSPTO_2630	9
PSPTO_2631	4
PSPTO_2632	63
PSPTO_2633	11
PSPTO_2634	14
PSPTO_2635	7
PSPTO_2636	14
PSPTO_2637	12
PSPTO_2638	9
PSPTO_2639	33
PSPTO_2640	7
PSPTO_2641	0
PSPTO_2642	7
PSPTO_2643	5
PSPTO_2644	2
PSPTO_2645	24
PSPTO_2646	14
PSPTO_2647	25
PSPTO_2648	11
PSPTO_2649	18
PSPTO_2650	1
PSPTO_2651	3
PSPTO_2652	27
PSPTO_2653	37
PSPTO_2654	6
PSPTO_2655	16
PSPTO_2656	35
PSPTO_2657	24
PSPTO_2658	4
PSPTO_2659	11
PSPTO_2660	19
PSPTO_2661	12
PSPTO_2662	17
PSPTO_2663	19
PSPTO_2664	16
PSPTO_2665	6
PSPTO_2666	13
PSPTO_2667	12
PSPTO_2668	23
PSPTO_2669	7
PSPTO_2670	7
PSPTO_2671	10
PSPTO_2672	6
PSPTO_2673	18
PSPTO_2674	10
PSPTO_2675	9
PSPTO_2676	9
PSPTO_2677	6
PSPTO_2678	12
PSPTO_2679	0
PSPTO_2680	35
PSPTO_2681	8
PSPTO_2683	0
PSPTO_2684	38
PSPTO_2685	12
PSPTO_2686	7
PSPTO_2687	15
PSPTO_2688	21
PSPTO_2689	19
PSPTO_2690	2
PSPTO_2691	11
PSPTO_2692	5
PSPTO_2693	6
PSPTO_2694	17
PSPTO_2695	29
PSPTO_2696	4
PSPTO_2697	21
PSPTO_2698	8
PSPTO_2699	30
PSPTO_2700	28
PSPTO_2701	12
PSPTO_2702	22
PSPTO_2703	18
PSPTO_2704	19
PSPTO_2705	11
PSPTO_2706	8
PSPTO_2707	32
PSPTO_2708	8
PSPTO_2709	15
PSPTO_2710	10
PSPTO_2711	13
PSPTO_2712	56
PSPTO_2713	11
PSPTO_2714	5
PSPTO_2715	12
PSPTO_2716	22
PSPTO_2717	21
PSPTO_2718	25
PSPTO_2719	12
PSPTO_2720	8
PSPTO_2721	22
PSPTO_2722	20
PSPTO_2723	6
PSPTO_2724	3
PSPTO_2725	4
PSPTO_2726	12
PSPTO_2727	2
PSPTO_2728	21
PSPTO_2729	7
PSPTO_2730	44
PSPTO_2731	14
PSPTO_2732	88
PSPTO_2733	37
PSPTO_2734	11
PSPTO_2735	16
PSPTO_2736	28
PSPTO_2737	9
PSPTO_2738	17
PSPTO_2739	19
PSPTO_2740	19
PSPTO_2741	7
PSPTO_2742	13
PSPTO_2743	9
PSPTO_2744	14
PSPTO_2745	27
PSPTO_2746	20
PSPTO_2747	12
PSPTO_2748	14
PSPTO_2749	21
PSPTO_2750	53
PSPTO_2751	17
PSPTO_2752	26
PSPTO_2753	21
PSPTO_2754	49
PSPTO_2755	33
PSPTO_2756	32
PSPTO_2757	24
PSPTO_2758	9
PSPTO_2759	4
PSPTO_2760	32
PSPTO_2761	31
PSPTO_2762	37
PSPTO_2763	24
PSPTO_2764	12
PSPTO_2765	12
PSPTO_2766	27
PSPTO_2767	16
PSPTO_2768	3
PSPTO_2769	23
PSPTO_2770	4
PSPTO_2771	7
PSPTO_2772	6
PSPTO_2773	10
PSPTO_2774	5
PSPTO_2775	11
PSPTO_2776	7
PSPTO_2777	11
PSPTO_2778	7
PSPTO_2779	6
PSPTO_2780	6
PSPTO_2781	27
PSPTO_2782	20
PSPTO_2783	30
PSPTO_2784	17
PSPTO_2785	14
PSPTO_2786	9
PSPTO_2787	9
PSPTO_2788	12
PSPTO_2789	3
PSPTO_2790	8
PSPTO_2791	16
PSPTO_2792	10
PSPTO_2793	12
PSPTO_2794	28
PSPTO_2795	46
PSPTO_2796	10
PSPTO_2797	8
PSPTO_2798	13
PSPTO_2799	11
PSPTO_2800	6
PSPTO_2801	11
PSPTO_2802	12
PSPTO_2803	7
PSPTO_2804	12
PSPTO_2805	99
PSPTO_2806	12
PSPTO_2807	16
PSPTO_2808	12
PSPTO_2809	25
PSPTO_2810	5
PSPTO_2811	10
PSPTO_2812	10
PSPTO_2813	17
PSPTO_2814	20
PSPTO_2815	0
PSPTO_2816	7
PSPTO_2817	2
PSPTO_2818	13
PSPTO_2819	10
PSPTO_2820	21
PSPTO_2821	13
PSPTO_2822	12
PSPTO_2823	4
PSPTO_2824	12
PSPTO_2825	9
PSPTO_2826	2
PSPTO_2827	3
PSPTO_2828	10
PSPTO_2829	140
PSPTO_2830	292
PSPTO_2831	13
PSPTO_2832	20
PSPTO_2833	13
PSPTO_2834	12
PSPTO_2835	1
PSPTO_2836	19
PSPTO_2837	14
PSPTO_2838	3
PSPTO_2839	2
PSPTO_2840	29
PSPTO_2841	8
PSPTO_2842	14
PSPTO_2843	6
PSPTO_2844	12
PSPTO_2845	6
PSPTO_2846	13
PSPTO_2847	8
PSPTO_2848	4
PSPTO_2849	8
PSPTO_2850	10
PSPTO_2851	22
PSPTO_2852	8
PSPTO_2853	45
PSPTO_2855	0
PSPTO_2856	85
PSPTO_2857	13
PSPTO_2858	2
PSPTO_2859	33
PSPTO_2860	15
PSPTO_2861	9
PSPTO_2862	9
PSPTO_2863	28
PSPTO_2864	9
PSPTO_2865	4
PSPTO_2866	2
PSPTO_2867	1
PSPTO_2868	14
PSPTO_2869	1
PSPTO_2870	16
PSPTO_2871	28
PSPTO_2872	37
PSPTO_2873	19
PSPTO_2874	16
PSPTO_2875	6
PSPTO_2876	24
PSPTO_2877	13
PSPTO_2878	9
PSPTO_2879	6
PSPTO_2880	13
PSPTO_2881	1
PSPTO_2882	22
PSPTO_2883	16
PSPTO_2885	6
PSPTO_2886	11
PSPTO_2887	19
PSPTO_2888	3
PSPTO_2889	2
PSPTO_2890	1
PSPTO_2891	13
PSPTO_2892	1
PSPTO_2893	12
PSPTO_2894	25
PSPTO_2895	16
PSPTO_2896	27
PSPTO_2897	14
PSPTO_2898	7
PSPTO_2899	8
PSPTO_2900	22
PSPTO_2901	9
PSPTO_2902	15
PSPTO_2903	12
PSPTO_2904	20
PSPTO_2905	7
PSPTO_2906	14
PSPTO_2907	24
PSPTO_2908	8
PSPTO_2909	9
PSPTO_2910	16
PSPTO_2911	19
PSPTO_2912	10
PSPTO_2913	7
PSPTO_2914	14
PSPTO_2915	4
PSPTO_2916	13
PSPTO_2917	7
PSPTO_2918	2
PSPTO_2919	14
PSPTO_2920	12
PSPTO_2921	20
PSPTO_2922	8
PSPTO_2923	16
PSPTO_2924	4
PSPTO_2925	20
PSPTO_2926	32
PSPTO_2927	8
PSPTO_2928	19
PSPTO_2929	3
PSPTO_2930	6
PSPTO_2931	18
PSPTO_2932	14
PSPTO_2933	6
PSPTO_2934	10
PSPTO_2935	11
PSPTO_2936	6
PSPTO_2937	7
PSPTO_2938	4
PSPTO_2939	7
PSPTO_2940	28
PSPTO_2941	25
PSPTO_2942	0
PSPTO_2943	28
PSPTO_2944	8
PSPTO_2945	5
PSPTO_2946	14
PSPTO_2947	24
PSPTO_2948	14
PSPTO_2949	9
PSPTO_2950	20
PSPTO_2951	35
PSPTO_2952	31
PSPTO_2953	2
PSPTO_2954	9
PSPTO_2955	13
PSPTO_2956	16
PSPTO_2957	10
PSPTO_2958	7
PSPTO_2959	25
PSPTO_2960	21
PSPTO_2961	12
PSPTO_2962	22
PSPTO_2963	23
PSPTO_2964	18
PSPTO_2965	3
PSPTO_2966	10
PSPTO_2967	2
PSPTO_2968	9
PSPTO_2969	9
PSPTO_2970	3
PSPTO_2971	27
PSPTO_2972	22
PSPTO_2973	9
PSPTO_2974	10
PSPTO_2975	15
PSPTO_2976	13
PSPTO_2977	15
PSPTO_2978	17
PSPTO_2979	4
PSPTO_2980	12
PSPTO_2981	8
PSPTO_2982	20
PSPTO_2983	5
PSPTO_2984	20
PSPTO_2985	24
PSPTO_2986	3
PSPTO_2987	15
PSPTO_2988	16
PSPTO_2989	11
PSPTO_2990	17
PSPTO_2991	19
PSPTO_2992	18
PSPTO_2993	23
PSPTO_2994	19
PSPTO_2995	29
PSPTO_2996	5
PSPTO_2997	28
PSPTO_2998	8
PSPTO_2999	4
PSPTO_3000	4
PSPTO_3001	17
PSPTO_3002	9
PSPTO_3003	7
PSPTO_3004	10
PSPTO_3005	13
PSPTO_3006	6
PSPTO_3007	29
PSPTO_3008	13
PSPTO_3009	8
PSPTO_3010	4
PSPTO_3011	12
PSPTO_3012	5
PSPTO_3013	17
PSPTO_3014	13
PSPTO_3015	3
PSPTO_3016	8
PSPTO_3017	20
PSPTO_3018	5
PSPTO_3019	14
PSPTO_3020	5
PSPTO_3021	13
PSPTO_3022	10
PSPTO_3023	39
PSPTO_3024	12
PSPTO_3025	11
PSPTO_3026	7
PSPTO_3027	27
PSPTO_3028	11
PSPTO_3029	17
PSPTO_3030	10
PSPTO_3031	9
PSPTO_3032	17
PSPTO_3033	20
PSPTO_3034	7
PSPTO_3035	30
PSPTO_3036	33
PSPTO_3037	12
PSPTO_3038	14
PSPTO_3039	22
PSPTO_3040	16
PSPTO_3041	24
PSPTO_3042	9
PSPTO_3043	13
PSPTO_3044	12
PSPTO_3045	5
PSPTO_3046	24
PSPTO_3047	11
PSPTO_3048	7
PSPTO_3049	7
PSPTO_3050	16
PSPTO_3051	7
PSPTO_3052	10
PSPTO_3053	3
PSPTO_3054	5
PSPTO_3055	0
PSPTO_3056	18
PSPTO_3057	13
PSPTO_3058	14
PSPTO_3059	21
PSPTO_3060	24
PSPTO_3061	9
PSPTO_3062	19
PSPTO_3063	8
PSPTO_3064	11
PSPTO_3065	16
PSPTO_3066	5
PSPTO_3067	8
PSPTO_3068	14
PSPTO_3069	6
PSPTO_3070	5
PSPTO_3071	27
PSPTO_3072	4
PSPTO_3073	1
PSPTO_3074	13
PSPTO_3075	15
PSPTO_3076	8
PSPTO_3077	13
PSPTO_3078	4
PSPTO_3079	5
PSPTO_3080	14
PSPTO_3081	9
PSPTO_3082	9
PSPTO_3083	14
PSPTO_3084	6
PSPTO_3085	7
PSPTO_3086	9
PSPTO_3087	36
PSPTO_3088	10
PSPTO_3089	12
PSPTO_3090	19
PSPTO_3091	20
PSPTO_3092	3
PSPTO_3094	3
PSPTO_3095	11
PSPTO_3096	11
PSPTO_3097	1
PSPTO_3098	25
PSPTO_3099	8
PSPTO_3100	27
PSPTO_3101	19
PSPTO_3102	16
PSPTO_3103	112
PSPTO_3104	0
PSPTO_3105	12
PSPTO_3106	27
PSPTO_3107	21
PSPTO_3108	131
PSPTO_3109	10
PSPTO_3110	14
PSPTO_3111	17
PSPTO_3112	25
PSPTO_3113	40
PSPTO_3114	10
PSPTO_3115	12
PSPTO_3116	5
PSPTO_3117	2
PSPTO_3118	14
PSPTO_3119	27
PSPTO_3120	21
PSPTO_3121	27
PSPTO_3122	36
PSPTO_3123	37
PSPTO_3124	15
PSPTO_3125	32
PSPTO_3126	23
PSPTO_3127	43
PSPTO_3128	45
PSPTO_3129	46
PSPTO_3130	42
PSPTO_3131	24
PSPTO_3132	6
PSPTO_3133	11
PSPTO_3134	10
PSPTO_3135	30
PSPTO_3136	11
PSPTO_3137	14
PSPTO_3138	18
PSPTO_3139	2
PSPTO_3140	10
PSPTO_3141	17
PSPTO_3142	10
PSPTO_3143	9
PSPTO_3144	20
PSPTO_3145	12
PSPTO_3146	16
PSPTO_3147	12
PSPTO_3148	25
PSPTO_3149	77
PSPTO_3150	25
PSPTO_3151	7
PSPTO_3152	21
PSPTO_3153	11
PSPTO_3154	10
PSPTO_3155	161
PSPTO_3156	3
PSPTO_3157	12
PSPTO_3158	11
PSPTO_3159	29
PSPTO_3160	16
PSPTO_3161	13
PSPTO_3162	14
PSPTO_3163	9
PSPTO_3164	24
PSPTO_3165	6
PSPTO_3166	19
PSPTO_3167	8
PSPTO_3168	1
PSPTO_3169	6
PSPTO_3170	26
PSPTO_3171	8
PSPTO_3172	20
PSPTO_3173	4
PSPTO_3174	27
PSPTO_3175	7
PSPTO_3176	18
PSPTO_3177	3
PSPTO_3178	18
PSPTO_3179	33
PSPTO_3180	13
PSPTO_3181	5
PSPTO_3182	12
PSPTO_3183	8
PSPTO_3184	15
PSPTO_3185	20
PSPTO_3186	24
PSPTO_3187	4
PSPTO_3188	13
PSPTO_3189	13
PSPTO_3190	13
PSPTO_3191	7
PSPTO_3192	27
PSPTO_3193	42
PSPTO_3194	15
PSPTO_3195	20
PSPTO_3196	21
PSPTO_3197	23
PSPTO_3198	10
PSPTO_3199	9
PSPTO_3200	16
PSPTO_3201	8
PSPTO_3202	10
PSPTO_3203	4
PSPTO_3204	7
PSPTO_3205	18
PSPTO_3206	21
PSPTO_3207	16
PSPTO_3208	52
PSPTO_3210	57
PSPTO_3211	18
PSPTO_3212	5
PSPTO_3213	32
PSPTO_3214	19
PSPTO_3215	2
PSPTO_3216	37
PSPTO_3217	8
PSPTO_3218	26
PSPTO_3219	1
PSPTO_3220	17
PSPTO_3221	7
PSPTO_3222	5
PSPTO_3223	34
PSPTO_3224	12
PSPTO_3225	12
PSPTO_3226	9
PSPTO_3227	1
PSPTO_3228	8
PSPTO_3229	259
PSPTO_3230	12
PSPTO_3231	14
PSPTO_3232	5
PSPTO_3233	26
PSPTO_3234	22
PSPTO_3235	10
PSPTO_3236	3
PSPTO_3237	25
PSPTO_3238	19
PSPTO_3239	3
PSPTO_3240	9
PSPTO_3241	24
PSPTO_3242	14
PSPTO_3243	12
PSPTO_3244	20
PSPTO_3245	8
PSPTO_3246	12
PSPTO_3247	6
PSPTO_3248	21
PSPTO_3249	8
PSPTO_3250	15
PSPTO_3251	12
PSPTO_3252	8
PSPTO_3253	4
PSPTO_3254	11
PSPTO_3255	11
PSPTO_3256	15
PSPTO_3257	16
PSPTO_3258	20
PSPTO_3259	31
PSPTO_3260	9
PSPTO_3261	5
PSPTO_3262	20
PSPTO_3263	10
PSPTO_3264	14
PSPTO_3265	15
PSPTO_3266	7
PSPTO_3267	8
PSPTO_3268	23
PSPTO_3269	10
PSPTO_3270	31
PSPTO_3271	9
PSPTO_3272	21
PSPTO_3273	12
PSPTO_3274	17
PSPTO_3275	10
PSPTO_3276	2
PSPTO_3277	13
PSPTO_3278	31
PSPTO_3279	23
PSPTO_3280	29
PSPTO_3281	25
PSPTO_3282	25
PSPTO_3283	16
PSPTO_3284	16
PSPTO_3285	13
PSPTO_3286	3
PSPTO_3287	9
PSPTO_3288	4
PSPTO_3289	10
PSPTO_3290	6
PSPTO_3291	27
PSPTO_3292	14
PSPTO_3293	26
PSPTO_3294	22
PSPTO_3295	16
PSPTO_3296	21
PSPTO_3297	7
PSPTO_3298	16
PSPTO_3299	10
PSPTO_3300	14
PSPTO_3301	18
PSPTO_3302	45
PSPTO_3303	2
PSPTO_3304	12
PSPTO_3305	5
PSPTO_3306	14
PSPTO_3307	35
PSPTO_3308	16
PSPTO_3309	7
PSPTO_3310	23
PSPTO_3311	17
PSPTO_3312	13
PSPTO_3313	8
PSPTO_3314	10
PSPTO_3315	4
PSPTO_3316	28
PSPTO_3317	27
PSPTO_3318	26
PSPTO_3319	18
PSPTO_3320	13
PSPTO_3321	12
PSPTO_3322	15
PSPTO_3323	33
PSPTO_3324	4
PSPTO_3325	18
PSPTO_3326	23
PSPTO_3327	18
PSPTO_3328	20
PSPTO_3329	29
PSPTO_3330	26
PSPTO_3331	6
PSPTO_3332	21
PSPTO_3333	45
PSPTO_3334	10
PSPTO_3335	7
PSPTO_3336	8
PSPTO_3337	23
PSPTO_3338	7
PSPTO_3339	6
PSPTO_3340	6
PSPTO_3341	6
PSPTO_3342	9
PSPTO_3343	17
PSPTO_3344	28
PSPTO_3345	27
PSPTO_3346	6
PSPTO_3347	23
PSPTO_3348	17
PSPTO_3349	42
PSPTO_3350	16
PSPTO_3351	12
PSPTO_3352	11
PSPTO_3353	118
PSPTO_3354	15
PSPTO_3355	14
PSPTO_3356	354
PSPTO_3357	3
PSPTO_3358	15
PSPTO_3359	11
PSPTO_3360	48
PSPTO_3361	18
PSPTO_3362	9
PSPTO_3363	11
PSPTO_3364	18
PSPTO_3365	10
PSPTO_3366	152
PSPTO_3367	197
PSPTO_3368	40
PSPTO_3369	104
PSPTO_3370	366
PSPTO_3371	45
PSPTO_3372	54
PSPTO_3373	11
PSPTO_3374	16
PSPTO_3375	73
PSPTO_3376	54
PSPTO_3377	54
PSPTO_3378	17
PSPTO_3379	29
PSPTO_3380	12
PSPTO_3381	11
PSPTO_3382	7
PSPTO_3383	3
PSPTO_3384	1
PSPTO_3385	18
PSPTO_3386	57
PSPTO_3387	143
PSPTO_3388	7
PSPTO_3389	10
PSPTO_3390	20
PSPTO_3391	4
PSPTO_3392	15
PSPTO_3393	41
PSPTO_3394	5
PSPTO_3395	6
PSPTO_3396	9
PSPTO_3397	5
PSPTO_3398	28
PSPTO_3399	8
PSPTO_3400	13
PSPTO_3401	2
PSPTO_3402	1
PSPTO_3403	6
PSPTO_3404	3
PSPTO_3405	9
PSPTO_3406	1
PSPTO_3407	8
PSPTO_3408	4
PSPTO_3409	8
PSPTO_3410	16
PSPTO_3411	0
PSPTO_3412	16
PSPTO_3413	2
PSPTO_3414	1
PSPTO_3415	2
PSPTO_3416	5
PSPTO_3417	5
PSPTO_3418	27
PSPTO_3419	1
PSPTO_3420	3
PSPTO_3421	14
PSPTO_3422	2
PSPTO_3423	4
PSPTO_3424	0
PSPTO_3425	4
PSPTO_3426	7
PSPTO_3427	21
PSPTO_3428	2
PSPTO_3429	5
PSPTO_3430	5
PSPTO_3432	15
PSPTO_3433	16
PSPTO_3435	9
PSPTO_3436	10
PSPTO_3437	29
PSPTO_3438	19
PSPTO_3439	7
PSPTO_3440	21
PSPTO_3441	7
PSPTO_3442	3
PSPTO_3443	15
PSPTO_3444	4
PSPTO_3445	4
PSPTO_3446	11
PSPTO_3447	15
PSPTO_3448	4
PSPTO_3449	13
PSPTO_3450	12
PSPTO_3451	3
PSPTO_3452	13
PSPTO_3453	4
PSPTO_3454	10
PSPTO_3455	21
PSPTO_3456	7
PSPTO_3457	22
PSPTO_3458	9
PSPTO_3459	8
PSPTO_3460	22
PSPTO_3461	18
PSPTO_3462	21
PSPTO_3463	25
PSPTO_3464	36
PSPTO_3465	9
PSPTO_3466	7
PSPTO_3467	13
PSPTO_3468	31
PSPTO_3469	7
PSPTO_3470	5
PSPTO_3471	38
PSPTO_3472	4
PSPTO_3473	18
PSPTO_3474	4
PSPTO_3475	3
PSPTO_3476	8
PSPTO_3477	11
PSPTO_3478	6
PSPTO_3479	19
PSPTO_3480	31
PSPTO_3481	7
PSPTO_3482	22
PSPTO_3483	14
PSPTO_3484	17
PSPTO_3485	58
PSPTO_3486	3
PSPTO_3487	12
PSPTO_3488	22
PSPTO_3489	18
PSPTO_3490	7
PSPTO_3491	13
PSPTO_3492	16
PSPTO_3493	7
PSPTO_3494	14
PSPTO_3495	22
PSPTO_3496	19
PSPTO_3497	15
PSPTO_3498	12
PSPTO_3499	8
PSPTO_3500	27
PSPTO_3501	24
PSPTO_3502	17
PSPTO_3503	20
PSPTO_3504	11
PSPTO_3505	8
PSPTO_3506	19
PSPTO_3507	21
PSPTO_3508	12
PSPTO_3509	5
PSPTO_3510	7
PSPTO_3511	3
PSPTO_3512	8
PSPTO_3513	11
PSPTO_3514	47
PSPTO_3515	9
PSPTO_3516	18
PSPTO_3517	47
PSPTO_3518	2
PSPTO_3519	5
PSPTO_3520	16
PSPTO_3521	43
PSPTO_3522	31
PSPTO_3523	19
PSPTO_3524	22
PSPTO_3525	13
PSPTO_3526	16
PSPTO_3527	31
PSPTO_3528	22
PSPTO_3529	17
PSPTO_3530	30
PSPTO_3531	14
PSPTO_3532	24
PSPTO_3533	14
PSPTO_3534	16
PSPTO_3535	12
PSPTO_3536	22
PSPTO_3537	28
PSPTO_3538	6
PSPTO_3539	37
PSPTO_3540	6
PSPTO_3541	9
PSPTO_3542	8
PSPTO_3543	7
PSPTO_3544	15
PSPTO_3545	14
PSPTO_3546	3
PSPTO_3547	7
PSPTO_3548	24
PSPTO_3549	12
PSPTO_3550	28
PSPTO_3551	34
PSPTO_3552	14
PSPTO_3553	48
PSPTO_3554	28
PSPTO_3555	29
PSPTO_3556	15
PSPTO_3557	23
PSPTO_3558	12
PSPTO_3559	39
PSPTO_3560	40
PSPTO_3561	14
PSPTO_3562	2
PSPTO_3563	16
PSPTO_3564	8
PSPTO_3565	17
PSPTO_3566	28
PSPTO_3567	31
PSPTO_3568	3
PSPTO_3569	69
PSPTO_3570	30
PSPTO_3571	1
PSPTO_3572	11
PSPTO_3573	7
PSPTO_3574	13
PSPTO_3575	12
PSPTO_3576	11
PSPTO_3577	21
PSPTO_3578	7
PSPTO_3579	16
PSPTO_3580	32
PSPTO_3581	16
PSPTO_3582	23
PSPTO_3583	0
PSPTO_3584	24
PSPTO_3585	2
PSPTO_3586	13
PSPTO_3587	4
PSPTO_3588	7
PSPTO_3589	21
PSPTO_3590	11
PSPTO_3591	13
PSPTO_3592	14
PSPTO_3593	35
PSPTO_3594	12
PSPTO_3595	15
PSPTO_3596	14
PSPTO_3597	21
PSPTO_3598	18
PSPTO_3599	8
PSPTO_3600	5
PSPTO_3601	5
PSPTO_3602	13
PSPTO_3603	5
PSPTO_3604	25
PSPTO_3605	28
PSPTO_3606	2
PSPTO_3607	6
PSPTO_3608	18
PSPTO_3609	15
PSPTO_3610	20
PSPTO_3611	1
PSPTO_3612	4
PSPTO_3613	38
PSPTO_3614	2
PSPTO_3615	26
PSPTO_3616	35
PSPTO_3617	4
PSPTO_3618	29
PSPTO_3619	4
PSPTO_3620	9
PSPTO_3621	30
PSPTO_3624	16
PSPTO_3625	17
PSPTO_3626	8
PSPTO_3627	38
PSPTO_3628	2
PSPTO_3629	7
PSPTO_3630	35
PSPTO_3631	12
PSPTO_3632	0
PSPTO_3633	15
PSPTO_3634	11
PSPTO_3635	11
PSPTO_3636	15
PSPTO_3637	8
PSPTO_3638	18
PSPTO_3639	17
PSPTO_3640	15
PSPTO_3641	1
PSPTO_3642	16
PSPTO_3643	13
PSPTO_3644	25
PSPTO_3645	43
PSPTO_3646	53
PSPTO_3647	5
PSPTO_3648	12
PSPTO_3649	21
PSPTO_3650	35
PSPTO_3651	34
PSPTO_3652	4
PSPTO_3653	1
PSPTO_3654	8
PSPTO_3655	9
PSPTO_3656	43
PSPTO_3657	30
PSPTO_3658	72
PSPTO_3659	9
PSPTO_3660	37
PSPTO_3661	54
PSPTO_3662	19
PSPTO_3663	38
PSPTO_3664	24
PSPTO_3665	11
PSPTO_3666	9
PSPTO_3667	2
PSPTO_3668	14
PSPTO_3669	8
PSPTO_3670	25
PSPTO_3671	6
PSPTO_3672	7
PSPTO_3673	1
PSPTO_3674	8
PSPTO_3675	6
PSPTO_3676	6
PSPTO_3677	5
PSPTO_3678	18
PSPTO_3679	15
PSPTO_3680	22
PSPTO_3681	2
PSPTO_3682	26
PSPTO_3683	4
PSPTO_3684	9
PSPTO_3685	32
PSPTO_3686	23
PSPTO_3687	16
PSPTO_3688	4
PSPTO_3689	37
PSPTO_3690	22
PSPTO_3691	31
PSPTO_3692	11
PSPTO_3693	4
PSPTO_3694	17
PSPTO_3695	13
PSPTO_3696	28
PSPTO_3697	0
PSPTO_3698	3
PSPTO_3699	32
PSPTO_3700	35
PSPTO_3701	7
PSPTO_3702	18
PSPTO_3703	12
PSPTO_3704	24
PSPTO_3705	21
PSPTO_3706	19
PSPTO_3707	80
PSPTO_3708	21
PSPTO_3709	30
PSPTO_3710	9
PSPTO_3711	16
PSPTO_3712	11
PSPTO_3713	26
PSPTO_3714	12
PSPTO_3715	29
PSPTO_3716	16
PSPTO_3717	25
PSPTO_3718	8
PSPTO_3719	21
PSPTO_3720	19
PSPTO_3721	30
PSPTO_3722	45
PSPTO_3723	33
PSPTO_3724	164
PSPTO_3725	92
PSPTO_3726	43
PSPTO_3727	64
PSPTO_3728	7
PSPTO_3729	27
PSPTO_3730	33
PSPTO_3731	21
PSPTO_3732	7
PSPTO_3733	14
PSPTO_3734	17
PSPTO_3735	26
PSPTO_3736	8
PSPTO_3737	11
PSPTO_3738	12
PSPTO_3739	13
PSPTO_3740	5
PSPTO_3741	26
PSPTO_3742	35
PSPTO_3743	53
PSPTO_3744	67
PSPTO_3745	15
PSPTO_3746	19
PSPTO_3747	22
PSPTO_3748	14
PSPTO_3749	3
PSPTO_3750	8
PSPTO_3751	9
PSPTO_3752	432
PSPTO_3753	44
PSPTO_3754	17
PSPTO_3755	13
PSPTO_3756	20
PSPTO_3757	151
PSPTO_3758	19
PSPTO_3759	9
PSPTO_3760	18
PSPTO_3761	3
PSPTO_3762	14
PSPTO_3763	33
PSPTO_3764	21
PSPTO_3765	33
PSPTO_3766	81
PSPTO_3767	3
PSPTO_3768	37
PSPTO_3769	5
PSPTO_3770	11
PSPTO_3771	17
PSPTO_3772	24
PSPTO_3773	8
PSPTO_3774	7
PSPTO_3775	6
PSPTO_3776	9
PSPTO_3777	24
PSPTO_3778	12
PSPTO_3779	14
PSPTO_3780	23
PSPTO_3781	11
PSPTO_3782	6
PSPTO_3783	12
PSPTO_3784	18
PSPTO_3785	14
PSPTO_3786	15
PSPTO_3787	19
PSPTO_3788	63
PSPTO_3789	22
PSPTO_3790	9
PSPTO_3791	14
PSPTO_3792	16
PSPTO_3793	16
PSPTO_3794	2
PSPTO_3795	12
PSPTO_3796	23
PSPTO_3797	30
PSPTO_3798	16
PSPTO_3799	12
PSPTO_3800	20
PSPTO_3801	24
PSPTO_3802	19
PSPTO_3803	41
PSPTO_3804	15
PSPTO_3805	17
PSPTO_3806	41
PSPTO_3807	18
PSPTO_3808	16
PSPTO_3809	23
PSPTO_3810	32
PSPTO_3811	38
PSPTO_3812	13
PSPTO_3813	10
PSPTO_3814	13
PSPTO_3815	23
PSPTO_3816	12
PSPTO_3817	4
PSPTO_3818	81
PSPTO_3819	26
PSPTO_3820	7
PSPTO_3821	7
PSPTO_3822	16
PSPTO_3823	10
PSPTO_3824	16
PSPTO_3825	9
PSPTO_3826	10
PSPTO_3827	12
PSPTO_3828	21
PSPTO_3829	16
PSPTO_3830	47
PSPTO_3831	54
PSPTO_3832	39
PSPTO_3833	31
PSPTO_3834	13
PSPTO_3835	14
PSPTO_3836	49
PSPTO_3837	16
PSPTO_3838	21
PSPTO_3839	7
PSPTO_3840	17
PSPTO_3841	160
PSPTO_3842	7
PSPTO_3843	11
PSPTO_3844	6
PSPTO_3845	18
PSPTO_3846	7
PSPTO_3847	14
PSPTO_3848	49
PSPTO_3849	16
PSPTO_3850	5
PSPTO_3851	43
PSPTO_3852	13
PSPTO_3853	10
PSPTO_3854	8
PSPTO_3855	6
PSPTO_3856	7
PSPTO_3857	39
PSPTO_3858	5
PSPTO_3859	12
PSPTO_3860	29
PSPTO_3861	8
PSPTO_3862	23
PSPTO_3863	13
PSPTO_3864	28
PSPTO_3865	16
PSPTO_3866	7
PSPTO_3867	4
PSPTO_3868	7
PSPTO_3869	2
PSPTO_3870	17
PSPTO_3871	18
PSPTO_3872	21
PSPTO_3873	29
PSPTO_3874	8
PSPTO_3875	10
PSPTO_3876	23
PSPTO_3877	8
PSPTO_3878	14
PSPTO_3879	14
PSPTO_3880	7
PSPTO_3881	7
PSPTO_3882	17
PSPTO_3883	11
PSPTO_3884	30
PSPTO_3885	72
PSPTO_3886	19
PSPTO_3887	8
PSPTO_3888	4
PSPTO_3889	11
PSPTO_3890	63
PSPTO_3891	23
PSPTO_3892	13
PSPTO_3893	6
PSPTO_3894	18
PSPTO_3895	4
PSPTO_3896	3
PSPTO_3897	21
PSPTO_3898	8
PSPTO_3899	32
PSPTO_3900	41
PSPTO_3901	23
PSPTO_3902	21
PSPTO_3903	12
PSPTO_3904	7
PSPTO_3905	17
PSPTO_3906	15
PSPTO_3907	7
PSPTO_3908	11
PSPTO_3909	11
PSPTO_3910	12
PSPTO_3911	31
PSPTO_3912	7
PSPTO_3913	22
PSPTO_3914	26
PSPTO_3915	18
PSPTO_3916	13
PSPTO_3917	8
PSPTO_3918	9
PSPTO_3919	13
PSPTO_3920	15
PSPTO_3921	1
PSPTO_3922	15
PSPTO_3923	32
PSPTO_3924	35
PSPTO_3925	11
PSPTO_3926	8
PSPTO_3927	25
PSPTO_3929	5
PSPTO_3930	40
PSPTO_3931	3
PSPTO_3932	11
PSPTO_3933	5
PSPTO_3934	4
PSPTO_3935	6
PSPTO_3936	10
PSPTO_3937	8
PSPTO_3938	4
PSPTO_3939	18
PSPTO_3940	4
PSPTO_3941	14
PSPTO_3942	6
PSPTO_3943	0
PSPTO_3944	5
PSPTO_3945	3
PSPTO_3946	5
PSPTO_3947	5
PSPTO_3948	6
PSPTO_3949	23
PSPTO_3950	38
PSPTO_3951	15
PSPTO_3952	36
PSPTO_3953	43
PSPTO_3954	10
PSPTO_3955	10
PSPTO_3956	16
PSPTO_3957	1
PSPTO_3958	26
PSPTO_3959	28
PSPTO_3960	10
PSPTO_3961	6
PSPTO_3962	3
PSPTO_3963	28
PSPTO_3965	19
PSPTO_3966	4
PSPTO_3968	18
PSPTO_3969	6
PSPTO_3970	42
PSPTO_3971	154
PSPTO_3972	72
PSPTO_3973	48
PSPTO_3974	19
PSPTO_3975	19
PSPTO_3976	10
PSPTO_3977	23
PSPTO_3978	9
PSPTO_3979	12
PSPTO_3980	23
PSPTO_3981	84
PSPTO_3982	7
PSPTO_3983	33
PSPTO_3984	5
PSPTO_3985	6
PSPTO_3986	10
PSPTO_3987	99
PSPTO_3988	52
PSPTO_3989	21
PSPTO_3990	17
PSPTO_3991	44
PSPTO_3992	20
PSPTO_3993	32
PSPTO_3994	17
PSPTO_3995	50
PSPTO_3996	34
PSPTO_3997	3
PSPTO_3998	5
PSPTO_3999	28
PSPTO_4001	18
PSPTO_4002	24
PSPTO_4003	7
PSPTO_4004	16
PSPTO_4005	2
PSPTO_4006	29
PSPTO_4007	7
PSPTO_4008	9
PSPTO_4009	4
PSPTO_4010	39
PSPTO_4011	1
PSPTO_4012	11
PSPTO_4013	10
PSPTO_4014	8
PSPTO_4015	1
PSPTO_4016	3
PSPTO_4017	5
PSPTO_4018	23
PSPTO_4019	26
PSPTO_4020	5
PSPTO_4021	13
PSPTO_4022	9
PSPTO_4023	6
PSPTO_4024	40
PSPTO_4025	8
PSPTO_4026	5
PSPTO_4027	7
PSPTO_4028	2
PSPTO_4029	9
PSPTO_4030	26
PSPTO_4031	29
PSPTO_4032	9
PSPTO_4033	24
PSPTO_4034	26
PSPTO_4035	8
PSPTO_4036	6
PSPTO_4037	12
PSPTO_4038	24
PSPTO_4039	18
PSPTO_4040	3
PSPTO_4041	38
PSPTO_4042	7
PSPTO_4043	9
PSPTO_4044	8
PSPTO_4045	9
PSPTO_4046	53
PSPTO_4047	11
PSPTO_4048	1
PSPTO_4049	4
PSPTO_4050	7
PSPTO_4051	8
PSPTO_4052	17
PSPTO_4053	1
PSPTO_4054	12
PSPTO_4055	2
PSPTO_4056	8
PSPTO_4057	16
PSPTO_4058	39
PSPTO_4059	7
PSPTO_4060	21
PSPTO_4061	9
PSPTO_4062	13
PSPTO_4063	17
PSPTO_4064	17
PSPTO_4065	8
PSPTO_4066	2
PSPTO_4067	12
PSPTO_4068	21
PSPTO_4069	3
PSPTO_4070	6
PSPTO_4071	14
PSPTO_4072	8
PSPTO_4073	17
PSPTO_4074	9
PSPTO_4075	16
PSPTO_4076	20
PSPTO_4077	10
PSPTO_4078	16
PSPTO_4079	34
PSPTO_4080	6
PSPTO_4081	30
PSPTO_4082	4
PSPTO_4083	11
PSPTO_4084	60
PSPTO_4087	7
PSPTO_4088	9
PSPTO_4089	7
PSPTO_4090	16
PSPTO_4091	21
PSPTO_4092	9
PSPTO_4093	54
PSPTO_4094	23
PSPTO_4095	89
PSPTO_4096	2
PSPTO_4097	21
PSPTO_4098	17
PSPTO_4099	3
PSPTO_4100	9
PSPTO_4101	11
PSPTO_4102	4
PSPTO_4103	11
PSPTO_4104	58
PSPTO_4105	14
PSPTO_4106	23
PSPTO_4107	2
PSPTO_4108	37
PSPTO_4109	14
PSPTO_4110	22
PSPTO_4111	10
PSPTO_4112	6
PSPTO_4113	6
PSPTO_4114	39
PSPTO_4115	26
PSPTO_4116	6
PSPTO_4117	42
PSPTO_4118	6
PSPTO_4119	33
PSPTO_4120	41
PSPTO_4121	13
PSPTO_4122	5
PSPTO_4123	10
PSPTO_4124	15
PSPTO_4125	4
PSPTO_4126	12
PSPTO_4127	8
PSPTO_4128	28
PSPTO_4129	13
PSPTO_4130	6
PSPTO_4131	4
PSPTO_4132	23
PSPTO_4133	50
PSPTO_4134	13
PSPTO_4135	38
PSPTO_4136	14
PSPTO_4137	0
PSPTO_4138	3
PSPTO_4139	7
PSPTO_4140	11
PSPTO_4141	43
PSPTO_4142	4
PSPTO_4143	10
PSPTO_4144	22
PSPTO_4145	314
PSPTO_4146	17
PSPTO_4147	51
PSPTO_4148	19
PSPTO_4149	12
PSPTO_4150	4
PSPTO_4151	10
PSPTO_4152	21
PSPTO_4153	3
PSPTO_4154	2
PSPTO_4155	86
PSPTO_4156	11
PSPTO_4157	24
PSPTO_4158	13
PSPTO_4159	1
PSPTO_4160	75
PSPTO_4161	19
PSPTO_4162	32
PSPTO_4163	10
PSPTO_4164	27
PSPTO_4165	6
PSPTO_4166	11
PSPTO_4167	39
PSPTO_4168	75
PSPTO_4169	26
PSPTO_4170	274
PSPTO_4171	19
PSPTO_4172	8
PSPTO_4173	6
PSPTO_4174	7
PSPTO_4175	29
PSPTO_4176	30
PSPTO_4177	4
PSPTO_4178	27
PSPTO_4179	34
PSPTO_4180	21
PSPTO_4181	4
PSPTO_4182	16
PSPTO_4183	10
PSPTO_4184	4
PSPTO_4185	9
PSPTO_4186	10
PSPTO_4187	19
PSPTO_4188	8
PSPTO_4189	21
PSPTO_4190	18
PSPTO_4191	42
PSPTO_4192	8
PSPTO_4193	15
PSPTO_4194	2
PSPTO_4195	11
PSPTO_4196	36
PSPTO_4197	19
PSPTO_4198	16
PSPTO_4199	5
PSPTO_4200	18
PSPTO_4201	21
PSPTO_4202	22
PSPTO_4203	13
PSPTO_4204	27
PSPTO_4205	9
PSPTO_4206	8
PSPTO_4207	10
PSPTO_4208	35
PSPTO_4209	10
PSPTO_4210	69
PSPTO_4211	8
PSPTO_4212	11
PSPTO_4213	10
PSPTO_4214	19
PSPTO_4215	14
PSPTO_4216	22
PSPTO_4217	20
PSPTO_4218	6
PSPTO_4219	26
PSPTO_4220	60
PSPTO_4221	80
PSPTO_4222	72
PSPTO_4223	306
PSPTO_4224	146
PSPTO_4225	20
PSPTO_4226	9
PSPTO_4227	7
PSPTO_4228	13
PSPTO_4229	16
PSPTO_4230	24
PSPTO_4231	16
PSPTO_4232	13
PSPTO_4233	5
PSPTO_4234	22
PSPTO_4235	22
PSPTO_4236	17
PSPTO_4237	39
PSPTO_4238	15
PSPTO_4239	7
PSPTO_4240	7
PSPTO_4241	7
PSPTO_4242	8
PSPTO_4243	52
PSPTO_4244	32
PSPTO_4245	42
PSPTO_4246	3
PSPTO_4247	5
PSPTO_4248	10
PSPTO_4249	20
PSPTO_4250	18
PSPTO_4251	27
PSPTO_4252	6
PSPTO_4253	23
PSPTO_4254	33
PSPTO_4255	4
PSPTO_4256	17
PSPTO_4257	6
PSPTO_4258	8
PSPTO_4259	26
PSPTO_4260	5
PSPTO_4261	14
PSPTO_4262	12
PSPTO_4263	14
PSPTO_4264	9
PSPTO_4265	21
PSPTO_4266	16
PSPTO_4267	9
PSPTO_4268	14
PSPTO_4269	14
PSPTO_4270	11
PSPTO_4271	20
PSPTO_4272	37
PSPTO_4273	11
PSPTO_4274	11
PSPTO_4275	6
PSPTO_4276	9
PSPTO_4277	8
PSPTO_4278	16
PSPTO_4279	4
PSPTO_4280	3
PSPTO_4281	4
PSPTO_4282	3
PSPTO_4283	11
PSPTO_4284	23
PSPTO_4285	182
PSPTO_4286	17
PSPTO_4287	16
PSPTO_4288	12
PSPTO_4289	15
PSPTO_4290	27
PSPTO_4291	31
PSPTO_4292	19
PSPTO_4293	43
PSPTO_4294	33
PSPTO_4295	28
PSPTO_4296	8
PSPTO_4297	5
PSPTO_4298	8
PSPTO_4299	0
PSPTO_4300	18
PSPTO_4301	16
PSPTO_4302	7
PSPTO_4303	14
PSPTO_4304	56
PSPTO_4305	26
PSPTO_4306	23
PSPTO_4307	38
PSPTO_4308	9
PSPTO_4309	7
PSPTO_4310	17
PSPTO_4312	35
PSPTO_4313	6
PSPTO_4314	22
PSPTO_4315	52
PSPTO_4316	20
PSPTO_4317	19
PSPTO_4318	20
PSPTO_4319	16
PSPTO_4320	10
PSPTO_4321	40
PSPTO_4322	43
PSPTO_4323	13
PSPTO_4324	9
PSPTO_4325	26
PSPTO_4326	9
PSPTO_4327	8
PSPTO_4328	6
PSPTO_4329	13
PSPTO_4330	2
PSPTO_4331	3
PSPTO_4332	17
PSPTO_4333	16
PSPTO_4334	15
PSPTO_4335	11
PSPTO_4336	19
PSPTO_4337	119
PSPTO_4338	17
PSPTO_4339	58
PSPTO_4340	74
PSPTO_4341	33
PSPTO_4342	50
PSPTO_4343	37
PSPTO_4344	44
PSPTO_4345	6
PSPTO_4346	6
PSPTO_4347	23
PSPTO_4348	9
PSPTO_4349	26
PSPTO_4350	11
PSPTO_4351	4
PSPTO_4352	22
PSPTO_4353	7
PSPTO_4354	7
PSPTO_4355	5
PSPTO_4356	4
PSPTO_4357	19
PSPTO_4358	29
PSPTO_4359	20
PSPTO_4360	20
PSPTO_4361	15
PSPTO_4362	16
PSPTO_4363	101
PSPTO_4364	2
PSPTO_4365	15
PSPTO_4366	26
PSPTO_4367	18
PSPTO_4368	9
PSPTO_4369	8
PSPTO_4370	8
PSPTO_4371	22
PSPTO_4372	7
PSPTO_4373	26
PSPTO_4374	16
PSPTO_4375	9
PSPTO_4376	520
PSPTO_4377	27
PSPTO_4378	2
PSPTO_4379	13
PSPTO_4380	17
PSPTO_4381	41
PSPTO_4382	4
PSPTO_4383	19
PSPTO_4384	5
PSPTO_4385	33
PSPTO_4386	44
PSPTO_4387	21
PSPTO_4388	5
PSPTO_4389	28
PSPTO_4390	5
PSPTO_4392	28
PSPTO_4393	32
PSPTO_4394	22
PSPTO_4395	32
PSPTO_4396	13
PSPTO_4397	14
PSPTO_4398	11
PSPTO_4399	41
PSPTO_4400	131
PSPTO_4401	7
PSPTO_4402	86
PSPTO_4403	120
PSPTO_4404	38
PSPTO_4405	8
PSPTO_4406	20
PSPTO_4407	47
PSPTO_4408	30
PSPTO_4409	21
PSPTO_4410	24
PSPTO_4411	15
PSPTO_4412	36
PSPTO_4413	41
PSPTO_4414	31
PSPTO_4415	6
PSPTO_4416	32
PSPTO_4417	13
PSPTO_4418	21
PSPTO_4419	75
PSPTO_4420	6
PSPTO_4421	8
PSPTO_4422	15
PSPTO_4423	8
PSPTO_4424	8
PSPTO_4425	79
PSPTO_4426	157
PSPTO_4427	7
PSPTO_4428	20
PSPTO_4429	15
PSPTO_4430	10
PSPTO_4431	27
PSPTO_4432	53
PSPTO_4433	37
PSPTO_4434	9
PSPTO_4435	7
PSPTO_4436	5
PSPTO_4437	32
PSPTO_4438	44
PSPTO_4439	19
PSPTO_4440	3
PSPTO_4441	24
PSPTO_4442	7
PSPTO_4443	9
PSPTO_4444	25
PSPTO_4445	11
PSPTO_4446	10
PSPTO_4447	18
PSPTO_4448	21
PSPTO_4449	2
PSPTO_4450	10
PSPTO_4451	28
PSPTO_4452	10
PSPTO_4453	37
PSPTO_4454	45
PSPTO_4455	15
PSPTO_4456	18
PSPTO_4457	5
PSPTO_4458	4
PSPTO_4459	13
PSPTO_4460	7
PSPTO_4461	19
PSPTO_4462	5
PSPTO_4463	46
PSPTO_4464	24
PSPTO_4465	46
PSPTO_4466	8
PSPTO_4467	63
PSPTO_4468	34
PSPTO_4469	19
PSPTO_4470	7
PSPTO_4471	14
PSPTO_4472	44
PSPTO_4473	19
PSPTO_4474	61
PSPTO_4475	42
PSPTO_4476	10
PSPTO_4477	6
PSPTO_4478	4
PSPTO_4479	21
PSPTO_4480	23
PSPTO_4481	16
PSPTO_4482	45
PSPTO_4483	9
PSPTO_4484	16
PSPTO_4485	18
PSPTO_4486	113
PSPTO_4487	52
PSPTO_4488	16
PSPTO_4489	11
PSPTO_4490	118
PSPTO_4491	63
PSPTO_4492	22
PSPTO_4493	13
PSPTO_4494	26
PSPTO_4495	39
PSPTO_4496	14
PSPTO_4497	107
PSPTO_4498	20
PSPTO_4499	2
PSPTO_4500	19
PSPTO_4501	115
PSPTO_4502	67
PSPTO_4503	21
PSPTO_4504	38
PSPTO_4505	693
PSPTO_4506	37
PSPTO_4507	32
PSPTO_4508	12
PSPTO_4509	16
PSPTO_4510	8
PSPTO_4511	23
PSPTO_4512	13
PSPTO_4513	14
PSPTO_4514	31
PSPTO_4515	6
PSPTO_4516	26
PSPTO_4517	8
PSPTO_4518	50
PSPTO_4519	80
PSPTO_4520	24
PSPTO_4521	1
PSPTO_4522	18
PSPTO_4523	15
PSPTO_4524	17
PSPTO_4525	4
PSPTO_4526	29
PSPTO_4527	9
PSPTO_4528	18
PSPTO_4529	46
PSPTO_4530	84
PSPTO_4531	24
PSPTO_4532	5
PSPTO_4533	19
PSPTO_4534	25
PSPTO_4535	24
PSPTO_4536	24
PSPTO_4537	14
PSPTO_4538	12
PSPTO_4539	13
PSPTO_4540	7
PSPTO_4541	26
PSPTO_4542	7
PSPTO_4543	29
PSPTO_4544	15
PSPTO_4545	5
PSPTO_4546	15
PSPTO_4547	21
PSPTO_4548	16
PSPTO_4549	6
PSPTO_4550	24
PSPTO_4551	24
PSPTO_4552	1
PSPTO_4553	10
PSPTO_4554	12
PSPTO_4555	12
PSPTO_4556	21
PSPTO_4557	24
PSPTO_4558	51
PSPTO_4559	22
PSPTO_4560	41
PSPTO_4561	29
PSPTO_4562	10
PSPTO_4563	17
PSPTO_4564	17
PSPTO_4565	12
PSPTO_4566	3
PSPTO_4567	33
PSPTO_4568	3
PSPTO_4569	43
PSPTO_4570	27
PSPTO_4571	19
PSPTO_4572	26
PSPTO_4573	6
PSPTO_4574	36
PSPTO_4575	16
PSPTO_4576	14
PSPTO_4577	11
PSPTO_4578	9
PSPTO_4579	59
PSPTO_4580	6
PSPTO_4581	18
PSPTO_4582	12
PSPTO_4583	13
PSPTO_4584	5
PSPTO_4585	40
PSPTO_4586	295
PSPTO_4587	21
PSPTO_4588	6
PSPTO_4589	14
PSPTO_4590	9
PSPTO_4591	7
PSPTO_4592	12
PSPTO_4593	21
PSPTO_4594	11
PSPTO_4595	15
PSPTO_4596	31
PSPTO_4597	2
PSPTO_4599	10
PSPTO_4600	3
PSPTO_4601	10
PSPTO_4602	46
PSPTO_4603	40
PSPTO_4604	32
PSPTO_4605	42
PSPTO_4606	15
PSPTO_4607	60
PSPTO_4608	20
PSPTO_4609	4
PSPTO_4610	34
PSPTO_4611	35
PSPTO_4612	27
PSPTO_4613	26
PSPTO_4614	16
PSPTO_4615	12
PSPTO_4616	25
PSPTO_4617	6
PSPTO_4618	6
PSPTO_4619	13
PSPTO_4620	14
PSPTO_4621	6
PSPTO_4622	13
PSPTO_4623	3
PSPTO_4624	27
PSPTO_4625	13
PSPTO_4626	12
PSPTO_4627	58
PSPTO_4628	4
PSPTO_4629	2
PSPTO_4630	5
PSPTO_4631	54
PSPTO_4632	77
PSPTO_4633	10
PSPTO_4634	33
PSPTO_4635	16
PSPTO_4636	19
PSPTO_4637	2
PSPTO_4638	31
PSPTO_4639	6
PSPTO_4640	22
PSPTO_4641	13
PSPTO_4642	21
PSPTO_4643	20
PSPTO_4644	9
PSPTO_4645	21
PSPTO_4646	8
PSPTO_4647	15
PSPTO_4648	40
PSPTO_4649	3
PSPTO_4650	47
PSPTO_4651	17
PSPTO_4652	10
PSPTO_4653	26
PSPTO_4654	15
PSPTO_4656	23
PSPTO_4657	14
PSPTO_4658	23
PSPTO_4659	7
PSPTO_4660	13
PSPTO_4661	22
PSPTO_4662	16
PSPTO_4663	28
PSPTO_4664	24
PSPTO_4665	9
PSPTO_4666	11
PSPTO_4667	18
PSPTO_4668	11
PSPTO_4669	5
PSPTO_4670	20
PSPTO_4671	14
PSPTO_4672	2
PSPTO_4673	8
PSPTO_4674	7
PSPTO_4675	19
PSPTO_4676	5
PSPTO_4677	10
PSPTO_4678	7
PSPTO_4679	13
PSPTO_4680	18
PSPTO_4681	3
PSPTO_4682	4
PSPTO_4683	31
PSPTO_4684	6
PSPTO_4685	30
PSPTO_4686	159
PSPTO_4687	134
PSPTO_4688	5
PSPTO_4689	10
PSPTO_4690	7
PSPTO_4691	23
PSPTO_4692	7
PSPTO_4693	30
PSPTO_4694	3
PSPTO_4695	4
PSPTO_4696	24
PSPTO_4697	3
PSPTO_4699	266
PSPTO_4702	20
PSPTO_4703	4
PSPTO_4704	8
PSPTO_4705	12
PSPTO_4706	7
PSPTO_4707	2
PSPTO_4708	11
PSPTO_4709	11
PSPTO_4710	20
PSPTO_4711	3
PSPTO_4712	5
PSPTO_4713	1
PSPTO_4714	9
PSPTO_4716	8
PSPTO_4717	1
PSPTO_4718	32
PSPTO_4719	4
PSPTO_4720	24
PSPTO_4721	5
PSPTO_4722	22
PSPTO_4723	9
PSPTO_4724	6
PSPTO_4725	14
PSPTO_4726	22
PSPTO_4727	21
PSPTO_4729	12
PSPTO_4730	9
PSPTO_4732	5
PSPTO_4733	20
PSPTO_4734	9
PSPTO_4735	148
PSPTO_4737	37
PSPTO_4738	3
PSPTO_4741	15
PSPTO_4742	60
PSPTO_4743	45
PSPTO_4744	28
PSPTO_4745	41
PSPTO_4746	33
PSPTO_4747	4
PSPTO_4748	15
PSPTO_4749	10
PSPTO_4750	12
PSPTO_4751	49
PSPTO_4752	65
PSPTO_4753	19
PSPTO_4754	22
PSPTO_4755	7
PSPTO_4756	4
PSPTO_4757	3
PSPTO_4758	2
PSPTO_4759	11
PSPTO_4760	7
PSPTO_4761	43
PSPTO_4762	19
PSPTO_4763	22
PSPTO_4764	31
PSPTO_4765	2
PSPTO_4766	17
PSPTO_4767	17
PSPTO_4768	10
PSPTO_4769	12
PSPTO_4770	19
PSPTO_4771	32
PSPTO_4772	27
PSPTO_4773	10
PSPTO_4774	18
PSPTO_4775	23
PSPTO_4776	21
PSPTO_4777	3
PSPTO_4778	8
PSPTO_4779	14
PSPTO_4780	11
PSPTO_4781	23
PSPTO_4782	17
PSPTO_4784	20
PSPTO_4785	3
PSPTO_4786	11
PSPTO_4787	10
PSPTO_4788	19
PSPTO_4789	5
PSPTO_4790	15
PSPTO_4791	22
PSPTO_4792	18
PSPTO_4793	10
PSPTO_4794	14
PSPTO_4795	34
PSPTO_4796	26
PSPTO_4797	1
PSPTO_4798	12
PSPTO_4799	15
PSPTO_4800	28
PSPTO_4801	7
PSPTO_4802	14
PSPTO_4803	8
PSPTO_4804	53
PSPTO_4805	55
PSPTO_4806	15
PSPTO_4807	30
PSPTO_4808	27
PSPTO_4809	14
PSPTO_4810	5
PSPTO_4811	0
PSPTO_4812	62
PSPTO_4813	16
PSPTO_4814	13
PSPTO_4815	3
PSPTO_4816	4
PSPTO_4817	26
PSPTO_4818	27
PSPTO_4819	13
PSPTO_4820	5
PSPTO_4821	27
PSPTO_4822	25
PSPTO_4823	18
PSPTO_4824	11
PSPTO_4825	19
PSPTO_4826	5
PSPTO_4827	11
PSPTO_4828	10
PSPTO_4829	29
PSPTO_4830	14
PSPTO_4831	31
PSPTO_4832	47
PSPTO_4833	54
PSPTO_4834	12
PSPTO_4835	9
PSPTO_4836	11
PSPTO_4837	28
PSPTO_4838	1
PSPTO_4839	17
PSPTO_4840	14
PSPTO_4841	9
PSPTO_4842	20
PSPTO_4843	16
PSPTO_4844	30
PSPTO_4845	92
PSPTO_4846	7
PSPTO_4847	54
PSPTO_4848	14
PSPTO_4849	7
PSPTO_4850	19
PSPTO_4851	24
PSPTO_4852	18
PSPTO_4853	18
PSPTO_4854	25
PSPTO_4855	16
PSPTO_4856	5
PSPTO_4857	6
PSPTO_4858	20
PSPTO_4859	10
PSPTO_4860	26
PSPTO_4861	55
PSPTO_4862	19
PSPTO_4863	25
PSPTO_4864	25
PSPTO_4865	15
PSPTO_4866	37
PSPTO_4867	22
PSPTO_4868	43
PSPTO_4869	8
PSPTO_4870	9
PSPTO_4871	8
PSPTO_4872	11
PSPTO_4873	15
PSPTO_4874	37
PSPTO_4875	17
PSPTO_4876	15
PSPTO_4877	35
PSPTO_4878	31
PSPTO_4879	15
PSPTO_4880	8
PSPTO_4881	8
PSPTO_4882	11
PSPTO_4883	22
PSPTO_4884	23
PSPTO_4885	12
PSPTO_4886	24
PSPTO_4887	17
PSPTO_4888	7
PSPTO_4889	4
PSPTO_4890	11
PSPTO_4891	5
PSPTO_4892	5
PSPTO_4893	13
PSPTO_4894	12
PSPTO_4895	37
PSPTO_4896	21
PSPTO_4897	22
PSPTO_4898	17
PSPTO_4899	16
PSPTO_4900	6
PSPTO_4901	6
PSPTO_4902	8
PSPTO_4903	19
PSPTO_4905	7
PSPTO_4906	22
PSPTO_4907	16
PSPTO_4908	18
PSPTO_4909	3
PSPTO_4910	15
PSPTO_4911	8
PSPTO_4912	15
PSPTO_4913	27
PSPTO_4914	16
PSPTO_4915	11
PSPTO_4916	7
PSPTO_4917	24
PSPTO_4918	17
PSPTO_4919	41
PSPTO_4920	15
PSPTO_4921	23
PSPTO_4922	23
PSPTO_4923	15
PSPTO_4924	22
PSPTO_4925	41
PSPTO_4926	56
PSPTO_4927	33
PSPTO_4928	58
PSPTO_4929	15
PSPTO_4930	135
PSPTO_4931	93
PSPTO_4932	155
PSPTO_4933	203
PSPTO_4934	26
PSPTO_4935	78
PSPTO_4936	36
PSPTO_4937	33
PSPTO_4938	26
PSPTO_4939	34
PSPTO_4940	43
PSPTO_4941	56
PSPTO_4942	60
PSPTO_4943	15
PSPTO_4944	48
PSPTO_4945	23
PSPTO_4946	9
PSPTO_4947	35
PSPTO_4948	20
PSPTO_4949	11
PSPTO_4950	17
PSPTO_4951	21
PSPTO_4952	13
PSPTO_4953	15
PSPTO_4954	29
PSPTO_4955	27
PSPTO_4956	16
PSPTO_4957	34
PSPTO_4958	28
PSPTO_4959	35
PSPTO_4960	34
PSPTO_4961	10
PSPTO_4962	6
PSPTO_4963	25
PSPTO_4964	13
PSPTO_4965	26
PSPTO_4966	12
PSPTO_4967	18
PSPTO_4968	11
PSPTO_4969	49
PSPTO_4970	67
PSPTO_4971	31
PSPTO_4972	9
PSPTO_4973	18
PSPTO_4974	20
PSPTO_4975	16
PSPTO_4976	56
PSPTO_4977	30
PSPTO_4978	43
PSPTO_4979	4
PSPTO_4980	27
PSPTO_4981	24
PSPTO_4982	6
PSPTO_4983	24
PSPTO_4984	38
PSPTO_4985	19
PSPTO_4986	18
PSPTO_4987	11
PSPTO_4988	21
PSPTO_4989	34
PSPTO_4990	19
PSPTO_4991	19
PSPTO_4992	36
PSPTO_4993	23
PSPTO_4994	41
PSPTO_4995	2
PSPTO_4996	42
PSPTO_4997	24
PSPTO_4998	9
PSPTO_4999	10
PSPTO_5000	15
PSPTO_5001	22
PSPTO_5002	27
PSPTO_5003	32
PSPTO_5004	51
PSPTO_5005	255
PSPTO_5006	99
PSPTO_5007	12
PSPTO_5008	14
PSPTO_5009	39
PSPTO_5010	14
PSPTO_5011	13
PSPTO_5012	7
PSPTO_5013	4
PSPTO_5014	31
PSPTO_5015	42
PSPTO_5016	29
PSPTO_5017	179
PSPTO_5018	26
PSPTO_5019	7
PSPTO_5020	23
PSPTO_5021	35
PSPTO_5022	48
PSPTO_5023	40
PSPTO_5024	53
PSPTO_5025	6
PSPTO_5026	4
PSPTO_5027	11
PSPTO_5028	20
PSPTO_5029	14
PSPTO_5030	115
PSPTO_5031	31
PSPTO_5032	10
PSPTO_5033	10
PSPTO_5034	6
PSPTO_5035	24
PSPTO_5036	18
PSPTO_5037	13
PSPTO_5038	7
PSPTO_5039	16
PSPTO_5040	26
PSPTO_5041	34
PSPTO_5043	16
PSPTO_5044	13
PSPTO_5045	25
PSPTO_5046	10
PSPTO_5047	17
PSPTO_5048	16
PSPTO_5049	23
PSPTO_5050	8
PSPTO_5051	11
PSPTO_5052	20
PSPTO_5053	6
PSPTO_5054	27
PSPTO_5055	37
PSPTO_5056	34
PSPTO_5057	57
PSPTO_5058	16
PSPTO_5059	5
PSPTO_5060	17
PSPTO_5061	20
PSPTO_5062	13
PSPTO_5063	30
PSPTO_5064	11
PSPTO_5065	8
PSPTO_5066	9
PSPTO_5067	8
PSPTO_5068	113
PSPTO_5069	25
PSPTO_5070	43
PSPTO_5071	24
PSPTO_5072	16
PSPTO_5073	3
PSPTO_5074	26
PSPTO_5075	28
PSPTO_5076	25
PSPTO_5077	11
PSPTO_5078	8
PSPTO_5079	11
PSPTO_5080	4
PSPTO_5081	22
PSPTO_5082	11
PSPTO_5083	21
PSPTO_5084	13
PSPTO_5085	6
PSPTO_5086	18
PSPTO_5087	24
PSPTO_5088	2
PSPTO_5089	9
PSPTO_5090	9
PSPTO_5091	11
PSPTO_5092	16
PSPTO_5093	0
PSPTO_5094	1
PSPTO_5095	9
PSPTO_5096	30
PSPTO_5097	14
PSPTO_5098	13
PSPTO_5099	32
PSPTO_5100	5
PSPTO_5101	4
PSPTO_5102	44
PSPTO_5103	17
PSPTO_5104	13
PSPTO_5105	6
PSPTO_5106	3
PSPTO_5107	26
PSPTO_5108	6
PSPTO_5109	16
PSPTO_5110	15
PSPTO_5111	20
PSPTO_5112	21
PSPTO_5113	28
PSPTO_5114	10
PSPTO_5115	21
PSPTO_5116	17
PSPTO_5117	19
PSPTO_5118	11
PSPTO_5119	52
PSPTO_5120	20
PSPTO_5121	33
PSPTO_5122	1
PSPTO_5123	62
PSPTO_5124	5
PSPTO_5125	58
PSPTO_5126	18
PSPTO_5127	5
PSPTO_5128	33
PSPTO_5129	6
PSPTO_5130	13
PSPTO_5131	8
PSPTO_5132	23
PSPTO_5133	30
PSPTO_5134	35
PSPTO_5135	19
PSPTO_5136	52
PSPTO_5137	57
PSPTO_5138	49
PSPTO_5139	15
PSPTO_5140	20
PSPTO_5141	81
PSPTO_5142	9
PSPTO_5143	21
PSPTO_5144	8
PSPTO_5145	25
PSPTO_5146	4
PSPTO_5147	29
PSPTO_5148	16
PSPTO_5149	9
PSPTO_5150	20
PSPTO_5151	10
PSPTO_5152	30
PSPTO_5153	18
PSPTO_5154	14
PSPTO_5155	4
PSPTO_5156	8
PSPTO_5157	8
PSPTO_5158	11
PSPTO_5159	27
PSPTO_5160	21
PSPTO_5161	52
PSPTO_5162	79
PSPTO_5163	10
PSPTO_5164	17
PSPTO_5165	46
PSPTO_5166	48
PSPTO_5167	39
PSPTO_5168	26
PSPTO_5169	3
PSPTO_5170	15
PSPTO_5171	30
PSPTO_5172	11
PSPTO_5173	7
PSPTO_5174	22
PSPTO_5175	17
PSPTO_5176	7
PSPTO_5177	9
PSPTO_5178	26
PSPTO_5179	22
PSPTO_5180	22
PSPTO_5181	5
PSPTO_5182	7
PSPTO_5183	10
PSPTO_5184	20
PSPTO_5185	22
PSPTO_5186	25
PSPTO_5187	7
PSPTO_5188	13
PSPTO_5189	16
PSPTO_5190	13
PSPTO_5191	49
PSPTO_5192	11
PSPTO_5193	21
PSPTO_5194	9
PSPTO_5195	5
PSPTO_5196	3
PSPTO_5197	8
PSPTO_5198	11
PSPTO_5199	4
PSPTO_5200	62
PSPTO_5201	5
PSPTO_5202	23
PSPTO_5203	27
PSPTO_5204	44
PSPTO_5205	9
PSPTO_5206	21
PSPTO_5207	15
PSPTO_5208	10
PSPTO_5209	29
PSPTO_5210	37
PSPTO_5211	12
PSPTO_5212	30
PSPTO_5213	9
PSPTO_5214	5
PSPTO_5215	30
PSPTO_5216	13
PSPTO_5217	23
PSPTO_5218	15
PSPTO_5219	17
PSPTO_5220	16
PSPTO_5221	44
PSPTO_5222	30
PSPTO_5223	25
PSPTO_5224	14
PSPTO_5225	9
PSPTO_5226	12
PSPTO_5227	16
PSPTO_5228	7
PSPTO_5229	9
PSPTO_5230	16
PSPTO_5231	15
PSPTO_5232	31
PSPTO_5233	5
PSPTO_5234	18
PSPTO_5235	8
PSPTO_5236	1
PSPTO_5237	7
PSPTO_5238	17
PSPTO_5239	10
PSPTO_5240	13
PSPTO_5241	28
PSPTO_5242	48
PSPTO_5243	20
PSPTO_5244	10
PSPTO_5245	9
PSPTO_5246	6
PSPTO_5247	3
PSPTO_5248	7
PSPTO_5249	18
PSPTO_5250	55
PSPTO_5251	15
PSPTO_5252	15
PSPTO_5253	13
PSPTO_5254	11
PSPTO_5255	17
PSPTO_5256	22
PSPTO_5257	10
PSPTO_5258	8
PSPTO_5259	7
PSPTO_5260	16
PSPTO_5261	13
PSPTO_5262	17
PSPTO_5263	34
PSPTO_5264	12
PSPTO_5265	15
PSPTO_5266	8
PSPTO_5267	6
PSPTO_5268	22
PSPTO_5269	36
PSPTO_5270	38
PSPTO_5271	26
PSPTO_5272	25
PSPTO_5273	8
PSPTO_5274	35
PSPTO_5275	42
PSPTO_5276	24
PSPTO_5277	20
PSPTO_5278	16
PSPTO_5279	47
PSPTO_5280	9
PSPTO_5281	5
PSPTO_5282	23
PSPTO_5283	12
PSPTO_5284	70
PSPTO_5285	14
PSPTO_5286	8
PSPTO_5287	13
PSPTO_5288	26
PSPTO_5289	14
PSPTO_5290	6
PSPTO_5291	25
PSPTO_5292	26
PSPTO_5293	36
PSPTO_5294	30
PSPTO_5295	14
PSPTO_5296	18
PSPTO_5297	13
PSPTO_5298	2
PSPTO_5299	19
PSPTO_5300	30
PSPTO_5301	16
PSPTO_5302	10
PSPTO_5303	19
PSPTO_5304	34
PSPTO_5305	6
PSPTO_5306	23
PSPTO_5307	32
PSPTO_5308	19
PSPTO_5309	21
PSPTO_5310	37
PSPTO_5311	17
PSPTO_5312	14
PSPTO_5313	2
PSPTO_5314	14
PSPTO_5315	7
PSPTO_5316	12
PSPTO_5317	11
PSPTO_5318	43
PSPTO_5319	5
PSPTO_5320	20
PSPTO_5321	11
PSPTO_5322	9
PSPTO_5323	9
PSPTO_5324	13
PSPTO_5325	0
PSPTO_5326	6
PSPTO_5327	25
PSPTO_5328	28
PSPTO_5329	27
PSPTO_5330	19
PSPTO_5331	28
PSPTO_5332	16
PSPTO_5333	13
PSPTO_5334	12
PSPTO_5335	9
PSPTO_5336	5
PSPTO_5337	11
PSPTO_5338	16
PSPTO_5339	18
PSPTO_5340	32
PSPTO_5341	59
PSPTO_5342	32
PSPTO_5343	12
PSPTO_5344	9
PSPTO_5345	12
PSPTO_5346	18
PSPTO_5347	5
PSPTO_5348	29
PSPTO_5349	2
PSPTO_5350	6
PSPTO_5351	7
PSPTO_5352	25
PSPTO_5353	4
PSPTO_5354	28
PSPTO_5355	11
PSPTO_5356	25
PSPTO_5357	11
PSPTO_5358	25
PSPTO_5359	12
PSPTO_5360	12
PSPTO_5361	20
PSPTO_5362	5
PSPTO_5363	29
PSPTO_5364	0
PSPTO_5365	61
PSPTO_5367	4
PSPTO_5368	35
PSPTO_5370	14
PSPTO_5371	6
PSPTO_5373	18
PSPTO_5374	9
PSPTO_5375	8
PSPTO_5376	9
PSPTO_5377	27
PSPTO_5378	18
PSPTO_5379	15
PSPTO_5380	29
PSPTO_5381	35
PSPTO_5382	11
PSPTO_5383	9
PSPTO_5384	22
PSPTO_5385	12
PSPTO_5386	2
PSPTO_5387	9
PSPTO_5388	1
PSPTO_5389	8
PSPTO_5390	17
PSPTO_5391	15
PSPTO_5392	11
PSPTO_5393	13
PSPTO_5394	11
PSPTO_5395	59
PSPTO_5396	11
PSPTO_5397	15
PSPTO_5398	24
PSPTO_5399	24
PSPTO_5400	5
PSPTO_5401	19
PSPTO_5402	10
PSPTO_5403	5
PSPTO_5404	20
PSPTO_5405	13
PSPTO_5406	14
PSPTO_5407	24
PSPTO_5408	7
PSPTO_5409	26
PSPTO_5410	15
PSPTO_5411	30
PSPTO_5412	3
PSPTO_5413	83
PSPTO_5414	28
PSPTO_5415	22
PSPTO_5416	14
PSPTO_5417	15
PSPTO_5418	54
PSPTO_5419	18
PSPTO_5420	14
PSPTO_5421	10
PSPTO_5422	20
PSPTO_5423	1
PSPTO_5424	16
PSPTO_5425	64
PSPTO_5426	15
PSPTO_5427	26
PSPTO_5428	20
PSPTO_5430	20
PSPTO_5431	8
PSPTO_5432	275
PSPTO_5433	48
PSPTO_5434	47
PSPTO_5435	148
PSPTO_5436	44
PSPTO_5437	10
PSPTO_5438	83
PSPTO_5439	10
PSPTO_5440	8
PSPTO_5441	20
PSPTO_5442	9
PSPTO_5443	39
PSPTO_5444	4
PSPTO_5445	32
PSPTO_5446	1
PSPTO_5447	8
PSPTO_5448	44
PSPTO_5449	12
PSPTO_5450	3
PSPTO_5451	31
PSPTO_5452	11
PSPTO_5453	18
PSPTO_5454	20
PSPTO_5455	10
PSPTO_5456	16
PSPTO_5457	41
PSPTO_5458	5
PSPTO_5460	22
PSPTO_5461	45
PSPTO_5462	6
PSPTO_5463	23
PSPTO_5464	10
PSPTO_5465	33
PSPTO_5466	225
PSPTO_5467	14
PSPTO_5468	9
PSPTO_5469	31
PSPTO_5470	6
PSPTO_5471	1
PSPTO_5472	9
PSPTO_5473	23
PSPTO_5474	5
PSPTO_5475	5
PSPTO_5476	9
PSPTO_5477	15
PSPTO_5478	9
PSPTO_5479	12
PSPTO_5480	6
PSPTO_5481	66
PSPTO_5482	32
PSPTO_5483	17
PSPTO_5484	7
PSPTO_5485	31
PSPTO_5486	15
PSPTO_5487	13
PSPTO_5488	25
PSPTO_5489	9
PSPTO_5490	17
PSPTO_5491	7
PSPTO_5492	7
PSPTO_5493	21
PSPTO_5494	3
PSPTO_5495	3
PSPTO_5496	1
PSPTO_5497	4
PSPTO_5498	19
PSPTO_5499	29
PSPTO_5500	31
PSPTO_5501	24
PSPTO_5502	23
PSPTO_5503	34
PSPTO_5504	28
PSPTO_5505	12
PSPTO_5506	7
PSPTO_5507	6
PSPTO_5508	3
PSPTO_5509	26
PSPTO_5510	127
PSPTO_5511	101
PSPTO_5512	12
PSPTO_5513	6
PSPTO_5514	4
PSPTO_5515	18
PSPTO_5516	43
PSPTO_5517	30
PSPTO_5518	13
PSPTO_5519	32
PSPTO_5520	8
PSPTO_5521	16
PSPTO_5522	20
PSPTO_5523	28
PSPTO_5524	7
PSPTO_5525	12
PSPTO_5526	23
PSPTO_5527	6
PSPTO_5528	29
PSPTO_5529	34
PSPTO_5530	9
PSPTO_5531	5
PSPTO_5532	33
PSPTO_5533	31
PSPTO_5534	22
PSPTO_5535	53
PSPTO_5536	12
PSPTO_5537	25
PSPTO_5538	18
PSPTO_5539	5
PSPTO_5540	9
PSPTO_5541	13
PSPTO_5542	35
PSPTO_5543	29
PSPTO_5544	5
PSPTO_5545	19
PSPTO_5546	12
PSPTO_5547	32
PSPTO_5548	6
PSPTO_5549	22
PSPTO_5550	23
PSPTO_5551	29
PSPTO_5552	1
PSPTO_5553	36
PSPTO_5554	24
PSPTO_5555	2
PSPTO_5556	20
PSPTO_5557	14
PSPTO_5558	8
PSPTO_5559	15
PSPTO_5560	25
PSPTO_5561	13
PSPTO_5562	5
PSPTO_5563	14
PSPTO_5564	25
PSPTO_5565	16
PSPTO_5566	50
PSPTO_5567	10
PSPTO_5568	8
PSPTO_5569	23
PSPTO_5570	5
PSPTO_5571	24
PSPTO_5572	32
PSPTO_5573	20
PSPTO_5574	22
PSPTO_5575	10
PSPTO_5576	8
PSPTO_5577	1
PSPTO_5578	14
PSPTO_5579	5
PSPTO_5580	17
PSPTO_5581	11
PSPTO_5582	19
PSPTO_5583	15
PSPTO_5584	22
PSPTO_5585	12
PSPTO_5586	11
PSPTO_5587	6
PSPTO_5588	20
PSPTO_5589	10
PSPTO_5590	7
PSPTO_5591	29
PSPTO_5592	14
PSPTO_5593	8
PSPTO_5594	48
PSPTO_5595	28
PSPTO_5596	11
PSPTO_5597	34
PSPTO_5598	21
PSPTO_5599	228
PSPTO_5600	174
PSPTO_5601	303
PSPTO_5602	121
PSPTO_5603	137
PSPTO_5604	33
PSPTO_5605	29
PSPTO_5606	9
PSPTO_5607	14
PSPTO_5608	19
PSPTO_5609	14
PSPTO_5610	47
PSPTO_5611	18
PSPTO_5612	54
PSPTO_5613	10
PSPTO_5614	16
PSPTO_5615	8
PSPTO_5616	3
PSPTO_5617	2
PSPTO_5618	8
PSPTO_5619	5
PSPTO_5620	9
PSPTO_5621	16
PSPTO_5622	5
PSPTO_5623	1
PSPTO_5624	40
PSPTO_5625	15
PSPTO_5626	3
PSPTO_5627	5
PSPTO_5628	6
PSPTO_5629	14
PSPTO_5630	16
PSPTO_5631	17
PSPTO_5632	59
PSPTO_5633	28
PSPTO_5634	9
PSPTO_5635	18
PSPTO_5636	24
PSPTO_5637	5
PSPTO_5638	3
PSPTO_5639	7
PSPTO_5640	8
PSPTO_5641	13
PSPTO_5642	1
PSPTO_5643	1
PSPTO_5644	10
PSPTO_5645	54
PSPTO_5646	24
PSPTO_5647	1
PSPTO_5648	1
PSPTO_5649	2
PSPTO_5650	3
PSPTO_5651	7
PSPTO_5652	10
PSPTO_5653	5
PSPTO_5654	1
PSPTO_5655	15
PSPTO_5656	10
PSPTO_5657	1
PSPTO_5658	1
PSPTO_5659	1
PSPTO_5660	0
PSPTO_5661	2419
PSPTO_5662	11
PSPTO_5663	5581
PSPTO_5664	1
PSPTO_5665	5
PSPTO_5666	15
PSPTO_5667	5
PSPTO_5668	1025
PSPTO_5669	146
PSPTO_5670	5
PSPTO_5671	4
PSPTO_5672	2
PSPTO_5673	2
PSPTO_5674	1
PSPTO_5675	8
PSPTO_A0072	104
PSPTO_A0073	0
PSPTO_B0001	16
PSPTO_B0002	21
PSPTO_B0003	25
PSPTO_B0004	5
PSPTO_B0005	60
PSPTO_B0006	3
PSPTO_B0007	10
PSPTO_B0008	1
PSPTO_B0009	10
PSPTO_B0010	69
PSPTO_B0011	55
PSPTO_B0012	38
PSPTO_B0013	10
PSPTO_B0014	20
PSPTO_B0015	16
PSPTO_B0016	13
PSPTO_B0017	3
PSPTO_B0018	15
PSPTO_B0019	17
PSPTO_B0020	54
PSPTO_B0021	48
PSPTO_B0022	5
PSPTO_B0023	21
PSPTO_B0024	12
PSPTO_B0025	10
PSPTO_B0026	30
PSPTO_B0027	19
PSPTO_B0028	14
PSPTO_B0029	7
PSPTO_B0030	16
PSPTO_B0031	6
PSPTO_B0032	12
PSPTO_B0033	5
PSPTO_B0034	20
PSPTO_B0035	5
PSPTO_B0036	61
PSPTO_B0037	8
PSPTO_B0038	14
PSPTO_B0039	11
PSPTO_B0040	17
PSPTO_B0041	15
PSPTO_B0042	44
PSPTO_B0043	63
PSPTO_B0044	13
PSPTO_B0045	26
PSPTO_B0046	13
PSPTO_B0047	10
PSPTO_B0048	6
PSPTO_B0049	11
PSPTO_B0050	7
PSPTO_B0051	24
PSPTO_B0052	22
PSPTO_B0053	21
PSPTO_B0054	14
PSPTO_B0055	16
PSPTO_B0056	7
PSPTO_B0057	144
PSPTO_B0058	8
PSPTO_B0059	21
PSPTO_B0060	22
PSPTO_B0061	36
PSPTO_B0062	13
PSPTO_B0063	11
PSPTO_B0064	9
PSPTO_B0065	3
PSPTO_B0066	48
PSPTO_B0067	24
PSPTO_B0068	14
PSPTO_B0069	74
PSPTO_B0070	19
PSPTO_B0071	56
PSPTO_B0072	39
PSPTO_B0073	6
PSPTO_B0074	12
PSPTO_B0075	32
PSPTO_B0076	62
PSPTO_B0077	18
PSPTO_r01	5985
PSPTO_r02	40234
PSPTO_r03	8
PSPTO_r04	6146
PSPTO_r05	40303
PSPTO_r06	2
PSPTO_r07	6080
PSPTO_r08	40211
PSPTO_r09	5
PSPTO_r10	9
PSPTO_r11	42323
PSPTO_r12	6920
PSPTO_r13	8
PSPTO_r14	45339
PSPTO_r15	6849
PSPTO_t01	7
PSPTO_t02	0
PSPTO_t03	8
PSPTO_t04	6
PSPTO_t05	6
PSPTO_t06	0
PSPTO_t07	1
PSPTO_t08	4
PSPTO_t09	15
PSPTO_t10	7
PSPTO_t11	2
PSPTO_t12	3
PSPTO_t13	1
PSPTO_t14	7
PSPTO_t15	15
PSPTO_t16	6
PSPTO_t17	2
PSPTO_t18	16
PSPTO_t19	1
PSPTO_t20	1
PSPTO_t21	0
PSPTO_t22	0
PSPTO_t23	0
PSPTO_t24	3
PSPTO_t25	12
PSPTO_t26	3
PSPTO_t27	4
PSPTO_t28	3
PSPTO_t29	2
PSPTO_t30	5
PSPTO_t31	1
PSPTO_t32	1
PSPTO_t33	4
PSPTO_t34	2
PSPTO_t35	0
PSPTO_t36	2
PSPTO_t37	1
PSPTO_t38	1
PSPTO_t39	2
PSPTO_t40	2
PSPTO_t41	3
PSPTO_t42	13
PSPTO_t43	4
PSPTO_t44	4
PSPTO_t45	5
PSPTO_t46	5
PSPTO_t47	3
PSPTO_t48	3
PSPTO_t49	1
PSPTO_t50	0
PSPTO_t51	2
PSPTO_t52	3
PSPTO_t53	4
PSPTO_t54	1
PSPTO_t55	5
PSPTO_t56	2
PSPTO_t57	4
PSPTO_t58	1
PSPTO_t59	1
PSPTO_t60	2
PSPTO_t61	1
PSPTO_t62	8
PSPTO_t63	15
__no_feature	876069
__ambiguous	4890
__too_low_aQual	0
__not_aligned	8650440
__alignment_not_unique	0
