PSPTOA0001	297
PSPTOA0002	131
PSPTOA0003	75
PSPTOA0004	293
PSPTOA0005	157
PSPTOA0006	276
PSPTOA0007	1025
PSPTOA0008	394
PSPTOA0009	362
PSPTOA0010	881
PSPTOA0011	447
PSPTOA0012	594
PSPTOA0013	93
PSPTOA0014	357
PSPTOA0015	97
PSPTOA0016	66
PSPTOA0017	117
PSPTOA0018	268
PSPTOA0019	545
PSPTOA0020	63
PSPTOA0021	152
PSPTOA0022	156
PSPTOA0023	140
PSPTOA0024	238
PSPTOA0025	500
PSPTOA0026	243
PSPTOA0027	145
PSPTOA0028	82
PSPTOA0029	639
PSPTOA0030	344
PSPTOA0031	1402
PSPTOA0032	2039
PSPTOA0033	131
PSPTOA0034	525
PSPTOA0035	770
PSPTOA0036	561
PSPTOA0037	642
PSPTOA0038	137
PSPTOA0039	405
PSPTOA0040	232
PSPTOA0041	26
PSPTOA0042	83
PSPTOA0043	81
PSPTOA0044	155
PSPTOA0045	191
PSPTOA0046	39
PSPTOA0047	120
PSPTOA0048	308
PSPTOA0049	1240
PSPTOA0050	39
PSPTOA0051	107
PSPTOA0052	179
PSPTOA0053	248
PSPTOA0054	91
PSPTOA0055	89
PSPTOA0056	76
PSPTOA0057	309
PSPTOA0058	99
PSPTOA0059	178
PSPTOA0060	437
PSPTOA0061	48
PSPTOA0062	358
PSPTOA0063	110
PSPTOA0064	853
PSPTOA0065	1297
PSPTOA0066	330
PSPTOA0067	206
PSPTOA0068	464
PSPTOA0069	53
PSPTOA0070	83
PSPTOA0071	42
PSPTO_0001	445
PSPTO_0002	399
PSPTO_0003	205
PSPTO_0004	958
PSPTO_0005	298
PSPTO_0006	187
PSPTO_0007	75
PSPTO_0008	340
PSPTO_0009	129
PSPTO_0011	150
PSPTO_0012	92
PSPTO_0013	80
PSPTO_0014	39
PSPTO_0015	94
PSPTO_0016	66
PSPTO_0017	149
PSPTO_0018	63
PSPTO_0019	65
PSPTO_0020	31
PSPTO_0021	223
PSPTO_0022	187
PSPTO_0023	123
PSPTO_0024	15
PSPTO_0025	198
PSPTO_0026	96
PSPTO_0027	48
PSPTO_0028	206
PSPTO_0029	71
PSPTO_0030	129
PSPTO_0031	119
PSPTO_0032	81
PSPTO_0033	50
PSPTO_0034	89
PSPTO_0035	175
PSPTO_0036	23
PSPTO_0037	605
PSPTO_0038	217
PSPTO_0039	171
PSPTO_0040	15
PSPTO_0041	19
PSPTO_0042	61
PSPTO_0043	744
PSPTO_0044	58
PSPTO_0045	167
PSPTO_0046	296
PSPTO_0047	176
PSPTO_0048	73
PSPTO_0049	102
PSPTO_0050	150
PSPTO_0051	49
PSPTO_0052	281
PSPTO_0053	110
PSPTO_0054	54
PSPTO_0055	84
PSPTO_0056	71
PSPTO_0057	123
PSPTO_0058	185
PSPTO_0059	81
PSPTO_0060	19
PSPTO_0061	70
PSPTO_0062	219
PSPTO_0063	79
PSPTO_0064	590
PSPTO_0065	301
PSPTO_0066	184
PSPTO_0067	509
PSPTO_0068	369
PSPTO_0069	864
PSPTO_0070	212
PSPTO_0071	183
PSPTO_0072	167
PSPTO_0073	512
PSPTO_0074	344
PSPTO_0075	119
PSPTO_0076	177
PSPTO_0077	286
PSPTO_0078	197
PSPTO_0079	376
PSPTO_0080	232
PSPTO_0081	157
PSPTO_0082	602
PSPTO_0083	622
PSPTO_0084	82
PSPTO_0085	232
PSPTO_0086	53
PSPTO_0087	276
PSPTO_0088	6
PSPTO_0089	311
PSPTO_0090	285
PSPTO_0091	128
PSPTO_0092	321
PSPTO_0093	29
PSPTO_0094	122
PSPTO_0095	217
PSPTO_0096	277
PSPTO_0097	53
PSPTO_0098	274
PSPTO_0099	95
PSPTO_0100	110
PSPTO_0101	882
PSPTO_0102	265
PSPTO_0103	253
PSPTO_0104	3
PSPTO_0105	104
PSPTO_0106	29
PSPTO_0107	273
PSPTO_0108	157
PSPTO_0109	652
PSPTO_0110	1900
PSPTO_0111	135
PSPTO_0112	68
PSPTO_0113	199
PSPTO_0114	148
PSPTO_0115	229
PSPTO_0116	85
PSPTO_0117	2374
PSPTO_0118	188
PSPTO_0119	194
PSPTO_0120	101
PSPTO_0121	131
PSPTO_0123	33
PSPTO_0124	167
PSPTO_0125	355
PSPTO_0126	335
PSPTO_0127	489
PSPTO_0128	180
PSPTO_0129	215
PSPTO_0130	336
PSPTO_0131	334
PSPTO_0132	43
PSPTO_0133	17
PSPTO_0134	722
PSPTO_0135	176
PSPTO_0136	2940
PSPTO_0137	76
PSPTO_0138	249
PSPTO_0139	70
PSPTO_0140	189
PSPTO_0141	422
PSPTO_0142	22
PSPTO_0143	105
PSPTO_0144	868
PSPTO_0145	86
PSPTO_0146	119
PSPTO_0147	128
PSPTO_0148	232
PSPTO_0149	194
PSPTO_0150	45
PSPTO_0151	66
PSPTO_0152	327
PSPTO_0153	116
PSPTO_0154	358
PSPTO_0155	278
PSPTO_0156	465
PSPTO_0157	107
PSPTO_0158	248
PSPTO_0159	167
PSPTO_0161	158
PSPTO_0162	565
PSPTO_0163	34
PSPTO_0164	115
PSPTO_0165	253
PSPTO_0166	173
PSPTO_0167	468
PSPTO_0168	502
PSPTO_0169	123
PSPTO_0170	153
PSPTO_0171	189
PSPTO_0172	76
PSPTO_0173	213
PSPTO_0174	146
PSPTO_0175	94
PSPTO_0176	224
PSPTO_0177	171
PSPTO_0178	105
PSPTO_0179	139
PSPTO_0180	155
PSPTO_0181	168
PSPTO_0182	166
PSPTO_0183	68
PSPTO_0184	228
PSPTO_0185	504
PSPTO_0186	89
PSPTO_0187	94
PSPTO_0188	106
PSPTO_0189	40
PSPTO_0190	39
PSPTO_0191	16
PSPTO_0192	111
PSPTO_0193	59
PSPTO_0194	79
PSPTO_0196	160
PSPTO_0197	12
PSPTO_0200	157
PSPTO_0201	176
PSPTO_0202	148
PSPTO_0203	112
PSPTO_0205	124
PSPTO_0206	427
PSPTO_0207	25
PSPTO_0208	96
PSPTO_0209	58
PSPTO_0210	64
PSPTO_0211	77
PSPTO_0212	78
PSPTO_0213	50
PSPTO_0214	59
PSPTO_0215	76
PSPTO_0216	40
PSPTO_0217	536
PSPTO_0218	234
PSPTO_0219	738
PSPTO_0220	403
PSPTO_0221	128
PSPTO_0222	97
PSPTO_0223	110
PSPTO_0224	151
PSPTO_0225	281
PSPTO_0226	23
PSPTO_0227	56
PSPTO_0228	34
PSPTO_0229	47
PSPTO_0230	398
PSPTO_0231	831
PSPTO_0232	38
PSPTO_0233	116
PSPTO_0234	213
PSPTO_0235	40
PSPTO_0236	162
PSPTO_0237	54
PSPTO_0238	188
PSPTO_0239	479
PSPTO_0240	174
PSPTO_0241	69
PSPTO_0242	26
PSPTO_0243	59
PSPTO_0244	69
PSPTO_0245	75
PSPTO_0246	18
PSPTO_0247	67
PSPTO_0248	154
PSPTO_0249	199
PSPTO_0250	85
PSPTO_0251	85
PSPTO_0252	186
PSPTO_0253	19
PSPTO_0254	162
PSPTO_0255	139
PSPTO_0256	131
PSPTO_0257	157
PSPTO_0258	116
PSPTO_0259	98
PSPTO_0260	77
PSPTO_0261	68
PSPTO_0262	27
PSPTO_0263	152
PSPTO_0264	104
PSPTO_0265	74
PSPTO_0266	54
PSPTO_0267	111
PSPTO_0268	144
PSPTO_0269	17
PSPTO_0270	37
PSPTO_0271	46
PSPTO_0272	515
PSPTO_0273	35
PSPTO_0274	12
PSPTO_0275	223
PSPTO_0276	70
PSPTO_0277	56
PSPTO_0278	153
PSPTO_0279	109
PSPTO_0280	133
PSPTO_0281	115
PSPTO_0282	48
PSPTO_0283	14
PSPTO_0284	31
PSPTO_0285	113
PSPTO_0286	373
PSPTO_0287	180
PSPTO_0288	3
PSPTO_0289	14
PSPTO_0290	35
PSPTO_0291	64
PSPTO_0292	60
PSPTO_0293	41
PSPTO_0294	28
PSPTO_0295	30
PSPTO_0296	13
PSPTO_0297	98
PSPTO_0298	126
PSPTO_0299	173
PSPTO_0300	2014
PSPTO_0301	1638
PSPTO_0302	11
PSPTO_0303	302
PSPTO_0304	131
PSPTO_0305	225
PSPTO_0306	178
PSPTO_0307	62
PSPTO_0308	217
PSPTO_0309	92
PSPTO_0310	92
PSPTO_0311	111
PSPTO_0312	184
PSPTO_0313	83
PSPTO_0314	178
PSPTO_0315	146
PSPTO_0316	197
PSPTO_0317	256
PSPTO_0318	860
PSPTO_0319	167
PSPTO_0320	28
PSPTO_0321	107
PSPTO_0322	256
PSPTO_0323	402
PSPTO_0324	263
PSPTO_0325	443
PSPTO_0326	41
PSPTO_0327	280
PSPTO_0328	307
PSPTO_0329	168
PSPTO_0330	268
PSPTO_0331	4
PSPTO_0332	183
PSPTO_0333	126
PSPTO_0334	401
PSPTO_0335	295
PSPTO_0336	72
PSPTO_0337	89
PSPTO_0338	58
PSPTO_0339	262
PSPTO_0340	224
PSPTO_0341	408
PSPTO_0342	12
PSPTO_0343	139
PSPTO_0344	333
PSPTO_0345	82
PSPTO_0346	199
PSPTO_0347	76
PSPTO_0348	141
PSPTO_0349	116
PSPTO_0350	86
PSPTO_0351	333
PSPTO_0352	337
PSPTO_0353	146
PSPTO_0354	5
PSPTO_0355	55
PSPTO_0356	57
PSPTO_0357	67
PSPTO_0358	129
PSPTO_0359	1406
PSPTO_0360	321
PSPTO_0361	1122
PSPTO_0362	109
PSPTO_0363	68
PSPTO_0364	76
PSPTO_0365	158
PSPTO_0366	94
PSPTO_0367	106
PSPTO_0368	37
PSPTO_0369	83
PSPTO_0370	145
PSPTO_0371	42
PSPTO_0372	246
PSPTO_0373	326
PSPTO_0374	293
PSPTO_0375	207
PSPTO_0376	66
PSPTO_0377	96
PSPTO_0378	178
PSPTO_0379	180
PSPTO_0380	198
PSPTO_0381	39
PSPTO_0382	110
PSPTO_0383	1511
PSPTO_0384	229
PSPTO_0385	1297
PSPTO_0386	92
PSPTO_0387	306
PSPTO_0388	68
PSPTO_0389	117
PSPTO_0390	543
PSPTO_0391	98
PSPTO_0393	111
PSPTO_0394	49
PSPTO_0395	36
PSPTO_0396	150
PSPTO_0397	179
PSPTO_0398	89
PSPTO_0399	67
PSPTO_0400	127
PSPTO_0401	79
PSPTO_0402	110
PSPTO_0403	41
PSPTO_0404	175
PSPTO_0405	268
PSPTO_0406	1817
PSPTO_0407	127
PSPTO_0408	221
PSPTO_0409	182
PSPTO_0410	133
PSPTO_0411	81
PSPTO_0412	176
PSPTO_0413	158
PSPTO_0414	116
PSPTO_0415	119
PSPTO_0416	56
PSPTO_0417	145
PSPTO_0418	83
PSPTO_0419	153
PSPTO_0420	410
PSPTO_0421	177
PSPTO_0422	38
PSPTO_0423	22
PSPTO_0424	57
PSPTO_0425	184
PSPTO_0426	123
PSPTO_0427	322
PSPTO_0428	240
PSPTO_0429	283
PSPTO_0430	2665
PSPTO_0431	82
PSPTO_0432	72
PSPTO_0433	47
PSPTO_0434	118
PSPTO_0435	108
PSPTO_0436	81
PSPTO_0437	64
PSPTO_0438	135
PSPTO_0439	143
PSPTO_0440	35
PSPTO_0441	214
PSPTO_0442	7
PSPTO_0443	197
PSPTO_0444	39
PSPTO_0445	99
PSPTO_0446	91
PSPTO_0447	13
PSPTO_0448	134
PSPTO_0449	43
PSPTO_0450	146
PSPTO_0451	105
PSPTO_0452	76
PSPTO_0453	509
PSPTO_0454	78
PSPTO_0455	475
PSPTO_0456	123
PSPTO_0457	58
PSPTO_0458	263
PSPTO_0459	17
PSPTO_0460	78
PSPTO_0461	81
PSPTO_0462	116
PSPTO_0463	56
PSPTO_0464	82
PSPTO_0465	1093
PSPTO_0466	93
PSPTO_0467	3
PSPTO_0468	36
PSPTO_0469	39
PSPTO_0470	151
PSPTO_0471	523
PSPTO_0472	231
PSPTO_0473	197
PSPTO_0474	40
PSPTO_0475	47
PSPTO_0476	45
PSPTO_0477	43
PSPTO_0478	60
PSPTO_0479	22
PSPTO_0480	736
PSPTO_0481	125
PSPTO_0482	38
PSPTO_0483	70
PSPTO_0484	121
PSPTO_0485	77
PSPTO_0486	64
PSPTO_0487	74
PSPTO_0488	57
PSPTO_0489	94
PSPTO_0490	73
PSPTO_0491	115
PSPTO_0492	92
PSPTO_0493	58
PSPTO_0494	411
PSPTO_0495	179
PSPTO_0496	119
PSPTO_0497	121
PSPTO_0498	107
PSPTO_0499	824
PSPTO_0500	448
PSPTO_0501	145
PSPTO_0502	59
PSPTO_0503	16
PSPTO_0505	271
PSPTO_0506	316
PSPTO_0507	235
PSPTO_0508	192
PSPTO_0509	130
PSPTO_0510	60
PSPTO_0511	88
PSPTO_0512	135
PSPTO_0513	139
PSPTO_0514	220
PSPTO_0515	44
PSPTO_0516	124
PSPTO_0517	174
PSPTO_0518	589
PSPTO_0519	42
PSPTO_0520	146
PSPTO_0521	51
PSPTO_0522	131
PSPTO_0523	76
PSPTO_0524	112
PSPTO_0525	44
PSPTO_0526	9
PSPTO_0527	141
PSPTO_0528	163
PSPTO_0529	99
PSPTO_0530	62
PSPTO_0531	47
PSPTO_0532	9
PSPTO_0533	98
PSPTO_0534	193
PSPTO_0535	53
PSPTO_0536	388
PSPTO_0537	2206
PSPTO_0538	444
PSPTO_0539	250
PSPTO_0540	93
PSPTO_0541	71
PSPTO_0542	38
PSPTO_0543	49
PSPTO_0544	129
PSPTO_0545	1048
PSPTO_0546	1003
PSPTO_0547	3884
PSPTO_0548	76
PSPTO_0549	66
PSPTO_0550	59
PSPTO_0551	98
PSPTO_0552	139
PSPTO_0553	415
PSPTO_0554	1223
PSPTO_0555	461
PSPTO_0556	199
PSPTO_0557	180
PSPTO_0558	532
PSPTO_0559	198
PSPTO_0560	82
PSPTO_0561	7
PSPTO_0562	110
PSPTO_0563	131
PSPTO_0564	109
PSPTO_0565	81
PSPTO_0566	152
PSPTO_0567	107
PSPTO_0568	350
PSPTO_0569	577
PSPTO_0570	56
PSPTO_0571	97
PSPTO_0572	142
PSPTO_0573	64
PSPTO_0574	26
PSPTO_0575	86
PSPTO_0576	23
PSPTO_0577	441
PSPTO_0578	78
PSPTO_0579	76
PSPTO_0580	325
PSPTO_0581	207
PSPTO_0582	117
PSPTO_0583	120
PSPTO_0584	90
PSPTO_0585	58
PSPTO_0586	97
PSPTO_0587	366
PSPTO_0588	33
PSPTO_0589	92
PSPTO_0591	150
PSPTO_0592	167
PSPTO_0593	205
PSPTO_0594	379
PSPTO_0595	145
PSPTO_0596	251
PSPTO_0597	169
PSPTO_0598	166
PSPTO_0599	244
PSPTO_0600	90
PSPTO_0601	101
PSPTO_0602	99
PSPTO_0603	66
PSPTO_0604	466
PSPTO_0605	305
PSPTO_0606	352
PSPTO_0607	262
PSPTO_0608	2
PSPTO_0609	336
PSPTO_0610	86
PSPTO_0611	173
PSPTO_0612	43
PSPTO_0613	287
PSPTO_0614	533
PSPTO_0615	640
PSPTO_0616	1379
PSPTO_0617	1302
PSPTO_0618	966
PSPTO_0619	5283
PSPTO_0620	8196
PSPTO_0621	1038
PSPTO_0622	1577
PSPTO_0623	6093
PSPTO_0624	6902
PSPTO_0625	772
PSPTO_0626	1893
PSPTO_0627	1676
PSPTO_0628	509
PSPTO_0629	1860
PSPTO_0630	709
PSPTO_0631	728
PSPTO_0632	1596
PSPTO_0633	944
PSPTO_0634	110
PSPTO_0635	464
PSPTO_0636	1240
PSPTO_0637	516
PSPTO_0638	1900
PSPTO_0639	1085
PSPTO_0640	1001
PSPTO_0641	1425
PSPTO_0642	574
PSPTO_0643	1162
PSPTO_0644	302
PSPTO_0645	974
PSPTO_0646	2805
PSPTO_0647	351
PSPTO_0648	1232
PSPTO_0649	1251
PSPTO_0650	1879
PSPTO_0651	3794
PSPTO_0652	1246
PSPTO_0653	139
PSPTO_0654	533
PSPTO_0655	350
PSPTO_0656	409
PSPTO_0657	48
PSPTO_0658	233
PSPTO_0659	109
PSPTO_0660	65
PSPTO_0661	62
PSPTO_0662	66
PSPTO_0663	45
PSPTO_0664	109
PSPTO_0665	110
PSPTO_0666	129
PSPTO_0667	93
PSPTO_0668	70
PSPTO_0669	16
PSPTO_0670	203
PSPTO_0671	101
PSPTO_0672	15
PSPTO_0673	53
PSPTO_0674	44
PSPTO_0675	123
PSPTO_0676	301
PSPTO_0677	167
PSPTO_0678	134
PSPTO_0679	65
PSPTO_0680	85
PSPTO_0681	101
PSPTO_0682	65
PSPTO_0683	115
PSPTO_0684	108
PSPTO_0685	46
PSPTO_0686	215
PSPTO_0687	70
PSPTO_0688	56
PSPTO_0689	55
PSPTO_0690	197
PSPTO_0691	126
PSPTO_0692	203
PSPTO_0693	115
PSPTO_0694	148
PSPTO_0695	124
PSPTO_0696	133
PSPTO_0697	80
PSPTO_0698	394
PSPTO_0699	125
PSPTO_0700	47
PSPTO_0701	135
PSPTO_0702	94
PSPTO_0703	148
PSPTO_0704	143
PSPTO_0705	77
PSPTO_0706	118
PSPTO_0707	13
PSPTO_0708	21
PSPTO_0709	27
PSPTO_0710	19
PSPTO_0711	93
PSPTO_0712	26
PSPTO_0713	68
PSPTO_0714	156
PSPTO_0715	59
PSPTO_0716	37
PSPTO_0717	31
PSPTO_0718	8
PSPTO_0719	14
PSPTO_0720	58
PSPTO_0721	30
PSPTO_0722	398
PSPTO_0723	82
PSPTO_0724	38
PSPTO_0725	52
PSPTO_0726	130
PSPTO_0727	232
PSPTO_0728	1200
PSPTO_0729	318
PSPTO_0730	97
PSPTO_0731	31
PSPTO_0732	215
PSPTO_0733	409
PSPTO_0734	76
PSPTO_0735	57
PSPTO_0736	97
PSPTO_0737	195
PSPTO_0738	122
PSPTO_0739	179
PSPTO_0740	129
PSPTO_0741	89
PSPTO_0742	157
PSPTO_0743	308
PSPTO_0744	296
PSPTO_0745	48
PSPTO_0746	171
PSPTO_0747	91
PSPTO_0748	509
PSPTO_0749	94
PSPTO_0750	376
PSPTO_0751	108
PSPTO_0752	47
PSPTO_0753	315
PSPTO_0754	125
PSPTO_0755	111
PSPTO_0756	85
PSPTO_0757	119
PSPTO_0758	95
PSPTO_0759	141
PSPTO_0760	80
PSPTO_0761	64
PSPTO_0762	106
PSPTO_0763	95
PSPTO_0764	106
PSPTO_0765	112
PSPTO_0766	169
PSPTO_0767	87
PSPTO_0768	88
PSPTO_0769	129
PSPTO_0770	48
PSPTO_0771	44
PSPTO_0772	116
PSPTO_0773	60
PSPTO_0774	169
PSPTO_0775	126
PSPTO_0776	298
PSPTO_0777	387
PSPTO_0778	244
PSPTO_0779	54
PSPTO_0780	197
PSPTO_0781	87
PSPTO_0782	121
PSPTO_0783	181
PSPTO_0784	119
PSPTO_0785	126
PSPTO_0786	135
PSPTO_0787	165
PSPTO_0788	72
PSPTO_0789	74
PSPTO_0790	70
PSPTO_0791	107
PSPTO_0792	24
PSPTO_0793	120
PSPTO_0794	92
PSPTO_0795	64
PSPTO_0796	182
PSPTO_0797	713
PSPTO_0798	626
PSPTO_0799	292
PSPTO_0800	351
PSPTO_0801	177
PSPTO_0802	476
PSPTO_0803	16
PSPTO_0804	110
PSPTO_0805	238
PSPTO_0806	868
PSPTO_0807	127
PSPTO_0808	147
PSPTO_0809	198
PSPTO_0810	33
PSPTO_0811	197
PSPTO_0812	200
PSPTO_0813	179
PSPTO_0814	160
PSPTO_0815	955
PSPTO_0816	142
PSPTO_0817	263
PSPTO_0818	25
PSPTO_0819	83
PSPTO_0820	261
PSPTO_0821	67
PSPTO_0822	33
PSPTO_0823	123
PSPTO_0824	122
PSPTO_0825	29
PSPTO_0826	374
PSPTO_0827	179
PSPTO_0828	63
PSPTO_0829	524
PSPTO_0830	131
PSPTO_0831	174
PSPTO_0832	60
PSPTO_0833	64
PSPTO_0834	249
PSPTO_0835	62
PSPTO_0836	127
PSPTO_0837	65
PSPTO_0838	173
PSPTO_0840	168
PSPTO_0841	35
PSPTO_0842	25
PSPTO_0844	205
PSPTO_0846	173
PSPTO_0847	18
PSPTO_0848	85
PSPTO_0849	61
PSPTO_0850	15
PSPTO_0851	93
PSPTO_0852	102
PSPTO_0853	159
PSPTO_0854	74
PSPTO_0855	174
PSPTO_0856	97
PSPTO_0857	70
PSPTO_0858	33
PSPTO_0859	201
PSPTO_0860	21
PSPTO_0861	61
PSPTO_0862	41
PSPTO_0863	44
PSPTO_0864	57
PSPTO_0865	69
PSPTO_0866	16
PSPTO_0867	27
PSPTO_0868	6
PSPTO_0869	27
PSPTO_0871	129
PSPTO_0873	103
PSPTO_0874	117
PSPTO_0875	165
PSPTO_0876	218
PSPTO_0877	163
PSPTO_0878	57
PSPTO_0879	92
PSPTO_0880	56
PSPTO_0881	101
PSPTO_0882	111
PSPTO_0883	503
PSPTO_0884	65
PSPTO_0885	264
PSPTO_0886	162
PSPTO_0887	93
PSPTO_0888	126
PSPTO_0889	257
PSPTO_0890	241
PSPTO_0891	72
PSPTO_0892	520
PSPTO_0893	502
PSPTO_0894	276
PSPTO_0895	143
PSPTO_0896	146
PSPTO_0897	118
PSPTO_0898	336
PSPTO_0899	35
PSPTO_0900	23
PSPTO_0901	30
PSPTO_0902	221
PSPTO_0903	201
PSPTO_0904	162
PSPTO_0905	150
PSPTO_0906	59
PSPTO_0907	79
PSPTO_0908	76
PSPTO_0909	12
PSPTO_0910	53
PSPTO_0911	67
PSPTO_0912	178
PSPTO_0913	189
PSPTO_0914	22
PSPTO_0915	35
PSPTO_0916	144
PSPTO_0917	226
PSPTO_0918	16
PSPTO_0919	66
PSPTO_0920	157
PSPTO_0921	14
PSPTO_0922	27
PSPTO_0923	126
PSPTO_0924	84
PSPTO_0925	282
PSPTO_0926	414
PSPTO_0927	5298
PSPTO_0928	63
PSPTO_0929	325
PSPTO_0930	90
PSPTO_0931	73
PSPTO_0932	82
PSPTO_0933	228
PSPTO_0934	136
PSPTO_0935	80
PSPTO_0936	60
PSPTO_0937	105
PSPTO_0938	127
PSPTO_0939	125
PSPTO_0940	211
PSPTO_0941	306
PSPTO_0942	213
PSPTO_0943	408
PSPTO_0944	501
PSPTO_0945	641
PSPTO_0946	192
PSPTO_0947	139
PSPTO_0948	175
PSPTO_0949	967
PSPTO_0950	81
PSPTO_0951	157
PSPTO_0952	88
PSPTO_0953	196
PSPTO_0954	1345
PSPTO_0955	329
PSPTO_0956	719
PSPTO_0957	200
PSPTO_0958	51
PSPTO_0959	772
PSPTO_0960	127
PSPTO_0961	144
PSPTO_0962	74
PSPTO_0963	228
PSPTO_0964	378
PSPTO_0965	219
PSPTO_0966	13
PSPTO_0967	92
PSPTO_0968	114
PSPTO_0969	225
PSPTO_0970	122
PSPTO_0971	69
PSPTO_0972	38
PSPTO_0973	72
PSPTO_0974	17
PSPTO_0975	784
PSPTO_0976	382
PSPTO_0977	184
PSPTO_0978	161
PSPTO_0979	68
PSPTO_0980	77
PSPTO_0981	629
PSPTO_0982	111
PSPTO_0983	621
PSPTO_0984	133
PSPTO_0985	295
PSPTO_0986	115
PSPTO_0987	27
PSPTO_0988	292
PSPTO_0989	52
PSPTO_0990	118
PSPTO_0991	110
PSPTO_0992	41
PSPTO_0993	65
PSPTO_0994	368
PSPTO_0995	87
PSPTO_0996	109
PSPTO_0997	96
PSPTO_0998	88
PSPTO_0999	135
PSPTO_1000	412
PSPTO_1001	294
PSPTO_1002	658
PSPTO_1003	85
PSPTO_1004	69
PSPTO_1005	392
PSPTO_1006	35
PSPTO_1007	126
PSPTO_1008	1223
PSPTO_1009	59
PSPTO_1010	95
PSPTO_1011	29
PSPTO_1012	26
PSPTO_1013	61
PSPTO_1014	59
PSPTO_1015	178
PSPTO_1016	376
PSPTO_1017	15
PSPTO_1018	12
PSPTO_1019	8
PSPTO_1020	171
PSPTO_1021	13
PSPTO_1022	168
PSPTO_1023	43
PSPTO_1024	82
PSPTO_1025	187
PSPTO_1026	138
PSPTO_1027	149
PSPTO_1028	151
PSPTO_1029	88
PSPTO_1030	312
PSPTO_1031	41
PSPTO_1032	56
PSPTO_1033	83
PSPTO_1034	106
PSPTO_1035	104
PSPTO_1036	41
PSPTO_1037	38
PSPTO_1038	45
PSPTO_1039	924
PSPTO_1040	421
PSPTO_1041	371
PSPTO_1042	69
PSPTO_1043	60
PSPTO_1044	32
PSPTO_1045	45
PSPTO_1046	32
PSPTO_1047	71
PSPTO_1048	66
PSPTO_1049	87
PSPTO_1050	21
PSPTO_1051	68
PSPTO_1052	80
PSPTO_1053	63
PSPTO_1054	105
PSPTO_1055	48
PSPTO_1056	148
PSPTO_1057	78
PSPTO_1058	54
PSPTO_1059	634
PSPTO_1060	10
PSPTO_1061	146
PSPTO_1062	169
PSPTO_1064	169
PSPTO_1065	141
PSPTO_1066	1158
PSPTO_1067	285
PSPTO_1068	212
PSPTO_1069	41
PSPTO_1070	358
PSPTO_1071	214
PSPTO_1072	390
PSPTO_1073	218
PSPTO_1074	1179
PSPTO_1075	144
PSPTO_1076	91
PSPTO_1077	84
PSPTO_1078	104
PSPTO_1079	404
PSPTO_1080	256
PSPTO_1081	406
PSPTO_1082	20
PSPTO_1083	109
PSPTO_1084	122
PSPTO_1085	71
PSPTO_1086	179
PSPTO_1087	305
PSPTO_1088	164
PSPTO_1089	485
PSPTO_1090	119
PSPTO_1091	64
PSPTO_1092	26
PSPTO_1093	341
PSPTO_1094	89
PSPTO_1095	70
PSPTO_1096	60
PSPTO_1097	398
PSPTO_1098	152
PSPTO_1099	16
PSPTO_1100	415
PSPTO_1101	158
PSPTO_1102	86
PSPTO_1103	584
PSPTO_1104	451
PSPTO_1105	195
PSPTO_1106	59
PSPTO_1107	331
PSPTO_1108	233
PSPTO_1109	202
PSPTO_1110	590
PSPTO_1111	224
PSPTO_1112	110
PSPTO_1114	50
PSPTO_1115	61
PSPTO_1116	123
PSPTO_1117	54
PSPTO_1118	132
PSPTO_1119	117
PSPTO_1120	36
PSPTO_1121	169
PSPTO_1122	151
PSPTO_1123	202
PSPTO_1124	33
PSPTO_1125	40
PSPTO_1126	405
PSPTO_1127	205
PSPTO_1128	159
PSPTO_1129	198
PSPTO_1130	168
PSPTO_1131	62
PSPTO_1132	77
PSPTO_1133	75
PSPTO_1134	200
PSPTO_1135	178
PSPTO_1136	694
PSPTO_1137	6
PSPTO_1138	269
PSPTO_1139	23
PSPTO_1140	141
PSPTO_1141	34
PSPTO_1142	29
PSPTO_1143	86
PSPTO_1144	184
PSPTO_1145	59
PSPTO_1146	59
PSPTO_1147	107
PSPTO_1148	391
PSPTO_1149	524
PSPTO_1150	388
PSPTO_1151	405
PSPTO_1152	94
PSPTO_1153	49
PSPTO_1154	79
PSPTO_1155	31
PSPTO_1156	49
PSPTO_1157	62
PSPTO_1158	63
PSPTO_1159	157
PSPTO_1160	145
PSPTO_1161	6
PSPTO_1162	69
PSPTO_1163	90
PSPTO_1164	645
PSPTO_1165	278
PSPTO_1166	217
PSPTO_1167	174
PSPTO_1168	92
PSPTO_1169	307
PSPTO_1170	21
PSPTO_1171	343
PSPTO_1172	186
PSPTO_1173	114
PSPTO_1174	89
PSPTO_1175	101
PSPTO_1176	33
PSPTO_1177	63
PSPTO_1178	372
PSPTO_1179	142
PSPTO_1180	144
PSPTO_1181	176
PSPTO_1182	270
PSPTO_1183	201
PSPTO_1184	226
PSPTO_1185	414
PSPTO_1186	75
PSPTO_1187	133
PSPTO_1188	180
PSPTO_1189	176
PSPTO_1190	16
PSPTO_1191	235
PSPTO_1192	70
PSPTO_1193	151
PSPTO_1194	160
PSPTO_1195	156
PSPTO_1196	101
PSPTO_1197	59
PSPTO_1198	16
PSPTO_1199	9
PSPTO_1200	84
PSPTO_1201	35
PSPTO_1202	379
PSPTO_1203	129
PSPTO_1204	258
PSPTO_1205	715
PSPTO_1206	231
PSPTO_1207	268
PSPTO_1208	220
PSPTO_1209	99
PSPTO_1210	82
PSPTO_1211	241
PSPTO_1212	66
PSPTO_1213	116
PSPTO_1214	65
PSPTO_1215	178
PSPTO_1216	234
PSPTO_1217	120
PSPTO_1218	162
PSPTO_1219	10
PSPTO_1220	61
PSPTO_1221	154
PSPTO_1222	17
PSPTO_1223	108
PSPTO_1224	71
PSPTO_1225	223
PSPTO_1226	5
PSPTO_1227	174
PSPTO_1228	114
PSPTO_1229	186
PSPTO_1230	21
PSPTO_1231	382
PSPTO_1232	217
PSPTO_1233	68
PSPTO_1234	64
PSPTO_1235	75
PSPTO_1236	53
PSPTO_1237	110
PSPTO_1238	71
PSPTO_1239	77
PSPTO_1240	78
PSPTO_1241	55
PSPTO_1242	69
PSPTO_1243	99
PSPTO_1244	93
PSPTO_1245	68
PSPTO_1246	1593
PSPTO_1247	67
PSPTO_1248	32
PSPTO_1249	65
PSPTO_1250	63
PSPTO_1251	32
PSPTO_1252	41
PSPTO_1253	228
PSPTO_1254	174
PSPTO_1255	1256
PSPTO_1256	285
PSPTO_1257	219
PSPTO_1258	290
PSPTO_1259	33
PSPTO_1260	110
PSPTO_1261	79
PSPTO_1262	37
PSPTO_1263	126
PSPTO_1264	26
PSPTO_1265	94
PSPTO_1266	563
PSPTO_1267	87
PSPTO_1268	845
PSPTO_1269	85
PSPTO_1270	81
PSPTO_1271	602
PSPTO_1272	172
PSPTO_1273	241
PSPTO_1274	5033
PSPTO_1275	114
PSPTO_1276	352
PSPTO_1277	25
PSPTO_1278	736
PSPTO_1279	644
PSPTO_1280	186
PSPTO_1281	264
PSPTO_1282	207
PSPTO_1283	535
PSPTO_1284	713
PSPTO_1285	137
PSPTO_1286	128
PSPTO_1287	2132
PSPTO_1288	531
PSPTO_1289	378
PSPTO_1290	222
PSPTO_1291	149
PSPTO_1292	986
PSPTO_1293	171
PSPTO_1294	116
PSPTO_1295	395
PSPTO_1296	2575
PSPTO_1297	11
PSPTO_1298	122
PSPTO_1299	164
PSPTO_1300	747
PSPTO_1301	510
PSPTO_1302	597
PSPTO_1303	52
PSPTO_1304	98
PSPTO_1305	160
PSPTO_1306	127
PSPTO_1307	66
PSPTO_1308	268
PSPTO_1309	165
PSPTO_1310	185
PSPTO_1311	324
PSPTO_1312	74
PSPTO_1313	38
PSPTO_1314	30
PSPTO_1315	207
PSPTO_1316	107
PSPTO_1317	41
PSPTO_1318	40
PSPTO_1319	25
PSPTO_1320	614
PSPTO_1321	12
PSPTO_1322	206
PSPTO_1323	1295
PSPTO_1324	222
PSPTO_1325	589
PSPTO_1326	1504
PSPTO_1327	262
PSPTO_1328	215
PSPTO_1329	467
PSPTO_1330	240
PSPTO_1331	151
PSPTO_1332	477
PSPTO_1333	127
PSPTO_1334	2836
PSPTO_1335	114
PSPTO_1336	43
PSPTO_1337	85
PSPTO_1338	192
PSPTO_1339	96
PSPTO_1340	717
PSPTO_1341	123
PSPTO_1342	134
PSPTO_1343	163
PSPTO_1344	37
PSPTO_1345	191
PSPTO_1346	96
PSPTO_1347	209
PSPTO_1348	306
PSPTO_1349	495
PSPTO_1350	100
PSPTO_1351	18
PSPTO_1352	61
PSPTO_1353	16
PSPTO_1354	52
PSPTO_1355	124
PSPTO_1356	65
PSPTO_1357	98
PSPTO_1358	64
PSPTO_1359	124
PSPTO_1360	99
PSPTO_1361	158
PSPTO_1362	43
PSPTO_1363	113
PSPTO_1364	54
PSPTO_1365	141
PSPTO_1366	14
PSPTO_1367	88
PSPTO_1368	64
PSPTO_1369	42
PSPTO_1370	54
PSPTO_1371	34
PSPTO_1372	101
PSPTO_1373	58
PSPTO_1374	26
PSPTO_1375	121
PSPTO_1376	33
PSPTO_1377	217
PSPTO_1378	124
PSPTO_1379	276
PSPTO_1380	190
PSPTO_1381	34
PSPTO_1382	73
PSPTO_1383	16
PSPTO_1384	70
PSPTO_1385	32
PSPTO_1386	41
PSPTO_1387	16
PSPTO_1388	21
PSPTO_1389	107
PSPTO_1390	20
PSPTO_1391	164
PSPTO_1392	44
PSPTO_1393	36
PSPTO_1394	7
PSPTO_1395	47
PSPTO_1396	20
PSPTO_1397	48
PSPTO_1398	18
PSPTO_1399	16
PSPTO_1400	80
PSPTO_1401	51
PSPTO_1402	91
PSPTO_1403	52
PSPTO_1404	6
PSPTO_1405	125
PSPTO_1406	123
PSPTO_1407	99
PSPTO_1408	36
PSPTO_1409	135
PSPTO_1410	2452
PSPTO_1411	79
PSPTO_1412	153
PSPTO_1413	241
PSPTO_1414	165
PSPTO_1415	314
PSPTO_1416	176
PSPTO_1417	4822
PSPTO_1418	118
PSPTO_1419	228
PSPTO_1420	104
PSPTO_1421	90
PSPTO_1422	220
PSPTO_1423	869
PSPTO_1424	350
PSPTO_1425	272
PSPTO_1426	313
PSPTO_1427	368
PSPTO_1428	118
PSPTO_1429	65
PSPTO_1430	419
PSPTO_1431	375
PSPTO_1432	124
PSPTO_1433	210
PSPTO_1434	351
PSPTO_1435	240
PSPTO_1436	279
PSPTO_1437	556
PSPTO_1438	311
PSPTO_1439	111
PSPTO_1440	223
PSPTO_1441	161
PSPTO_1443	168
PSPTO_1444	1431
PSPTO_1445	70
PSPTO_1446	170
PSPTO_1447	16
PSPTO_1448	52
PSPTO_1449	817
PSPTO_1450	455
PSPTO_1451	417
PSPTO_1452	39
PSPTO_1453	509
PSPTO_1454	118
PSPTO_1455	188
PSPTO_1456	207
PSPTO_1457	59
PSPTO_1458	171
PSPTO_1459	1007
PSPTO_1460	68
PSPTO_1461	109
PSPTO_1462	129
PSPTO_1463	16
PSPTO_1464	184
PSPTO_1465	112
PSPTO_1466	60
PSPTO_1467	60
PSPTO_1468	263
PSPTO_1469	123
PSPTO_1470	99
PSPTO_1471	89
PSPTO_1472	330
PSPTO_1473	448
PSPTO_1474	719
PSPTO_1475	1039
PSPTO_1476	810
PSPTO_1477	122
PSPTO_1478	51
PSPTO_1479	122
PSPTO_1480	292
PSPTO_1481	324
PSPTO_1482	233
PSPTO_1483	156
PSPTO_1484	54
PSPTO_1485	297
PSPTO_1486	81
PSPTO_1487	97
PSPTO_1488	218
PSPTO_1489	286
PSPTO_1490	248
PSPTO_1491	122
PSPTO_1492	268
PSPTO_1493	2128
PSPTO_1494	503
PSPTO_1495	896
PSPTO_1496	355
PSPTO_1497	1269
PSPTO_1498	435
PSPTO_1499	588
PSPTO_1500	291
PSPTO_1501	456
PSPTO_1502	95
PSPTO_1503	356
PSPTO_1504	97
PSPTO_1505	20
PSPTO_1506	1500
PSPTO_1507	737
PSPTO_1508	758
PSPTO_1509	292
PSPTO_1510	100
PSPTO_1511	298
PSPTO_1512	77
PSPTO_1513	74
PSPTO_1514	1861
PSPTO_1515	106
PSPTO_1516	13
PSPTO_1517	22
PSPTO_1518	130
PSPTO_1519	49
PSPTO_1520	224
PSPTO_1521	61
PSPTO_1522	86
PSPTO_1523	178
PSPTO_1524	219
PSPTO_1525	95
PSPTO_1526	31
PSPTO_1527	117
PSPTO_1528	302
PSPTO_1529	68
PSPTO_1530	32
PSPTO_1531	208
PSPTO_1532	321
PSPTO_1533	115
PSPTO_1534	1758
PSPTO_1535	842
PSPTO_1536	295
PSPTO_1537	249
PSPTO_1538	226
PSPTO_1539	107
PSPTO_1540	207
PSPTO_1541	636
PSPTO_1542	1015
PSPTO_1543	205
PSPTO_1544	200
PSPTO_1545	121
PSPTO_1546	130
PSPTO_1547	164
PSPTO_1548	51
PSPTO_1549	625
PSPTO_1550	499
PSPTO_1551	203
PSPTO_1552	576
PSPTO_1553	208
PSPTO_1554	928
PSPTO_1555	89
PSPTO_1556	69
PSPTO_1557	86
PSPTO_1558	308
PSPTO_1559	168
PSPTO_1560	32
PSPTO_1561	115
PSPTO_1562	122
PSPTO_1563	149
PSPTO_1564	907
PSPTO_1565	1518
PSPTO_1566	0
PSPTO_1567	137
PSPTO_1568	111
PSPTO_1570	16
PSPTO_1571	242
PSPTO_1572	49
PSPTO_1573	34
PSPTO_1574	91
PSPTO_1575	55
PSPTO_1576	19
PSPTO_1577	147
PSPTO_1578	63
PSPTO_1579	73
PSPTO_1580	113
PSPTO_1581	47
PSPTO_1582	74
PSPTO_1583	87
PSPTO_1584	93
PSPTO_1585	91
PSPTO_1586	37
PSPTO_1587	307
PSPTO_1588	75
PSPTO_1589	65
PSPTO_1590	79
PSPTO_1591	12
PSPTO_1592	167
PSPTO_1593	178
PSPTO_1594	48
PSPTO_1595	69
PSPTO_1596	348
PSPTO_1597	235
PSPTO_1598	126
PSPTO_1599	32
PSPTO_1600	256
PSPTO_1601	90
PSPTO_1602	97
PSPTO_1603	14
PSPTO_1604	351
PSPTO_1605	359
PSPTO_1606	201
PSPTO_1607	51
PSPTO_1608	172
PSPTO_1609	149
PSPTO_1610	220
PSPTO_1611	16
PSPTO_1612	110
PSPTO_1613	85
PSPTO_1614	24
PSPTO_1615	101
PSPTO_1616	65
PSPTO_1617	106
PSPTO_1618	122
PSPTO_1619	55
PSPTO_1620	259
PSPTO_1621	316
PSPTO_1622	129
PSPTO_1623	492
PSPTO_1624	2423
PSPTO_1625	37
PSPTO_1626	37
PSPTO_1627	53
PSPTO_1628	15
PSPTO_1629	23
PSPTO_1630	55
PSPTO_1631	139
PSPTO_1632	268
PSPTO_1633	318
PSPTO_1634	33
PSPTO_1635	185
PSPTO_1636	91
PSPTO_1637	200
PSPTO_1638	106
PSPTO_1639	266
PSPTO_1640	290
PSPTO_1641	18
PSPTO_1642	49
PSPTO_1643	210
PSPTO_1644	251
PSPTO_1645	64
PSPTO_1646	405
PSPTO_1647	31
PSPTO_1648	225
PSPTO_1649	201
PSPTO_1650	236
PSPTO_1651	28
PSPTO_1652	25
PSPTO_1653	209
PSPTO_1654	107
PSPTO_1655	51
PSPTO_1656	268
PSPTO_1657	250
PSPTO_1658	52
PSPTO_1659	74
PSPTO_1660	282
PSPTO_1661	423
PSPTO_1662	21
PSPTO_1663	23
PSPTO_1664	30
PSPTO_1665	5
PSPTO_1666	48
PSPTO_1667	74
PSPTO_1668	18
PSPTO_1669	89
PSPTO_1670	184
PSPTO_1671	1243
PSPTO_1672	65
PSPTO_1673	131
PSPTO_1674	63
PSPTO_1675	94
PSPTO_1676	124
PSPTO_1677	136
PSPTO_1678	49
PSPTO_1679	139
PSPTO_1680	125
PSPTO_1681	16
PSPTO_1682	1468
PSPTO_1683	49
PSPTO_1684	206
PSPTO_1685	128
PSPTO_1686	81
PSPTO_1687	34
PSPTO_1688	127
PSPTO_1689	41
PSPTO_1690	41
PSPTO_1691	298
PSPTO_1692	168
PSPTO_1693	233
PSPTO_1694	659
PSPTO_1695	178
PSPTO_1696	197
PSPTO_1697	561
PSPTO_1698	482
PSPTO_1699	99
PSPTO_1700	272
PSPTO_1701	159
PSPTO_1702	193
PSPTO_1703	107
PSPTO_1704	71
PSPTO_1705	344
PSPTO_1706	122
PSPTO_1707	199
PSPTO_1708	85
PSPTO_1709	156
PSPTO_1710	69
PSPTO_1711	102
PSPTO_1712	112
PSPTO_1713	119
PSPTO_1714	57
PSPTO_1715	125
PSPTO_1716	69
PSPTO_1717	106
PSPTO_1718	164
PSPTO_1719	147
PSPTO_1720	978
PSPTO_1721	922
PSPTO_1722	48
PSPTO_1723	16
PSPTO_1724	160
PSPTO_1725	442
PSPTO_1726	41
PSPTO_1727	26
PSPTO_1728	74
PSPTO_1729	103
PSPTO_1730	145
PSPTO_1731	342
PSPTO_1732	593
PSPTO_1733	236
PSPTO_1734	208
PSPTO_1735	89
PSPTO_1736	226
PSPTO_1737	345
PSPTO_1738	252
PSPTO_1739	315
PSPTO_1740	123
PSPTO_1741	157
PSPTO_1742	221
PSPTO_1743	237
PSPTO_1744	204
PSPTO_1745	829
PSPTO_1746	349
PSPTO_1747	359
PSPTO_1748	300
PSPTO_1749	311
PSPTO_1750	7285
PSPTO_1751	251
PSPTO_1752	141
PSPTO_1753	129
PSPTO_1754	156
PSPTO_1755	173
PSPTO_1756	544
PSPTO_1757	48
PSPTO_1758	790
PSPTO_1759	56
PSPTO_1760	132
PSPTO_1761	339
PSPTO_1762	70
PSPTO_1763	72
PSPTO_1764	109
PSPTO_1765	647
PSPTO_1766	48
PSPTO_1767	9
PSPTO_1768	84
PSPTO_1769	102
PSPTO_1770	55
PSPTO_1771	23
PSPTO_1772	143
PSPTO_1773	135
PSPTO_1774	21
PSPTO_1775	507
PSPTO_1776	65
PSPTO_1777	79
PSPTO_1778	93
PSPTO_1779	237
PSPTO_1780	200
PSPTO_1781	155
PSPTO_1782	334
PSPTO_1783	115
PSPTO_1784	64
PSPTO_1785	705
PSPTO_1786	54
PSPTO_1787	90
PSPTO_1788	99
PSPTO_1789	196
PSPTO_1790	78
PSPTO_1791	86
PSPTO_1792	139
PSPTO_1793	50
PSPTO_1794	105
PSPTO_1795	72
PSPTO_1796	51
PSPTO_1797	56
PSPTO_1798	43
PSPTO_1799	69
PSPTO_1800	84
PSPTO_1801	107
PSPTO_1802	332
PSPTO_1803	86
PSPTO_1804	10
PSPTO_1805	239
PSPTO_1806	360
PSPTO_1807	165
PSPTO_1808	128
PSPTO_1809	121
PSPTO_1810	163
PSPTO_1811	115
PSPTO_1812	103
PSPTO_1813	89
PSPTO_1814	37
PSPTO_1815	398
PSPTO_1816	15
PSPTO_1817	124
PSPTO_1818	66
PSPTO_1819	138
PSPTO_1820	58
PSPTO_1821	478
PSPTO_1822	1513
PSPTO_1823	159
PSPTO_1824	37
PSPTO_1825	2276
PSPTO_1826	331
PSPTO_1827	54
PSPTO_1828	65
PSPTO_1829	113
PSPTO_1830	93
PSPTO_1831	133
PSPTO_1832	405
PSPTO_1833	131
PSPTO_1834	151
PSPTO_1835	225
PSPTO_1836	200
PSPTO_1838	171
PSPTO_1839	661
PSPTO_1840	86
PSPTO_1841	246
PSPTO_1842	661
PSPTO_1843	366
PSPTO_1844	1135
PSPTO_1845	37
PSPTO_1846	172
PSPTO_1847	2281
PSPTO_1848	59
PSPTO_1849	67
PSPTO_1850	372
PSPTO_1851	347
PSPTO_1852	306
PSPTO_1853	16
PSPTO_1854	20
PSPTO_1855	181
PSPTO_1856	100
PSPTO_1857	160
PSPTO_1858	72
PSPTO_1859	119
PSPTO_1860	106
PSPTO_1861	74
PSPTO_1862	50
PSPTO_1863	50
PSPTO_1864	53
PSPTO_1865	73
PSPTO_1866	79
PSPTO_1867	114
PSPTO_1868	102
PSPTO_1869	26
PSPTO_1870	852
PSPTO_1871	119
PSPTO_1872	12
PSPTO_1873	94
PSPTO_1874	75
PSPTO_1875	97
PSPTO_1876	12
PSPTO_1877	55
PSPTO_1878	107
PSPTO_1879	510
PSPTO_1880	98
PSPTO_1881	174
PSPTO_1882	140
PSPTO_1883	102
PSPTO_1884	38
PSPTO_1885	62
PSPTO_1886	827
PSPTO_1887	128
PSPTO_1888	93
PSPTO_1889	176
PSPTO_1890	117
PSPTO_1891	238
PSPTO_1892	184
PSPTO_1893	98
PSPTO_1894	43
PSPTO_1895	37
PSPTO_1896	54
PSPTO_1897	106
PSPTO_1898	52
PSPTO_1899	154
PSPTO_1900	26
PSPTO_1901	79
PSPTO_1902	472
PSPTO_1903	46
PSPTO_1904	323
PSPTO_1905	28
PSPTO_1906	100
PSPTO_1907	82
PSPTO_1908	86
PSPTO_1909	204
PSPTO_1910	247
PSPTO_1911	834
PSPTO_1912	268
PSPTO_1913	461
PSPTO_1914	1101
PSPTO_1915	392
PSPTO_1916	980
PSPTO_1917	161
PSPTO_1918	860
PSPTO_1919	195
PSPTO_1920	733
PSPTO_1921	153
PSPTO_1922	236
PSPTO_1923	1294
PSPTO_1924	3347
PSPTO_1925	3702
PSPTO_1926	343
PSPTO_1927	4564
PSPTO_1928	1600
PSPTO_1929	153
PSPTO_1930	154
PSPTO_1931	185
PSPTO_1932	8
PSPTO_1933	2592
PSPTO_1934	2147
PSPTO_1935	2745
PSPTO_1936	7676
PSPTO_1937	125
PSPTO_1938	19
PSPTO_1939	3157
PSPTO_1940	4716
PSPTO_1941	2463
PSPTO_1942	1769
PSPTO_1943	2136
PSPTO_1944	5299
PSPTO_1945	4841
PSPTO_1946	891
PSPTO_1947	593
PSPTO_1948	154
PSPTO_1949	44432
PSPTO_1950	2289
PSPTO_1951	9517
PSPTO_1952	2159
PSPTO_1953	1546
PSPTO_1954	1373
PSPTO_1955	1786
PSPTO_1956	1062
PSPTO_1957	1172
PSPTO_1958	1808
PSPTO_1959	1374
PSPTO_1960	793
PSPTO_1961	698
PSPTO_1962	142
PSPTO_1963	211
PSPTO_1964	308
PSPTO_1965	146
PSPTO_1966	3747
PSPTO_1967	32
PSPTO_1968	584
PSPTO_1969	992
PSPTO_1970	625
PSPTO_1971	412
PSPTO_1972	337
PSPTO_1973	87
PSPTO_1974	171
PSPTO_1975	281
PSPTO_1976	1892
PSPTO_1977	3079
PSPTO_1978	1559
PSPTO_1979	1656
PSPTO_1980	1055
PSPTO_1981	1660
PSPTO_1982	8660
PSPTO_1983	1170
PSPTO_1984	308
PSPTO_1985	447
PSPTO_1986	704
PSPTO_1987	1975
PSPTO_1988	2387
PSPTO_1989	967
PSPTO_1990	145
PSPTO_1991	71
PSPTO_1992	358
PSPTO_1993	118
PSPTO_1994	68
PSPTO_1995	12
PSPTO_1996	206
PSPTO_1997	40
PSPTO_1998	86
PSPTO_1999	58
PSPTO_2000	36
PSPTO_2001	99
PSPTO_2002	14
PSPTO_2003	57
PSPTO_2004	142
PSPTO_2005	116
PSPTO_2006	38
PSPTO_2007	102
PSPTO_2008	181
PSPTO_2009	151
PSPTO_2010	226
PSPTO_2011	484
PSPTO_2012	14
PSPTO_2013	43
PSPTO_2014	238
PSPTO_2015	64
PSPTO_2016	358
PSPTO_2017	107
PSPTO_2018	54
PSPTO_2019	148
PSPTO_2020	467
PSPTO_2021	158
PSPTO_2022	116
PSPTO_2023	65
PSPTO_2024	114
PSPTO_2025	138
PSPTO_2026	140
PSPTO_2027	11
PSPTO_2028	93
PSPTO_2029	163
PSPTO_2030	194
PSPTO_2031	16
PSPTO_2032	188
PSPTO_2033	68
PSPTO_2034	64
PSPTO_2035	158
PSPTO_2036	8
PSPTO_2037	65
PSPTO_2038	65
PSPTO_2039	246
PSPTO_2040	256
PSPTO_2041	871
PSPTO_2042	150
PSPTO_2043	280
PSPTO_2044	123
PSPTO_2045	121
PSPTO_2046	82
PSPTO_2047	95
PSPTO_2048	124
PSPTO_2049	177
PSPTO_2050	45
PSPTO_2051	143
PSPTO_2052	40
PSPTO_2053	121
PSPTO_2054	159
PSPTO_2055	93
PSPTO_2056	203
PSPTO_2057	191
PSPTO_2058	40
PSPTO_2059	320
PSPTO_2060	156
PSPTO_2061	268
PSPTO_2062	155
PSPTO_2063	167
PSPTO_2064	203
PSPTO_2065	146
PSPTO_2066	40
PSPTO_2067	4
PSPTO_2068	53
PSPTO_2069	19
PSPTO_2070	73
PSPTO_2071	86
PSPTO_2072	56
PSPTO_2073	82
PSPTO_2074	15
PSPTO_2075	55
PSPTO_2076	26
PSPTO_2077	111
PSPTO_2078	24
PSPTO_2079	27
PSPTO_2080	21
PSPTO_2081	28
PSPTO_2082	107
PSPTO_2083	294
PSPTO_2084	24
PSPTO_2085	36
PSPTO_2086	42
PSPTO_2087	19
PSPTO_2088	23
PSPTO_2089	205
PSPTO_2090	69
PSPTO_2091	76
PSPTO_2092	125
PSPTO_2093	45
PSPTO_2094	60
PSPTO_2095	18
PSPTO_2096	91
PSPTO_2097	64
PSPTO_2098	61
PSPTO_2099	286
PSPTO_2100	59
PSPTO_2101	392
PSPTO_2102	918
PSPTO_2103	190
PSPTO_2104	348
PSPTO_2105	98
PSPTO_2106	559
PSPTO_2107	149
PSPTO_2108	212
PSPTO_2109	103
PSPTO_2110	89
PSPTO_2111	106
PSPTO_2112	115
PSPTO_2113	106
PSPTO_2114	44
PSPTO_2115	278
PSPTO_2116	133
PSPTO_2117	376
PSPTO_2118	356
PSPTO_2119	1029
PSPTO_2120	203
PSPTO_2121	70
PSPTO_2122	30
PSPTO_2123	71
PSPTO_2124	348
PSPTO_2125	56
PSPTO_2126	127
PSPTO_2127	177
PSPTO_2128	42
PSPTO_2129	224
PSPTO_2130	80
PSPTO_2131	147
PSPTO_2132	55
PSPTO_2133	650
PSPTO_2134	1523
PSPTO_2135	13633
PSPTO_2136	4520
PSPTO_2137	1277
PSPTO_2138	180
PSPTO_2139	141
PSPTO_2140	174
PSPTO_2141	207
PSPTO_2142	161
PSPTO_2143	117
PSPTO_2144	191
PSPTO_2145	488
PSPTO_2146	2223
PSPTO_2147	3749
PSPTO_2148	8792
PSPTO_2149	7464
PSPTO_2150	10670
PSPTO_2151	243
PSPTO_2152	7468
PSPTO_2153	765
PSPTO_2154	478
PSPTO_2155	907
PSPTO_2156	967
PSPTO_2158	247
PSPTO_2159	352
PSPTO_2160	309
PSPTO_2161	2264
PSPTO_2162	63
PSPTO_2163	341
PSPTO_2164	356
PSPTO_2165	143
PSPTO_2166	294
PSPTO_2167	217
PSPTO_2168	48
PSPTO_2169	60
PSPTO_2170	954
PSPTO_2171	2064
PSPTO_2172	187
PSPTO_2173	2190
PSPTO_2174	1003
PSPTO_2175	2135
PSPTO_2176	1674
PSPTO_2177	103
PSPTO_2178	76
PSPTO_2179	180
PSPTO_2180	179
PSPTO_2181	171
PSPTO_2182	111
PSPTO_2183	160
PSPTO_2184	147
PSPTO_2185	414
PSPTO_2186	528
PSPTO_2187	73
PSPTO_2188	48
PSPTO_2189	104
PSPTO_2190	181
PSPTO_2191	225
PSPTO_2192	43
PSPTO_2193	237
PSPTO_2194	1068
PSPTO_2195	717
PSPTO_2196	320
PSPTO_2197	1214
PSPTO_2198	831
PSPTO_2199	3302
PSPTO_2200	1625
PSPTO_2201	2864
PSPTO_2202	4485
PSPTO_2203	4175
PSPTO_2204	119
PSPTO_2205	41
PSPTO_2206	123
PSPTO_2207	731
PSPTO_2208	889
PSPTO_2209	210
PSPTO_2210	699
PSPTO_2211	266
PSPTO_2212	128
PSPTO_2213	318
PSPTO_2214	76
PSPTO_2215	131
PSPTO_2216	101
PSPTO_2217	182
PSPTO_2218	93
PSPTO_2219	27
PSPTO_2220	70
PSPTO_2221	131
PSPTO_2222	113
PSPTO_2223	147
PSPTO_2224	251
PSPTO_2225	223
PSPTO_2226	95
PSPTO_2227	54
PSPTO_2228	99
PSPTO_2229	15
PSPTO_2230	14
PSPTO_2231	211
PSPTO_2232	208
PSPTO_2233	97
PSPTO_2234	203
PSPTO_2235	66
PSPTO_2236	98
PSPTO_2237	316
PSPTO_2238	26
PSPTO_2239	686
PSPTO_2240	14
PSPTO_2241	8
PSPTO_2242	133
PSPTO_2243	160
PSPTO_2244	51
PSPTO_2245	360
PSPTO_2246	108
PSPTO_2247	163
PSPTO_2248	169
PSPTO_2249	101
PSPTO_2250	217
PSPTO_2251	179
PSPTO_2252	95
PSPTO_2253	19
PSPTO_2254	121
PSPTO_2255	58
PSPTO_2256	185
PSPTO_2257	107
PSPTO_2258	145
PSPTO_2259	264
PSPTO_2260	162
PSPTO_2261	110
PSPTO_2262	84
PSPTO_2263	94
PSPTO_2264	39
PSPTO_2265	57
PSPTO_2266	197
PSPTO_2267	57
PSPTO_2268	130
PSPTO_2269	41
PSPTO_2270	200
PSPTO_2271	6
PSPTO_2272	5474
PSPTO_2273	15
PSPTO_2274	452
PSPTO_2275	283
PSPTO_2276	140
PSPTO_2277	114
PSPTO_2278	101
PSPTO_2279	577
PSPTO_2280	90
PSPTO_2281	90
PSPTO_2282	136
PSPTO_2283	93
PSPTO_2284	103
PSPTO_2285	32
PSPTO_2286	200
PSPTO_2287	222
PSPTO_2288	496
PSPTO_2289	407
PSPTO_2290	124
PSPTO_2291	122
PSPTO_2292	1534
PSPTO_2293	108
PSPTO_2294	120
PSPTO_2295	245
PSPTO_2296	90
PSPTO_2297	360
PSPTO_2298	2263
PSPTO_2299	19929
PSPTO_2300	66
PSPTO_2301	169
PSPTO_2302	64
PSPTO_2303	133
PSPTO_2304	90
PSPTO_2305	81
PSPTO_2306	52
PSPTO_2307	83
PSPTO_2308	19
PSPTO_2309	167
PSPTO_2310	5848
PSPTO_2311	376
PSPTO_2312	129
PSPTO_2313	123
PSPTO_2314	148
PSPTO_2315	135
PSPTO_2316	92
PSPTO_2317	189
PSPTO_2318	66
PSPTO_2319	33
PSPTO_2320	30
PSPTO_2321	68
PSPTO_2322	68
PSPTO_2323	139
PSPTO_2324	225
PSPTO_2325	14
PSPTO_2326	188
PSPTO_2327	27
PSPTO_2328	218
PSPTO_2329	30
PSPTO_2330	13
PSPTO_2331	350
PSPTO_2332	40
PSPTO_2333	247
PSPTO_2334	222
PSPTO_2335	168
PSPTO_2336	98
PSPTO_2337	139
PSPTO_2338	121
PSPTO_2339	82
PSPTO_2340	158
PSPTO_2341	238
PSPTO_2342	51
PSPTO_2343	100
PSPTO_2344	174
PSPTO_2345	208
PSPTO_2346	357
PSPTO_2347	91
PSPTO_2348	73
PSPTO_2349	70
PSPTO_2350	1121
PSPTO_2351	113
PSPTO_2352	73
PSPTO_2353	207
PSPTO_2354	212
PSPTO_2355	178
PSPTO_2356	201
PSPTO_2358	691
PSPTO_2359	138
PSPTO_2360	50
PSPTO_2361	137
PSPTO_2362	686
PSPTO_2363	25
PSPTO_2364	73
PSPTO_2365	23
PSPTO_2366	173
PSPTO_2367	249
PSPTO_2368	161
PSPTO_2369	78
PSPTO_2370	98
PSPTO_2371	80
PSPTO_2372	80
PSPTO_2373	307
PSPTO_2374	62
PSPTO_2375	34
PSPTO_2376	1551
PSPTO_2377	147
PSPTO_2378	816
PSPTO_2379	3835
PSPTO_2380	2198
PSPTO_2381	3018
PSPTO_2382	214
PSPTO_2383	569
PSPTO_2384	566
PSPTO_2385	412
PSPTO_2386	64
PSPTO_2387	77
PSPTO_2388	53
PSPTO_2389	40
PSPTO_2390	82
PSPTO_2391	68
PSPTO_2392	15
PSPTO_2394	311
PSPTO_2395	145
PSPTO_2396	117
PSPTO_2397	120
PSPTO_2398	204
PSPTO_2399	165
PSPTO_2400	107
PSPTO_2401	83
PSPTO_2402	113
PSPTO_2403	166
PSPTO_2404	58
PSPTO_2405	136
PSPTO_2406	45
PSPTO_2407	63
PSPTO_2408	69
PSPTO_2409	51
PSPTO_2410	119
PSPTO_2411	38
PSPTO_2412	52
PSPTO_2413	23
PSPTO_2414	36
PSPTO_2415	52
PSPTO_2416	74
PSPTO_2417	52
PSPTO_2418	58
PSPTO_2419	33
PSPTO_2420	46
PSPTO_2421	96
PSPTO_2422	431
PSPTO_2423	59
PSPTO_2424	52
PSPTO_2425	79
PSPTO_2426	206
PSPTO_2427	137
PSPTO_2428	203
PSPTO_2429	167
PSPTO_2430	119
PSPTO_2431	164
PSPTO_2432	194
PSPTO_2433	3
PSPTO_2434	108
PSPTO_2435	153
PSPTO_2436	14
PSPTO_2437	156
PSPTO_2438	278
PSPTO_2439	151
PSPTO_2440	131
PSPTO_2441	2838
PSPTO_2442	1075
PSPTO_2443	131
PSPTO_2444	43
PSPTO_2445	30
PSPTO_2446	71
PSPTO_2447	128
PSPTO_2448	395
PSPTO_2449	48
PSPTO_2450	237
PSPTO_2451	22
PSPTO_2452	125
PSPTO_2453	67
PSPTO_2454	50
PSPTO_2455	12
PSPTO_2456	19
PSPTO_2457	393
PSPTO_2458	166
PSPTO_2459	24
PSPTO_2460	151
PSPTO_2461	11
PSPTO_2462	23
PSPTO_2463	134
PSPTO_2464	69
PSPTO_2465	237
PSPTO_2466	49
PSPTO_2467	134
PSPTO_2468	16
PSPTO_2469	29
PSPTO_2470	158
PSPTO_2471	99
PSPTO_2472	1890
PSPTO_2473	1176
PSPTO_2474	70
PSPTO_2475	792
PSPTO_2476	434
PSPTO_2477	35
PSPTO_2478	158
PSPTO_2479	310
PSPTO_2480	791
PSPTO_2481	54
PSPTO_2482	39
PSPTO_2483	16
PSPTO_2484	114
PSPTO_2485	212
PSPTO_2486	37
PSPTO_2487	61
PSPTO_2488	80
PSPTO_2489	257
PSPTO_2490	196
PSPTO_2491	496
PSPTO_2492	117
PSPTO_2493	215
PSPTO_2494	87
PSPTO_2495	52
PSPTO_2496	238
PSPTO_2497	21
PSPTO_2498	10
PSPTO_2499	98
PSPTO_2500	173
PSPTO_2501	413
PSPTO_2502	98
PSPTO_2503	165
PSPTO_2504	66
PSPTO_2505	233
PSPTO_2506	214
PSPTO_2507	76
PSPTO_2508	39
PSPTO_2509	143
PSPTO_2510	156
PSPTO_2511	1111
PSPTO_2513	11
PSPTO_2514	158
PSPTO_2515	261
PSPTO_2516	297
PSPTO_2517	124
PSPTO_2518	105
PSPTO_2519	120
PSPTO_2520	121
PSPTO_2521	21
PSPTO_2522	53
PSPTO_2523	42
PSPTO_2524	79
PSPTO_2525	129
PSPTO_2526	129
PSPTO_2527	100
PSPTO_2528	177
PSPTO_2529	6
PSPTO_2530	2
PSPTO_2531	30
PSPTO_2532	131
PSPTO_2533	38
PSPTO_2534	44
PSPTO_2535	273
PSPTO_2536	9
PSPTO_2537	29
PSPTO_2538	82
PSPTO_2539	22
PSPTO_2540	104
PSPTO_2541	213
PSPTO_2542	35
PSPTO_2543	58
PSPTO_2544	123
PSPTO_2545	35
PSPTO_2546	138
PSPTO_2547	57
PSPTO_2548	143
PSPTO_2549	114
PSPTO_2550	14
PSPTO_2551	18
PSPTO_2552	77
PSPTO_2553	50
PSPTO_2554	322
PSPTO_2555	40
PSPTO_2556	39
PSPTO_2557	50
PSPTO_2558	69
PSPTO_2559	38
PSPTO_2560	54
PSPTO_2561	98
PSPTO_2562	58
PSPTO_2563	56
PSPTO_2564	50
PSPTO_2565	112
PSPTO_2566	90
PSPTO_2567	71
PSPTO_2568	194
PSPTO_2569	195
PSPTO_2570	136
PSPTO_2571	85
PSPTO_2572	63
PSPTO_2573	61
PSPTO_2574	52
PSPTO_2575	50
PSPTO_2576	63
PSPTO_2577	98
PSPTO_2578	100
PSPTO_2579	63
PSPTO_2580	120
PSPTO_2581	112
PSPTO_2582	83
PSPTO_2583	73
PSPTO_2584	34
PSPTO_2585	90
PSPTO_2586	93
PSPTO_2587	11
PSPTO_2588	91
PSPTO_2589	582
PSPTO_2590	87
PSPTO_2591	176
PSPTO_2592	250
PSPTO_2593	186
PSPTO_2594	27
PSPTO_2595	3617
PSPTO_2596	804
PSPTO_2597	3619
PSPTO_2598	1581
PSPTO_2599	2655
PSPTO_2600	28484
PSPTO_2601	2033
PSPTO_2602	16084
PSPTO_2603	2674
PSPTO_2604	2756
PSPTO_2605	5418
PSPTO_2606	215
PSPTO_2607	145
PSPTO_2608	41
PSPTO_2609	36
PSPTO_2610	54
PSPTO_2611	32
PSPTO_2612	77
PSPTO_2613	112
PSPTO_2614	71
PSPTO_2615	98
PSPTO_2616	1898
PSPTO_2617	99
PSPTO_2618	96
PSPTO_2620	149
PSPTO_2621	231
PSPTO_2622	92
PSPTO_2623	185
PSPTO_2624	40
PSPTO_2625	114
PSPTO_2626	98
PSPTO_2627	89
PSPTO_2628	47
PSPTO_2629	58
PSPTO_2630	56
PSPTO_2631	44
PSPTO_2632	509
PSPTO_2633	92
PSPTO_2634	69
PSPTO_2635	89
PSPTO_2636	109
PSPTO_2637	69
PSPTO_2638	316
PSPTO_2639	195
PSPTO_2640	95
PSPTO_2641	11
PSPTO_2642	74
PSPTO_2643	38
PSPTO_2644	59
PSPTO_2645	90
PSPTO_2646	249
PSPTO_2647	152
PSPTO_2648	99
PSPTO_2649	175
PSPTO_2650	19
PSPTO_2651	16
PSPTO_2652	146
PSPTO_2653	259
PSPTO_2654	33
PSPTO_2655	67
PSPTO_2656	147
PSPTO_2657	101
PSPTO_2658	52
PSPTO_2659	98
PSPTO_2660	90
PSPTO_2661	96
PSPTO_2662	59
PSPTO_2663	141
PSPTO_2664	111
PSPTO_2665	76
PSPTO_2666	79
PSPTO_2667	101
PSPTO_2668	136
PSPTO_2669	51
PSPTO_2670	70
PSPTO_2671	201
PSPTO_2672	70
PSPTO_2673	152
PSPTO_2674	56
PSPTO_2675	42
PSPTO_2676	54
PSPTO_2677	68
PSPTO_2678	65
PSPTO_2679	8
PSPTO_2680	280
PSPTO_2681	74
PSPTO_2683	45
PSPTO_2684	5224
PSPTO_2685	109
PSPTO_2686	84
PSPTO_2687	216
PSPTO_2688	80
PSPTO_2689	134
PSPTO_2690	21
PSPTO_2691	285
PSPTO_2692	85
PSPTO_2693	105
PSPTO_2694	144
PSPTO_2695	443
PSPTO_2696	295
PSPTO_2697	514
PSPTO_2698	51
PSPTO_2699	162
PSPTO_2700	8007
PSPTO_2701	163
PSPTO_2702	159
PSPTO_2703	211
PSPTO_2704	118
PSPTO_2705	93
PSPTO_2706	87
PSPTO_2707	402
PSPTO_2708	127
PSPTO_2709	108
PSPTO_2710	99
PSPTO_2711	141
PSPTO_2712	425
PSPTO_2713	70
PSPTO_2714	67
PSPTO_2715	134
PSPTO_2716	226
PSPTO_2717	228
PSPTO_2718	287
PSPTO_2719	192
PSPTO_2720	241
PSPTO_2721	71
PSPTO_2722	84
PSPTO_2723	28
PSPTO_2724	53
PSPTO_2725	103
PSPTO_2726	74
PSPTO_2727	4
PSPTO_2728	238
PSPTO_2729	298
PSPTO_2730	932
PSPTO_2731	681
PSPTO_2732	823
PSPTO_2733	240
PSPTO_2734	113
PSPTO_2735	650
PSPTO_2736	142
PSPTO_2737	59
PSPTO_2738	104
PSPTO_2739	102
PSPTO_2740	72
PSPTO_2741	53
PSPTO_2742	96
PSPTO_2743	35
PSPTO_2744	92
PSPTO_2745	229
PSPTO_2746	94
PSPTO_2747	117
PSPTO_2748	74
PSPTO_2749	138
PSPTO_2750	379
PSPTO_2751	239
PSPTO_2752	585
PSPTO_2753	153
PSPTO_2754	309
PSPTO_2755	288
PSPTO_2756	174
PSPTO_2757	200
PSPTO_2758	191
PSPTO_2759	84
PSPTO_2760	328
PSPTO_2761	532
PSPTO_2762	493
PSPTO_2763	190
PSPTO_2764	145
PSPTO_2765	162
PSPTO_2766	213
PSPTO_2767	135
PSPTO_2768	36
PSPTO_2769	167
PSPTO_2770	24
PSPTO_2771	33
PSPTO_2772	76
PSPTO_2773	181
PSPTO_2774	109
PSPTO_2775	777
PSPTO_2776	196
PSPTO_2777	88
PSPTO_2778	103
PSPTO_2779	78
PSPTO_2780	133
PSPTO_2781	191
PSPTO_2782	157
PSPTO_2783	180
PSPTO_2784	291
PSPTO_2785	105
PSPTO_2786	61
PSPTO_2787	50
PSPTO_2788	79
PSPTO_2789	22
PSPTO_2790	73
PSPTO_2791	123
PSPTO_2792	34
PSPTO_2793	58
PSPTO_2794	108
PSPTO_2795	214
PSPTO_2796	126
PSPTO_2797	30
PSPTO_2798	40
PSPTO_2799	35
PSPTO_2800	69
PSPTO_2801	97
PSPTO_2802	73
PSPTO_2803	65
PSPTO_2804	119
PSPTO_2805	671
PSPTO_2806	197
PSPTO_2807	202
PSPTO_2808	106
PSPTO_2809	120
PSPTO_2810	50
PSPTO_2811	65
PSPTO_2812	76
PSPTO_2813	65
PSPTO_2814	88
PSPTO_2815	21
PSPTO_2816	42
PSPTO_2817	16
PSPTO_2818	128
PSPTO_2819	117
PSPTO_2820	104
PSPTO_2821	79
PSPTO_2822	72
PSPTO_2823	67
PSPTO_2824	113
PSPTO_2825	67
PSPTO_2826	22
PSPTO_2827	19
PSPTO_2828	360
PSPTO_2829	954
PSPTO_2830	2109
PSPTO_2831	123
PSPTO_2832	201
PSPTO_2833	131
PSPTO_2834	90
PSPTO_2835	46
PSPTO_2836	221
PSPTO_2837	61
PSPTO_2838	22
PSPTO_2839	11
PSPTO_2840	183
PSPTO_2841	67
PSPTO_2842	39
PSPTO_2843	115
PSPTO_2844	75
PSPTO_2845	24
PSPTO_2846	74
PSPTO_2847	40
PSPTO_2848	11
PSPTO_2849	28
PSPTO_2850	13
PSPTO_2851	50
PSPTO_2852	42
PSPTO_2853	193
PSPTO_2855	32
PSPTO_2856	336
PSPTO_2857	108
PSPTO_2858	5
PSPTO_2859	167
PSPTO_2860	83
PSPTO_2861	22
PSPTO_2862	30
PSPTO_2863	169
PSPTO_2864	62
PSPTO_2865	51
PSPTO_2866	27
PSPTO_2867	17
PSPTO_2868	434
PSPTO_2869	8
PSPTO_2870	126
PSPTO_2871	224
PSPTO_2872	220
PSPTO_2873	71
PSPTO_2874	145
PSPTO_2875	45
PSPTO_2876	82
PSPTO_2877	76
PSPTO_2878	52
PSPTO_2879	21
PSPTO_2880	58
PSPTO_2881	15
PSPTO_2882	165
PSPTO_2883	1303
PSPTO_2885	22
PSPTO_2886	34
PSPTO_2887	214
PSPTO_2888	37
PSPTO_2889	1
PSPTO_2890	5
PSPTO_2891	74
PSPTO_2892	6
PSPTO_2893	160
PSPTO_2894	179
PSPTO_2895	319
PSPTO_2896	399
PSPTO_2897	78
PSPTO_2898	50
PSPTO_2899	49
PSPTO_2900	104
PSPTO_2901	68
PSPTO_2902	72
PSPTO_2903	49
PSPTO_2904	227
PSPTO_2905	119
PSPTO_2906	172
PSPTO_2907	1415
PSPTO_2908	420
PSPTO_2909	77
PSPTO_2910	79
PSPTO_2911	92
PSPTO_2912	52
PSPTO_2913	54
PSPTO_2914	49
PSPTO_2915	45
PSPTO_2916	88
PSPTO_2917	88
PSPTO_2918	21
PSPTO_2919	60
PSPTO_2920	36
PSPTO_2921	98
PSPTO_2922	34
PSPTO_2923	100
PSPTO_2924	19
PSPTO_2925	81
PSPTO_2926	108
PSPTO_2927	51
PSPTO_2928	78
PSPTO_2929	45
PSPTO_2930	49
PSPTO_2931	117
PSPTO_2932	99
PSPTO_2933	118
PSPTO_2934	61
PSPTO_2935	61
PSPTO_2936	83
PSPTO_2937	56
PSPTO_2938	29
PSPTO_2939	58
PSPTO_2940	106
PSPTO_2941	189
PSPTO_2942	18
PSPTO_2943	285
PSPTO_2944	202
PSPTO_2945	44
PSPTO_2946	100
PSPTO_2947	156
PSPTO_2948	63
PSPTO_2949	85
PSPTO_2950	162
PSPTO_2951	181
PSPTO_2952	345
PSPTO_2953	10
PSPTO_2954	48
PSPTO_2955	194
PSPTO_2956	104
PSPTO_2957	68
PSPTO_2958	37
PSPTO_2959	122
PSPTO_2960	145
PSPTO_2961	66
PSPTO_2962	75
PSPTO_2963	77
PSPTO_2964	88
PSPTO_2965	23
PSPTO_2966	64
PSPTO_2967	27
PSPTO_2968	107
PSPTO_2969	55
PSPTO_2970	17
PSPTO_2971	152
PSPTO_2972	203
PSPTO_2973	656
PSPTO_2974	273
PSPTO_2975	303
PSPTO_2976	128
PSPTO_2977	196
PSPTO_2978	142
PSPTO_2979	30
PSPTO_2980	64
PSPTO_2981	85
PSPTO_2982	308
PSPTO_2983	17
PSPTO_2984	126
PSPTO_2985	100
PSPTO_2986	38
PSPTO_2987	93
PSPTO_2988	51
PSPTO_2989	70
PSPTO_2990	52
PSPTO_2991	99
PSPTO_2992	95
PSPTO_2993	114
PSPTO_2994	70
PSPTO_2995	123
PSPTO_2996	58
PSPTO_2997	192
PSPTO_2998	108
PSPTO_2999	41
PSPTO_3000	281
PSPTO_3001	146
PSPTO_3002	111
PSPTO_3003	118
PSPTO_3004	90
PSPTO_3005	89
PSPTO_3006	38
PSPTO_3007	108
PSPTO_3008	65
PSPTO_3009	45
PSPTO_3010	66
PSPTO_3011	80
PSPTO_3012	41
PSPTO_3013	82
PSPTO_3014	56
PSPTO_3015	7
PSPTO_3016	43
PSPTO_3017	155
PSPTO_3018	66
PSPTO_3019	75
PSPTO_3020	63
PSPTO_3021	94
PSPTO_3022	174
PSPTO_3023	207
PSPTO_3024	250
PSPTO_3025	112
PSPTO_3026	48
PSPTO_3027	1045
PSPTO_3028	387
PSPTO_3029	87
PSPTO_3030	65
PSPTO_3031	95
PSPTO_3032	167
PSPTO_3033	199
PSPTO_3034	16
PSPTO_3035	868
PSPTO_3036	158
PSPTO_3037	72
PSPTO_3038	98
PSPTO_3039	236
PSPTO_3040	83
PSPTO_3041	195
PSPTO_3042	57
PSPTO_3043	118
PSPTO_3044	68
PSPTO_3045	18
PSPTO_3046	206
PSPTO_3047	68
PSPTO_3048	46
PSPTO_3049	76
PSPTO_3050	228
PSPTO_3051	9
PSPTO_3052	81
PSPTO_3053	39
PSPTO_3054	83
PSPTO_3055	6
PSPTO_3056	71
PSPTO_3057	110
PSPTO_3058	155
PSPTO_3059	110
PSPTO_3060	118
PSPTO_3061	34
PSPTO_3062	161
PSPTO_3063	47
PSPTO_3064	100
PSPTO_3065	144
PSPTO_3066	32
PSPTO_3067	31
PSPTO_3068	114
PSPTO_3069	78
PSPTO_3070	67
PSPTO_3071	216
PSPTO_3072	61
PSPTO_3073	42
PSPTO_3074	216
PSPTO_3075	80
PSPTO_3076	57
PSPTO_3077	48
PSPTO_3078	39
PSPTO_3079	79
PSPTO_3080	160
PSPTO_3081	67
PSPTO_3082	44
PSPTO_3083	65
PSPTO_3084	45
PSPTO_3085	41
PSPTO_3086	29
PSPTO_3087	208
PSPTO_3088	71
PSPTO_3089	58
PSPTO_3090	51
PSPTO_3091	108
PSPTO_3092	64
PSPTO_3094	29
PSPTO_3095	77
PSPTO_3096	48
PSPTO_3097	9
PSPTO_3098	156
PSPTO_3099	87
PSPTO_3100	180
PSPTO_3101	108
PSPTO_3102	212
PSPTO_3103	663
PSPTO_3104	7
PSPTO_3105	310
PSPTO_3106	202
PSPTO_3107	225
PSPTO_3108	1007
PSPTO_3109	105
PSPTO_3110	57
PSPTO_3111	192
PSPTO_3112	443
PSPTO_3113	980
PSPTO_3114	158
PSPTO_3115	91
PSPTO_3116	23
PSPTO_3117	19
PSPTO_3118	72
PSPTO_3119	408
PSPTO_3120	353
PSPTO_3121	662
PSPTO_3122	711
PSPTO_3123	2041
PSPTO_3124	113
PSPTO_3125	643
PSPTO_3126	253
PSPTO_3127	277
PSPTO_3128	402
PSPTO_3129	462
PSPTO_3130	364
PSPTO_3131	83
PSPTO_3132	64
PSPTO_3133	50
PSPTO_3134	63
PSPTO_3135	328
PSPTO_3136	60
PSPTO_3137	115
PSPTO_3138	75
PSPTO_3139	11
PSPTO_3140	43
PSPTO_3141	125
PSPTO_3142	59
PSPTO_3143	74
PSPTO_3144	107
PSPTO_3145	777
PSPTO_3146	223
PSPTO_3147	99
PSPTO_3148	198
PSPTO_3149	680
PSPTO_3150	339
PSPTO_3151	147
PSPTO_3152	252
PSPTO_3153	200
PSPTO_3154	84
PSPTO_3155	5604
PSPTO_3156	27
PSPTO_3157	1126
PSPTO_3158	279
PSPTO_3159	114
PSPTO_3160	51
PSPTO_3161	128
PSPTO_3162	141
PSPTO_3163	169
PSPTO_3164	283
PSPTO_3165	89
PSPTO_3166	72
PSPTO_3167	39
PSPTO_3168	12
PSPTO_3169	7
PSPTO_3170	140
PSPTO_3171	82
PSPTO_3172	192
PSPTO_3173	40
PSPTO_3174	339
PSPTO_3175	62
PSPTO_3176	341
PSPTO_3177	192
PSPTO_3178	216
PSPTO_3179	363
PSPTO_3180	186
PSPTO_3181	56
PSPTO_3182	94
PSPTO_3183	71
PSPTO_3184	75
PSPTO_3185	170
PSPTO_3186	138
PSPTO_3187	11
PSPTO_3188	127
PSPTO_3189	93
PSPTO_3190	255
PSPTO_3191	75
PSPTO_3192	179
PSPTO_3193	1770
PSPTO_3194	185
PSPTO_3195	220
PSPTO_3196	123
PSPTO_3197	119
PSPTO_3198	62
PSPTO_3199	104
PSPTO_3200	72
PSPTO_3201	66
PSPTO_3202	106
PSPTO_3203	19
PSPTO_3204	44
PSPTO_3205	113
PSPTO_3206	165
PSPTO_3207	82
PSPTO_3208	471
PSPTO_3210	246
PSPTO_3211	199
PSPTO_3212	17
PSPTO_3213	190
PSPTO_3214	65
PSPTO_3215	10
PSPTO_3216	164
PSPTO_3217	39
PSPTO_3218	158
PSPTO_3219	16
PSPTO_3220	73
PSPTO_3221	26
PSPTO_3222	65
PSPTO_3223	210
PSPTO_3224	67
PSPTO_3225	53
PSPTO_3226	53
PSPTO_3227	8
PSPTO_3228	51
PSPTO_3229	2403
PSPTO_3230	363
PSPTO_3231	89
PSPTO_3232	58
PSPTO_3233	222
PSPTO_3234	100
PSPTO_3235	103
PSPTO_3236	42
PSPTO_3237	7116
PSPTO_3238	79
PSPTO_3239	20
PSPTO_3240	51
PSPTO_3241	128
PSPTO_3242	152
PSPTO_3243	68
PSPTO_3244	72
PSPTO_3245	41
PSPTO_3246	50
PSPTO_3247	137
PSPTO_3248	135
PSPTO_3249	86
PSPTO_3250	75
PSPTO_3251	101
PSPTO_3252	119
PSPTO_3253	34
PSPTO_3254	116
PSPTO_3255	40
PSPTO_3256	135
PSPTO_3257	93
PSPTO_3258	78
PSPTO_3259	245
PSPTO_3260	36
PSPTO_3261	38
PSPTO_3262	149
PSPTO_3263	50
PSPTO_3264	53
PSPTO_3265	220
PSPTO_3266	42
PSPTO_3267	84
PSPTO_3268	50
PSPTO_3269	88
PSPTO_3270	261
PSPTO_3271	170
PSPTO_3272	179
PSPTO_3273	65
PSPTO_3274	220
PSPTO_3275	72
PSPTO_3276	5
PSPTO_3277	73
PSPTO_3278	288
PSPTO_3279	85
PSPTO_3280	135
PSPTO_3281	148
PSPTO_3282	186
PSPTO_3283	67
PSPTO_3284	101
PSPTO_3285	109
PSPTO_3286	86
PSPTO_3287	181
PSPTO_3288	43
PSPTO_3289	61
PSPTO_3290	46
PSPTO_3291	223
PSPTO_3292	65
PSPTO_3293	327
PSPTO_3294	412
PSPTO_3295	103
PSPTO_3296	188
PSPTO_3297	300
PSPTO_3298	108
PSPTO_3299	229
PSPTO_3300	66
PSPTO_3301	58
PSPTO_3302	206
PSPTO_3303	9
PSPTO_3304	62
PSPTO_3305	44
PSPTO_3306	106
PSPTO_3307	257
PSPTO_3308	45
PSPTO_3309	57
PSPTO_3310	120
PSPTO_3311	84
PSPTO_3312	76
PSPTO_3313	63
PSPTO_3314	67
PSPTO_3315	108
PSPTO_3316	130
PSPTO_3317	192
PSPTO_3318	128
PSPTO_3319	164
PSPTO_3320	51
PSPTO_3321	39
PSPTO_3322	70
PSPTO_3323	667
PSPTO_3324	14
PSPTO_3325	249
PSPTO_3326	179
PSPTO_3327	75
PSPTO_3328	192
PSPTO_3329	135
PSPTO_3330	209
PSPTO_3331	55
PSPTO_3332	90
PSPTO_3333	635
PSPTO_3334	114
PSPTO_3335	61
PSPTO_3336	75
PSPTO_3337	127
PSPTO_3338	39
PSPTO_3339	45
PSPTO_3340	41
PSPTO_3341	22
PSPTO_3342	119
PSPTO_3343	129
PSPTO_3344	311
PSPTO_3345	358
PSPTO_3346	38
PSPTO_3347	175
PSPTO_3348	99
PSPTO_3349	389
PSPTO_3350	55
PSPTO_3351	149
PSPTO_3352	103
PSPTO_3353	3178
PSPTO_3354	306
PSPTO_3355	405
PSPTO_3356	2331
PSPTO_3357	17
PSPTO_3358	116
PSPTO_3359	58
PSPTO_3360	311
PSPTO_3361	84
PSPTO_3362	63
PSPTO_3363	175
PSPTO_3364	462
PSPTO_3365	141
PSPTO_3366	390
PSPTO_3367	305
PSPTO_3368	90
PSPTO_3369	329
PSPTO_3370	505
PSPTO_3371	135
PSPTO_3372	61
PSPTO_3373	48
PSPTO_3374	21
PSPTO_3375	209
PSPTO_3376	209
PSPTO_3377	195
PSPTO_3378	186
PSPTO_3379	2156
PSPTO_3380	117
PSPTO_3381	87
PSPTO_3382	27
PSPTO_3383	43
PSPTO_3384	44
PSPTO_3385	78
PSPTO_3386	384
PSPTO_3387	792
PSPTO_3388	46
PSPTO_3389	25
PSPTO_3390	31
PSPTO_3391	16
PSPTO_3392	83
PSPTO_3393	217
PSPTO_3394	18
PSPTO_3395	9
PSPTO_3396	63
PSPTO_3397	41
PSPTO_3398	137
PSPTO_3399	38
PSPTO_3400	62
PSPTO_3401	17
PSPTO_3402	17
PSPTO_3403	61
PSPTO_3404	35
PSPTO_3405	34
PSPTO_3406	18
PSPTO_3407	53
PSPTO_3408	12
PSPTO_3409	91
PSPTO_3410	104
PSPTO_3411	11
PSPTO_3412	128
PSPTO_3413	42
PSPTO_3414	12
PSPTO_3415	23
PSPTO_3416	15
PSPTO_3417	45
PSPTO_3418	157
PSPTO_3419	3
PSPTO_3420	19
PSPTO_3421	94
PSPTO_3422	9
PSPTO_3423	10
PSPTO_3424	9
PSPTO_3425	10
PSPTO_3426	15
PSPTO_3427	100
PSPTO_3428	24
PSPTO_3429	11
PSPTO_3430	60
PSPTO_3432	64
PSPTO_3433	86
PSPTO_3435	46
PSPTO_3436	117
PSPTO_3437	497
PSPTO_3438	105
PSPTO_3439	39
PSPTO_3440	87
PSPTO_3441	51
PSPTO_3442	18
PSPTO_3443	97
PSPTO_3444	16
PSPTO_3445	61
PSPTO_3446	68
PSPTO_3447	48
PSPTO_3448	56
PSPTO_3449	78
PSPTO_3450	47
PSPTO_3451	46
PSPTO_3452	44
PSPTO_3453	27
PSPTO_3454	83
PSPTO_3455	362
PSPTO_3456	284
PSPTO_3457	119
PSPTO_3458	40
PSPTO_3459	106
PSPTO_3460	211
PSPTO_3461	210
PSPTO_3462	1066
PSPTO_3463	312
PSPTO_3464	209
PSPTO_3465	85
PSPTO_3466	193
PSPTO_3467	151
PSPTO_3468	194
PSPTO_3469	99
PSPTO_3470	74
PSPTO_3471	244
PSPTO_3472	26
PSPTO_3473	139
PSPTO_3474	34
PSPTO_3475	17
PSPTO_3476	33
PSPTO_3477	124
PSPTO_3478	41
PSPTO_3479	140
PSPTO_3480	430
PSPTO_3481	11
PSPTO_3482	104
PSPTO_3483	49
PSPTO_3484	134
PSPTO_3485	360
PSPTO_3486	15
PSPTO_3487	136
PSPTO_3488	115
PSPTO_3489	138
PSPTO_3490	89
PSPTO_3491	103
PSPTO_3492	206
PSPTO_3493	141
PSPTO_3494	138
PSPTO_3495	251
PSPTO_3496	96
PSPTO_3497	250
PSPTO_3498	73
PSPTO_3499	126
PSPTO_3500	176
PSPTO_3501	215
PSPTO_3502	104
PSPTO_3503	138
PSPTO_3504	145
PSPTO_3505	238
PSPTO_3506	154
PSPTO_3507	163
PSPTO_3508	201
PSPTO_3509	46
PSPTO_3510	127
PSPTO_3511	94
PSPTO_3512	646
PSPTO_3513	144
PSPTO_3514	595
PSPTO_3515	77
PSPTO_3516	428
PSPTO_3517	886
PSPTO_3518	28
PSPTO_3519	49
PSPTO_3520	295
PSPTO_3521	378
PSPTO_3522	246
PSPTO_3523	574
PSPTO_3524	3659
PSPTO_3525	310
PSPTO_3526	204
PSPTO_3527	607
PSPTO_3528	269
PSPTO_3529	440
PSPTO_3530	510
PSPTO_3531	159
PSPTO_3532	225
PSPTO_3533	169
PSPTO_3534	203
PSPTO_3535	193
PSPTO_3536	156
PSPTO_3537	163
PSPTO_3538	108
PSPTO_3539	205
PSPTO_3540	76
PSPTO_3541	105
PSPTO_3542	49
PSPTO_3543	53
PSPTO_3544	2183
PSPTO_3545	370
PSPTO_3546	27
PSPTO_3547	149
PSPTO_3548	475
PSPTO_3549	61
PSPTO_3550	1979
PSPTO_3551	2719
PSPTO_3552	84
PSPTO_3553	748
PSPTO_3554	705
PSPTO_3555	194
PSPTO_3556	94
PSPTO_3557	117
PSPTO_3558	100
PSPTO_3559	506
PSPTO_3560	296
PSPTO_3561	58
PSPTO_3562	13
PSPTO_3563	110
PSPTO_3564	96
PSPTO_3565	231
PSPTO_3566	273
PSPTO_3567	131
PSPTO_3568	10
PSPTO_3569	180
PSPTO_3570	253
PSPTO_3571	11
PSPTO_3572	66
PSPTO_3573	27
PSPTO_3574	745
PSPTO_3575	110
PSPTO_3576	126
PSPTO_3577	1148
PSPTO_3578	44
PSPTO_3579	192
PSPTO_3580	731
PSPTO_3581	110
PSPTO_3582	75
PSPTO_3583	11
PSPTO_3584	194
PSPTO_3585	28
PSPTO_3586	93
PSPTO_3587	24
PSPTO_3588	91
PSPTO_3589	174
PSPTO_3590	94
PSPTO_3591	99
PSPTO_3592	107
PSPTO_3593	132
PSPTO_3594	88
PSPTO_3595	117
PSPTO_3596	292
PSPTO_3597	273
PSPTO_3598	296
PSPTO_3599	371
PSPTO_3600	55
PSPTO_3601	95
PSPTO_3602	348
PSPTO_3603	50
PSPTO_3604	113
PSPTO_3605	1139
PSPTO_3606	12
PSPTO_3607	68
PSPTO_3608	67
PSPTO_3609	89
PSPTO_3610	87
PSPTO_3611	5
PSPTO_3612	15
PSPTO_3613	156
PSPTO_3614	16
PSPTO_3615	113
PSPTO_3616	239
PSPTO_3617	27
PSPTO_3618	146
PSPTO_3619	12
PSPTO_3620	66
PSPTO_3621	115
PSPTO_3624	131
PSPTO_3625	240
PSPTO_3626	198
PSPTO_3627	106
PSPTO_3628	30
PSPTO_3629	46
PSPTO_3630	174
PSPTO_3631	35
PSPTO_3632	20
PSPTO_3633	86
PSPTO_3634	55
PSPTO_3635	56
PSPTO_3636	160
PSPTO_3637	85
PSPTO_3638	100
PSPTO_3639	91
PSPTO_3640	406
PSPTO_3641	66
PSPTO_3642	184
PSPTO_3643	60
PSPTO_3644	198
PSPTO_3645	304
PSPTO_3646	414
PSPTO_3647	61
PSPTO_3648	83
PSPTO_3649	119
PSPTO_3650	113
PSPTO_3651	156
PSPTO_3652	18
PSPTO_3653	13
PSPTO_3654	18
PSPTO_3655	102
PSPTO_3656	293
PSPTO_3657	350
PSPTO_3658	426
PSPTO_3659	79
PSPTO_3660	566
PSPTO_3661	498
PSPTO_3662	218
PSPTO_3663	268
PSPTO_3664	67
PSPTO_3665	84
PSPTO_3666	208
PSPTO_3667	85
PSPTO_3668	212
PSPTO_3669	76
PSPTO_3670	147
PSPTO_3671	74
PSPTO_3672	104
PSPTO_3673	10
PSPTO_3674	40
PSPTO_3675	92
PSPTO_3676	37
PSPTO_3677	83
PSPTO_3678	71
PSPTO_3679	67
PSPTO_3680	593
PSPTO_3681	59
PSPTO_3682	85
PSPTO_3683	12
PSPTO_3684	30
PSPTO_3685	117
PSPTO_3686	100
PSPTO_3687	183
PSPTO_3688	43
PSPTO_3689	243
PSPTO_3690	127
PSPTO_3691	203
PSPTO_3692	362
PSPTO_3693	35
PSPTO_3694	141
PSPTO_3695	90
PSPTO_3696	303
PSPTO_3697	11
PSPTO_3698	39
PSPTO_3699	3560
PSPTO_3700	1283
PSPTO_3701	66
PSPTO_3702	126
PSPTO_3703	162
PSPTO_3704	173
PSPTO_3705	315
PSPTO_3706	233
PSPTO_3707	400
PSPTO_3708	475
PSPTO_3709	215
PSPTO_3710	80
PSPTO_3711	184
PSPTO_3712	83
PSPTO_3713	167
PSPTO_3714	146
PSPTO_3715	224
PSPTO_3716	141
PSPTO_3717	171
PSPTO_3718	100
PSPTO_3719	116
PSPTO_3720	350
PSPTO_3721	384
PSPTO_3722	620
PSPTO_3723	905
PSPTO_3724	2210
PSPTO_3725	2187
PSPTO_3726	710
PSPTO_3727	710
PSPTO_3728	38
PSPTO_3729	50
PSPTO_3730	153
PSPTO_3731	227
PSPTO_3732	80
PSPTO_3733	205
PSPTO_3734	104
PSPTO_3735	627
PSPTO_3736	50
PSPTO_3737	99
PSPTO_3738	106
PSPTO_3739	162
PSPTO_3740	175
PSPTO_3741	506
PSPTO_3742	283
PSPTO_3743	342
PSPTO_3744	533
PSPTO_3745	144
PSPTO_3746	246
PSPTO_3747	108
PSPTO_3748	104
PSPTO_3749	16
PSPTO_3750	61
PSPTO_3751	73
PSPTO_3752	1892
PSPTO_3753	212
PSPTO_3754	142
PSPTO_3755	35
PSPTO_3756	134
PSPTO_3757	1378
PSPTO_3758	122
PSPTO_3759	86
PSPTO_3760	90
PSPTO_3761	43
PSPTO_3762	92
PSPTO_3763	158
PSPTO_3764	135
PSPTO_3765	130
PSPTO_3766	380
PSPTO_3767	65
PSPTO_3768	504
PSPTO_3769	48
PSPTO_3770	134
PSPTO_3771	97
PSPTO_3772	122
PSPTO_3773	92
PSPTO_3774	34
PSPTO_3775	19
PSPTO_3776	73
PSPTO_3777	205
PSPTO_3778	123
PSPTO_3779	106
PSPTO_3780	135
PSPTO_3781	148
PSPTO_3782	85
PSPTO_3783	102
PSPTO_3784	168
PSPTO_3785	101
PSPTO_3786	191
PSPTO_3787	135
PSPTO_3788	1038
PSPTO_3789	174
PSPTO_3790	93
PSPTO_3791	85
PSPTO_3792	130
PSPTO_3793	180
PSPTO_3794	15
PSPTO_3795	108
PSPTO_3796	157
PSPTO_3797	81
PSPTO_3798	107
PSPTO_3799	147
PSPTO_3800	201
PSPTO_3801	103
PSPTO_3802	115
PSPTO_3803	201
PSPTO_3804	80
PSPTO_3805	96
PSPTO_3806	164
PSPTO_3807	91
PSPTO_3808	117
PSPTO_3809	192
PSPTO_3810	369
PSPTO_3811	496
PSPTO_3812	106
PSPTO_3813	225
PSPTO_3814	229
PSPTO_3815	268
PSPTO_3816	115
PSPTO_3817	72
PSPTO_3818	1449
PSPTO_3819	214
PSPTO_3820	162
PSPTO_3821	323
PSPTO_3822	133
PSPTO_3823	92
PSPTO_3824	174
PSPTO_3825	142
PSPTO_3826	116
PSPTO_3827	99
PSPTO_3828	135
PSPTO_3829	118
PSPTO_3830	456
PSPTO_3831	1010
PSPTO_3832	350
PSPTO_3833	244
PSPTO_3834	179
PSPTO_3835	174
PSPTO_3836	437
PSPTO_3837	68
PSPTO_3838	164
PSPTO_3839	77
PSPTO_3840	126
PSPTO_3841	1352
PSPTO_3842	145
PSPTO_3843	161
PSPTO_3844	41
PSPTO_3845	112
PSPTO_3846	56
PSPTO_3847	96
PSPTO_3848	229
PSPTO_3849	69
PSPTO_3850	23
PSPTO_3851	262
PSPTO_3852	55
PSPTO_3853	52
PSPTO_3854	60
PSPTO_3855	66
PSPTO_3856	97
PSPTO_3857	860
PSPTO_3858	79
PSPTO_3859	78
PSPTO_3860	184
PSPTO_3861	61
PSPTO_3862	157
PSPTO_3863	32
PSPTO_3864	181
PSPTO_3865	32
PSPTO_3866	8
PSPTO_3867	29
PSPTO_3868	37
PSPTO_3869	9
PSPTO_3870	154
PSPTO_3871	100
PSPTO_3872	128
PSPTO_3873	506
PSPTO_3874	188
PSPTO_3875	50
PSPTO_3876	271
PSPTO_3877	108
PSPTO_3878	276
PSPTO_3879	51
PSPTO_3880	42
PSPTO_3881	53
PSPTO_3882	77
PSPTO_3883	115
PSPTO_3884	199
PSPTO_3885	942
PSPTO_3886	109
PSPTO_3887	92
PSPTO_3888	104
PSPTO_3889	138
PSPTO_3890	625
PSPTO_3891	114
PSPTO_3892	216
PSPTO_3893	85
PSPTO_3894	218
PSPTO_3895	29
PSPTO_3896	5
PSPTO_3897	140
PSPTO_3898	81
PSPTO_3899	198
PSPTO_3900	305
PSPTO_3901	183
PSPTO_3902	270
PSPTO_3903	148
PSPTO_3904	25
PSPTO_3905	88
PSPTO_3906	99
PSPTO_3907	22
PSPTO_3908	106
PSPTO_3909	101
PSPTO_3910	128
PSPTO_3911	211
PSPTO_3912	165
PSPTO_3913	217
PSPTO_3914	231
PSPTO_3915	107
PSPTO_3916	27
PSPTO_3917	105
PSPTO_3918	46
PSPTO_3919	194
PSPTO_3920	90
PSPTO_3921	38
PSPTO_3922	150
PSPTO_3923	124
PSPTO_3924	487
PSPTO_3925	344
PSPTO_3926	70
PSPTO_3927	330
PSPTO_3929	28
PSPTO_3930	251
PSPTO_3931	11
PSPTO_3932	41
PSPTO_3933	19
PSPTO_3934	9
PSPTO_3935	18
PSPTO_3936	71
PSPTO_3937	77
PSPTO_3938	58
PSPTO_3939	101
PSPTO_3940	16
PSPTO_3941	54
PSPTO_3942	42
PSPTO_3943	3
PSPTO_3944	38
PSPTO_3945	6
PSPTO_3946	28
PSPTO_3947	5
PSPTO_3948	26
PSPTO_3949	284
PSPTO_3950	345
PSPTO_3951	168
PSPTO_3952	384
PSPTO_3953	433
PSPTO_3954	80
PSPTO_3955	162
PSPTO_3956	107
PSPTO_3957	49
PSPTO_3958	249
PSPTO_3959	181
PSPTO_3960	96
PSPTO_3961	47
PSPTO_3962	15
PSPTO_3963	205
PSPTO_3965	124
PSPTO_3966	23
PSPTO_3968	104
PSPTO_3969	40
PSPTO_3970	980
PSPTO_3971	4139
PSPTO_3972	1251
PSPTO_3973	446
PSPTO_3974	88
PSPTO_3975	143
PSPTO_3976	79
PSPTO_3977	179
PSPTO_3978	119
PSPTO_3979	58
PSPTO_3980	202
PSPTO_3981	788
PSPTO_3982	74
PSPTO_3983	453
PSPTO_3984	82
PSPTO_3985	53
PSPTO_3986	74
PSPTO_3987	3374
PSPTO_3988	518
PSPTO_3989	106
PSPTO_3990	147
PSPTO_3991	467
PSPTO_3992	251
PSPTO_3993	295
PSPTO_3994	94
PSPTO_3995	312
PSPTO_3996	161
PSPTO_3997	15
PSPTO_3998	17
PSPTO_3999	157
PSPTO_4001	85
PSPTO_4002	142
PSPTO_4003	26
PSPTO_4004	52
PSPTO_4005	19
PSPTO_4006	131
PSPTO_4007	33
PSPTO_4008	26
PSPTO_4009	16
PSPTO_4010	241
PSPTO_4011	17
PSPTO_4012	51
PSPTO_4013	75
PSPTO_4014	59
PSPTO_4015	25
PSPTO_4016	4
PSPTO_4017	42
PSPTO_4018	148
PSPTO_4019	112
PSPTO_4020	51
PSPTO_4021	62
PSPTO_4022	26
PSPTO_4023	75
PSPTO_4024	954
PSPTO_4025	61
PSPTO_4026	21
PSPTO_4027	120
PSPTO_4028	19
PSPTO_4029	68
PSPTO_4030	161
PSPTO_4031	178
PSPTO_4032	55
PSPTO_4033	497
PSPTO_4034	134
PSPTO_4035	53
PSPTO_4036	39
PSPTO_4037	37
PSPTO_4038	92
PSPTO_4039	72
PSPTO_4040	68
PSPTO_4041	213
PSPTO_4042	25
PSPTO_4043	30
PSPTO_4044	49
PSPTO_4045	58
PSPTO_4046	222
PSPTO_4047	81
PSPTO_4048	15
PSPTO_4049	22
PSPTO_4050	45
PSPTO_4051	43
PSPTO_4052	53
PSPTO_4053	11
PSPTO_4054	64
PSPTO_4055	17
PSPTO_4056	11
PSPTO_4057	80
PSPTO_4058	312
PSPTO_4059	83
PSPTO_4060	124
PSPTO_4061	73
PSPTO_4062	61
PSPTO_4063	68
PSPTO_4064	76
PSPTO_4065	26
PSPTO_4066	45
PSPTO_4067	61
PSPTO_4068	137
PSPTO_4069	10
PSPTO_4070	26
PSPTO_4071	64
PSPTO_4072	30
PSPTO_4073	67
PSPTO_4074	56
PSPTO_4075	47
PSPTO_4076	84
PSPTO_4077	41
PSPTO_4078	97
PSPTO_4079	343
PSPTO_4080	101
PSPTO_4081	449
PSPTO_4082	69
PSPTO_4083	50
PSPTO_4084	313
PSPTO_4087	49
PSPTO_4088	112
PSPTO_4089	83
PSPTO_4090	184
PSPTO_4091	176
PSPTO_4092	164
PSPTO_4093	423
PSPTO_4094	258
PSPTO_4095	419
PSPTO_4096	40
PSPTO_4097	157
PSPTO_4098	242
PSPTO_4099	18
PSPTO_4100	103
PSPTO_4101	66
PSPTO_4102	7
PSPTO_4103	700
PSPTO_4104	455
PSPTO_4105	142
PSPTO_4106	213
PSPTO_4107	35
PSPTO_4108	1912
PSPTO_4109	110
PSPTO_4110	228
PSPTO_4111	139
PSPTO_4112	163
PSPTO_4113	87
PSPTO_4114	261
PSPTO_4115	607
PSPTO_4116	47
PSPTO_4117	191
PSPTO_4118	31
PSPTO_4119	189
PSPTO_4120	200
PSPTO_4121	72
PSPTO_4122	71
PSPTO_4123	119
PSPTO_4124	105
PSPTO_4125	28
PSPTO_4126	79
PSPTO_4127	115
PSPTO_4128	118
PSPTO_4129	158
PSPTO_4130	54
PSPTO_4131	17
PSPTO_4132	102
PSPTO_4133	381
PSPTO_4134	129
PSPTO_4135	220
PSPTO_4136	438
PSPTO_4137	57
PSPTO_4138	38
PSPTO_4139	88
PSPTO_4140	95
PSPTO_4141	186
PSPTO_4142	66
PSPTO_4143	1053
PSPTO_4144	173
PSPTO_4145	1853
PSPTO_4146	169
PSPTO_4147	492
PSPTO_4148	112
PSPTO_4149	69
PSPTO_4150	17
PSPTO_4151	111
PSPTO_4152	227
PSPTO_4153	30
PSPTO_4154	23
PSPTO_4155	688
PSPTO_4156	2172
PSPTO_4157	166
PSPTO_4158	107
PSPTO_4159	209
PSPTO_4160	215
PSPTO_4161	367
PSPTO_4162	226
PSPTO_4163	199
PSPTO_4164	181
PSPTO_4165	146
PSPTO_4166	61
PSPTO_4167	126
PSPTO_4168	460
PSPTO_4169	111
PSPTO_4170	1306
PSPTO_4171	89
PSPTO_4172	23
PSPTO_4173	23
PSPTO_4174	56
PSPTO_4175	169
PSPTO_4176	119
PSPTO_4177	104
PSPTO_4178	90
PSPTO_4179	335
PSPTO_4180	90
PSPTO_4181	41
PSPTO_4182	146
PSPTO_4183	160
PSPTO_4184	26
PSPTO_4185	61
PSPTO_4186	93
PSPTO_4187	157
PSPTO_4188	20
PSPTO_4189	57
PSPTO_4190	103
PSPTO_4191	321
PSPTO_4192	93
PSPTO_4193	86
PSPTO_4194	39
PSPTO_4195	36
PSPTO_4196	2373
PSPTO_4197	114
PSPTO_4198	86
PSPTO_4199	32
PSPTO_4200	67
PSPTO_4201	82
PSPTO_4202	100
PSPTO_4203	57
PSPTO_4204	99
PSPTO_4205	120
PSPTO_4206	176
PSPTO_4207	305
PSPTO_4208	851
PSPTO_4209	811
PSPTO_4210	417
PSPTO_4211	75
PSPTO_4212	99
PSPTO_4213	82
PSPTO_4214	105
PSPTO_4215	84
PSPTO_4216	155
PSPTO_4217	104
PSPTO_4218	43
PSPTO_4219	263
PSPTO_4220	426
PSPTO_4221	699
PSPTO_4222	2455
PSPTO_4223	8137
PSPTO_4224	3315
PSPTO_4225	232
PSPTO_4226	62
PSPTO_4227	47
PSPTO_4228	261
PSPTO_4229	134
PSPTO_4230	157
PSPTO_4231	85
PSPTO_4232	74
PSPTO_4233	14
PSPTO_4234	97
PSPTO_4235	70
PSPTO_4236	118
PSPTO_4237	830
PSPTO_4238	48
PSPTO_4239	45
PSPTO_4240	70
PSPTO_4241	34
PSPTO_4242	47
PSPTO_4243	237
PSPTO_4244	123
PSPTO_4245	190
PSPTO_4246	25
PSPTO_4247	41
PSPTO_4248	32
PSPTO_4249	112
PSPTO_4250	197
PSPTO_4251	143
PSPTO_4252	25
PSPTO_4253	221
PSPTO_4254	345
PSPTO_4255	30
PSPTO_4256	137
PSPTO_4257	45
PSPTO_4258	104
PSPTO_4259	359
PSPTO_4260	53
PSPTO_4261	95
PSPTO_4262	76
PSPTO_4263	72
PSPTO_4264	67
PSPTO_4265	237
PSPTO_4266	105
PSPTO_4267	290
PSPTO_4268	38
PSPTO_4269	81
PSPTO_4270	60
PSPTO_4271	165
PSPTO_4272	452
PSPTO_4273	60
PSPTO_4274	147
PSPTO_4275	81
PSPTO_4276	202
PSPTO_4277	78
PSPTO_4278	117
PSPTO_4279	72
PSPTO_4280	135
PSPTO_4281	64
PSPTO_4282	46
PSPTO_4283	116
PSPTO_4284	93
PSPTO_4285	188
PSPTO_4286	371
PSPTO_4287	184
PSPTO_4288	161
PSPTO_4289	195
PSPTO_4290	739
PSPTO_4291	292
PSPTO_4292	235
PSPTO_4293	916
PSPTO_4294	669
PSPTO_4295	324
PSPTO_4296	118
PSPTO_4297	82
PSPTO_4298	156
PSPTO_4299	43
PSPTO_4300	741
PSPTO_4301	158
PSPTO_4302	112
PSPTO_4303	368
PSPTO_4304	1133
PSPTO_4305	1167
PSPTO_4306	539
PSPTO_4307	280
PSPTO_4308	129
PSPTO_4309	149
PSPTO_4310	195
PSPTO_4312	353
PSPTO_4313	67
PSPTO_4314	262
PSPTO_4315	2845
PSPTO_4316	243
PSPTO_4317	190
PSPTO_4318	161
PSPTO_4319	181
PSPTO_4320	133
PSPTO_4321	805
PSPTO_4322	826
PSPTO_4323	306
PSPTO_4324	929
PSPTO_4325	1178
PSPTO_4326	135
PSPTO_4327	72
PSPTO_4328	70
PSPTO_4329	190
PSPTO_4330	11
PSPTO_4331	84
PSPTO_4332	178
PSPTO_4333	158
PSPTO_4334	269
PSPTO_4335	897
PSPTO_4336	1042
PSPTO_4337	1690
PSPTO_4338	304
PSPTO_4339	703
PSPTO_4340	821
PSPTO_4341	269
PSPTO_4342	432
PSPTO_4343	469
PSPTO_4344	305
PSPTO_4345	14
PSPTO_4346	103
PSPTO_4347	201
PSPTO_4348	164
PSPTO_4349	247
PSPTO_4350	145
PSPTO_4351	54
PSPTO_4352	196
PSPTO_4353	45
PSPTO_4354	119
PSPTO_4355	152
PSPTO_4356	38
PSPTO_4357	213
PSPTO_4358	191
PSPTO_4359	508
PSPTO_4360	401
PSPTO_4361	176
PSPTO_4362	103
PSPTO_4363	769
PSPTO_4364	12
PSPTO_4365	437
PSPTO_4366	1476
PSPTO_4367	274
PSPTO_4368	358
PSPTO_4369	315
PSPTO_4370	256
PSPTO_4371	387
PSPTO_4372	187
PSPTO_4373	306
PSPTO_4374	289
PSPTO_4375	109
PSPTO_4376	3367
PSPTO_4377	282
PSPTO_4378	14
PSPTO_4379	149
PSPTO_4380	326
PSPTO_4381	1070
PSPTO_4382	84
PSPTO_4383	254
PSPTO_4384	46
PSPTO_4385	286
PSPTO_4386	547
PSPTO_4387	399
PSPTO_4388	55
PSPTO_4389	199
PSPTO_4390	15
PSPTO_4392	176
PSPTO_4393	218
PSPTO_4394	157
PSPTO_4395	157
PSPTO_4396	127
PSPTO_4397	141
PSPTO_4398	95
PSPTO_4399	228
PSPTO_4400	1005
PSPTO_4401	62
PSPTO_4402	1293
PSPTO_4403	1518
PSPTO_4404	374
PSPTO_4405	126
PSPTO_4406	127
PSPTO_4407	288
PSPTO_4408	142
PSPTO_4409	184
PSPTO_4410	172
PSPTO_4411	143
PSPTO_4412	260
PSPTO_4413	264
PSPTO_4414	201
PSPTO_4415	28
PSPTO_4416	153
PSPTO_4417	160
PSPTO_4418	191
PSPTO_4419	384
PSPTO_4420	84
PSPTO_4421	96
PSPTO_4422	617
PSPTO_4423	165
PSPTO_4424	60
PSPTO_4425	808
PSPTO_4426	1047
PSPTO_4427	113
PSPTO_4428	126
PSPTO_4429	172
PSPTO_4430	69
PSPTO_4431	295
PSPTO_4432	598
PSPTO_4433	278
PSPTO_4434	142
PSPTO_4435	218
PSPTO_4436	58
PSPTO_4437	244
PSPTO_4438	315
PSPTO_4439	202
PSPTO_4440	19
PSPTO_4441	525
PSPTO_4442	65
PSPTO_4443	101
PSPTO_4444	287
PSPTO_4445	175
PSPTO_4446	93
PSPTO_4447	209
PSPTO_4448	153
PSPTO_4449	64
PSPTO_4450	63
PSPTO_4451	269
PSPTO_4452	278
PSPTO_4453	311
PSPTO_4454	738
PSPTO_4455	337
PSPTO_4456	161
PSPTO_4457	25
PSPTO_4458	69
PSPTO_4459	577
PSPTO_4460	223
PSPTO_4461	815
PSPTO_4462	88
PSPTO_4463	303
PSPTO_4464	94
PSPTO_4465	402
PSPTO_4466	181
PSPTO_4467	326
PSPTO_4468	184
PSPTO_4469	78
PSPTO_4470	54
PSPTO_4471	113
PSPTO_4472	466
PSPTO_4473	103
PSPTO_4474	402
PSPTO_4475	335
PSPTO_4476	51
PSPTO_4477	87
PSPTO_4478	80
PSPTO_4479	77
PSPTO_4480	107
PSPTO_4481	71
PSPTO_4482	227
PSPTO_4483	43
PSPTO_4484	769
PSPTO_4485	108
PSPTO_4486	1032
PSPTO_4487	1824
PSPTO_4488	238
PSPTO_4489	75
PSPTO_4490	1335
PSPTO_4491	655
PSPTO_4492	137
PSPTO_4493	159
PSPTO_4494	334
PSPTO_4495	256
PSPTO_4496	103
PSPTO_4497	1934
PSPTO_4498	190
PSPTO_4499	107
PSPTO_4500	107
PSPTO_4501	807
PSPTO_4502	308
PSPTO_4503	205
PSPTO_4504	193
PSPTO_4505	1713
PSPTO_4506	192
PSPTO_4507	383
PSPTO_4508	439
PSPTO_4509	283
PSPTO_4510	45
PSPTO_4511	101
PSPTO_4512	57
PSPTO_4513	91
PSPTO_4514	144
PSPTO_4515	92
PSPTO_4516	269
PSPTO_4517	17
PSPTO_4518	262
PSPTO_4519	469
PSPTO_4520	108
PSPTO_4521	20
PSPTO_4522	91
PSPTO_4523	56
PSPTO_4524	99
PSPTO_4525	5
PSPTO_4526	121
PSPTO_4527	52
PSPTO_4528	297
PSPTO_4529	197
PSPTO_4530	1603
PSPTO_4531	1035
PSPTO_4532	99
PSPTO_4533	87
PSPTO_4534	130
PSPTO_4535	91
PSPTO_4536	65
PSPTO_4537	54
PSPTO_4538	105
PSPTO_4539	137
PSPTO_4540	92
PSPTO_4541	1493
PSPTO_4542	397
PSPTO_4543	1026
PSPTO_4544	147
PSPTO_4545	70
PSPTO_4546	134
PSPTO_4547	276
PSPTO_4548	170
PSPTO_4549	156
PSPTO_4550	313
PSPTO_4551	316
PSPTO_4552	13
PSPTO_4553	170
PSPTO_4554	134
PSPTO_4555	134
PSPTO_4556	76
PSPTO_4557	291
PSPTO_4558	863
PSPTO_4559	130
PSPTO_4560	466
PSPTO_4561	236
PSPTO_4562	114
PSPTO_4563	90
PSPTO_4564	107
PSPTO_4565	48
PSPTO_4566	14
PSPTO_4567	156
PSPTO_4568	63
PSPTO_4569	223
PSPTO_4570	91
PSPTO_4571	68
PSPTO_4572	403
PSPTO_4573	56
PSPTO_4574	182
PSPTO_4575	154
PSPTO_4576	65
PSPTO_4577	74
PSPTO_4578	78
PSPTO_4579	239
PSPTO_4580	303
PSPTO_4581	168
PSPTO_4582	172
PSPTO_4583	51
PSPTO_4584	103
PSPTO_4585	412
PSPTO_4586	5591
PSPTO_4587	156
PSPTO_4588	31
PSPTO_4589	115
PSPTO_4590	34
PSPTO_4591	18
PSPTO_4592	31
PSPTO_4593	166
PSPTO_4594	67
PSPTO_4595	80
PSPTO_4596	195
PSPTO_4597	10
PSPTO_4599	50
PSPTO_4600	80
PSPTO_4601	51
PSPTO_4602	471
PSPTO_4603	135
PSPTO_4604	203
PSPTO_4605	225
PSPTO_4606	89
PSPTO_4607	437
PSPTO_4608	77
PSPTO_4609	47
PSPTO_4610	644
PSPTO_4611	661
PSPTO_4612	92
PSPTO_4613	428
PSPTO_4614	112
PSPTO_4615	131
PSPTO_4616	181
PSPTO_4617	7
PSPTO_4618	28
PSPTO_4619	96
PSPTO_4620	77
PSPTO_4621	36
PSPTO_4622	117
PSPTO_4623	15
PSPTO_4624	944
PSPTO_4625	75
PSPTO_4626	65
PSPTO_4627	404
PSPTO_4628	39
PSPTO_4629	33
PSPTO_4630	55
PSPTO_4631	474
PSPTO_4632	1393
PSPTO_4633	93
PSPTO_4634	109
PSPTO_4635	46
PSPTO_4636	63
PSPTO_4637	176
PSPTO_4638	734
PSPTO_4639	218
PSPTO_4640	159
PSPTO_4641	409
PSPTO_4642	152
PSPTO_4643	218
PSPTO_4644	29
PSPTO_4645	148
PSPTO_4646	30
PSPTO_4647	119
PSPTO_4648	188
PSPTO_4649	8
PSPTO_4650	216
PSPTO_4651	78
PSPTO_4652	44
PSPTO_4653	139
PSPTO_4654	87
PSPTO_4656	110
PSPTO_4657	183
PSPTO_4658	292
PSPTO_4659	58
PSPTO_4660	112
PSPTO_4661	64
PSPTO_4662	95
PSPTO_4663	103
PSPTO_4664	160
PSPTO_4665	102
PSPTO_4666	129
PSPTO_4667	191
PSPTO_4668	33
PSPTO_4669	82
PSPTO_4670	93
PSPTO_4671	87
PSPTO_4672	1
PSPTO_4673	232
PSPTO_4674	44
PSPTO_4675	130
PSPTO_4676	63
PSPTO_4677	112
PSPTO_4678	53
PSPTO_4679	115
PSPTO_4680	140
PSPTO_4681	16
PSPTO_4682	27
PSPTO_4683	100
PSPTO_4684	39
PSPTO_4685	122
PSPTO_4686	766
PSPTO_4687	844
PSPTO_4688	44
PSPTO_4689	111
PSPTO_4690	63
PSPTO_4691	170
PSPTO_4692	22
PSPTO_4693	183
PSPTO_4694	15
PSPTO_4695	26
PSPTO_4696	138
PSPTO_4697	42
PSPTO_4699	1675
PSPTO_4702	192
PSPTO_4703	18
PSPTO_4704	51
PSPTO_4705	104
PSPTO_4706	19
PSPTO_4707	16
PSPTO_4708	44
PSPTO_4709	108
PSPTO_4710	127
PSPTO_4711	51
PSPTO_4712	64
PSPTO_4713	29
PSPTO_4714	38
PSPTO_4716	56
PSPTO_4717	24
PSPTO_4718	375
PSPTO_4719	46
PSPTO_4720	158
PSPTO_4721	28
PSPTO_4722	73
PSPTO_4723	57
PSPTO_4724	17
PSPTO_4725	222
PSPTO_4726	155
PSPTO_4727	137
PSPTO_4729	67
PSPTO_4730	83
PSPTO_4732	38
PSPTO_4733	67
PSPTO_4734	39
PSPTO_4735	1459
PSPTO_4737	170
PSPTO_4738	19
PSPTO_4741	79
PSPTO_4742	242
PSPTO_4743	181
PSPTO_4744	212
PSPTO_4745	210
PSPTO_4746	130
PSPTO_4747	35
PSPTO_4748	138
PSPTO_4749	71
PSPTO_4750	42
PSPTO_4751	463
PSPTO_4752	844
PSPTO_4753	138
PSPTO_4754	127
PSPTO_4755	94
PSPTO_4756	33
PSPTO_4757	10
PSPTO_4758	12
PSPTO_4759	40
PSPTO_4760	111
PSPTO_4761	432
PSPTO_4762	171
PSPTO_4763	114
PSPTO_4764	165
PSPTO_4765	15
PSPTO_4766	90
PSPTO_4767	70
PSPTO_4768	59
PSPTO_4769	79
PSPTO_4770	181
PSPTO_4771	86
PSPTO_4772	237
PSPTO_4773	31
PSPTO_4774	77
PSPTO_4775	133
PSPTO_4776	80
PSPTO_4777	53
PSPTO_4778	36
PSPTO_4779	77
PSPTO_4780	94
PSPTO_4781	251
PSPTO_4782	252
PSPTO_4784	140
PSPTO_4785	19
PSPTO_4786	53
PSPTO_4787	76
PSPTO_4788	209
PSPTO_4789	107
PSPTO_4790	134
PSPTO_4791	428
PSPTO_4792	111
PSPTO_4793	72
PSPTO_4794	75
PSPTO_4795	334
PSPTO_4796	274
PSPTO_4797	43
PSPTO_4798	66
PSPTO_4799	96
PSPTO_4800	234
PSPTO_4801	26
PSPTO_4802	164
PSPTO_4803	15
PSPTO_4804	265
PSPTO_4805	583
PSPTO_4806	91
PSPTO_4807	221
PSPTO_4808	179
PSPTO_4809	112
PSPTO_4810	113
PSPTO_4811	13
PSPTO_4812	716
PSPTO_4813	168
PSPTO_4814	132
PSPTO_4815	21
PSPTO_4816	41
PSPTO_4817	243
PSPTO_4818	483
PSPTO_4819	201
PSPTO_4820	66
PSPTO_4821	306
PSPTO_4822	205
PSPTO_4823	120
PSPTO_4824	115
PSPTO_4825	168
PSPTO_4826	98
PSPTO_4827	103
PSPTO_4828	120
PSPTO_4829	252
PSPTO_4830	55
PSPTO_4831	116
PSPTO_4832	260
PSPTO_4833	430
PSPTO_4834	98
PSPTO_4835	21
PSPTO_4836	157
PSPTO_4837	575
PSPTO_4838	13
PSPTO_4839	826
PSPTO_4840	256
PSPTO_4841	119
PSPTO_4842	399
PSPTO_4843	205
PSPTO_4844	134
PSPTO_4845	459
PSPTO_4846	54
PSPTO_4847	182
PSPTO_4848	251
PSPTO_4849	67
PSPTO_4850	111
PSPTO_4851	99
PSPTO_4852	78
PSPTO_4853	157
PSPTO_4854	71
PSPTO_4855	79
PSPTO_4856	64
PSPTO_4857	26
PSPTO_4858	187
PSPTO_4859	264
PSPTO_4860	366
PSPTO_4861	949
PSPTO_4862	100
PSPTO_4863	108
PSPTO_4864	147
PSPTO_4865	58
PSPTO_4866	215
PSPTO_4867	265
PSPTO_4868	219
PSPTO_4869	72
PSPTO_4870	54
PSPTO_4871	26
PSPTO_4872	30
PSPTO_4873	55
PSPTO_4874	210
PSPTO_4875	96
PSPTO_4876	78
PSPTO_4877	203
PSPTO_4878	157
PSPTO_4879	111
PSPTO_4880	79
PSPTO_4881	46
PSPTO_4882	71
PSPTO_4883	144
PSPTO_4884	100
PSPTO_4885	122
PSPTO_4886	116
PSPTO_4887	81
PSPTO_4888	51
PSPTO_4889	64
PSPTO_4890	92
PSPTO_4891	55
PSPTO_4892	70
PSPTO_4893	83
PSPTO_4894	35
PSPTO_4895	270
PSPTO_4896	404
PSPTO_4897	197
PSPTO_4898	117
PSPTO_4899	97
PSPTO_4900	204
PSPTO_4901	70
PSPTO_4902	69
PSPTO_4903	386
PSPTO_4905	72
PSPTO_4906	92
PSPTO_4907	286
PSPTO_4908	102
PSPTO_4909	32
PSPTO_4910	60
PSPTO_4911	55
PSPTO_4912	88
PSPTO_4913	181
PSPTO_4914	232
PSPTO_4915	71
PSPTO_4916	103
PSPTO_4917	126
PSPTO_4918	109
PSPTO_4919	947
PSPTO_4920	95
PSPTO_4921	161
PSPTO_4922	240
PSPTO_4923	354
PSPTO_4924	212
PSPTO_4925	893
PSPTO_4926	458
PSPTO_4927	200
PSPTO_4928	648
PSPTO_4929	225
PSPTO_4930	1022
PSPTO_4931	1361
PSPTO_4932	756
PSPTO_4933	1138
PSPTO_4934	210
PSPTO_4935	1123
PSPTO_4936	520
PSPTO_4937	312
PSPTO_4938	182
PSPTO_4939	536
PSPTO_4940	560
PSPTO_4941	1012
PSPTO_4942	310
PSPTO_4943	292
PSPTO_4944	344
PSPTO_4945	244
PSPTO_4946	104
PSPTO_4947	241
PSPTO_4948	148
PSPTO_4949	94
PSPTO_4950	125
PSPTO_4951	162
PSPTO_4952	864
PSPTO_4953	1524
PSPTO_4954	396
PSPTO_4955	498
PSPTO_4956	486
PSPTO_4957	235
PSPTO_4958	294
PSPTO_4959	407
PSPTO_4960	392
PSPTO_4961	52
PSPTO_4962	168
PSPTO_4963	397
PSPTO_4964	195
PSPTO_4965	210
PSPTO_4966	152
PSPTO_4967	132
PSPTO_4968	56
PSPTO_4969	163
PSPTO_4970	437
PSPTO_4971	212
PSPTO_4972	178
PSPTO_4973	255
PSPTO_4974	181
PSPTO_4975	190
PSPTO_4976	585
PSPTO_4977	208
PSPTO_4978	225
PSPTO_4979	40
PSPTO_4980	251
PSPTO_4981	210
PSPTO_4982	152
PSPTO_4983	316
PSPTO_4984	236
PSPTO_4985	155
PSPTO_4986	135
PSPTO_4987	76
PSPTO_4988	131
PSPTO_4989	129
PSPTO_4990	131
PSPTO_4991	220
PSPTO_4992	365
PSPTO_4993	227
PSPTO_4994	155
PSPTO_4995	8
PSPTO_4996	165
PSPTO_4997	214
PSPTO_4998	83
PSPTO_4999	80
PSPTO_5000	99
PSPTO_5001	110
PSPTO_5002	134
PSPTO_5003	129
PSPTO_5004	395
PSPTO_5005	1994
PSPTO_5006	820
PSPTO_5007	152
PSPTO_5008	113
PSPTO_5009	221
PSPTO_5010	379
PSPTO_5011	93
PSPTO_5012	41
PSPTO_5013	43
PSPTO_5014	276
PSPTO_5015	285
PSPTO_5016	170
PSPTO_5017	1008
PSPTO_5018	92
PSPTO_5019	77
PSPTO_5020	309
PSPTO_5021	167
PSPTO_5022	225
PSPTO_5023	219
PSPTO_5024	654
PSPTO_5025	53
PSPTO_5026	11
PSPTO_5027	101
PSPTO_5028	195
PSPTO_5029	91
PSPTO_5030	957
PSPTO_5031	308
PSPTO_5032	84
PSPTO_5033	93
PSPTO_5034	131
PSPTO_5035	221
PSPTO_5036	148
PSPTO_5037	217
PSPTO_5038	97
PSPTO_5039	132
PSPTO_5040	207
PSPTO_5041	262
PSPTO_5043	180
PSPTO_5044	113
PSPTO_5045	230
PSPTO_5046	99
PSPTO_5047	141
PSPTO_5048	86
PSPTO_5049	132
PSPTO_5050	80
PSPTO_5051	63
PSPTO_5052	134
PSPTO_5053	34
PSPTO_5054	128
PSPTO_5055	218
PSPTO_5056	118
PSPTO_5057	477
PSPTO_5058	369
PSPTO_5059	30
PSPTO_5060	65
PSPTO_5061	93
PSPTO_5062	53
PSPTO_5063	130
PSPTO_5064	102
PSPTO_5065	44
PSPTO_5066	112
PSPTO_5067	65
PSPTO_5068	2651
PSPTO_5069	303
PSPTO_5070	390
PSPTO_5071	1669
PSPTO_5072	895
PSPTO_5073	54
PSPTO_5074	161
PSPTO_5075	140
PSPTO_5076	77
PSPTO_5077	143
PSPTO_5078	53
PSPTO_5079	128
PSPTO_5080	80
PSPTO_5081	124
PSPTO_5082	70
PSPTO_5083	139
PSPTO_5084	128
PSPTO_5085	38
PSPTO_5086	163
PSPTO_5087	367
PSPTO_5088	10
PSPTO_5089	43
PSPTO_5090	179
PSPTO_5091	258
PSPTO_5092	122
PSPTO_5093	36
PSPTO_5094	48
PSPTO_5095	68
PSPTO_5096	190
PSPTO_5097	62
PSPTO_5098	122
PSPTO_5099	219
PSPTO_5100	41
PSPTO_5101	69
PSPTO_5102	269
PSPTO_5103	102
PSPTO_5104	182
PSPTO_5105	59
PSPTO_5106	50
PSPTO_5107	116
PSPTO_5108	40
PSPTO_5109	93
PSPTO_5110	145
PSPTO_5111	95
PSPTO_5112	99
PSPTO_5113	303
PSPTO_5114	43
PSPTO_5115	126
PSPTO_5116	65
PSPTO_5117	136
PSPTO_5118	178
PSPTO_5119	258
PSPTO_5120	99
PSPTO_5121	249
PSPTO_5122	12
PSPTO_5123	812
PSPTO_5124	10
PSPTO_5125	562
PSPTO_5126	269
PSPTO_5127	241
PSPTO_5128	1065
PSPTO_5129	231
PSPTO_5130	113
PSPTO_5131	105
PSPTO_5132	356
PSPTO_5133	313
PSPTO_5134	955
PSPTO_5135	80
PSPTO_5136	270
PSPTO_5137	221
PSPTO_5138	313
PSPTO_5139	118
PSPTO_5140	143
PSPTO_5141	327
PSPTO_5142	37
PSPTO_5143	220
PSPTO_5144	75
PSPTO_5145	113
PSPTO_5146	28
PSPTO_5147	1032
PSPTO_5148	120
PSPTO_5149	78
PSPTO_5150	286
PSPTO_5151	125
PSPTO_5152	177
PSPTO_5153	177
PSPTO_5154	175
PSPTO_5155	112
PSPTO_5156	119
PSPTO_5157	127
PSPTO_5158	87
PSPTO_5159	549
PSPTO_5160	104
PSPTO_5161	1244
PSPTO_5162	1537
PSPTO_5163	166
PSPTO_5164	361
PSPTO_5165	694
PSPTO_5166	240
PSPTO_5167	252
PSPTO_5168	748
PSPTO_5169	85
PSPTO_5170	282
PSPTO_5171	395
PSPTO_5172	147
PSPTO_5173	77
PSPTO_5174	123
PSPTO_5175	231
PSPTO_5176	129
PSPTO_5177	105
PSPTO_5178	386
PSPTO_5179	195
PSPTO_5180	241
PSPTO_5181	116
PSPTO_5182	124
PSPTO_5183	30
PSPTO_5184	105
PSPTO_5185	76
PSPTO_5186	102
PSPTO_5187	63
PSPTO_5188	90
PSPTO_5189	59
PSPTO_5190	84
PSPTO_5191	457
PSPTO_5192	135
PSPTO_5193	141
PSPTO_5194	136
PSPTO_5195	64
PSPTO_5196	58
PSPTO_5197	76
PSPTO_5198	102
PSPTO_5199	30
PSPTO_5200	196
PSPTO_5201	77
PSPTO_5202	304
PSPTO_5203	253
PSPTO_5204	374
PSPTO_5205	26
PSPTO_5206	146
PSPTO_5207	56
PSPTO_5208	20
PSPTO_5209	310
PSPTO_5210	193
PSPTO_5211	52
PSPTO_5212	162
PSPTO_5213	12
PSPTO_5214	15
PSPTO_5215	174
PSPTO_5216	195
PSPTO_5217	67
PSPTO_5218	91
PSPTO_5219	142
PSPTO_5220	233
PSPTO_5221	257
PSPTO_5222	273
PSPTO_5223	204
PSPTO_5224	113
PSPTO_5225	92
PSPTO_5226	252
PSPTO_5227	103
PSPTO_5228	36
PSPTO_5229	65
PSPTO_5230	919
PSPTO_5231	46
PSPTO_5232	181
PSPTO_5233	26
PSPTO_5234	73
PSPTO_5235	35
PSPTO_5236	3
PSPTO_5237	36
PSPTO_5238	174
PSPTO_5239	186
PSPTO_5240	136
PSPTO_5241	363
PSPTO_5242	496
PSPTO_5243	319
PSPTO_5244	65
PSPTO_5245	64
PSPTO_5246	18
PSPTO_5247	31
PSPTO_5248	61
PSPTO_5249	413
PSPTO_5250	591
PSPTO_5251	185
PSPTO_5252	106
PSPTO_5253	272
PSPTO_5254	75
PSPTO_5255	130
PSPTO_5256	132
PSPTO_5257	310
PSPTO_5258	67
PSPTO_5259	48
PSPTO_5260	156
PSPTO_5261	63
PSPTO_5262	107
PSPTO_5263	122
PSPTO_5264	205
PSPTO_5265	72
PSPTO_5266	103
PSPTO_5267	72
PSPTO_5268	193
PSPTO_5269	244
PSPTO_5270	1494
PSPTO_5271	1288
PSPTO_5272	478
PSPTO_5273	423
PSPTO_5274	427
PSPTO_5275	367
PSPTO_5276	109
PSPTO_5277	116
PSPTO_5278	111
PSPTO_5279	1319
PSPTO_5280	51
PSPTO_5281	27
PSPTO_5282	144
PSPTO_5283	104
PSPTO_5284	905
PSPTO_5285	272
PSPTO_5286	102
PSPTO_5287	71
PSPTO_5288	186
PSPTO_5289	67
PSPTO_5290	86
PSPTO_5291	191
PSPTO_5292	254
PSPTO_5293	329
PSPTO_5294	623
PSPTO_5295	411
PSPTO_5296	102
PSPTO_5297	111
PSPTO_5298	25
PSPTO_5299	297
PSPTO_5300	281
PSPTO_5301	151
PSPTO_5302	64
PSPTO_5303	184
PSPTO_5304	170
PSPTO_5305	17
PSPTO_5306	166
PSPTO_5307	735
PSPTO_5308	308
PSPTO_5309	282
PSPTO_5310	528
PSPTO_5311	69
PSPTO_5312	157
PSPTO_5313	67
PSPTO_5314	96
PSPTO_5315	63
PSPTO_5316	136
PSPTO_5317	198
PSPTO_5318	551
PSPTO_5319	43
PSPTO_5320	62
PSPTO_5321	72
PSPTO_5322	53
PSPTO_5323	48
PSPTO_5324	270
PSPTO_5325	41
PSPTO_5326	58
PSPTO_5327	500
PSPTO_5328	186
PSPTO_5329	349
PSPTO_5330	75
PSPTO_5331	228
PSPTO_5332	64
PSPTO_5333	102
PSPTO_5334	145
PSPTO_5335	121
PSPTO_5336	30
PSPTO_5337	133
PSPTO_5338	159
PSPTO_5339	258
PSPTO_5340	6993
PSPTO_5341	315
PSPTO_5342	138
PSPTO_5343	41
PSPTO_5344	147
PSPTO_5345	192
PSPTO_5346	102
PSPTO_5347	30
PSPTO_5348	167
PSPTO_5349	8
PSPTO_5350	23
PSPTO_5351	127
PSPTO_5352	3369
PSPTO_5353	50
PSPTO_5354	146
PSPTO_5355	61
PSPTO_5356	610
PSPTO_5357	94
PSPTO_5358	334
PSPTO_5359	54
PSPTO_5360	79
PSPTO_5361	116
PSPTO_5362	68
PSPTO_5363	610
PSPTO_5364	2
PSPTO_5365	241
PSPTO_5367	22
PSPTO_5368	185
PSPTO_5370	95
PSPTO_5371	16
PSPTO_5373	154
PSPTO_5374	83
PSPTO_5375	64
PSPTO_5376	58
PSPTO_5377	143
PSPTO_5378	99
PSPTO_5379	80
PSPTO_5380	155
PSPTO_5381	147
PSPTO_5382	116
PSPTO_5383	102
PSPTO_5384	197
PSPTO_5385	185
PSPTO_5386	31
PSPTO_5387	39
PSPTO_5388	18
PSPTO_5389	47
PSPTO_5390	47
PSPTO_5391	207
PSPTO_5392	268
PSPTO_5393	138
PSPTO_5394	76
PSPTO_5395	306
PSPTO_5396	222
PSPTO_5397	199
PSPTO_5398	177
PSPTO_5399	159
PSPTO_5400	65
PSPTO_5401	122
PSPTO_5402	111
PSPTO_5403	77
PSPTO_5404	196
PSPTO_5405	180
PSPTO_5406	346
PSPTO_5407	938
PSPTO_5408	368
PSPTO_5409	187
PSPTO_5410	105
PSPTO_5411	156
PSPTO_5412	19
PSPTO_5413	594
PSPTO_5414	264
PSPTO_5415	233
PSPTO_5416	141
PSPTO_5417	122
PSPTO_5418	477
PSPTO_5419	113
PSPTO_5420	139
PSPTO_5421	54
PSPTO_5422	178
PSPTO_5423	22
PSPTO_5424	117
PSPTO_5425	350
PSPTO_5426	105
PSPTO_5427	128
PSPTO_5428	191
PSPTO_5430	153
PSPTO_5431	157
PSPTO_5432	1526
PSPTO_5433	514
PSPTO_5434	533
PSPTO_5435	2711
PSPTO_5436	199
PSPTO_5437	110
PSPTO_5438	620
PSPTO_5439	73
PSPTO_5440	215
PSPTO_5441	104
PSPTO_5442	42
PSPTO_5443	170
PSPTO_5444	9
PSPTO_5445	156
PSPTO_5446	29
PSPTO_5447	83
PSPTO_5448	261
PSPTO_5449	45
PSPTO_5450	43
PSPTO_5451	229
PSPTO_5452	154
PSPTO_5453	277
PSPTO_5454	182
PSPTO_5455	70
PSPTO_5456	76
PSPTO_5457	219
PSPTO_5458	54
PSPTO_5460	1389
PSPTO_5461	4007
PSPTO_5462	55
PSPTO_5463	125
PSPTO_5464	107
PSPTO_5465	95
PSPTO_5466	173
PSPTO_5467	90
PSPTO_5468	75
PSPTO_5469	194
PSPTO_5470	33
PSPTO_5471	15
PSPTO_5472	439
PSPTO_5473	288
PSPTO_5474	54
PSPTO_5475	56
PSPTO_5476	64
PSPTO_5477	114
PSPTO_5478	91
PSPTO_5479	188
PSPTO_5480	78
PSPTO_5481	444
PSPTO_5482	1002
PSPTO_5483	172
PSPTO_5484	161
PSPTO_5485	171
PSPTO_5486	164
PSPTO_5487	94
PSPTO_5488	203
PSPTO_5489	86
PSPTO_5490	206
PSPTO_5491	138
PSPTO_5492	198
PSPTO_5493	156
PSPTO_5494	83
PSPTO_5495	16
PSPTO_5496	13
PSPTO_5497	30
PSPTO_5498	149
PSPTO_5499	321
PSPTO_5500	261
PSPTO_5501	192
PSPTO_5502	89
PSPTO_5503	144
PSPTO_5504	153
PSPTO_5505	86
PSPTO_5506	52
PSPTO_5507	114
PSPTO_5508	41
PSPTO_5509	149
PSPTO_5510	566
PSPTO_5511	470
PSPTO_5512	36
PSPTO_5513	56
PSPTO_5514	45
PSPTO_5515	182
PSPTO_5516	350
PSPTO_5517	211
PSPTO_5518	268
PSPTO_5519	140
PSPTO_5520	121
PSPTO_5521	156
PSPTO_5522	240
PSPTO_5523	123
PSPTO_5524	58
PSPTO_5525	68
PSPTO_5526	112
PSPTO_5527	64
PSPTO_5528	308
PSPTO_5529	364
PSPTO_5530	129
PSPTO_5531	132
PSPTO_5532	201
PSPTO_5533	119
PSPTO_5534	93
PSPTO_5535	210
PSPTO_5536	60
PSPTO_5537	235
PSPTO_5538	145
PSPTO_5539	31
PSPTO_5540	41
PSPTO_5541	84
PSPTO_5542	292
PSPTO_5543	162
PSPTO_5544	19
PSPTO_5545	76
PSPTO_5546	52
PSPTO_5547	181
PSPTO_5548	94
PSPTO_5549	146
PSPTO_5550	128
PSPTO_5551	119
PSPTO_5552	11
PSPTO_5553	267
PSPTO_5554	462
PSPTO_5555	46
PSPTO_5556	198
PSPTO_5557	113
PSPTO_5558	64
PSPTO_5559	63
PSPTO_5560	142
PSPTO_5561	60
PSPTO_5562	63
PSPTO_5563	85
PSPTO_5564	206
PSPTO_5565	95
PSPTO_5566	195
PSPTO_5567	54
PSPTO_5568	27
PSPTO_5569	171
PSPTO_5570	17
PSPTO_5571	243
PSPTO_5572	196
PSPTO_5573	154
PSPTO_5574	147
PSPTO_5575	68
PSPTO_5576	64
PSPTO_5577	7
PSPTO_5578	44
PSPTO_5579	74
PSPTO_5580	128
PSPTO_5581	24
PSPTO_5582	189
PSPTO_5583	66
PSPTO_5584	69
PSPTO_5585	43
PSPTO_5586	60
PSPTO_5587	55
PSPTO_5588	73
PSPTO_5589	95
PSPTO_5590	20
PSPTO_5591	176
PSPTO_5592	92
PSPTO_5593	53
PSPTO_5594	445
PSPTO_5595	539
PSPTO_5596	166
PSPTO_5597	322
PSPTO_5598	252
PSPTO_5599	1311
PSPTO_5600	605
PSPTO_5601	1449
PSPTO_5602	406
PSPTO_5603	541
PSPTO_5604	246
PSPTO_5605	203
PSPTO_5606	92
PSPTO_5607	155
PSPTO_5608	175
PSPTO_5609	102
PSPTO_5610	447
PSPTO_5611	122
PSPTO_5612	475
PSPTO_5613	115
PSPTO_5614	303
PSPTO_5615	205
PSPTO_5616	2
PSPTO_5617	55
PSPTO_5618	21
PSPTO_5619	25
PSPTO_5620	36
PSPTO_5621	41
PSPTO_5622	21
PSPTO_5623	2
PSPTO_5624	1242
PSPTO_5625	108
PSPTO_5626	15
PSPTO_5627	27
PSPTO_5628	39
PSPTO_5629	146
PSPTO_5630	83
PSPTO_5631	78
PSPTO_5632	134
PSPTO_5633	484
PSPTO_5634	139
PSPTO_5635	2707
PSPTO_5636	375
PSPTO_5637	47
PSPTO_5638	334
PSPTO_5639	133
PSPTO_5640	177
PSPTO_5641	117
PSPTO_5642	17
PSPTO_5643	10
PSPTO_5644	303
PSPTO_5645	352
PSPTO_5646	102
PSPTO_5647	43
PSPTO_5648	30
PSPTO_5649	33
PSPTO_5650	30
PSPTO_5651	214
PSPTO_5652	39
PSPTO_5653	33
PSPTO_5654	13
PSPTO_5655	65
PSPTO_5656	179
PSPTO_5657	44
PSPTO_5658	8
PSPTO_5659	28
PSPTO_5660	14
PSPTO_5661	110443
PSPTO_5662	140
PSPTO_5663	296715
PSPTO_5664	28
PSPTO_5665	18
PSPTO_5666	1431
PSPTO_5667	152
PSPTO_5668	26344
PSPTO_5669	23750
PSPTO_5670	82
PSPTO_5671	7
PSPTO_5672	18
PSPTO_5673	33
PSPTO_5674	18
PSPTO_5675	35
PSPTO_A0072	990
PSPTO_A0073	4
PSPTO_B0001	249
PSPTO_B0002	123
PSPTO_B0003	427
PSPTO_B0004	13
PSPTO_B0005	736
PSPTO_B0006	28
PSPTO_B0007	669
PSPTO_B0008	53
PSPTO_B0009	287
PSPTO_B0010	2866
PSPTO_B0011	949
PSPTO_B0012	532
PSPTO_B0013	119
PSPTO_B0014	145
PSPTO_B0015	83
PSPTO_B0016	123
PSPTO_B0017	25
PSPTO_B0018	163
PSPTO_B0019	137
PSPTO_B0020	414
PSPTO_B0021	740
PSPTO_B0022	87
PSPTO_B0023	341
PSPTO_B0024	86
PSPTO_B0025	146
PSPTO_B0026	216
PSPTO_B0027	185
PSPTO_B0028	53
PSPTO_B0029	79
PSPTO_B0030	110
PSPTO_B0031	16
PSPTO_B0032	224
PSPTO_B0033	74
PSPTO_B0034	117
PSPTO_B0035	111
PSPTO_B0036	578
PSPTO_B0037	58
PSPTO_B0038	90
PSPTO_B0039	69
PSPTO_B0040	82
PSPTO_B0041	81
PSPTO_B0042	513
PSPTO_B0043	420
PSPTO_B0044	133
PSPTO_B0045	228
PSPTO_B0046	124
PSPTO_B0047	57
PSPTO_B0048	30
PSPTO_B0049	70
PSPTO_B0050	78
PSPTO_B0051	164
PSPTO_B0052	194
PSPTO_B0053	168
PSPTO_B0054	64
PSPTO_B0055	222
PSPTO_B0056	68
PSPTO_B0057	1264
PSPTO_B0058	56
PSPTO_B0059	117
PSPTO_B0060	181
PSPTO_B0061	260
PSPTO_B0062	89
PSPTO_B0063	86
PSPTO_B0064	92
PSPTO_B0065	15
PSPTO_B0066	359
PSPTO_B0067	248
PSPTO_B0068	92
PSPTO_B0069	536
PSPTO_B0070	397
PSPTO_B0071	871
PSPTO_B0072	281
PSPTO_B0073	101
PSPTO_B0074	39
PSPTO_B0075	134
PSPTO_B0076	464
PSPTO_B0077	76
PSPTO_r01	28547
PSPTO_r02	162314
PSPTO_r03	11
PSPTO_r04	28321
PSPTO_r05	161439
PSPTO_r06	14
PSPTO_r07	28395
PSPTO_r08	161428
PSPTO_r09	7
PSPTO_r10	17
PSPTO_r11	157648
PSPTO_r12	32630
PSPTO_r13	11
PSPTO_r14	186127
PSPTO_r15	32797
PSPTO_t01	34
PSPTO_t02	0
PSPTO_t03	42
PSPTO_t04	21
PSPTO_t05	74
PSPTO_t06	3
PSPTO_t07	17
PSPTO_t08	46
PSPTO_t09	36
PSPTO_t10	37
PSPTO_t11	142
PSPTO_t12	61
PSPTO_t13	31
PSPTO_t14	53
PSPTO_t15	46
PSPTO_t16	30
PSPTO_t17	15
PSPTO_t18	143
PSPTO_t19	8
PSPTO_t20	9
PSPTO_t21	21
PSPTO_t22	32
PSPTO_t23	5
PSPTO_t24	351
PSPTO_t25	109
PSPTO_t26	64
PSPTO_t27	25
PSPTO_t28	7
PSPTO_t29	21
PSPTO_t30	34
PSPTO_t31	23
PSPTO_t32	5
PSPTO_t33	45
PSPTO_t34	11
PSPTO_t35	4
PSPTO_t36	12
PSPTO_t37	49
PSPTO_t38	11
PSPTO_t39	11
PSPTO_t40	7
PSPTO_t41	41
PSPTO_t42	49
PSPTO_t43	10
PSPTO_t44	28
PSPTO_t45	158
PSPTO_t46	42
PSPTO_t47	54
PSPTO_t48	62
PSPTO_t49	19
PSPTO_t50	6
PSPTO_t51	32
PSPTO_t52	7
PSPTO_t53	5
PSPTO_t54	6
PSPTO_t55	72
PSPTO_t56	28
PSPTO_t57	22
PSPTO_t58	14
PSPTO_t59	4
PSPTO_t60	5
PSPTO_t61	1
PSPTO_t62	41
PSPTO_t63	44
__no_feature	1009302
__ambiguous	52745
__too_low_aQual	0
__not_aligned	6320599
__alignment_not_unique	0
