PSPTOA0001	144
PSPTOA0002	23
PSPTOA0003	13
PSPTOA0004	76
PSPTOA0005	50
PSPTOA0006	63
PSPTOA0007	124
PSPTOA0008	95
PSPTOA0009	82
PSPTOA0010	230
PSPTOA0011	98
PSPTOA0012	106
PSPTOA0013	22
PSPTOA0014	92
PSPTOA0015	28
PSPTOA0016	26
PSPTOA0017	40
PSPTOA0018	74
PSPTOA0019	131
PSPTOA0020	10
PSPTOA0021	34
PSPTOA0022	25
PSPTOA0023	65
PSPTOA0024	63
PSPTOA0025	32
PSPTOA0026	12
PSPTOA0027	28
PSPTOA0028	19
PSPTOA0029	130
PSPTOA0030	52
PSPTOA0031	202
PSPTOA0032	184
PSPTOA0033	32
PSPTOA0034	71
PSPTOA0035	133
PSPTOA0036	147
PSPTOA0037	149
PSPTOA0038	21
PSPTOA0039	37
PSPTOA0040	46
PSPTOA0041	6
PSPTOA0042	25
PSPTOA0043	39
PSPTOA0044	47
PSPTOA0045	35
PSPTOA0046	8
PSPTOA0047	41
PSPTOA0048	30
PSPTOA0049	307
PSPTOA0050	15
PSPTOA0051	27
PSPTOA0052	92
PSPTOA0053	95
PSPTOA0054	25
PSPTOA0055	59
PSPTOA0056	31
PSPTOA0057	38
PSPTOA0058	22
PSPTOA0059	82
PSPTOA0060	179
PSPTOA0061	17
PSPTOA0062	152
PSPTOA0063	32
PSPTOA0064	150
PSPTOA0065	272
PSPTOA0066	64
PSPTOA0067	105
PSPTOA0068	135
PSPTOA0069	27
PSPTOA0070	14
PSPTOA0071	11
PSPTO_0001	115
PSPTO_0002	64
PSPTO_0003	42
PSPTO_0004	123
PSPTO_0005	90
PSPTO_0006	51
PSPTO_0007	22
PSPTO_0008	96
PSPTO_0009	38
PSPTO_0011	59
PSPTO_0012	19
PSPTO_0013	19
PSPTO_0014	17
PSPTO_0015	30
PSPTO_0016	23
PSPTO_0017	62
PSPTO_0018	33
PSPTO_0019	17
PSPTO_0020	8
PSPTO_0021	81
PSPTO_0022	40
PSPTO_0023	31
PSPTO_0024	5
PSPTO_0025	42
PSPTO_0026	23
PSPTO_0027	17
PSPTO_0028	61
PSPTO_0029	22
PSPTO_0030	54
PSPTO_0031	32
PSPTO_0032	30
PSPTO_0033	21
PSPTO_0034	33
PSPTO_0035	47
PSPTO_0036	8
PSPTO_0037	189
PSPTO_0038	54
PSPTO_0039	58
PSPTO_0040	6
PSPTO_0041	4
PSPTO_0042	41
PSPTO_0043	151
PSPTO_0044	28
PSPTO_0045	19
PSPTO_0046	64
PSPTO_0047	70
PSPTO_0048	31
PSPTO_0049	36
PSPTO_0050	59
PSPTO_0051	25
PSPTO_0052	87
PSPTO_0053	33
PSPTO_0054	23
PSPTO_0055	24
PSPTO_0056	26
PSPTO_0057	26
PSPTO_0058	46
PSPTO_0059	26
PSPTO_0060	36
PSPTO_0061	35
PSPTO_0062	57
PSPTO_0063	17
PSPTO_0064	176
PSPTO_0065	107
PSPTO_0066	37
PSPTO_0067	87
PSPTO_0068	57
PSPTO_0069	162
PSPTO_0070	72
PSPTO_0071	31
PSPTO_0072	19
PSPTO_0073	93
PSPTO_0074	54
PSPTO_0075	42
PSPTO_0076	76
PSPTO_0077	62
PSPTO_0078	33
PSPTO_0079	48
PSPTO_0080	38
PSPTO_0081	51
PSPTO_0082	64
PSPTO_0083	80
PSPTO_0084	21
PSPTO_0085	119
PSPTO_0086	25
PSPTO_0087	58
PSPTO_0088	2
PSPTO_0089	42
PSPTO_0090	24
PSPTO_0091	44
PSPTO_0092	145
PSPTO_0093	13
PSPTO_0094	69
PSPTO_0095	117
PSPTO_0096	123
PSPTO_0097	21
PSPTO_0098	100
PSPTO_0099	34
PSPTO_0100	32
PSPTO_0101	160
PSPTO_0102	20
PSPTO_0103	90
PSPTO_0104	3
PSPTO_0105	55
PSPTO_0106	31
PSPTO_0107	128
PSPTO_0108	70
PSPTO_0109	76
PSPTO_0110	58
PSPTO_0111	77
PSPTO_0112	22
PSPTO_0113	64
PSPTO_0114	103
PSPTO_0115	100
PSPTO_0116	72
PSPTO_0117	151
PSPTO_0118	85
PSPTO_0119	74
PSPTO_0120	56
PSPTO_0121	79
PSPTO_0123	17
PSPTO_0124	40
PSPTO_0125	93
PSPTO_0126	81
PSPTO_0127	50
PSPTO_0128	58
PSPTO_0129	48
PSPTO_0130	107
PSPTO_0131	113
PSPTO_0132	23
PSPTO_0133	4
PSPTO_0134	68
PSPTO_0135	37
PSPTO_0136	245
PSPTO_0137	37
PSPTO_0138	150
PSPTO_0139	49
PSPTO_0140	41
PSPTO_0141	161
PSPTO_0142	11
PSPTO_0143	16
PSPTO_0144	190
PSPTO_0145	24
PSPTO_0146	59
PSPTO_0147	33
PSPTO_0148	84
PSPTO_0149	41
PSPTO_0150	12
PSPTO_0151	6
PSPTO_0152	39
PSPTO_0153	74
PSPTO_0154	38
PSPTO_0155	29
PSPTO_0156	26
PSPTO_0157	56
PSPTO_0158	97
PSPTO_0159	52
PSPTO_0161	43
PSPTO_0162	92
PSPTO_0163	24
PSPTO_0164	58
PSPTO_0165	68
PSPTO_0166	33
PSPTO_0167	80
PSPTO_0168	141
PSPTO_0169	82
PSPTO_0170	72
PSPTO_0171	32
PSPTO_0172	10
PSPTO_0173	89
PSPTO_0174	49
PSPTO_0175	95
PSPTO_0176	47
PSPTO_0177	31
PSPTO_0178	66
PSPTO_0179	101
PSPTO_0180	91
PSPTO_0181	117
PSPTO_0182	59
PSPTO_0183	24
PSPTO_0184	40
PSPTO_0185	182
PSPTO_0186	42
PSPTO_0187	26
PSPTO_0188	26
PSPTO_0189	15
PSPTO_0190	11
PSPTO_0191	9
PSPTO_0192	35
PSPTO_0193	28
PSPTO_0194	22
PSPTO_0196	59
PSPTO_0197	11
PSPTO_0200	55
PSPTO_0201	54
PSPTO_0202	43
PSPTO_0203	46
PSPTO_0205	40
PSPTO_0206	71
PSPTO_0207	9
PSPTO_0208	17
PSPTO_0209	37
PSPTO_0210	20
PSPTO_0211	35
PSPTO_0212	36
PSPTO_0213	9
PSPTO_0214	16
PSPTO_0215	16
PSPTO_0216	8
PSPTO_0217	57
PSPTO_0218	57
PSPTO_0219	32
PSPTO_0220	18
PSPTO_0221	62
PSPTO_0222	63
PSPTO_0223	44
PSPTO_0224	57
PSPTO_0225	110
PSPTO_0226	8
PSPTO_0227	14
PSPTO_0228	15
PSPTO_0229	36
PSPTO_0230	110
PSPTO_0231	69
PSPTO_0232	18
PSPTO_0233	27
PSPTO_0234	48
PSPTO_0235	18
PSPTO_0236	18
PSPTO_0237	24
PSPTO_0238	81
PSPTO_0239	69
PSPTO_0240	30
PSPTO_0241	21
PSPTO_0242	9
PSPTO_0243	29
PSPTO_0244	42
PSPTO_0245	30
PSPTO_0246	13
PSPTO_0247	13
PSPTO_0248	82
PSPTO_0249	95
PSPTO_0250	43
PSPTO_0251	33
PSPTO_0252	123
PSPTO_0253	16
PSPTO_0254	126
PSPTO_0255	85
PSPTO_0256	99
PSPTO_0257	126
PSPTO_0258	53
PSPTO_0259	47
PSPTO_0260	54
PSPTO_0261	27
PSPTO_0262	11
PSPTO_0263	109
PSPTO_0264	100
PSPTO_0265	50
PSPTO_0266	53
PSPTO_0267	54
PSPTO_0268	82
PSPTO_0269	12
PSPTO_0270	39
PSPTO_0271	35
PSPTO_0272	118
PSPTO_0273	23
PSPTO_0274	8
PSPTO_0275	56
PSPTO_0276	50
PSPTO_0277	20
PSPTO_0278	22
PSPTO_0279	21
PSPTO_0280	30
PSPTO_0281	20
PSPTO_0282	48
PSPTO_0283	4
PSPTO_0284	10
PSPTO_0285	27
PSPTO_0286	70
PSPTO_0287	60
PSPTO_0288	3
PSPTO_0289	4
PSPTO_0290	16
PSPTO_0291	25
PSPTO_0292	19
PSPTO_0293	5
PSPTO_0294	7
PSPTO_0295	8
PSPTO_0296	7
PSPTO_0297	13
PSPTO_0298	72
PSPTO_0299	87
PSPTO_0300	144
PSPTO_0301	117
PSPTO_0302	6
PSPTO_0303	100
PSPTO_0304	63
PSPTO_0305	41
PSPTO_0306	121
PSPTO_0307	3
PSPTO_0308	42
PSPTO_0309	39
PSPTO_0310	33
PSPTO_0311	58
PSPTO_0312	55
PSPTO_0313	50
PSPTO_0314	83
PSPTO_0315	87
PSPTO_0316	58
PSPTO_0317	22
PSPTO_0318	73
PSPTO_0319	78
PSPTO_0320	7
PSPTO_0321	29
PSPTO_0322	108
PSPTO_0323	100
PSPTO_0324	104
PSPTO_0325	63
PSPTO_0326	35
PSPTO_0327	144
PSPTO_0328	58
PSPTO_0329	76
PSPTO_0330	41
PSPTO_0331	4
PSPTO_0332	17
PSPTO_0333	24
PSPTO_0334	88
PSPTO_0335	103
PSPTO_0336	15
PSPTO_0337	18
PSPTO_0338	39
PSPTO_0339	103
PSPTO_0340	57
PSPTO_0341	51
PSPTO_0342	5
PSPTO_0343	26
PSPTO_0344	173
PSPTO_0345	27
PSPTO_0346	44
PSPTO_0347	80
PSPTO_0348	105
PSPTO_0349	115
PSPTO_0350	61
PSPTO_0351	77
PSPTO_0352	110
PSPTO_0353	28
PSPTO_0354	3
PSPTO_0355	32
PSPTO_0356	40
PSPTO_0357	19
PSPTO_0358	28
PSPTO_0359	142
PSPTO_0360	54
PSPTO_0361	89
PSPTO_0362	51
PSPTO_0363	30
PSPTO_0364	49
PSPTO_0365	57
PSPTO_0366	52
PSPTO_0367	24
PSPTO_0368	17
PSPTO_0369	42
PSPTO_0370	65
PSPTO_0371	26
PSPTO_0372	63
PSPTO_0373	129
PSPTO_0374	33
PSPTO_0375	203
PSPTO_0376	80
PSPTO_0377	69
PSPTO_0378	32
PSPTO_0379	58
PSPTO_0380	34
PSPTO_0381	12
PSPTO_0382	89
PSPTO_0383	76
PSPTO_0384	69
PSPTO_0385	214
PSPTO_0386	28
PSPTO_0387	79
PSPTO_0388	10
PSPTO_0389	21
PSPTO_0390	66
PSPTO_0391	15
PSPTO_0393	14
PSPTO_0394	14
PSPTO_0395	8
PSPTO_0396	92
PSPTO_0397	138
PSPTO_0398	83
PSPTO_0399	40
PSPTO_0400	41
PSPTO_0401	43
PSPTO_0402	29
PSPTO_0403	25
PSPTO_0404	57
PSPTO_0405	134
PSPTO_0406	180
PSPTO_0407	81
PSPTO_0408	93
PSPTO_0409	92
PSPTO_0410	65
PSPTO_0411	24
PSPTO_0412	38
PSPTO_0413	18
PSPTO_0414	60
PSPTO_0415	21
PSPTO_0416	10
PSPTO_0417	20
PSPTO_0418	46
PSPTO_0419	26
PSPTO_0420	61
PSPTO_0421	60
PSPTO_0422	9
PSPTO_0423	9
PSPTO_0424	44
PSPTO_0425	85
PSPTO_0426	59
PSPTO_0427	87
PSPTO_0428	43
PSPTO_0429	59
PSPTO_0430	257
PSPTO_0431	47
PSPTO_0432	30
PSPTO_0433	17
PSPTO_0434	52
PSPTO_0435	47
PSPTO_0436	24
PSPTO_0437	39
PSPTO_0438	91
PSPTO_0439	101
PSPTO_0440	9
PSPTO_0441	59
PSPTO_0442	7
PSPTO_0443	88
PSPTO_0444	43
PSPTO_0445	92
PSPTO_0446	69
PSPTO_0447	12
PSPTO_0448	64
PSPTO_0449	17
PSPTO_0450	32
PSPTO_0451	10
PSPTO_0452	31
PSPTO_0453	26
PSPTO_0454	25
PSPTO_0455	137
PSPTO_0456	37
PSPTO_0457	52
PSPTO_0458	177
PSPTO_0459	11
PSPTO_0460	39
PSPTO_0461	48
PSPTO_0462	76
PSPTO_0463	24
PSPTO_0464	16
PSPTO_0465	81
PSPTO_0466	64
PSPTO_0467	5
PSPTO_0468	8
PSPTO_0469	5
PSPTO_0470	64
PSPTO_0471	174
PSPTO_0472	23
PSPTO_0473	126
PSPTO_0474	22
PSPTO_0475	13
PSPTO_0476	14
PSPTO_0477	14
PSPTO_0478	29
PSPTO_0479	11
PSPTO_0480	124
PSPTO_0481	21
PSPTO_0482	22
PSPTO_0483	49
PSPTO_0484	39
PSPTO_0485	45
PSPTO_0486	42
PSPTO_0487	47
PSPTO_0488	54
PSPTO_0489	65
PSPTO_0490	46
PSPTO_0491	74
PSPTO_0492	44
PSPTO_0493	38
PSPTO_0494	106
PSPTO_0495	105
PSPTO_0496	56
PSPTO_0497	83
PSPTO_0498	64
PSPTO_0499	161
PSPTO_0500	156
PSPTO_0501	32
PSPTO_0502	22
PSPTO_0503	12
PSPTO_0505	70
PSPTO_0506	78
PSPTO_0507	19
PSPTO_0508	131
PSPTO_0509	34
PSPTO_0510	11
PSPTO_0511	43
PSPTO_0512	70
PSPTO_0513	29
PSPTO_0514	120
PSPTO_0515	18
PSPTO_0516	54
PSPTO_0517	47
PSPTO_0518	74
PSPTO_0519	33
PSPTO_0520	49
PSPTO_0521	11
PSPTO_0522	50
PSPTO_0523	28
PSPTO_0524	30
PSPTO_0525	10
PSPTO_0526	6
PSPTO_0527	45
PSPTO_0528	43
PSPTO_0529	34
PSPTO_0530	17
PSPTO_0531	18
PSPTO_0532	7
PSPTO_0533	36
PSPTO_0534	40
PSPTO_0535	21
PSPTO_0536	155
PSPTO_0537	400
PSPTO_0538	89
PSPTO_0539	46
PSPTO_0540	82
PSPTO_0541	37
PSPTO_0542	16
PSPTO_0543	22
PSPTO_0544	82
PSPTO_0545	485
PSPTO_0546	427
PSPTO_0547	1415
PSPTO_0548	17
PSPTO_0549	11
PSPTO_0550	14
PSPTO_0551	54
PSPTO_0552	84
PSPTO_0553	55
PSPTO_0554	167
PSPTO_0555	39
PSPTO_0556	43
PSPTO_0557	65
PSPTO_0558	86
PSPTO_0559	114
PSPTO_0560	30
PSPTO_0561	8
PSPTO_0562	55
PSPTO_0563	49
PSPTO_0564	40
PSPTO_0565	28
PSPTO_0566	30
PSPTO_0567	51
PSPTO_0568	59
PSPTO_0569	208
PSPTO_0570	14
PSPTO_0571	39
PSPTO_0572	33
PSPTO_0573	17
PSPTO_0574	13
PSPTO_0575	36
PSPTO_0576	7
PSPTO_0577	107
PSPTO_0578	7
PSPTO_0579	12
PSPTO_0580	117
PSPTO_0581	99
PSPTO_0582	28
PSPTO_0583	28
PSPTO_0584	32
PSPTO_0585	29
PSPTO_0586	38
PSPTO_0587	89
PSPTO_0588	25
PSPTO_0589	47
PSPTO_0591	46
PSPTO_0592	30
PSPTO_0593	69
PSPTO_0594	57
PSPTO_0595	45
PSPTO_0596	19
PSPTO_0597	52
PSPTO_0598	26
PSPTO_0599	78
PSPTO_0600	20
PSPTO_0601	21
PSPTO_0602	21
PSPTO_0603	20
PSPTO_0604	104
PSPTO_0605	17
PSPTO_0606	64
PSPTO_0607	74
PSPTO_0608	0
PSPTO_0609	72
PSPTO_0610	28
PSPTO_0611	39
PSPTO_0612	6
PSPTO_0613	44
PSPTO_0614	89
PSPTO_0615	27
PSPTO_0616	68
PSPTO_0617	63
PSPTO_0618	30
PSPTO_0619	262
PSPTO_0620	395
PSPTO_0621	56
PSPTO_0622	81
PSPTO_0623	482
PSPTO_0624	512
PSPTO_0625	83
PSPTO_0626	165
PSPTO_0627	116
PSPTO_0628	56
PSPTO_0629	139
PSPTO_0630	64
PSPTO_0631	61
PSPTO_0632	139
PSPTO_0633	70
PSPTO_0634	8
PSPTO_0635	30
PSPTO_0636	65
PSPTO_0637	32
PSPTO_0638	90
PSPTO_0639	55
PSPTO_0640	78
PSPTO_0641	102
PSPTO_0642	37
PSPTO_0643	60
PSPTO_0644	16
PSPTO_0645	58
PSPTO_0646	178
PSPTO_0647	19
PSPTO_0648	87
PSPTO_0649	82
PSPTO_0650	101
PSPTO_0651	260
PSPTO_0652	74
PSPTO_0653	25
PSPTO_0654	106
PSPTO_0655	81
PSPTO_0656	71
PSPTO_0657	7
PSPTO_0658	37
PSPTO_0659	49
PSPTO_0660	46
PSPTO_0661	55
PSPTO_0662	33
PSPTO_0663	24
PSPTO_0664	77
PSPTO_0665	73
PSPTO_0666	29
PSPTO_0667	14
PSPTO_0668	12
PSPTO_0669	6
PSPTO_0670	54
PSPTO_0671	49
PSPTO_0672	19
PSPTO_0673	36
PSPTO_0674	40
PSPTO_0675	43
PSPTO_0676	141
PSPTO_0677	64
PSPTO_0678	55
PSPTO_0679	75
PSPTO_0680	25
PSPTO_0681	81
PSPTO_0682	37
PSPTO_0683	16
PSPTO_0684	21
PSPTO_0685	22
PSPTO_0686	77
PSPTO_0687	50
PSPTO_0688	38
PSPTO_0689	39
PSPTO_0690	113
PSPTO_0691	58
PSPTO_0692	97
PSPTO_0693	23
PSPTO_0694	20
PSPTO_0695	71
PSPTO_0696	53
PSPTO_0697	22
PSPTO_0698	113
PSPTO_0699	68
PSPTO_0700	8
PSPTO_0701	83
PSPTO_0702	25
PSPTO_0703	45
PSPTO_0704	38
PSPTO_0705	23
PSPTO_0706	21
PSPTO_0707	10
PSPTO_0708	3
PSPTO_0709	6
PSPTO_0710	6
PSPTO_0711	32
PSPTO_0712	8
PSPTO_0713	20
PSPTO_0714	45
PSPTO_0715	17
PSPTO_0716	10
PSPTO_0717	5
PSPTO_0718	2
PSPTO_0719	5
PSPTO_0720	20
PSPTO_0721	5
PSPTO_0722	41
PSPTO_0723	34
PSPTO_0724	29
PSPTO_0725	19
PSPTO_0726	75
PSPTO_0727	79
PSPTO_0728	315
PSPTO_0729	91
PSPTO_0730	45
PSPTO_0731	23
PSPTO_0732	52
PSPTO_0733	101
PSPTO_0734	20
PSPTO_0735	10
PSPTO_0736	34
PSPTO_0737	45
PSPTO_0738	38
PSPTO_0739	38
PSPTO_0740	54
PSPTO_0741	26
PSPTO_0742	85
PSPTO_0743	139
PSPTO_0744	107
PSPTO_0745	18
PSPTO_0746	92
PSPTO_0747	43
PSPTO_0748	90
PSPTO_0749	19
PSPTO_0750	167
PSPTO_0751	29
PSPTO_0752	18
PSPTO_0753	72
PSPTO_0754	82
PSPTO_0755	70
PSPTO_0756	64
PSPTO_0757	43
PSPTO_0758	49
PSPTO_0759	57
PSPTO_0760	86
PSPTO_0761	63
PSPTO_0762	73
PSPTO_0763	64
PSPTO_0764	66
PSPTO_0765	96
PSPTO_0766	48
PSPTO_0767	50
PSPTO_0768	60
PSPTO_0769	89
PSPTO_0770	39
PSPTO_0771	21
PSPTO_0772	73
PSPTO_0773	17
PSPTO_0774	97
PSPTO_0775	72
PSPTO_0776	145
PSPTO_0777	227
PSPTO_0778	160
PSPTO_0779	28
PSPTO_0780	41
PSPTO_0781	62
PSPTO_0782	111
PSPTO_0783	97
PSPTO_0784	76
PSPTO_0785	96
PSPTO_0786	49
PSPTO_0787	71
PSPTO_0788	57
PSPTO_0789	80
PSPTO_0790	73
PSPTO_0791	40
PSPTO_0792	21
PSPTO_0793	84
PSPTO_0794	58
PSPTO_0795	44
PSPTO_0796	71
PSPTO_0797	56
PSPTO_0798	34
PSPTO_0799	58
PSPTO_0800	107
PSPTO_0801	35
PSPTO_0802	27
PSPTO_0803	3
PSPTO_0804	51
PSPTO_0805	62
PSPTO_0806	161
PSPTO_0807	16
PSPTO_0808	12
PSPTO_0809	48
PSPTO_0810	9
PSPTO_0811	13
PSPTO_0812	18
PSPTO_0813	13
PSPTO_0814	20
PSPTO_0815	76
PSPTO_0816	12
PSPTO_0817	54
PSPTO_0818	10
PSPTO_0819	24
PSPTO_0820	155
PSPTO_0821	61
PSPTO_0822	16
PSPTO_0823	64
PSPTO_0824	69
PSPTO_0825	8
PSPTO_0826	75
PSPTO_0827	54
PSPTO_0828	37
PSPTO_0829	524
PSPTO_0830	35
PSPTO_0831	49
PSPTO_0832	32
PSPTO_0833	17
PSPTO_0834	54
PSPTO_0835	18
PSPTO_0836	13
PSPTO_0837	19
PSPTO_0838	42
PSPTO_0840	30
PSPTO_0841	24
PSPTO_0842	9
PSPTO_0844	45
PSPTO_0846	43
PSPTO_0847	6
PSPTO_0848	30
PSPTO_0849	25
PSPTO_0850	3
PSPTO_0851	25
PSPTO_0852	44
PSPTO_0853	84
PSPTO_0854	29
PSPTO_0855	45
PSPTO_0856	33
PSPTO_0857	14
PSPTO_0858	7
PSPTO_0859	49
PSPTO_0860	3
PSPTO_0861	19
PSPTO_0862	25
PSPTO_0863	23
PSPTO_0864	25
PSPTO_0865	21
PSPTO_0866	10
PSPTO_0867	7
PSPTO_0868	15
PSPTO_0869	10
PSPTO_0871	32
PSPTO_0873	48
PSPTO_0874	45
PSPTO_0875	42
PSPTO_0876	72
PSPTO_0877	54
PSPTO_0878	12
PSPTO_0879	19
PSPTO_0880	15
PSPTO_0881	35
PSPTO_0882	21
PSPTO_0883	196
PSPTO_0884	22
PSPTO_0885	70
PSPTO_0886	35
PSPTO_0887	21
PSPTO_0888	20
PSPTO_0889	50
PSPTO_0890	72
PSPTO_0891	5
PSPTO_0892	166
PSPTO_0893	34
PSPTO_0894	33
PSPTO_0895	7
PSPTO_0896	51
PSPTO_0897	22
PSPTO_0898	82
PSPTO_0899	20
PSPTO_0900	19
PSPTO_0901	11
PSPTO_0902	43
PSPTO_0903	52
PSPTO_0904	34
PSPTO_0905	42
PSPTO_0906	15
PSPTO_0907	37
PSPTO_0908	50
PSPTO_0909	4
PSPTO_0910	47
PSPTO_0911	29
PSPTO_0912	77
PSPTO_0913	118
PSPTO_0914	7
PSPTO_0915	20
PSPTO_0916	83
PSPTO_0917	84
PSPTO_0918	9
PSPTO_0919	40
PSPTO_0920	24
PSPTO_0921	3
PSPTO_0922	6
PSPTO_0923	39
PSPTO_0924	27
PSPTO_0925	60
PSPTO_0926	66
PSPTO_0927	201
PSPTO_0928	9
PSPTO_0929	33
PSPTO_0930	15
PSPTO_0931	15
PSPTO_0932	28
PSPTO_0933	76
PSPTO_0934	89
PSPTO_0935	69
PSPTO_0936	18
PSPTO_0937	73
PSPTO_0938	54
PSPTO_0939	28
PSPTO_0940	39
PSPTO_0941	51
PSPTO_0942	20
PSPTO_0943	57
PSPTO_0944	55
PSPTO_0945	71
PSPTO_0946	83
PSPTO_0947	54
PSPTO_0948	66
PSPTO_0949	183
PSPTO_0950	16
PSPTO_0951	57
PSPTO_0952	27
PSPTO_0953	75
PSPTO_0954	396
PSPTO_0955	107
PSPTO_0956	168
PSPTO_0957	103
PSPTO_0958	41
PSPTO_0959	125
PSPTO_0960	70
PSPTO_0961	56
PSPTO_0962	32
PSPTO_0963	61
PSPTO_0964	160
PSPTO_0965	166
PSPTO_0966	5
PSPTO_0967	48
PSPTO_0968	35
PSPTO_0969	33
PSPTO_0970	61
PSPTO_0971	35
PSPTO_0972	11
PSPTO_0973	39
PSPTO_0974	9
PSPTO_0975	99
PSPTO_0976	75
PSPTO_0977	75
PSPTO_0978	66
PSPTO_0979	29
PSPTO_0980	38
PSPTO_0981	118
PSPTO_0982	20
PSPTO_0983	111
PSPTO_0984	42
PSPTO_0985	41
PSPTO_0986	21
PSPTO_0987	10
PSPTO_0988	100
PSPTO_0989	38
PSPTO_0990	92
PSPTO_0991	63
PSPTO_0992	27
PSPTO_0993	7
PSPTO_0994	36
PSPTO_0995	57
PSPTO_0996	43
PSPTO_0997	59
PSPTO_0998	10
PSPTO_0999	52
PSPTO_1000	50
PSPTO_1001	75
PSPTO_1002	66
PSPTO_1003	25
PSPTO_1004	23
PSPTO_1005	76
PSPTO_1006	8
PSPTO_1007	29
PSPTO_1008	73
PSPTO_1009	22
PSPTO_1010	64
PSPTO_1011	8
PSPTO_1012	9
PSPTO_1013	29
PSPTO_1014	33
PSPTO_1015	32
PSPTO_1016	91
PSPTO_1017	7
PSPTO_1018	6
PSPTO_1019	6
PSPTO_1020	47
PSPTO_1021	7
PSPTO_1022	46
PSPTO_1023	31
PSPTO_1024	41
PSPTO_1025	87
PSPTO_1026	65
PSPTO_1027	82
PSPTO_1028	134
PSPTO_1029	82
PSPTO_1030	275
PSPTO_1031	12
PSPTO_1032	45
PSPTO_1033	64
PSPTO_1034	85
PSPTO_1035	53
PSPTO_1036	12
PSPTO_1037	30
PSPTO_1038	32
PSPTO_1039	88
PSPTO_1040	21
PSPTO_1041	120
PSPTO_1042	26
PSPTO_1043	18
PSPTO_1044	5
PSPTO_1045	16
PSPTO_1046	14
PSPTO_1047	54
PSPTO_1048	70
PSPTO_1049	44
PSPTO_1050	19
PSPTO_1051	34
PSPTO_1052	29
PSPTO_1053	8
PSPTO_1054	55
PSPTO_1055	11
PSPTO_1056	23
PSPTO_1057	13
PSPTO_1058	14
PSPTO_1059	85
PSPTO_1060	5
PSPTO_1061	50
PSPTO_1062	76
PSPTO_1064	26
PSPTO_1065	66
PSPTO_1066	182
PSPTO_1067	51
PSPTO_1068	34
PSPTO_1069	7
PSPTO_1070	48
PSPTO_1071	39
PSPTO_1072	58
PSPTO_1073	40
PSPTO_1074	176
PSPTO_1075	29
PSPTO_1076	20
PSPTO_1077	16
PSPTO_1078	17
PSPTO_1079	44
PSPTO_1080	28
PSPTO_1081	68
PSPTO_1082	4
PSPTO_1083	31
PSPTO_1084	59
PSPTO_1085	36
PSPTO_1086	73
PSPTO_1087	63
PSPTO_1088	56
PSPTO_1089	111
PSPTO_1090	67
PSPTO_1091	22
PSPTO_1092	7
PSPTO_1093	89
PSPTO_1094	30
PSPTO_1095	21
PSPTO_1096	29
PSPTO_1097	85
PSPTO_1098	51
PSPTO_1099	5
PSPTO_1100	99
PSPTO_1101	35
PSPTO_1102	25
PSPTO_1103	46
PSPTO_1104	76
PSPTO_1105	56
PSPTO_1106	52
PSPTO_1107	103
PSPTO_1108	75
PSPTO_1109	54
PSPTO_1110	65
PSPTO_1111	51
PSPTO_1112	42
PSPTO_1114	10
PSPTO_1115	16
PSPTO_1116	41
PSPTO_1117	40
PSPTO_1118	48
PSPTO_1119	40
PSPTO_1120	23
PSPTO_1121	65
PSPTO_1122	69
PSPTO_1123	39
PSPTO_1124	4
PSPTO_1125	10
PSPTO_1126	105
PSPTO_1127	80
PSPTO_1128	39
PSPTO_1129	57
PSPTO_1130	27
PSPTO_1131	7
PSPTO_1132	13
PSPTO_1133	41
PSPTO_1134	34
PSPTO_1135	55
PSPTO_1136	162
PSPTO_1137	3
PSPTO_1138	52
PSPTO_1139	10
PSPTO_1140	27
PSPTO_1141	5
PSPTO_1142	9
PSPTO_1143	32
PSPTO_1144	37
PSPTO_1145	41
PSPTO_1146	52
PSPTO_1147	47
PSPTO_1148	85
PSPTO_1149	97
PSPTO_1150	64
PSPTO_1151	192
PSPTO_1152	32
PSPTO_1153	33
PSPTO_1154	43
PSPTO_1155	14
PSPTO_1156	22
PSPTO_1157	33
PSPTO_1158	29
PSPTO_1159	35
PSPTO_1160	83
PSPTO_1161	10
PSPTO_1162	46
PSPTO_1163	67
PSPTO_1164	51
PSPTO_1165	40
PSPTO_1166	46
PSPTO_1167	40
PSPTO_1168	31
PSPTO_1169	134
PSPTO_1170	7
PSPTO_1171	36
PSPTO_1172	24
PSPTO_1173	54
PSPTO_1174	54
PSPTO_1175	35
PSPTO_1176	13
PSPTO_1177	17
PSPTO_1178	73
PSPTO_1179	18
PSPTO_1180	15
PSPTO_1181	27
PSPTO_1182	23
PSPTO_1183	32
PSPTO_1184	23
PSPTO_1185	43
PSPTO_1186	29
PSPTO_1187	69
PSPTO_1188	42
PSPTO_1189	62
PSPTO_1190	5
PSPTO_1191	81
PSPTO_1192	43
PSPTO_1193	132
PSPTO_1194	85
PSPTO_1195	135
PSPTO_1196	63
PSPTO_1197	8
PSPTO_1198	4
PSPTO_1199	1
PSPTO_1200	24
PSPTO_1201	15
PSPTO_1202	34
PSPTO_1203	45
PSPTO_1204	94
PSPTO_1205	251
PSPTO_1206	96
PSPTO_1207	107
PSPTO_1208	78
PSPTO_1209	30
PSPTO_1210	31
PSPTO_1211	95
PSPTO_1212	20
PSPTO_1213	61
PSPTO_1214	47
PSPTO_1215	47
PSPTO_1216	93
PSPTO_1217	99
PSPTO_1218	159
PSPTO_1219	1
PSPTO_1220	32
PSPTO_1221	39
PSPTO_1222	12
PSPTO_1223	63
PSPTO_1224	30
PSPTO_1225	88
PSPTO_1226	5
PSPTO_1227	54
PSPTO_1228	38
PSPTO_1229	39
PSPTO_1230	5
PSPTO_1231	135
PSPTO_1232	93
PSPTO_1233	53
PSPTO_1234	60
PSPTO_1235	45
PSPTO_1236	22
PSPTO_1237	48
PSPTO_1238	48
PSPTO_1239	102
PSPTO_1240	74
PSPTO_1241	40
PSPTO_1242	34
PSPTO_1243	96
PSPTO_1244	24
PSPTO_1245	37
PSPTO_1246	347
PSPTO_1247	16
PSPTO_1248	6
PSPTO_1249	21
PSPTO_1250	25
PSPTO_1251	9
PSPTO_1252	15
PSPTO_1253	67
PSPTO_1254	41
PSPTO_1255	262
PSPTO_1256	53
PSPTO_1257	41
PSPTO_1258	63
PSPTO_1259	19
PSPTO_1260	58
PSPTO_1261	37
PSPTO_1262	27
PSPTO_1263	37
PSPTO_1264	2
PSPTO_1265	29
PSPTO_1266	17
PSPTO_1267	65
PSPTO_1268	200
PSPTO_1269	16
PSPTO_1270	30
PSPTO_1271	174
PSPTO_1272	57
PSPTO_1273	61
PSPTO_1274	174
PSPTO_1275	60
PSPTO_1276	226
PSPTO_1277	8
PSPTO_1278	88
PSPTO_1279	61
PSPTO_1280	84
PSPTO_1281	21
PSPTO_1282	19
PSPTO_1283	23
PSPTO_1284	133
PSPTO_1285	76
PSPTO_1286	38
PSPTO_1287	380
PSPTO_1288	93
PSPTO_1289	89
PSPTO_1290	63
PSPTO_1291	78
PSPTO_1292	189
PSPTO_1293	21
PSPTO_1294	25
PSPTO_1295	90
PSPTO_1296	529
PSPTO_1297	0
PSPTO_1298	43
PSPTO_1299	67
PSPTO_1300	121
PSPTO_1301	114
PSPTO_1302	107
PSPTO_1303	16
PSPTO_1304	16
PSPTO_1305	72
PSPTO_1306	82
PSPTO_1307	46
PSPTO_1308	191
PSPTO_1309	76
PSPTO_1310	54
PSPTO_1311	37
PSPTO_1312	17
PSPTO_1313	19
PSPTO_1314	23
PSPTO_1315	34
PSPTO_1316	80
PSPTO_1317	42
PSPTO_1318	24
PSPTO_1319	12
PSPTO_1320	30
PSPTO_1321	4
PSPTO_1322	47
PSPTO_1323	67
PSPTO_1324	56
PSPTO_1325	149
PSPTO_1326	366
PSPTO_1327	43
PSPTO_1328	35
PSPTO_1329	74
PSPTO_1330	49
PSPTO_1331	20
PSPTO_1332	89
PSPTO_1333	29
PSPTO_1334	77
PSPTO_1335	27
PSPTO_1336	8
PSPTO_1337	57
PSPTO_1338	40
PSPTO_1339	27
PSPTO_1340	52
PSPTO_1341	36
PSPTO_1342	39
PSPTO_1343	67
PSPTO_1344	11
PSPTO_1345	32
PSPTO_1346	27
PSPTO_1347	90
PSPTO_1348	42
PSPTO_1349	296
PSPTO_1350	65
PSPTO_1351	9
PSPTO_1352	8
PSPTO_1353	9
PSPTO_1354	37
PSPTO_1355	92
PSPTO_1356	39
PSPTO_1357	69
PSPTO_1358	67
PSPTO_1359	60
PSPTO_1360	72
PSPTO_1361	104
PSPTO_1362	3
PSPTO_1363	72
PSPTO_1364	19
PSPTO_1365	10
PSPTO_1366	4
PSPTO_1367	13
PSPTO_1368	19
PSPTO_1369	15
PSPTO_1370	21
PSPTO_1371	11
PSPTO_1372	79
PSPTO_1373	55
PSPTO_1374	9
PSPTO_1375	54
PSPTO_1376	16
PSPTO_1377	103
PSPTO_1378	74
PSPTO_1379	60
PSPTO_1380	75
PSPTO_1381	84
PSPTO_1382	109
PSPTO_1383	22
PSPTO_1384	34
PSPTO_1385	30
PSPTO_1386	37
PSPTO_1387	14
PSPTO_1388	25
PSPTO_1389	31
PSPTO_1390	6
PSPTO_1391	32
PSPTO_1392	11
PSPTO_1393	30
PSPTO_1394	1
PSPTO_1395	39
PSPTO_1396	21
PSPTO_1397	47
PSPTO_1398	21
PSPTO_1399	15
PSPTO_1400	96
PSPTO_1401	54
PSPTO_1402	74
PSPTO_1403	31
PSPTO_1404	23
PSPTO_1405	101
PSPTO_1406	47
PSPTO_1407	27
PSPTO_1408	5
PSPTO_1409	39
PSPTO_1410	35
PSPTO_1411	19
PSPTO_1412	58
PSPTO_1413	49
PSPTO_1414	15
PSPTO_1415	58
PSPTO_1416	37
PSPTO_1417	215
PSPTO_1418	43
PSPTO_1419	63
PSPTO_1420	46
PSPTO_1421	50
PSPTO_1422	9
PSPTO_1423	85
PSPTO_1424	19
PSPTO_1425	17
PSPTO_1426	16
PSPTO_1427	110
PSPTO_1428	9
PSPTO_1429	6
PSPTO_1430	55
PSPTO_1431	55
PSPTO_1432	30
PSPTO_1433	57
PSPTO_1434	65
PSPTO_1435	51
PSPTO_1436	42
PSPTO_1437	81
PSPTO_1438	41
PSPTO_1439	45
PSPTO_1440	55
PSPTO_1441	42
PSPTO_1443	37
PSPTO_1444	165
PSPTO_1445	45
PSPTO_1446	74
PSPTO_1447	10
PSPTO_1448	40
PSPTO_1449	131
PSPTO_1450	72
PSPTO_1451	69
PSPTO_1452	5
PSPTO_1453	75
PSPTO_1454	33
PSPTO_1455	44
PSPTO_1456	78
PSPTO_1457	39
PSPTO_1458	51
PSPTO_1459	271
PSPTO_1460	13
PSPTO_1461	16
PSPTO_1462	22
PSPTO_1463	7
PSPTO_1464	42
PSPTO_1465	18
PSPTO_1466	11
PSPTO_1467	14
PSPTO_1468	81
PSPTO_1469	61
PSPTO_1470	31
PSPTO_1471	38
PSPTO_1472	126
PSPTO_1473	45
PSPTO_1474	57
PSPTO_1475	76
PSPTO_1476	41
PSPTO_1477	27
PSPTO_1478	25
PSPTO_1479	10
PSPTO_1480	61
PSPTO_1481	45
PSPTO_1482	138
PSPTO_1483	76
PSPTO_1484	34
PSPTO_1485	39
PSPTO_1486	4
PSPTO_1487	25
PSPTO_1488	103
PSPTO_1489	92
PSPTO_1490	80
PSPTO_1491	50
PSPTO_1492	172
PSPTO_1493	137
PSPTO_1494	35
PSPTO_1495	88
PSPTO_1496	40
PSPTO_1497	172
PSPTO_1498	62
PSPTO_1499	83
PSPTO_1500	59
PSPTO_1501	56
PSPTO_1502	31
PSPTO_1503	68
PSPTO_1504	44
PSPTO_1505	16
PSPTO_1506	201
PSPTO_1507	71
PSPTO_1508	266
PSPTO_1509	80
PSPTO_1510	34
PSPTO_1511	31
PSPTO_1512	15
PSPTO_1513	41
PSPTO_1514	44
PSPTO_1515	64
PSPTO_1516	7
PSPTO_1517	16
PSPTO_1518	15
PSPTO_1519	19
PSPTO_1520	94
PSPTO_1521	31
PSPTO_1522	59
PSPTO_1523	65
PSPTO_1524	58
PSPTO_1525	46
PSPTO_1526	33
PSPTO_1527	89
PSPTO_1528	71
PSPTO_1529	20
PSPTO_1530	22
PSPTO_1531	50
PSPTO_1532	125
PSPTO_1533	28
PSPTO_1534	177
PSPTO_1535	62
PSPTO_1536	37
PSPTO_1537	29
PSPTO_1538	32
PSPTO_1539	14
PSPTO_1540	68
PSPTO_1541	89
PSPTO_1542	110
PSPTO_1543	22
PSPTO_1544	35
PSPTO_1545	7
PSPTO_1546	16
PSPTO_1547	57
PSPTO_1548	18
PSPTO_1549	149
PSPTO_1550	81
PSPTO_1551	122
PSPTO_1552	75
PSPTO_1553	39
PSPTO_1554	108
PSPTO_1555	9
PSPTO_1556	35
PSPTO_1557	37
PSPTO_1558	53
PSPTO_1559	39
PSPTO_1560	12
PSPTO_1561	57
PSPTO_1562	42
PSPTO_1563	46
PSPTO_1564	172
PSPTO_1565	248
PSPTO_1566	0
PSPTO_1567	39
PSPTO_1568	29
PSPTO_1570	11
PSPTO_1571	62
PSPTO_1572	15
PSPTO_1573	9
PSPTO_1574	49
PSPTO_1575	19
PSPTO_1576	8
PSPTO_1577	38
PSPTO_1578	44
PSPTO_1579	63
PSPTO_1580	41
PSPTO_1581	15
PSPTO_1582	21
PSPTO_1583	26
PSPTO_1584	23
PSPTO_1585	32
PSPTO_1586	20
PSPTO_1587	90
PSPTO_1588	21
PSPTO_1589	10
PSPTO_1590	17
PSPTO_1591	5
PSPTO_1592	23
PSPTO_1593	34
PSPTO_1594	9
PSPTO_1595	29
PSPTO_1596	7
PSPTO_1597	35
PSPTO_1598	27
PSPTO_1599	25
PSPTO_1600	54
PSPTO_1601	20
PSPTO_1602	20
PSPTO_1603	1
PSPTO_1604	38
PSPTO_1605	56
PSPTO_1606	45
PSPTO_1607	16
PSPTO_1608	50
PSPTO_1609	13
PSPTO_1610	114
PSPTO_1611	1
PSPTO_1612	71
PSPTO_1613	28
PSPTO_1614	32
PSPTO_1615	29
PSPTO_1616	15
PSPTO_1617	76
PSPTO_1618	71
PSPTO_1619	7
PSPTO_1620	34
PSPTO_1621	28
PSPTO_1622	41
PSPTO_1623	89
PSPTO_1624	641
PSPTO_1625	6
PSPTO_1626	10
PSPTO_1627	17
PSPTO_1628	12
PSPTO_1629	16
PSPTO_1630	12
PSPTO_1631	89
PSPTO_1632	115
PSPTO_1633	79
PSPTO_1634	13
PSPTO_1635	51
PSPTO_1636	32
PSPTO_1637	131
PSPTO_1638	29
PSPTO_1639	128
PSPTO_1640	70
PSPTO_1641	7
PSPTO_1642	23
PSPTO_1643	30
PSPTO_1644	131
PSPTO_1645	46
PSPTO_1646	172
PSPTO_1647	15
PSPTO_1648	99
PSPTO_1649	196
PSPTO_1650	216
PSPTO_1651	7
PSPTO_1652	26
PSPTO_1653	42
PSPTO_1654	27
PSPTO_1655	20
PSPTO_1656	40
PSPTO_1657	72
PSPTO_1658	25
PSPTO_1659	35
PSPTO_1660	61
PSPTO_1661	74
PSPTO_1662	14
PSPTO_1663	6
PSPTO_1664	13
PSPTO_1665	4
PSPTO_1666	18
PSPTO_1667	37
PSPTO_1668	10
PSPTO_1669	100
PSPTO_1670	100
PSPTO_1671	281
PSPTO_1672	48
PSPTO_1673	115
PSPTO_1674	33
PSPTO_1675	74
PSPTO_1676	26
PSPTO_1677	59
PSPTO_1678	12
PSPTO_1679	31
PSPTO_1680	69
PSPTO_1681	7
PSPTO_1682	124
PSPTO_1683	18
PSPTO_1684	36
PSPTO_1685	47
PSPTO_1686	42
PSPTO_1687	6
PSPTO_1688	28
PSPTO_1689	27
PSPTO_1690	18
PSPTO_1691	189
PSPTO_1692	45
PSPTO_1693	112
PSPTO_1694	180
PSPTO_1695	64
PSPTO_1696	24
PSPTO_1697	19
PSPTO_1698	34
PSPTO_1699	36
PSPTO_1700	59
PSPTO_1701	89
PSPTO_1702	74
PSPTO_1703	22
PSPTO_1704	17
PSPTO_1705	44
PSPTO_1706	36
PSPTO_1707	89
PSPTO_1708	42
PSPTO_1709	86
PSPTO_1710	63
PSPTO_1711	63
PSPTO_1712	74
PSPTO_1713	106
PSPTO_1714	41
PSPTO_1715	90
PSPTO_1716	35
PSPTO_1717	57
PSPTO_1718	72
PSPTO_1719	48
PSPTO_1720	612
PSPTO_1721	38
PSPTO_1722	15
PSPTO_1723	13
PSPTO_1724	73
PSPTO_1725	74
PSPTO_1726	23
PSPTO_1727	8
PSPTO_1728	27
PSPTO_1729	44
PSPTO_1730	35
PSPTO_1731	93
PSPTO_1732	73
PSPTO_1733	44
PSPTO_1734	46
PSPTO_1735	44
PSPTO_1736	99
PSPTO_1737	100
PSPTO_1738	51
PSPTO_1739	39
PSPTO_1740	46
PSPTO_1741	38
PSPTO_1742	45
PSPTO_1743	68
PSPTO_1744	91
PSPTO_1745	204
PSPTO_1746	41
PSPTO_1747	39
PSPTO_1748	100
PSPTO_1749	69
PSPTO_1750	696
PSPTO_1751	33
PSPTO_1752	15
PSPTO_1753	54
PSPTO_1754	48
PSPTO_1755	38
PSPTO_1756	38
PSPTO_1757	14
PSPTO_1758	106
PSPTO_1759	40
PSPTO_1760	40
PSPTO_1761	50
PSPTO_1762	19
PSPTO_1763	23
PSPTO_1764	69
PSPTO_1765	76
PSPTO_1766	33
PSPTO_1767	4
PSPTO_1768	13
PSPTO_1769	35
PSPTO_1770	29
PSPTO_1771	9
PSPTO_1772	89
PSPTO_1773	59
PSPTO_1774	11
PSPTO_1775	131
PSPTO_1776	58
PSPTO_1777	41
PSPTO_1778	34
PSPTO_1779	64
PSPTO_1780	37
PSPTO_1781	32
PSPTO_1782	135
PSPTO_1783	68
PSPTO_1784	21
PSPTO_1785	33
PSPTO_1786	30
PSPTO_1787	56
PSPTO_1788	45
PSPTO_1789	122
PSPTO_1790	76
PSPTO_1791	62
PSPTO_1792	76
PSPTO_1793	31
PSPTO_1794	55
PSPTO_1795	65
PSPTO_1796	55
PSPTO_1797	67
PSPTO_1798	25
PSPTO_1799	28
PSPTO_1800	23
PSPTO_1801	67
PSPTO_1802	38
PSPTO_1803	67
PSPTO_1804	7
PSPTO_1805	42
PSPTO_1806	78
PSPTO_1807	21
PSPTO_1808	22
PSPTO_1809	22
PSPTO_1810	65
PSPTO_1811	31
PSPTO_1812	48
PSPTO_1813	30
PSPTO_1814	16
PSPTO_1815	81
PSPTO_1816	18
PSPTO_1817	65
PSPTO_1818	14
PSPTO_1819	74
PSPTO_1820	14
PSPTO_1821	11
PSPTO_1822	51
PSPTO_1823	89
PSPTO_1824	14
PSPTO_1825	749
PSPTO_1826	42
PSPTO_1827	22
PSPTO_1828	25
PSPTO_1829	87
PSPTO_1830	32
PSPTO_1831	73
PSPTO_1832	69
PSPTO_1833	53
PSPTO_1834	57
PSPTO_1835	106
PSPTO_1836	79
PSPTO_1838	36
PSPTO_1839	47
PSPTO_1840	8
PSPTO_1841	98
PSPTO_1842	135
PSPTO_1843	59
PSPTO_1844	16
PSPTO_1845	35
PSPTO_1846	53
PSPTO_1847	93
PSPTO_1848	4
PSPTO_1849	10
PSPTO_1850	66
PSPTO_1851	75
PSPTO_1852	75
PSPTO_1853	4
PSPTO_1854	10
PSPTO_1855	35
PSPTO_1856	37
PSPTO_1857	48
PSPTO_1858	19
PSPTO_1859	26
PSPTO_1860	26
PSPTO_1861	47
PSPTO_1862	17
PSPTO_1863	30
PSPTO_1864	33
PSPTO_1865	69
PSPTO_1866	27
PSPTO_1867	48
PSPTO_1868	33
PSPTO_1869	27
PSPTO_1870	107
PSPTO_1871	60
PSPTO_1872	1
PSPTO_1873	58
PSPTO_1874	47
PSPTO_1875	36
PSPTO_1876	8
PSPTO_1877	11
PSPTO_1878	25
PSPTO_1879	105
PSPTO_1880	55
PSPTO_1881	81
PSPTO_1882	83
PSPTO_1883	32
PSPTO_1884	15
PSPTO_1885	39
PSPTO_1886	140
PSPTO_1887	50
PSPTO_1888	90
PSPTO_1889	97
PSPTO_1890	71
PSPTO_1891	114
PSPTO_1892	100
PSPTO_1893	92
PSPTO_1894	27
PSPTO_1895	6
PSPTO_1896	26
PSPTO_1897	71
PSPTO_1898	26
PSPTO_1899	89
PSPTO_1900	9
PSPTO_1901	12
PSPTO_1902	110
PSPTO_1903	11
PSPTO_1904	111
PSPTO_1905	13
PSPTO_1906	62
PSPTO_1907	56
PSPTO_1908	26
PSPTO_1909	43
PSPTO_1910	56
PSPTO_1911	91
PSPTO_1912	31
PSPTO_1913	32
PSPTO_1914	68
PSPTO_1915	34
PSPTO_1916	45
PSPTO_1917	39
PSPTO_1918	179
PSPTO_1919	47
PSPTO_1920	53
PSPTO_1921	95
PSPTO_1922	88
PSPTO_1923	79
PSPTO_1924	78
PSPTO_1925	84
PSPTO_1926	30
PSPTO_1927	133
PSPTO_1928	85
PSPTO_1929	46
PSPTO_1930	32
PSPTO_1931	36
PSPTO_1932	2
PSPTO_1933	61
PSPTO_1934	52
PSPTO_1935	77
PSPTO_1936	258
PSPTO_1937	79
PSPTO_1938	12
PSPTO_1939	84
PSPTO_1940	173
PSPTO_1941	81
PSPTO_1942	88
PSPTO_1943	133
PSPTO_1944	202
PSPTO_1945	266
PSPTO_1946	212
PSPTO_1947	122
PSPTO_1948	26
PSPTO_1949	1521
PSPTO_1950	85
PSPTO_1951	868
PSPTO_1952	86
PSPTO_1953	36
PSPTO_1954	151
PSPTO_1955	118
PSPTO_1956	109
PSPTO_1957	49
PSPTO_1958	144
PSPTO_1959	81
PSPTO_1960	48
PSPTO_1961	119
PSPTO_1962	44
PSPTO_1963	20
PSPTO_1964	76
PSPTO_1965	29
PSPTO_1966	164
PSPTO_1967	4
PSPTO_1968	34
PSPTO_1969	50
PSPTO_1970	41
PSPTO_1971	37
PSPTO_1972	34
PSPTO_1973	5
PSPTO_1974	20
PSPTO_1975	25
PSPTO_1976	100
PSPTO_1977	158
PSPTO_1978	89
PSPTO_1979	120
PSPTO_1980	59
PSPTO_1981	111
PSPTO_1982	326
PSPTO_1983	83
PSPTO_1984	47
PSPTO_1985	31
PSPTO_1986	49
PSPTO_1987	66
PSPTO_1988	66
PSPTO_1989	49
PSPTO_1990	29
PSPTO_1991	25
PSPTO_1992	18
PSPTO_1993	72
PSPTO_1994	47
PSPTO_1995	4
PSPTO_1996	156
PSPTO_1997	27
PSPTO_1998	22
PSPTO_1999	7
PSPTO_2000	13
PSPTO_2001	58
PSPTO_2002	10
PSPTO_2003	32
PSPTO_2004	33
PSPTO_2005	61
PSPTO_2006	7
PSPTO_2007	60
PSPTO_2008	39
PSPTO_2009	48
PSPTO_2010	47
PSPTO_2011	133
PSPTO_2012	10
PSPTO_2013	14
PSPTO_2014	93
PSPTO_2015	16
PSPTO_2016	153
PSPTO_2017	58
PSPTO_2018	13
PSPTO_2019	72
PSPTO_2020	99
PSPTO_2021	60
PSPTO_2022	10
PSPTO_2023	14
PSPTO_2024	25
PSPTO_2025	11
PSPTO_2026	54
PSPTO_2027	7
PSPTO_2028	44
PSPTO_2029	48
PSPTO_2030	81
PSPTO_2031	13
PSPTO_2032	30
PSPTO_2033	14
PSPTO_2034	18
PSPTO_2035	20
PSPTO_2036	6
PSPTO_2037	37
PSPTO_2038	9
PSPTO_2039	47
PSPTO_2040	53
PSPTO_2041	48
PSPTO_2042	82
PSPTO_2043	81
PSPTO_2044	61
PSPTO_2045	35
PSPTO_2046	25
PSPTO_2047	39
PSPTO_2048	26
PSPTO_2049	14
PSPTO_2050	4
PSPTO_2051	28
PSPTO_2052	23
PSPTO_2053	61
PSPTO_2054	12
PSPTO_2055	30
PSPTO_2056	49
PSPTO_2057	109
PSPTO_2058	11
PSPTO_2059	58
PSPTO_2060	43
PSPTO_2061	59
PSPTO_2062	16
PSPTO_2063	30
PSPTO_2064	21
PSPTO_2065	34
PSPTO_2066	7
PSPTO_2067	5
PSPTO_2068	23
PSPTO_2069	4
PSPTO_2070	14
PSPTO_2071	12
PSPTO_2072	20
PSPTO_2073	19
PSPTO_2074	8
PSPTO_2075	6
PSPTO_2076	13
PSPTO_2077	22
PSPTO_2078	16
PSPTO_2079	6
PSPTO_2080	11
PSPTO_2081	7
PSPTO_2082	33
PSPTO_2083	74
PSPTO_2084	10
PSPTO_2085	9
PSPTO_2086	18
PSPTO_2087	21
PSPTO_2088	21
PSPTO_2089	108
PSPTO_2090	9
PSPTO_2091	26
PSPTO_2092	42
PSPTO_2093	34
PSPTO_2094	40
PSPTO_2095	6
PSPTO_2096	40
PSPTO_2097	32
PSPTO_2098	32
PSPTO_2099	171
PSPTO_2100	29
PSPTO_2101	222
PSPTO_2102	160
PSPTO_2103	50
PSPTO_2104	85
PSPTO_2105	40
PSPTO_2106	91
PSPTO_2107	47
PSPTO_2108	42
PSPTO_2109	48
PSPTO_2110	38
PSPTO_2111	64
PSPTO_2112	30
PSPTO_2113	11
PSPTO_2114	23
PSPTO_2115	38
PSPTO_2116	20
PSPTO_2117	56
PSPTO_2118	37
PSPTO_2119	122
PSPTO_2120	57
PSPTO_2121	20
PSPTO_2122	10
PSPTO_2123	25
PSPTO_2124	35
PSPTO_2125	15
PSPTO_2126	58
PSPTO_2127	31
PSPTO_2128	25
PSPTO_2129	96
PSPTO_2130	45
PSPTO_2131	77
PSPTO_2132	13
PSPTO_2133	126
PSPTO_2134	101
PSPTO_2135	1176
PSPTO_2136	187
PSPTO_2137	57
PSPTO_2138	77
PSPTO_2139	64
PSPTO_2140	49
PSPTO_2141	73
PSPTO_2142	41
PSPTO_2143	18
PSPTO_2144	34
PSPTO_2145	76
PSPTO_2146	92
PSPTO_2147	286
PSPTO_2148	647
PSPTO_2149	556
PSPTO_2150	772
PSPTO_2151	96
PSPTO_2152	408
PSPTO_2153	102
PSPTO_2154	72
PSPTO_2155	92
PSPTO_2156	97
PSPTO_2158	85
PSPTO_2159	112
PSPTO_2160	72
PSPTO_2161	186
PSPTO_2162	25
PSPTO_2163	82
PSPTO_2164	137
PSPTO_2165	33
PSPTO_2166	50
PSPTO_2167	61
PSPTO_2168	7
PSPTO_2169	57
PSPTO_2170	746
PSPTO_2171	112
PSPTO_2172	74
PSPTO_2173	365
PSPTO_2174	129
PSPTO_2175	216
PSPTO_2176	185
PSPTO_2177	59
PSPTO_2178	47
PSPTO_2179	72
PSPTO_2180	76
PSPTO_2181	72
PSPTO_2182	52
PSPTO_2183	69
PSPTO_2184	34
PSPTO_2185	62
PSPTO_2186	107
PSPTO_2187	46
PSPTO_2188	20
PSPTO_2189	55
PSPTO_2190	84
PSPTO_2191	36
PSPTO_2192	7
PSPTO_2193	37
PSPTO_2194	224
PSPTO_2195	103
PSPTO_2196	45
PSPTO_2197	155
PSPTO_2198	115
PSPTO_2199	342
PSPTO_2200	168
PSPTO_2201	188
PSPTO_2202	215
PSPTO_2203	142
PSPTO_2204	39
PSPTO_2205	16
PSPTO_2206	71
PSPTO_2207	57
PSPTO_2208	625
PSPTO_2209	38
PSPTO_2210	89
PSPTO_2211	30
PSPTO_2212	53
PSPTO_2213	46
PSPTO_2214	10
PSPTO_2215	38
PSPTO_2216	40
PSPTO_2217	54
PSPTO_2218	76
PSPTO_2219	11
PSPTO_2220	46
PSPTO_2221	70
PSPTO_2222	69
PSPTO_2223	44
PSPTO_2224	85
PSPTO_2225	90
PSPTO_2226	31
PSPTO_2227	23
PSPTO_2228	37
PSPTO_2229	2
PSPTO_2230	7
PSPTO_2231	80
PSPTO_2232	57
PSPTO_2233	32
PSPTO_2234	45
PSPTO_2235	18
PSPTO_2236	41
PSPTO_2237	82
PSPTO_2238	4
PSPTO_2239	150
PSPTO_2240	6
PSPTO_2241	2
PSPTO_2242	120
PSPTO_2243	138
PSPTO_2244	55
PSPTO_2245	192
PSPTO_2246	63
PSPTO_2247	22
PSPTO_2248	55
PSPTO_2249	55
PSPTO_2250	113
PSPTO_2251	56
PSPTO_2252	76
PSPTO_2253	24
PSPTO_2254	120
PSPTO_2255	33
PSPTO_2256	86
PSPTO_2257	28
PSPTO_2258	30
PSPTO_2259	66
PSPTO_2260	50
PSPTO_2261	26
PSPTO_2262	12
PSPTO_2263	16
PSPTO_2264	11
PSPTO_2265	21
PSPTO_2266	163
PSPTO_2267	36
PSPTO_2268	42
PSPTO_2269	20
PSPTO_2270	58
PSPTO_2271	2
PSPTO_2272	116
PSPTO_2273	4
PSPTO_2274	44
PSPTO_2275	52
PSPTO_2276	57
PSPTO_2277	55
PSPTO_2278	27
PSPTO_2279	68
PSPTO_2280	27
PSPTO_2281	18
PSPTO_2282	91
PSPTO_2283	32
PSPTO_2284	23
PSPTO_2285	10
PSPTO_2286	55
PSPTO_2287	57
PSPTO_2288	83
PSPTO_2289	150
PSPTO_2290	66
PSPTO_2291	22
PSPTO_2292	181
PSPTO_2293	65
PSPTO_2294	24
PSPTO_2295	64
PSPTO_2296	12
PSPTO_2297	70
PSPTO_2298	230
PSPTO_2299	2019
PSPTO_2300	56
PSPTO_2301	142
PSPTO_2302	74
PSPTO_2303	96
PSPTO_2304	59
PSPTO_2305	45
PSPTO_2306	29
PSPTO_2307	58
PSPTO_2308	11
PSPTO_2309	75
PSPTO_2310	609
PSPTO_2311	120
PSPTO_2312	46
PSPTO_2313	57
PSPTO_2314	73
PSPTO_2315	17
PSPTO_2316	60
PSPTO_2317	53
PSPTO_2318	26
PSPTO_2319	9
PSPTO_2320	22
PSPTO_2321	26
PSPTO_2322	30
PSPTO_2323	45
PSPTO_2324	41
PSPTO_2325	4
PSPTO_2326	87
PSPTO_2327	3
PSPTO_2328	35
PSPTO_2329	14
PSPTO_2330	20
PSPTO_2331	104
PSPTO_2332	35
PSPTO_2333	18
PSPTO_2334	25
PSPTO_2335	49
PSPTO_2336	15
PSPTO_2337	84
PSPTO_2338	48
PSPTO_2339	39
PSPTO_2340	73
PSPTO_2341	138
PSPTO_2342	33
PSPTO_2343	48
PSPTO_2344	52
PSPTO_2345	73
PSPTO_2346	110
PSPTO_2347	19
PSPTO_2348	39
PSPTO_2349	35
PSPTO_2350	56
PSPTO_2351	29
PSPTO_2352	32
PSPTO_2353	103
PSPTO_2354	43
PSPTO_2355	102
PSPTO_2356	21
PSPTO_2358	88
PSPTO_2359	73
PSPTO_2360	19
PSPTO_2361	8
PSPTO_2362	46
PSPTO_2363	4
PSPTO_2364	17
PSPTO_2365	4
PSPTO_2366	25
PSPTO_2367	36
PSPTO_2368	52
PSPTO_2369	33
PSPTO_2370	56
PSPTO_2371	48
PSPTO_2372	40
PSPTO_2373	59
PSPTO_2374	12
PSPTO_2375	11
PSPTO_2376	37
PSPTO_2377	13
PSPTO_2378	150
PSPTO_2379	303
PSPTO_2380	177
PSPTO_2381	173
PSPTO_2382	26
PSPTO_2383	155
PSPTO_2384	167
PSPTO_2385	73
PSPTO_2386	31
PSPTO_2387	21
PSPTO_2388	29
PSPTO_2389	17
PSPTO_2390	33
PSPTO_2391	9
PSPTO_2392	17
PSPTO_2394	83
PSPTO_2395	60
PSPTO_2396	43
PSPTO_2397	62
PSPTO_2398	128
PSPTO_2399	108
PSPTO_2400	58
PSPTO_2401	52
PSPTO_2402	85
PSPTO_2403	109
PSPTO_2404	17
PSPTO_2405	68
PSPTO_2406	13
PSPTO_2407	19
PSPTO_2408	45
PSPTO_2409	43
PSPTO_2410	93
PSPTO_2411	49
PSPTO_2412	49
PSPTO_2413	20
PSPTO_2414	35
PSPTO_2415	15
PSPTO_2416	41
PSPTO_2417	41
PSPTO_2418	34
PSPTO_2419	19
PSPTO_2420	43
PSPTO_2421	78
PSPTO_2422	64
PSPTO_2423	21
PSPTO_2424	55
PSPTO_2425	36
PSPTO_2426	52
PSPTO_2427	33
PSPTO_2428	49
PSPTO_2429	45
PSPTO_2430	26
PSPTO_2431	56
PSPTO_2432	41
PSPTO_2433	1
PSPTO_2434	40
PSPTO_2435	55
PSPTO_2436	9
PSPTO_2437	65
PSPTO_2438	68
PSPTO_2439	46
PSPTO_2440	33
PSPTO_2441	194
PSPTO_2442	125
PSPTO_2443	14
PSPTO_2444	17
PSPTO_2445	19
PSPTO_2446	31
PSPTO_2447	44
PSPTO_2448	74
PSPTO_2449	55
PSPTO_2450	207
PSPTO_2451	13
PSPTO_2452	83
PSPTO_2453	46
PSPTO_2454	41
PSPTO_2455	8
PSPTO_2456	4
PSPTO_2457	91
PSPTO_2458	67
PSPTO_2459	17
PSPTO_2460	64
PSPTO_2461	4
PSPTO_2462	10
PSPTO_2463	61
PSPTO_2464	20
PSPTO_2465	50
PSPTO_2466	28
PSPTO_2467	56
PSPTO_2468	6
PSPTO_2469	8
PSPTO_2470	31
PSPTO_2471	27
PSPTO_2472	106
PSPTO_2473	51
PSPTO_2474	20
PSPTO_2475	73
PSPTO_2476	16
PSPTO_2477	27
PSPTO_2478	154
PSPTO_2479	72
PSPTO_2480	96
PSPTO_2481	47
PSPTO_2482	38
PSPTO_2483	14
PSPTO_2484	79
PSPTO_2485	52
PSPTO_2486	23
PSPTO_2487	41
PSPTO_2488	69
PSPTO_2489	74
PSPTO_2490	139
PSPTO_2491	52
PSPTO_2492	48
PSPTO_2493	65
PSPTO_2494	60
PSPTO_2495	35
PSPTO_2496	47
PSPTO_2497	9
PSPTO_2498	7
PSPTO_2499	61
PSPTO_2500	96
PSPTO_2501	11
PSPTO_2502	8
PSPTO_2503	22
PSPTO_2504	27
PSPTO_2505	28
PSPTO_2506	21
PSPTO_2507	33
PSPTO_2508	20
PSPTO_2509	66
PSPTO_2510	106
PSPTO_2511	87
PSPTO_2513	5
PSPTO_2514	35
PSPTO_2515	28
PSPTO_2516	80
PSPTO_2517	74
PSPTO_2518	33
PSPTO_2519	83
PSPTO_2520	92
PSPTO_2521	11
PSPTO_2522	30
PSPTO_2523	46
PSPTO_2524	43
PSPTO_2525	47
PSPTO_2526	83
PSPTO_2527	24
PSPTO_2528	60
PSPTO_2529	8
PSPTO_2530	0
PSPTO_2531	9
PSPTO_2532	38
PSPTO_2533	6
PSPTO_2534	15
PSPTO_2535	81
PSPTO_2536	1
PSPTO_2537	8
PSPTO_2538	31
PSPTO_2539	4
PSPTO_2540	28
PSPTO_2541	44
PSPTO_2542	15
PSPTO_2543	18
PSPTO_2544	48
PSPTO_2545	13
PSPTO_2546	41
PSPTO_2547	26
PSPTO_2548	51
PSPTO_2549	50
PSPTO_2550	2
PSPTO_2551	10
PSPTO_2552	19
PSPTO_2553	24
PSPTO_2554	104
PSPTO_2555	30
PSPTO_2556	13
PSPTO_2557	49
PSPTO_2558	38
PSPTO_2559	39
PSPTO_2560	38
PSPTO_2561	79
PSPTO_2562	39
PSPTO_2563	35
PSPTO_2564	33
PSPTO_2565	57
PSPTO_2566	36
PSPTO_2567	44
PSPTO_2568	125
PSPTO_2569	92
PSPTO_2570	70
PSPTO_2571	96
PSPTO_2572	47
PSPTO_2573	75
PSPTO_2574	37
PSPTO_2575	47
PSPTO_2576	50
PSPTO_2577	48
PSPTO_2578	56
PSPTO_2579	18
PSPTO_2580	20
PSPTO_2581	26
PSPTO_2582	68
PSPTO_2583	34
PSPTO_2584	33
PSPTO_2585	99
PSPTO_2586	50
PSPTO_2587	6
PSPTO_2588	40
PSPTO_2589	15
PSPTO_2590	22
PSPTO_2591	58
PSPTO_2592	129
PSPTO_2593	50
PSPTO_2594	16
PSPTO_2595	236
PSPTO_2596	80
PSPTO_2597	288
PSPTO_2598	145
PSPTO_2599	245
PSPTO_2600	3002
PSPTO_2601	257
PSPTO_2602	2369
PSPTO_2603	312
PSPTO_2604	387
PSPTO_2605	900
PSPTO_2606	62
PSPTO_2607	120
PSPTO_2608	19
PSPTO_2609	10
PSPTO_2610	18
PSPTO_2611	15
PSPTO_2612	22
PSPTO_2613	26
PSPTO_2614	20
PSPTO_2615	17
PSPTO_2616	143
PSPTO_2617	63
PSPTO_2618	54
PSPTO_2620	14
PSPTO_2621	94
PSPTO_2622	58
PSPTO_2623	62
PSPTO_2624	41
PSPTO_2625	54
PSPTO_2626	65
PSPTO_2627	47
PSPTO_2628	16
PSPTO_2629	51
PSPTO_2630	34
PSPTO_2631	31
PSPTO_2632	188
PSPTO_2633	35
PSPTO_2634	40
PSPTO_2635	39
PSPTO_2636	50
PSPTO_2637	46
PSPTO_2638	109
PSPTO_2639	71
PSPTO_2640	36
PSPTO_2641	5
PSPTO_2642	40
PSPTO_2643	35
PSPTO_2644	32
PSPTO_2645	61
PSPTO_2646	54
PSPTO_2647	31
PSPTO_2648	17
PSPTO_2649	60
PSPTO_2650	9
PSPTO_2651	12
PSPTO_2652	66
PSPTO_2653	57
PSPTO_2654	15
PSPTO_2655	58
PSPTO_2656	122
PSPTO_2657	63
PSPTO_2658	17
PSPTO_2659	18
PSPTO_2660	77
PSPTO_2661	35
PSPTO_2662	33
PSPTO_2663	39
PSPTO_2664	46
PSPTO_2665	26
PSPTO_2666	39
PSPTO_2667	39
PSPTO_2668	63
PSPTO_2669	15
PSPTO_2670	30
PSPTO_2671	30
PSPTO_2672	23
PSPTO_2673	108
PSPTO_2674	42
PSPTO_2675	8
PSPTO_2676	46
PSPTO_2677	35
PSPTO_2678	37
PSPTO_2679	6
PSPTO_2680	86
PSPTO_2681	16
PSPTO_2683	9
PSPTO_2684	119
PSPTO_2685	54
PSPTO_2686	35
PSPTO_2687	26
PSPTO_2688	64
PSPTO_2689	32
PSPTO_2690	3
PSPTO_2691	23
PSPTO_2692	14
PSPTO_2693	28
PSPTO_2694	40
PSPTO_2695	62
PSPTO_2696	11
PSPTO_2697	86
PSPTO_2698	30
PSPTO_2699	96
PSPTO_2700	183
PSPTO_2701	80
PSPTO_2702	164
PSPTO_2703	252
PSPTO_2704	190
PSPTO_2705	90
PSPTO_2706	119
PSPTO_2707	803
PSPTO_2708	25
PSPTO_2709	33
PSPTO_2710	52
PSPTO_2711	21
PSPTO_2712	130
PSPTO_2713	14
PSPTO_2714	8
PSPTO_2715	28
PSPTO_2716	13
PSPTO_2717	52
PSPTO_2718	38
PSPTO_2719	53
PSPTO_2720	45
PSPTO_2721	49
PSPTO_2722	69
PSPTO_2723	11
PSPTO_2724	21
PSPTO_2725	16
PSPTO_2726	36
PSPTO_2727	1
PSPTO_2728	46
PSPTO_2729	49
PSPTO_2730	184
PSPTO_2731	52
PSPTO_2732	184
PSPTO_2733	86
PSPTO_2734	30
PSPTO_2735	49
PSPTO_2736	107
PSPTO_2737	66
PSPTO_2738	60
PSPTO_2739	45
PSPTO_2740	18
PSPTO_2741	21
PSPTO_2742	52
PSPTO_2743	5
PSPTO_2744	52
PSPTO_2745	81
PSPTO_2746	72
PSPTO_2747	27
PSPTO_2748	21
PSPTO_2749	66
PSPTO_2750	223
PSPTO_2751	63
PSPTO_2752	42
PSPTO_2753	37
PSPTO_2754	98
PSPTO_2755	139
PSPTO_2756	92
PSPTO_2757	104
PSPTO_2758	32
PSPTO_2759	5
PSPTO_2760	77
PSPTO_2761	101
PSPTO_2762	126
PSPTO_2763	92
PSPTO_2764	42
PSPTO_2765	47
PSPTO_2766	49
PSPTO_2767	15
PSPTO_2768	9
PSPTO_2769	32
PSPTO_2770	8
PSPTO_2771	18
PSPTO_2772	22
PSPTO_2773	23
PSPTO_2774	19
PSPTO_2775	268
PSPTO_2776	54
PSPTO_2777	33
PSPTO_2778	51
PSPTO_2779	47
PSPTO_2780	59
PSPTO_2781	116
PSPTO_2782	92
PSPTO_2783	77
PSPTO_2784	41
PSPTO_2785	34
PSPTO_2786	21
PSPTO_2787	24
PSPTO_2788	29
PSPTO_2789	1
PSPTO_2790	17
PSPTO_2791	54
PSPTO_2792	23
PSPTO_2793	48
PSPTO_2794	93
PSPTO_2795	163
PSPTO_2796	34
PSPTO_2797	17
PSPTO_2798	28
PSPTO_2799	25
PSPTO_2800	29
PSPTO_2801	79
PSPTO_2802	43
PSPTO_2803	56
PSPTO_2804	53
PSPTO_2805	240
PSPTO_2806	44
PSPTO_2807	20
PSPTO_2808	55
PSPTO_2809	74
PSPTO_2810	43
PSPTO_2811	37
PSPTO_2812	46
PSPTO_2813	57
PSPTO_2814	63
PSPTO_2815	7
PSPTO_2816	19
PSPTO_2817	10
PSPTO_2818	54
PSPTO_2819	21
PSPTO_2820	60
PSPTO_2821	62
PSPTO_2822	39
PSPTO_2823	30
PSPTO_2824	72
PSPTO_2825	44
PSPTO_2826	2
PSPTO_2827	5
PSPTO_2828	26
PSPTO_2829	496
PSPTO_2830	1037
PSPTO_2831	45
PSPTO_2832	85
PSPTO_2833	32
PSPTO_2834	19
PSPTO_2835	3
PSPTO_2836	36
PSPTO_2837	19
PSPTO_2838	7
PSPTO_2839	10
PSPTO_2840	70
PSPTO_2841	49
PSPTO_2842	38
PSPTO_2843	17
PSPTO_2844	18
PSPTO_2845	11
PSPTO_2846	13
PSPTO_2847	14
PSPTO_2848	11
PSPTO_2849	8
PSPTO_2850	15
PSPTO_2851	21
PSPTO_2852	16
PSPTO_2853	60
PSPTO_2855	4
PSPTO_2856	123
PSPTO_2857	28
PSPTO_2858	6
PSPTO_2859	46
PSPTO_2860	13
PSPTO_2861	10
PSPTO_2862	15
PSPTO_2863	48
PSPTO_2864	11
PSPTO_2865	14
PSPTO_2866	9
PSPTO_2867	6
PSPTO_2868	46
PSPTO_2869	4
PSPTO_2870	40
PSPTO_2871	81
PSPTO_2872	96
PSPTO_2873	53
PSPTO_2874	75
PSPTO_2875	37
PSPTO_2876	81
PSPTO_2877	60
PSPTO_2878	19
PSPTO_2879	3
PSPTO_2880	35
PSPTO_2881	5
PSPTO_2882	29
PSPTO_2883	27
PSPTO_2885	10
PSPTO_2886	13
PSPTO_2887	40
PSPTO_2888	6
PSPTO_2889	0
PSPTO_2890	2
PSPTO_2891	24
PSPTO_2892	1
PSPTO_2893	23
PSPTO_2894	63
PSPTO_2895	51
PSPTO_2896	47
PSPTO_2897	19
PSPTO_2898	14
PSPTO_2899	20
PSPTO_2900	26
PSPTO_2901	29
PSPTO_2902	28
PSPTO_2903	50
PSPTO_2904	59
PSPTO_2905	36
PSPTO_2906	70
PSPTO_2907	65
PSPTO_2908	36
PSPTO_2909	50
PSPTO_2910	52
PSPTO_2911	63
PSPTO_2912	15
PSPTO_2913	33
PSPTO_2914	18
PSPTO_2915	27
PSPTO_2916	39
PSPTO_2917	36
PSPTO_2918	12
PSPTO_2919	42
PSPTO_2920	34
PSPTO_2921	75
PSPTO_2922	20
PSPTO_2923	46
PSPTO_2924	15
PSPTO_2925	63
PSPTO_2926	88
PSPTO_2927	30
PSPTO_2928	17
PSPTO_2929	9
PSPTO_2930	8
PSPTO_2931	29
PSPTO_2932	39
PSPTO_2933	28
PSPTO_2934	40
PSPTO_2935	42
PSPTO_2936	35
PSPTO_2937	50
PSPTO_2938	7
PSPTO_2939	15
PSPTO_2940	96
PSPTO_2941	87
PSPTO_2942	5
PSPTO_2943	73
PSPTO_2944	31
PSPTO_2945	23
PSPTO_2946	38
PSPTO_2947	61
PSPTO_2948	17
PSPTO_2949	58
PSPTO_2950	82
PSPTO_2951	93
PSPTO_2952	94
PSPTO_2953	2
PSPTO_2954	9
PSPTO_2955	30
PSPTO_2956	72
PSPTO_2957	50
PSPTO_2958	49
PSPTO_2959	103
PSPTO_2960	108
PSPTO_2961	52
PSPTO_2962	52
PSPTO_2963	64
PSPTO_2964	66
PSPTO_2965	4
PSPTO_2966	27
PSPTO_2967	33
PSPTO_2968	55
PSPTO_2969	17
PSPTO_2970	14
PSPTO_2971	58
PSPTO_2972	58
PSPTO_2973	47
PSPTO_2974	25
PSPTO_2975	57
PSPTO_2976	36
PSPTO_2977	31
PSPTO_2978	25
PSPTO_2979	9
PSPTO_2980	16
PSPTO_2981	11
PSPTO_2982	87
PSPTO_2983	25
PSPTO_2984	40
PSPTO_2985	58
PSPTO_2986	38
PSPTO_2987	30
PSPTO_2988	50
PSPTO_2989	41
PSPTO_2990	32
PSPTO_2991	76
PSPTO_2992	63
PSPTO_2993	51
PSPTO_2994	54
PSPTO_2995	85
PSPTO_2996	24
PSPTO_2997	46
PSPTO_2998	25
PSPTO_2999	10
PSPTO_3000	37
PSPTO_3001	67
PSPTO_3002	33
PSPTO_3003	24
PSPTO_3004	34
PSPTO_3005	34
PSPTO_3006	35
PSPTO_3007	93
PSPTO_3008	36
PSPTO_3009	41
PSPTO_3010	48
PSPTO_3011	60
PSPTO_3012	13
PSPTO_3013	24
PSPTO_3014	26
PSPTO_3015	5
PSPTO_3016	21
PSPTO_3017	93
PSPTO_3018	17
PSPTO_3019	35
PSPTO_3020	17
PSPTO_3021	55
PSPTO_3022	31
PSPTO_3023	80
PSPTO_3024	45
PSPTO_3025	33
PSPTO_3026	6
PSPTO_3027	73
PSPTO_3028	14
PSPTO_3029	22
PSPTO_3030	47
PSPTO_3031	32
PSPTO_3032	76
PSPTO_3033	46
PSPTO_3034	7
PSPTO_3035	123
PSPTO_3036	111
PSPTO_3037	21
PSPTO_3038	34
PSPTO_3039	63
PSPTO_3040	50
PSPTO_3041	51
PSPTO_3042	14
PSPTO_3043	38
PSPTO_3044	16
PSPTO_3045	10
PSPTO_3046	98
PSPTO_3047	63
PSPTO_3048	30
PSPTO_3049	30
PSPTO_3050	44
PSPTO_3051	7
PSPTO_3052	41
PSPTO_3053	16
PSPTO_3054	29
PSPTO_3055	3
PSPTO_3056	41
PSPTO_3057	37
PSPTO_3058	34
PSPTO_3059	38
PSPTO_3060	39
PSPTO_3061	10
PSPTO_3062	29
PSPTO_3063	17
PSPTO_3064	37
PSPTO_3065	46
PSPTO_3066	12
PSPTO_3067	8
PSPTO_3068	53
PSPTO_3069	25
PSPTO_3070	8
PSPTO_3071	91
PSPTO_3072	22
PSPTO_3073	17
PSPTO_3074	32
PSPTO_3075	42
PSPTO_3076	18
PSPTO_3077	36
PSPTO_3078	11
PSPTO_3079	30
PSPTO_3080	59
PSPTO_3081	31
PSPTO_3082	16
PSPTO_3083	35
PSPTO_3084	20
PSPTO_3085	23
PSPTO_3086	10
PSPTO_3087	108
PSPTO_3088	39
PSPTO_3089	52
PSPTO_3090	59
PSPTO_3091	85
PSPTO_3092	32
PSPTO_3094	21
PSPTO_3095	13
PSPTO_3096	15
PSPTO_3097	7
PSPTO_3098	49
PSPTO_3099	47
PSPTO_3100	75
PSPTO_3101	73
PSPTO_3102	104
PSPTO_3103	191
PSPTO_3104	3
PSPTO_3105	56
PSPTO_3106	21
PSPTO_3107	81
PSPTO_3108	137
PSPTO_3109	44
PSPTO_3110	32
PSPTO_3111	69
PSPTO_3112	78
PSPTO_3113	74
PSPTO_3114	19
PSPTO_3115	18
PSPTO_3116	2
PSPTO_3117	6
PSPTO_3118	31
PSPTO_3119	81
PSPTO_3120	40
PSPTO_3121	107
PSPTO_3122	108
PSPTO_3123	75
PSPTO_3124	18
PSPTO_3125	98
PSPTO_3126	95
PSPTO_3127	106
PSPTO_3128	176
PSPTO_3129	78
PSPTO_3130	83
PSPTO_3131	63
PSPTO_3132	47
PSPTO_3133	25
PSPTO_3134	37
PSPTO_3135	82
PSPTO_3136	25
PSPTO_3137	40
PSPTO_3138	36
PSPTO_3139	8
PSPTO_3140	34
PSPTO_3141	34
PSPTO_3142	18
PSPTO_3143	25
PSPTO_3144	56
PSPTO_3145	34
PSPTO_3146	48
PSPTO_3147	45
PSPTO_3148	51
PSPTO_3149	243
PSPTO_3150	69
PSPTO_3151	32
PSPTO_3152	50
PSPTO_3153	42
PSPTO_3154	27
PSPTO_3155	336
PSPTO_3156	13
PSPTO_3157	339
PSPTO_3158	59
PSPTO_3159	55
PSPTO_3160	33
PSPTO_3161	78
PSPTO_3162	52
PSPTO_3163	45
PSPTO_3164	105
PSPTO_3165	28
PSPTO_3166	27
PSPTO_3167	16
PSPTO_3168	5
PSPTO_3169	10
PSPTO_3170	91
PSPTO_3171	24
PSPTO_3172	72
PSPTO_3173	5
PSPTO_3174	23
PSPTO_3175	6
PSPTO_3176	71
PSPTO_3177	32
PSPTO_3178	37
PSPTO_3179	56
PSPTO_3180	38
PSPTO_3181	13
PSPTO_3182	53
PSPTO_3183	25
PSPTO_3184	37
PSPTO_3185	57
PSPTO_3186	39
PSPTO_3187	2
PSPTO_3188	36
PSPTO_3189	60
PSPTO_3190	79
PSPTO_3191	29
PSPTO_3192	72
PSPTO_3193	178
PSPTO_3194	35
PSPTO_3195	78
PSPTO_3196	44
PSPTO_3197	78
PSPTO_3198	28
PSPTO_3199	24
PSPTO_3200	51
PSPTO_3201	37
PSPTO_3202	66
PSPTO_3203	4
PSPTO_3204	14
PSPTO_3205	42
PSPTO_3206	23
PSPTO_3207	33
PSPTO_3208	103
PSPTO_3210	85
PSPTO_3211	41
PSPTO_3212	7
PSPTO_3213	49
PSPTO_3214	57
PSPTO_3215	6
PSPTO_3216	52
PSPTO_3217	11
PSPTO_3218	35
PSPTO_3219	8
PSPTO_3220	13
PSPTO_3221	11
PSPTO_3222	7
PSPTO_3223	27
PSPTO_3224	21
PSPTO_3225	26
PSPTO_3226	23
PSPTO_3227	2
PSPTO_3228	12
PSPTO_3229	831
PSPTO_3230	74
PSPTO_3231	57
PSPTO_3232	15
PSPTO_3233	75
PSPTO_3234	30
PSPTO_3235	24
PSPTO_3236	8
PSPTO_3237	188
PSPTO_3238	57
PSPTO_3239	25
PSPTO_3240	29
PSPTO_3241	106
PSPTO_3242	91
PSPTO_3243	24
PSPTO_3244	52
PSPTO_3245	14
PSPTO_3246	24
PSPTO_3247	57
PSPTO_3248	94
PSPTO_3249	59
PSPTO_3250	63
PSPTO_3251	59
PSPTO_3252	49
PSPTO_3253	17
PSPTO_3254	48
PSPTO_3255	41
PSPTO_3256	44
PSPTO_3257	62
PSPTO_3258	55
PSPTO_3259	113
PSPTO_3260	15
PSPTO_3261	8
PSPTO_3262	107
PSPTO_3263	10
PSPTO_3264	27
PSPTO_3265	79
PSPTO_3266	5
PSPTO_3267	29
PSPTO_3268	22
PSPTO_3269	22
PSPTO_3270	67
PSPTO_3271	30
PSPTO_3272	76
PSPTO_3273	17
PSPTO_3274	45
PSPTO_3275	20
PSPTO_3276	5
PSPTO_3277	45
PSPTO_3278	72
PSPTO_3279	90
PSPTO_3280	85
PSPTO_3281	63
PSPTO_3282	59
PSPTO_3283	32
PSPTO_3284	35
PSPTO_3285	58
PSPTO_3286	21
PSPTO_3287	51
PSPTO_3288	15
PSPTO_3289	10
PSPTO_3290	14
PSPTO_3291	55
PSPTO_3292	20
PSPTO_3293	53
PSPTO_3294	127
PSPTO_3295	37
PSPTO_3296	60
PSPTO_3297	40
PSPTO_3298	50
PSPTO_3299	34
PSPTO_3300	47
PSPTO_3301	31
PSPTO_3302	164
PSPTO_3303	7
PSPTO_3304	38
PSPTO_3305	9
PSPTO_3306	19
PSPTO_3307	104
PSPTO_3308	36
PSPTO_3309	38
PSPTO_3310	79
PSPTO_3311	29
PSPTO_3312	34
PSPTO_3313	17
PSPTO_3314	16
PSPTO_3315	26
PSPTO_3316	87
PSPTO_3317	98
PSPTO_3318	69
PSPTO_3319	35
PSPTO_3320	27
PSPTO_3321	11
PSPTO_3322	49
PSPTO_3323	181
PSPTO_3324	7
PSPTO_3325	54
PSPTO_3326	48
PSPTO_3327	55
PSPTO_3328	50
PSPTO_3329	99
PSPTO_3330	117
PSPTO_3331	8
PSPTO_3332	33
PSPTO_3333	57
PSPTO_3334	25
PSPTO_3335	19
PSPTO_3336	23
PSPTO_3337	27
PSPTO_3338	22
PSPTO_3339	20
PSPTO_3340	10
PSPTO_3341	5
PSPTO_3342	49
PSPTO_3343	27
PSPTO_3344	74
PSPTO_3345	61
PSPTO_3346	11
PSPTO_3347	76
PSPTO_3348	15
PSPTO_3349	91
PSPTO_3350	30
PSPTO_3351	29
PSPTO_3352	5
PSPTO_3353	646
PSPTO_3354	55
PSPTO_3355	59
PSPTO_3356	387
PSPTO_3357	4
PSPTO_3358	20
PSPTO_3359	30
PSPTO_3360	52
PSPTO_3361	40
PSPTO_3362	23
PSPTO_3363	19
PSPTO_3364	51
PSPTO_3365	12
PSPTO_3366	83
PSPTO_3367	131
PSPTO_3368	31
PSPTO_3369	105
PSPTO_3370	228
PSPTO_3371	54
PSPTO_3372	14
PSPTO_3373	18
PSPTO_3374	22
PSPTO_3375	68
PSPTO_3376	52
PSPTO_3377	42
PSPTO_3378	21
PSPTO_3379	80
PSPTO_3380	51
PSPTO_3381	22
PSPTO_3382	4
PSPTO_3383	6
PSPTO_3384	7
PSPTO_3385	41
PSPTO_3386	109
PSPTO_3387	225
PSPTO_3388	12
PSPTO_3389	13
PSPTO_3390	28
PSPTO_3391	3
PSPTO_3392	22
PSPTO_3393	91
PSPTO_3394	8
PSPTO_3395	6
PSPTO_3396	49
PSPTO_3397	11
PSPTO_3398	38
PSPTO_3399	19
PSPTO_3400	27
PSPTO_3401	16
PSPTO_3402	11
PSPTO_3403	36
PSPTO_3404	19
PSPTO_3405	32
PSPTO_3406	14
PSPTO_3407	30
PSPTO_3408	2
PSPTO_3409	44
PSPTO_3410	71
PSPTO_3411	8
PSPTO_3412	59
PSPTO_3413	14
PSPTO_3414	3
PSPTO_3415	6
PSPTO_3416	3
PSPTO_3417	13
PSPTO_3418	48
PSPTO_3419	0
PSPTO_3420	11
PSPTO_3421	33
PSPTO_3422	6
PSPTO_3423	1
PSPTO_3424	4
PSPTO_3425	6
PSPTO_3426	1
PSPTO_3427	63
PSPTO_3428	1
PSPTO_3429	6
PSPTO_3430	11
PSPTO_3432	25
PSPTO_3433	23
PSPTO_3435	17
PSPTO_3436	11
PSPTO_3437	110
PSPTO_3438	49
PSPTO_3439	15
PSPTO_3440	75
PSPTO_3441	42
PSPTO_3442	10
PSPTO_3443	51
PSPTO_3444	15
PSPTO_3445	28
PSPTO_3446	42
PSPTO_3447	55
PSPTO_3448	54
PSPTO_3449	66
PSPTO_3450	32
PSPTO_3451	19
PSPTO_3452	15
PSPTO_3453	16
PSPTO_3454	52
PSPTO_3455	44
PSPTO_3456	26
PSPTO_3457	64
PSPTO_3458	19
PSPTO_3459	59
PSPTO_3460	66
PSPTO_3461	49
PSPTO_3462	269
PSPTO_3463	72
PSPTO_3464	140
PSPTO_3465	27
PSPTO_3466	42
PSPTO_3467	54
PSPTO_3468	125
PSPTO_3469	48
PSPTO_3470	43
PSPTO_3471	152
PSPTO_3472	11
PSPTO_3473	78
PSPTO_3474	27
PSPTO_3475	10
PSPTO_3476	30
PSPTO_3477	24
PSPTO_3478	5
PSPTO_3479	40
PSPTO_3480	143
PSPTO_3481	7
PSPTO_3482	27
PSPTO_3483	14
PSPTO_3484	23
PSPTO_3485	99
PSPTO_3486	3
PSPTO_3487	14
PSPTO_3488	59
PSPTO_3489	48
PSPTO_3490	48
PSPTO_3491	63
PSPTO_3492	66
PSPTO_3493	32
PSPTO_3494	71
PSPTO_3495	129
PSPTO_3496	39
PSPTO_3497	90
PSPTO_3498	52
PSPTO_3499	58
PSPTO_3500	121
PSPTO_3501	51
PSPTO_3502	31
PSPTO_3503	31
PSPTO_3504	23
PSPTO_3505	33
PSPTO_3506	57
PSPTO_3507	85
PSPTO_3508	70
PSPTO_3509	9
PSPTO_3510	22
PSPTO_3511	55
PSPTO_3512	35
PSPTO_3513	35
PSPTO_3514	117
PSPTO_3515	9
PSPTO_3516	98
PSPTO_3517	196
PSPTO_3518	2
PSPTO_3519	28
PSPTO_3520	65
PSPTO_3521	136
PSPTO_3522	83
PSPTO_3523	78
PSPTO_3524	119
PSPTO_3525	40
PSPTO_3526	51
PSPTO_3527	74
PSPTO_3528	43
PSPTO_3529	41
PSPTO_3530	77
PSPTO_3531	33
PSPTO_3532	52
PSPTO_3533	74
PSPTO_3534	92
PSPTO_3535	84
PSPTO_3536	61
PSPTO_3537	73
PSPTO_3538	46
PSPTO_3539	96
PSPTO_3540	37
PSPTO_3541	52
PSPTO_3542	42
PSPTO_3543	22
PSPTO_3544	401
PSPTO_3545	35
PSPTO_3546	3
PSPTO_3547	39
PSPTO_3548	100
PSPTO_3549	20
PSPTO_3550	372
PSPTO_3551	479
PSPTO_3552	45
PSPTO_3553	147
PSPTO_3554	96
PSPTO_3555	82
PSPTO_3556	69
PSPTO_3557	61
PSPTO_3558	25
PSPTO_3559	161
PSPTO_3560	74
PSPTO_3561	22
PSPTO_3562	9
PSPTO_3563	64
PSPTO_3564	31
PSPTO_3565	61
PSPTO_3566	14
PSPTO_3567	53
PSPTO_3568	4
PSPTO_3569	50
PSPTO_3570	74
PSPTO_3571	4
PSPTO_3572	27
PSPTO_3573	14
PSPTO_3574	202
PSPTO_3575	16
PSPTO_3576	20
PSPTO_3577	60
PSPTO_3578	14
PSPTO_3579	87
PSPTO_3580	73
PSPTO_3581	22
PSPTO_3582	28
PSPTO_3583	6
PSPTO_3584	55
PSPTO_3585	11
PSPTO_3586	55
PSPTO_3587	18
PSPTO_3588	49
PSPTO_3589	73
PSPTO_3590	36
PSPTO_3591	63
PSPTO_3592	71
PSPTO_3593	90
PSPTO_3594	39
PSPTO_3595	45
PSPTO_3596	53
PSPTO_3597	101
PSPTO_3598	108
PSPTO_3599	80
PSPTO_3600	30
PSPTO_3601	25
PSPTO_3602	61
PSPTO_3603	30
PSPTO_3604	102
PSPTO_3605	93
PSPTO_3606	5
PSPTO_3607	21
PSPTO_3608	24
PSPTO_3609	28
PSPTO_3610	46
PSPTO_3611	3
PSPTO_3612	8
PSPTO_3613	56
PSPTO_3614	5
PSPTO_3615	37
PSPTO_3616	63
PSPTO_3617	18
PSPTO_3618	112
PSPTO_3619	5
PSPTO_3620	59
PSPTO_3621	107
PSPTO_3624	22
PSPTO_3625	40
PSPTO_3626	33
PSPTO_3627	91
PSPTO_3628	15
PSPTO_3629	25
PSPTO_3630	122
PSPTO_3631	20
PSPTO_3632	4
PSPTO_3633	49
PSPTO_3634	61
PSPTO_3635	31
PSPTO_3636	57
PSPTO_3637	22
PSPTO_3638	42
PSPTO_3639	69
PSPTO_3640	68
PSPTO_3641	23
PSPTO_3642	86
PSPTO_3643	55
PSPTO_3644	103
PSPTO_3645	69
PSPTO_3646	150
PSPTO_3647	18
PSPTO_3648	81
PSPTO_3649	36
PSPTO_3650	60
PSPTO_3651	47
PSPTO_3652	4
PSPTO_3653	5
PSPTO_3654	11
PSPTO_3655	60
PSPTO_3656	126
PSPTO_3657	40
PSPTO_3658	258
PSPTO_3659	19
PSPTO_3660	113
PSPTO_3661	158
PSPTO_3662	64
PSPTO_3663	118
PSPTO_3664	52
PSPTO_3665	33
PSPTO_3666	30
PSPTO_3667	11
PSPTO_3668	49
PSPTO_3669	10
PSPTO_3670	53
PSPTO_3671	20
PSPTO_3672	20
PSPTO_3673	0
PSPTO_3674	19
PSPTO_3675	44
PSPTO_3676	8
PSPTO_3677	10
PSPTO_3678	79
PSPTO_3679	53
PSPTO_3680	112
PSPTO_3681	15
PSPTO_3682	63
PSPTO_3683	5
PSPTO_3684	8
PSPTO_3685	73
PSPTO_3686	56
PSPTO_3687	64
PSPTO_3688	20
PSPTO_3689	70
PSPTO_3690	39
PSPTO_3691	68
PSPTO_3692	121
PSPTO_3693	3
PSPTO_3694	58
PSPTO_3695	19
PSPTO_3696	125
PSPTO_3697	2
PSPTO_3698	14
PSPTO_3699	97
PSPTO_3700	59
PSPTO_3701	46
PSPTO_3702	56
PSPTO_3703	76
PSPTO_3704	85
PSPTO_3705	107
PSPTO_3706	91
PSPTO_3707	143
PSPTO_3708	44
PSPTO_3709	17
PSPTO_3710	27
PSPTO_3711	63
PSPTO_3712	35
PSPTO_3713	49
PSPTO_3714	54
PSPTO_3715	74
PSPTO_3716	45
PSPTO_3717	69
PSPTO_3718	20
PSPTO_3719	39
PSPTO_3720	82
PSPTO_3721	40
PSPTO_3722	61
PSPTO_3723	71
PSPTO_3724	589
PSPTO_3725	331
PSPTO_3726	80
PSPTO_3727	82
PSPTO_3728	13
PSPTO_3729	25
PSPTO_3730	62
PSPTO_3731	36
PSPTO_3732	15
PSPTO_3733	68
PSPTO_3734	40
PSPTO_3735	113
PSPTO_3736	11
PSPTO_3737	15
PSPTO_3738	16
PSPTO_3739	30
PSPTO_3740	47
PSPTO_3741	84
PSPTO_3742	71
PSPTO_3743	61
PSPTO_3744	50
PSPTO_3745	23
PSPTO_3746	54
PSPTO_3747	69
PSPTO_3748	62
PSPTO_3749	11
PSPTO_3750	21
PSPTO_3751	19
PSPTO_3752	367
PSPTO_3753	58
PSPTO_3754	48
PSPTO_3755	7
PSPTO_3756	32
PSPTO_3757	317
PSPTO_3758	41
PSPTO_3759	49
PSPTO_3760	66
PSPTO_3761	43
PSPTO_3762	77
PSPTO_3763	123
PSPTO_3764	101
PSPTO_3765	77
PSPTO_3766	241
PSPTO_3767	15
PSPTO_3768	59
PSPTO_3769	10
PSPTO_3770	57
PSPTO_3771	54
PSPTO_3772	81
PSPTO_3773	42
PSPTO_3774	11
PSPTO_3775	5
PSPTO_3776	27
PSPTO_3777	51
PSPTO_3778	63
PSPTO_3779	46
PSPTO_3780	43
PSPTO_3781	16
PSPTO_3782	6
PSPTO_3783	23
PSPTO_3784	46
PSPTO_3785	31
PSPTO_3786	53
PSPTO_3787	34
PSPTO_3788	152
PSPTO_3789	38
PSPTO_3790	12
PSPTO_3791	34
PSPTO_3792	58
PSPTO_3793	59
PSPTO_3794	9
PSPTO_3795	23
PSPTO_3796	55
PSPTO_3797	73
PSPTO_3798	52
PSPTO_3799	30
PSPTO_3800	60
PSPTO_3801	72
PSPTO_3802	86
PSPTO_3803	119
PSPTO_3804	41
PSPTO_3805	70
PSPTO_3806	96
PSPTO_3807	30
PSPTO_3808	29
PSPTO_3809	58
PSPTO_3810	88
PSPTO_3811	71
PSPTO_3812	20
PSPTO_3813	37
PSPTO_3814	87
PSPTO_3815	49
PSPTO_3816	46
PSPTO_3817	29
PSPTO_3818	290
PSPTO_3819	58
PSPTO_3820	24
PSPTO_3821	40
PSPTO_3822	21
PSPTO_3823	33
PSPTO_3824	45
PSPTO_3825	18
PSPTO_3826	65
PSPTO_3827	31
PSPTO_3828	36
PSPTO_3829	33
PSPTO_3830	115
PSPTO_3831	96
PSPTO_3832	62
PSPTO_3833	69
PSPTO_3834	35
PSPTO_3835	11
PSPTO_3836	70
PSPTO_3837	38
PSPTO_3838	52
PSPTO_3839	27
PSPTO_3840	50
PSPTO_3841	261
PSPTO_3842	43
PSPTO_3843	36
PSPTO_3844	10
PSPTO_3845	73
PSPTO_3846	16
PSPTO_3847	42
PSPTO_3848	150
PSPTO_3849	39
PSPTO_3850	17
PSPTO_3851	80
PSPTO_3852	9
PSPTO_3853	21
PSPTO_3854	12
PSPTO_3855	17
PSPTO_3856	26
PSPTO_3857	143
PSPTO_3858	15
PSPTO_3859	33
PSPTO_3860	84
PSPTO_3861	32
PSPTO_3862	82
PSPTO_3863	28
PSPTO_3864	41
PSPTO_3865	9
PSPTO_3866	11
PSPTO_3867	4
PSPTO_3868	7
PSPTO_3869	2
PSPTO_3870	47
PSPTO_3871	56
PSPTO_3872	50
PSPTO_3873	53
PSPTO_3874	14
PSPTO_3875	12
PSPTO_3876	75
PSPTO_3877	36
PSPTO_3878	48
PSPTO_3879	39
PSPTO_3880	14
PSPTO_3881	12
PSPTO_3882	56
PSPTO_3883	28
PSPTO_3884	71
PSPTO_3885	114
PSPTO_3886	49
PSPTO_3887	35
PSPTO_3888	19
PSPTO_3889	21
PSPTO_3890	48
PSPTO_3891	63
PSPTO_3892	27
PSPTO_3893	22
PSPTO_3894	61
PSPTO_3895	7
PSPTO_3896	2
PSPTO_3897	50
PSPTO_3898	39
PSPTO_3899	51
PSPTO_3900	145
PSPTO_3901	19
PSPTO_3902	33
PSPTO_3903	33
PSPTO_3904	5
PSPTO_3905	19
PSPTO_3906	55
PSPTO_3907	11
PSPTO_3908	19
PSPTO_3909	38
PSPTO_3910	18
PSPTO_3911	98
PSPTO_3912	21
PSPTO_3913	27
PSPTO_3914	75
PSPTO_3915	57
PSPTO_3916	14
PSPTO_3917	19
PSPTO_3918	11
PSPTO_3919	44
PSPTO_3920	51
PSPTO_3921	13
PSPTO_3922	47
PSPTO_3923	59
PSPTO_3924	99
PSPTO_3925	96
PSPTO_3926	27
PSPTO_3927	86
PSPTO_3929	14
PSPTO_3930	67
PSPTO_3931	5
PSPTO_3932	29
PSPTO_3933	23
PSPTO_3934	3
PSPTO_3935	6
PSPTO_3936	35
PSPTO_3937	13
PSPTO_3938	11
PSPTO_3939	83
PSPTO_3940	10
PSPTO_3941	32
PSPTO_3942	15
PSPTO_3943	3
PSPTO_3944	5
PSPTO_3945	9
PSPTO_3946	17
PSPTO_3947	1
PSPTO_3948	17
PSPTO_3949	57
PSPTO_3950	36
PSPTO_3951	38
PSPTO_3952	67
PSPTO_3953	47
PSPTO_3954	19
PSPTO_3955	16
PSPTO_3956	45
PSPTO_3957	9
PSPTO_3958	70
PSPTO_3959	47
PSPTO_3960	37
PSPTO_3961	12
PSPTO_3962	4
PSPTO_3963	45
PSPTO_3965	37
PSPTO_3966	7
PSPTO_3968	31
PSPTO_3969	10
PSPTO_3970	45
PSPTO_3971	163
PSPTO_3972	123
PSPTO_3973	55
PSPTO_3974	9
PSPTO_3975	20
PSPTO_3976	17
PSPTO_3977	68
PSPTO_3978	34
PSPTO_3979	20
PSPTO_3980	59
PSPTO_3981	112
PSPTO_3982	19
PSPTO_3983	63
PSPTO_3984	11
PSPTO_3985	6
PSPTO_3986	12
PSPTO_3987	1084
PSPTO_3988	95
PSPTO_3989	14
PSPTO_3990	49
PSPTO_3991	137
PSPTO_3992	68
PSPTO_3993	104
PSPTO_3994	21
PSPTO_3995	45
PSPTO_3996	54
PSPTO_3997	5
PSPTO_3998	8
PSPTO_3999	63
PSPTO_4001	84
PSPTO_4002	93
PSPTO_4003	27
PSPTO_4004	54
PSPTO_4005	19
PSPTO_4006	93
PSPTO_4007	22
PSPTO_4008	5
PSPTO_4009	9
PSPTO_4010	68
PSPTO_4011	6
PSPTO_4012	19
PSPTO_4013	22
PSPTO_4014	28
PSPTO_4015	7
PSPTO_4016	1
PSPTO_4017	7
PSPTO_4018	64
PSPTO_4019	51
PSPTO_4020	10
PSPTO_4021	24
PSPTO_4022	5
PSPTO_4023	26
PSPTO_4024	205
PSPTO_4025	48
PSPTO_4026	6
PSPTO_4027	22
PSPTO_4028	6
PSPTO_4029	39
PSPTO_4030	29
PSPTO_4031	28
PSPTO_4032	23
PSPTO_4033	130
PSPTO_4034	29
PSPTO_4035	15
PSPTO_4036	47
PSPTO_4037	25
PSPTO_4038	47
PSPTO_4039	18
PSPTO_4040	13
PSPTO_4041	90
PSPTO_4042	8
PSPTO_4043	22
PSPTO_4044	25
PSPTO_4045	16
PSPTO_4046	96
PSPTO_4047	20
PSPTO_4048	9
PSPTO_4049	19
PSPTO_4050	42
PSPTO_4051	36
PSPTO_4052	16
PSPTO_4053	1
PSPTO_4054	30
PSPTO_4055	11
PSPTO_4056	5
PSPTO_4057	17
PSPTO_4058	167
PSPTO_4059	19
PSPTO_4060	39
PSPTO_4061	29
PSPTO_4062	22
PSPTO_4063	29
PSPTO_4064	28
PSPTO_4065	12
PSPTO_4066	6
PSPTO_4067	17
PSPTO_4068	33
PSPTO_4069	3
PSPTO_4070	8
PSPTO_4071	31
PSPTO_4072	29
PSPTO_4073	45
PSPTO_4074	16
PSPTO_4075	21
PSPTO_4076	38
PSPTO_4077	24
PSPTO_4078	52
PSPTO_4079	133
PSPTO_4080	36
PSPTO_4081	104
PSPTO_4082	26
PSPTO_4083	42
PSPTO_4084	184
PSPTO_4087	14
PSPTO_4088	43
PSPTO_4089	43
PSPTO_4090	20
PSPTO_4091	42
PSPTO_4092	72
PSPTO_4093	113
PSPTO_4094	55
PSPTO_4095	256
PSPTO_4096	12
PSPTO_4097	66
PSPTO_4098	91
PSPTO_4099	9
PSPTO_4100	11
PSPTO_4101	47
PSPTO_4102	1
PSPTO_4103	19
PSPTO_4104	149
PSPTO_4105	68
PSPTO_4106	96
PSPTO_4107	4
PSPTO_4108	141
PSPTO_4109	28
PSPTO_4110	75
PSPTO_4111	35
PSPTO_4112	20
PSPTO_4113	35
PSPTO_4114	118
PSPTO_4115	62
PSPTO_4116	23
PSPTO_4117	111
PSPTO_4118	11
PSPTO_4119	82
PSPTO_4120	135
PSPTO_4121	25
PSPTO_4122	17
PSPTO_4123	49
PSPTO_4124	34
PSPTO_4125	7
PSPTO_4126	35
PSPTO_4127	51
PSPTO_4128	48
PSPTO_4129	27
PSPTO_4130	15
PSPTO_4131	9
PSPTO_4132	31
PSPTO_4133	133
PSPTO_4134	53
PSPTO_4135	138
PSPTO_4136	36
PSPTO_4137	7
PSPTO_4138	4
PSPTO_4139	70
PSPTO_4140	55
PSPTO_4141	136
PSPTO_4142	38
PSPTO_4143	25
PSPTO_4144	36
PSPTO_4145	162
PSPTO_4146	43
PSPTO_4147	81
PSPTO_4148	40
PSPTO_4149	13
PSPTO_4150	4
PSPTO_4151	32
PSPTO_4152	49
PSPTO_4153	7
PSPTO_4154	7
PSPTO_4155	84
PSPTO_4156	88
PSPTO_4157	65
PSPTO_4158	59
PSPTO_4159	42
PSPTO_4160	12
PSPTO_4161	43
PSPTO_4162	128
PSPTO_4163	31
PSPTO_4164	56
PSPTO_4165	71
PSPTO_4166	26
PSPTO_4167	16
PSPTO_4168	89
PSPTO_4169	30
PSPTO_4170	115
PSPTO_4171	10
PSPTO_4172	10
PSPTO_4173	8
PSPTO_4174	16
PSPTO_4175	100
PSPTO_4176	107
PSPTO_4177	30
PSPTO_4178	42
PSPTO_4179	106
PSPTO_4180	56
PSPTO_4181	23
PSPTO_4182	61
PSPTO_4183	78
PSPTO_4184	7
PSPTO_4185	29
PSPTO_4186	15
PSPTO_4187	23
PSPTO_4188	15
PSPTO_4189	20
PSPTO_4190	31
PSPTO_4191	168
PSPTO_4192	51
PSPTO_4193	76
PSPTO_4194	16
PSPTO_4195	9
PSPTO_4196	148
PSPTO_4197	86
PSPTO_4198	72
PSPTO_4199	24
PSPTO_4200	69
PSPTO_4201	49
PSPTO_4202	59
PSPTO_4203	27
PSPTO_4204	94
PSPTO_4205	66
PSPTO_4206	21
PSPTO_4207	41
PSPTO_4208	93
PSPTO_4209	43
PSPTO_4210	273
PSPTO_4211	33
PSPTO_4212	35
PSPTO_4213	27
PSPTO_4214	59
PSPTO_4215	52
PSPTO_4216	19
PSPTO_4217	31
PSPTO_4218	3
PSPTO_4219	26
PSPTO_4220	66
PSPTO_4221	96
PSPTO_4222	101
PSPTO_4223	330
PSPTO_4224	111
PSPTO_4225	80
PSPTO_4226	14
PSPTO_4227	10
PSPTO_4228	52
PSPTO_4229	33
PSPTO_4230	121
PSPTO_4231	34
PSPTO_4232	56
PSPTO_4233	6
PSPTO_4234	75
PSPTO_4235	79
PSPTO_4236	28
PSPTO_4237	27
PSPTO_4238	22
PSPTO_4239	35
PSPTO_4240	35
PSPTO_4241	40
PSPTO_4242	28
PSPTO_4243	223
PSPTO_4244	130
PSPTO_4245	110
PSPTO_4246	10
PSPTO_4247	25
PSPTO_4248	9
PSPTO_4249	23
PSPTO_4250	45
PSPTO_4251	40
PSPTO_4252	7
PSPTO_4253	47
PSPTO_4254	53
PSPTO_4255	11
PSPTO_4256	17
PSPTO_4257	11
PSPTO_4258	20
PSPTO_4259	55
PSPTO_4260	14
PSPTO_4261	15
PSPTO_4262	13
PSPTO_4263	17
PSPTO_4264	11
PSPTO_4265	32
PSPTO_4266	27
PSPTO_4267	22
PSPTO_4268	9
PSPTO_4269	24
PSPTO_4270	27
PSPTO_4271	28
PSPTO_4272	65
PSPTO_4273	9
PSPTO_4274	18
PSPTO_4275	12
PSPTO_4276	29
PSPTO_4277	15
PSPTO_4278	18
PSPTO_4279	6
PSPTO_4280	26
PSPTO_4281	9
PSPTO_4282	3
PSPTO_4283	25
PSPTO_4284	29
PSPTO_4285	113
PSPTO_4286	32
PSPTO_4287	26
PSPTO_4288	24
PSPTO_4289	37
PSPTO_4290	88
PSPTO_4291	81
PSPTO_4292	93
PSPTO_4293	119
PSPTO_4294	112
PSPTO_4295	43
PSPTO_4296	24
PSPTO_4297	9
PSPTO_4298	25
PSPTO_4299	4
PSPTO_4300	100
PSPTO_4301	23
PSPTO_4302	17
PSPTO_4303	33
PSPTO_4304	96
PSPTO_4305	127
PSPTO_4306	92
PSPTO_4307	111
PSPTO_4308	35
PSPTO_4309	40
PSPTO_4310	41
PSPTO_4312	32
PSPTO_4313	8
PSPTO_4314	24
PSPTO_4315	51
PSPTO_4316	33
PSPTO_4317	31
PSPTO_4318	51
PSPTO_4319	61
PSPTO_4320	48
PSPTO_4321	72
PSPTO_4322	72
PSPTO_4323	25
PSPTO_4324	30
PSPTO_4325	62
PSPTO_4326	30
PSPTO_4327	13
PSPTO_4328	12
PSPTO_4329	26
PSPTO_4330	5
PSPTO_4331	14
PSPTO_4332	42
PSPTO_4333	50
PSPTO_4334	76
PSPTO_4335	35
PSPTO_4336	30
PSPTO_4337	138
PSPTO_4338	65
PSPTO_4339	90
PSPTO_4340	103
PSPTO_4341	37
PSPTO_4342	92
PSPTO_4343	138
PSPTO_4344	70
PSPTO_4345	4
PSPTO_4346	26
PSPTO_4347	51
PSPTO_4348	28
PSPTO_4349	76
PSPTO_4350	30
PSPTO_4351	12
PSPTO_4352	31
PSPTO_4353	18
PSPTO_4354	62
PSPTO_4355	21
PSPTO_4356	11
PSPTO_4357	71
PSPTO_4358	66
PSPTO_4359	46
PSPTO_4360	49
PSPTO_4361	67
PSPTO_4362	67
PSPTO_4363	39
PSPTO_4364	2
PSPTO_4365	64
PSPTO_4366	150
PSPTO_4367	97
PSPTO_4368	42
PSPTO_4369	34
PSPTO_4370	38
PSPTO_4371	60
PSPTO_4372	25
PSPTO_4373	63
PSPTO_4374	48
PSPTO_4375	16
PSPTO_4376	804
PSPTO_4377	66
PSPTO_4378	6
PSPTO_4379	38
PSPTO_4380	35
PSPTO_4381	47
PSPTO_4382	19
PSPTO_4383	81
PSPTO_4384	6
PSPTO_4385	39
PSPTO_4386	61
PSPTO_4387	48
PSPTO_4388	17
PSPTO_4389	51
PSPTO_4390	14
PSPTO_4392	43
PSPTO_4393	48
PSPTO_4394	60
PSPTO_4395	66
PSPTO_4396	36
PSPTO_4397	74
PSPTO_4398	47
PSPTO_4399	114
PSPTO_4400	227
PSPTO_4401	23
PSPTO_4402	160
PSPTO_4403	266
PSPTO_4404	83
PSPTO_4405	61
PSPTO_4406	54
PSPTO_4407	120
PSPTO_4408	78
PSPTO_4409	89
PSPTO_4410	91
PSPTO_4411	53
PSPTO_4412	113
PSPTO_4413	100
PSPTO_4414	62
PSPTO_4415	7
PSPTO_4416	61
PSPTO_4417	45
PSPTO_4418	68
PSPTO_4419	145
PSPTO_4420	25
PSPTO_4421	19
PSPTO_4422	42
PSPTO_4423	18
PSPTO_4424	18
PSPTO_4425	55
PSPTO_4426	104
PSPTO_4427	35
PSPTO_4428	44
PSPTO_4429	44
PSPTO_4430	35
PSPTO_4431	44
PSPTO_4432	74
PSPTO_4433	27
PSPTO_4434	42
PSPTO_4435	23
PSPTO_4436	23
PSPTO_4437	78
PSPTO_4438	98
PSPTO_4439	51
PSPTO_4440	10
PSPTO_4441	97
PSPTO_4442	15
PSPTO_4443	20
PSPTO_4444	21
PSPTO_4445	24
PSPTO_4446	31
PSPTO_4447	41
PSPTO_4448	61
PSPTO_4449	9
PSPTO_4450	9
PSPTO_4451	42
PSPTO_4452	38
PSPTO_4453	53
PSPTO_4454	169
PSPTO_4455	44
PSPTO_4456	53
PSPTO_4457	1
PSPTO_4458	10
PSPTO_4459	106
PSPTO_4460	62
PSPTO_4461	172
PSPTO_4462	42
PSPTO_4463	136
PSPTO_4464	27
PSPTO_4465	145
PSPTO_4466	81
PSPTO_4467	218
PSPTO_4468	54
PSPTO_4469	34
PSPTO_4470	28
PSPTO_4471	47
PSPTO_4472	104
PSPTO_4473	24
PSPTO_4474	132
PSPTO_4475	79
PSPTO_4476	13
PSPTO_4477	59
PSPTO_4478	26
PSPTO_4479	44
PSPTO_4480	86
PSPTO_4481	50
PSPTO_4482	128
PSPTO_4483	18
PSPTO_4484	64
PSPTO_4485	30
PSPTO_4486	97
PSPTO_4487	151
PSPTO_4488	24
PSPTO_4489	14
PSPTO_4490	149
PSPTO_4491	86
PSPTO_4492	18
PSPTO_4493	15
PSPTO_4494	66
PSPTO_4495	85
PSPTO_4496	40
PSPTO_4497	352
PSPTO_4498	50
PSPTO_4499	12
PSPTO_4500	20
PSPTO_4501	182
PSPTO_4502	48
PSPTO_4503	68
PSPTO_4504	130
PSPTO_4505	1892
PSPTO_4506	165
PSPTO_4507	139
PSPTO_4508	39
PSPTO_4509	41
PSPTO_4510	14
PSPTO_4511	41
PSPTO_4512	20
PSPTO_4513	24
PSPTO_4514	48
PSPTO_4515	6
PSPTO_4516	50
PSPTO_4517	12
PSPTO_4518	82
PSPTO_4519	214
PSPTO_4520	32
PSPTO_4521	11
PSPTO_4522	25
PSPTO_4523	16
PSPTO_4524	25
PSPTO_4525	1
PSPTO_4526	112
PSPTO_4527	23
PSPTO_4528	77
PSPTO_4529	34
PSPTO_4530	401
PSPTO_4531	48
PSPTO_4532	28
PSPTO_4533	54
PSPTO_4534	46
PSPTO_4535	91
PSPTO_4536	84
PSPTO_4537	27
PSPTO_4538	33
PSPTO_4539	19
PSPTO_4540	29
PSPTO_4541	98
PSPTO_4542	26
PSPTO_4543	213
PSPTO_4544	28
PSPTO_4545	17
PSPTO_4546	15
PSPTO_4547	93
PSPTO_4548	31
PSPTO_4549	48
PSPTO_4550	69
PSPTO_4551	99
PSPTO_4552	2
PSPTO_4553	30
PSPTO_4554	59
PSPTO_4555	45
PSPTO_4556	43
PSPTO_4557	55
PSPTO_4558	115
PSPTO_4559	39
PSPTO_4560	60
PSPTO_4561	37
PSPTO_4562	23
PSPTO_4563	45
PSPTO_4564	67
PSPTO_4565	25
PSPTO_4566	10
PSPTO_4567	60
PSPTO_4568	9
PSPTO_4569	116
PSPTO_4570	31
PSPTO_4571	18
PSPTO_4572	44
PSPTO_4573	11
PSPTO_4574	45
PSPTO_4575	56
PSPTO_4576	26
PSPTO_4577	30
PSPTO_4578	22
PSPTO_4579	56
PSPTO_4580	91
PSPTO_4581	57
PSPTO_4582	33
PSPTO_4583	25
PSPTO_4584	33
PSPTO_4585	118
PSPTO_4586	301
PSPTO_4587	90
PSPTO_4588	9
PSPTO_4589	23
PSPTO_4590	10
PSPTO_4591	8
PSPTO_4592	10
PSPTO_4593	65
PSPTO_4594	37
PSPTO_4595	17
PSPTO_4596	37
PSPTO_4597	11
PSPTO_4599	23
PSPTO_4600	15
PSPTO_4601	29
PSPTO_4602	76
PSPTO_4603	55
PSPTO_4604	69
PSPTO_4605	72
PSPTO_4606	20
PSPTO_4607	97
PSPTO_4608	24
PSPTO_4609	17
PSPTO_4610	264
PSPTO_4611	456
PSPTO_4612	23
PSPTO_4613	144
PSPTO_4614	24
PSPTO_4615	26
PSPTO_4616	38
PSPTO_4617	2
PSPTO_4618	12
PSPTO_4619	30
PSPTO_4620	13
PSPTO_4621	17
PSPTO_4622	24
PSPTO_4623	3
PSPTO_4624	71
PSPTO_4625	19
PSPTO_4626	33
PSPTO_4627	105
PSPTO_4628	11
PSPTO_4629	6
PSPTO_4630	11
PSPTO_4631	225
PSPTO_4632	152
PSPTO_4633	27
PSPTO_4634	30
PSPTO_4635	18
PSPTO_4636	35
PSPTO_4637	26
PSPTO_4638	150
PSPTO_4639	27
PSPTO_4640	86
PSPTO_4641	67
PSPTO_4642	50
PSPTO_4643	44
PSPTO_4644	6
PSPTO_4645	93
PSPTO_4646	3
PSPTO_4647	52
PSPTO_4648	85
PSPTO_4649	4
PSPTO_4650	148
PSPTO_4651	85
PSPTO_4652	34
PSPTO_4653	63
PSPTO_4654	62
PSPTO_4656	68
PSPTO_4657	81
PSPTO_4658	32
PSPTO_4659	39
PSPTO_4660	49
PSPTO_4661	43
PSPTO_4662	63
PSPTO_4663	78
PSPTO_4664	72
PSPTO_4665	46
PSPTO_4666	34
PSPTO_4667	120
PSPTO_4668	20
PSPTO_4669	56
PSPTO_4670	33
PSPTO_4671	36
PSPTO_4672	3
PSPTO_4673	17
PSPTO_4674	8
PSPTO_4675	35
PSPTO_4676	23
PSPTO_4677	28
PSPTO_4678	17
PSPTO_4679	32
PSPTO_4680	74
PSPTO_4681	6
PSPTO_4682	16
PSPTO_4683	81
PSPTO_4684	30
PSPTO_4685	100
PSPTO_4686	575
PSPTO_4687	509
PSPTO_4688	21
PSPTO_4689	71
PSPTO_4690	26
PSPTO_4691	54
PSPTO_4692	13
PSPTO_4693	52
PSPTO_4694	5
PSPTO_4695	10
PSPTO_4696	52
PSPTO_4697	6
PSPTO_4699	692
PSPTO_4702	37
PSPTO_4703	6
PSPTO_4704	18
PSPTO_4705	53
PSPTO_4706	4
PSPTO_4707	4
PSPTO_4708	15
PSPTO_4709	38
PSPTO_4710	29
PSPTO_4711	11
PSPTO_4712	28
PSPTO_4713	18
PSPTO_4714	5
PSPTO_4716	16
PSPTO_4717	4
PSPTO_4718	61
PSPTO_4719	9
PSPTO_4720	59
PSPTO_4721	10
PSPTO_4722	35
PSPTO_4723	17
PSPTO_4724	2
PSPTO_4725	29
PSPTO_4726	34
PSPTO_4727	48
PSPTO_4729	23
PSPTO_4730	17
PSPTO_4732	7
PSPTO_4733	21
PSPTO_4734	9
PSPTO_4735	370
PSPTO_4737	53
PSPTO_4738	4
PSPTO_4741	30
PSPTO_4742	76
PSPTO_4743	83
PSPTO_4744	49
PSPTO_4745	144
PSPTO_4746	49
PSPTO_4747	12
PSPTO_4748	21
PSPTO_4749	10
PSPTO_4750	12
PSPTO_4751	103
PSPTO_4752	212
PSPTO_4753	30
PSPTO_4754	36
PSPTO_4755	17
PSPTO_4756	6
PSPTO_4757	4
PSPTO_4758	8
PSPTO_4759	10
PSPTO_4760	23
PSPTO_4761	98
PSPTO_4762	62
PSPTO_4763	35
PSPTO_4764	54
PSPTO_4765	10
PSPTO_4766	30
PSPTO_4767	29
PSPTO_4768	13
PSPTO_4769	18
PSPTO_4770	49
PSPTO_4771	35
PSPTO_4772	51
PSPTO_4773	28
PSPTO_4774	32
PSPTO_4775	45
PSPTO_4776	80
PSPTO_4777	29
PSPTO_4778	31
PSPTO_4779	38
PSPTO_4780	14
PSPTO_4781	59
PSPTO_4782	100
PSPTO_4784	38
PSPTO_4785	2
PSPTO_4786	30
PSPTO_4787	21
PSPTO_4788	43
PSPTO_4789	17
PSPTO_4790	52
PSPTO_4791	71
PSPTO_4792	32
PSPTO_4793	7
PSPTO_4794	46
PSPTO_4795	126
PSPTO_4796	100
PSPTO_4797	5
PSPTO_4798	41
PSPTO_4799	49
PSPTO_4800	96
PSPTO_4801	11
PSPTO_4802	19
PSPTO_4803	15
PSPTO_4804	109
PSPTO_4805	105
PSPTO_4806	15
PSPTO_4807	48
PSPTO_4808	95
PSPTO_4809	51
PSPTO_4810	15
PSPTO_4811	2
PSPTO_4812	139
PSPTO_4813	37
PSPTO_4814	69
PSPTO_4815	14
PSPTO_4816	7
PSPTO_4817	82
PSPTO_4818	88
PSPTO_4819	47
PSPTO_4820	8
PSPTO_4821	38
PSPTO_4822	91
PSPTO_4823	46
PSPTO_4824	44
PSPTO_4825	67
PSPTO_4826	20
PSPTO_4827	16
PSPTO_4828	41
PSPTO_4829	72
PSPTO_4830	38
PSPTO_4831	90
PSPTO_4832	121
PSPTO_4833	192
PSPTO_4834	31
PSPTO_4835	33
PSPTO_4836	64
PSPTO_4837	152
PSPTO_4838	4
PSPTO_4839	89
PSPTO_4840	49
PSPTO_4841	17
PSPTO_4842	73
PSPTO_4843	34
PSPTO_4844	100
PSPTO_4845	347
PSPTO_4846	18
PSPTO_4847	156
PSPTO_4848	55
PSPTO_4849	29
PSPTO_4850	57
PSPTO_4851	98
PSPTO_4852	82
PSPTO_4853	71
PSPTO_4854	55
PSPTO_4855	46
PSPTO_4856	40
PSPTO_4857	16
PSPTO_4858	95
PSPTO_4859	22
PSPTO_4860	55
PSPTO_4861	126
PSPTO_4862	47
PSPTO_4863	71
PSPTO_4864	50
PSPTO_4865	8
PSPTO_4866	93
PSPTO_4867	75
PSPTO_4868	113
PSPTO_4869	40
PSPTO_4870	17
PSPTO_4871	12
PSPTO_4872	12
PSPTO_4873	30
PSPTO_4874	120
PSPTO_4875	54
PSPTO_4876	46
PSPTO_4877	117
PSPTO_4878	112
PSPTO_4879	92
PSPTO_4880	69
PSPTO_4881	12
PSPTO_4882	32
PSPTO_4883	69
PSPTO_4884	39
PSPTO_4885	19
PSPTO_4886	108
PSPTO_4887	35
PSPTO_4888	25
PSPTO_4889	21
PSPTO_4890	47
PSPTO_4891	12
PSPTO_4892	15
PSPTO_4893	32
PSPTO_4894	36
PSPTO_4895	104
PSPTO_4896	74
PSPTO_4897	114
PSPTO_4898	45
PSPTO_4899	31
PSPTO_4900	22
PSPTO_4901	25
PSPTO_4902	8
PSPTO_4903	31
PSPTO_4905	18
PSPTO_4906	26
PSPTO_4907	106
PSPTO_4908	46
PSPTO_4909	17
PSPTO_4910	31
PSPTO_4911	18
PSPTO_4912	35
PSPTO_4913	91
PSPTO_4914	41
PSPTO_4915	58
PSPTO_4916	28
PSPTO_4917	37
PSPTO_4918	29
PSPTO_4919	133
PSPTO_4920	70
PSPTO_4921	46
PSPTO_4922	79
PSPTO_4923	24
PSPTO_4924	72
PSPTO_4925	179
PSPTO_4926	245
PSPTO_4927	63
PSPTO_4928	108
PSPTO_4929	36
PSPTO_4930	49
PSPTO_4931	100
PSPTO_4932	34
PSPTO_4933	92
PSPTO_4934	83
PSPTO_4935	206
PSPTO_4936	157
PSPTO_4937	76
PSPTO_4938	82
PSPTO_4939	74
PSPTO_4940	67
PSPTO_4941	195
PSPTO_4942	92
PSPTO_4943	43
PSPTO_4944	189
PSPTO_4945	77
PSPTO_4946	28
PSPTO_4947	130
PSPTO_4948	63
PSPTO_4949	47
PSPTO_4950	54
PSPTO_4951	82
PSPTO_4952	49
PSPTO_4953	49
PSPTO_4954	102
PSPTO_4955	131
PSPTO_4956	107
PSPTO_4957	65
PSPTO_4958	108
PSPTO_4959	66
PSPTO_4960	128
PSPTO_4961	16
PSPTO_4962	48
PSPTO_4963	126
PSPTO_4964	40
PSPTO_4965	59
PSPTO_4966	32
PSPTO_4967	50
PSPTO_4968	23
PSPTO_4969	69
PSPTO_4970	118
PSPTO_4971	52
PSPTO_4972	33
PSPTO_4973	43
PSPTO_4974	25
PSPTO_4975	81
PSPTO_4976	143
PSPTO_4977	99
PSPTO_4978	130
PSPTO_4979	26
PSPTO_4980	98
PSPTO_4981	61
PSPTO_4982	42
PSPTO_4983	104
PSPTO_4984	71
PSPTO_4985	52
PSPTO_4986	39
PSPTO_4987	21
PSPTO_4988	42
PSPTO_4989	107
PSPTO_4990	66
PSPTO_4991	63
PSPTO_4992	78
PSPTO_4993	110
PSPTO_4994	61
PSPTO_4995	8
PSPTO_4996	116
PSPTO_4997	123
PSPTO_4998	30
PSPTO_4999	37
PSPTO_5000	53
PSPTO_5001	33
PSPTO_5002	84
PSPTO_5003	78
PSPTO_5004	199
PSPTO_5005	367
PSPTO_5006	191
PSPTO_5007	98
PSPTO_5008	61
PSPTO_5009	128
PSPTO_5010	18
PSPTO_5011	21
PSPTO_5012	6
PSPTO_5013	13
PSPTO_5014	84
PSPTO_5015	63
PSPTO_5016	33
PSPTO_5017	292
PSPTO_5018	26
PSPTO_5019	14
PSPTO_5020	62
PSPTO_5021	73
PSPTO_5022	97
PSPTO_5023	85
PSPTO_5024	180
PSPTO_5025	18
PSPTO_5026	7
PSPTO_5027	38
PSPTO_5028	80
PSPTO_5029	29
PSPTO_5030	446
PSPTO_5031	152
PSPTO_5032	34
PSPTO_5033	13
PSPTO_5034	24
PSPTO_5035	59
PSPTO_5036	46
PSPTO_5037	40
PSPTO_5038	30
PSPTO_5039	35
PSPTO_5040	84
PSPTO_5041	119
PSPTO_5043	39
PSPTO_5044	19
PSPTO_5045	51
PSPTO_5046	35
PSPTO_5047	73
PSPTO_5048	18
PSPTO_5049	45
PSPTO_5050	18
PSPTO_5051	52
PSPTO_5052	72
PSPTO_5053	20
PSPTO_5054	59
PSPTO_5055	58
PSPTO_5056	94
PSPTO_5057	138
PSPTO_5058	91
PSPTO_5059	19
PSPTO_5060	59
PSPTO_5061	118
PSPTO_5062	60
PSPTO_5063	121
PSPTO_5064	65
PSPTO_5065	16
PSPTO_5066	32
PSPTO_5067	6
PSPTO_5068	135
PSPTO_5069	26
PSPTO_5070	117
PSPTO_5071	116
PSPTO_5072	60
PSPTO_5073	12
PSPTO_5074	102
PSPTO_5075	91
PSPTO_5076	45
PSPTO_5077	33
PSPTO_5078	13
PSPTO_5079	52
PSPTO_5080	27
PSPTO_5081	90
PSPTO_5082	54
PSPTO_5083	64
PSPTO_5084	79
PSPTO_5085	18
PSPTO_5086	86
PSPTO_5087	105
PSPTO_5088	9
PSPTO_5089	30
PSPTO_5090	33
PSPTO_5091	42
PSPTO_5092	44
PSPTO_5093	12
PSPTO_5094	5
PSPTO_5095	28
PSPTO_5096	111
PSPTO_5097	47
PSPTO_5098	69
PSPTO_5099	119
PSPTO_5100	18
PSPTO_5101	21
PSPTO_5102	190
PSPTO_5103	66
PSPTO_5104	81
PSPTO_5105	22
PSPTO_5106	23
PSPTO_5107	85
PSPTO_5108	33
PSPTO_5109	50
PSPTO_5110	81
PSPTO_5111	53
PSPTO_5112	58
PSPTO_5113	92
PSPTO_5114	16
PSPTO_5115	69
PSPTO_5116	64
PSPTO_5117	105
PSPTO_5118	47
PSPTO_5119	118
PSPTO_5120	42
PSPTO_5121	85
PSPTO_5122	9
PSPTO_5123	290
PSPTO_5124	15
PSPTO_5125	153
PSPTO_5126	57
PSPTO_5127	32
PSPTO_5128	132
PSPTO_5129	19
PSPTO_5130	32
PSPTO_5131	12
PSPTO_5132	68
PSPTO_5133	115
PSPTO_5134	67
PSPTO_5135	44
PSPTO_5136	26
PSPTO_5137	183
PSPTO_5138	110
PSPTO_5139	34
PSPTO_5140	106
PSPTO_5141	270
PSPTO_5142	21
PSPTO_5143	70
PSPTO_5144	54
PSPTO_5145	95
PSPTO_5146	19
PSPTO_5147	217
PSPTO_5148	35
PSPTO_5149	11
PSPTO_5150	50
PSPTO_5151	43
PSPTO_5152	81
PSPTO_5153	36
PSPTO_5154	17
PSPTO_5155	15
PSPTO_5156	35
PSPTO_5157	32
PSPTO_5158	32
PSPTO_5159	84
PSPTO_5160	52
PSPTO_5161	128
PSPTO_5162	138
PSPTO_5163	12
PSPTO_5164	48
PSPTO_5165	162
PSPTO_5166	165
PSPTO_5167	116
PSPTO_5168	80
PSPTO_5169	12
PSPTO_5170	25
PSPTO_5171	117
PSPTO_5172	49
PSPTO_5173	43
PSPTO_5174	93
PSPTO_5175	29
PSPTO_5176	22
PSPTO_5177	52
PSPTO_5178	92
PSPTO_5179	95
PSPTO_5180	31
PSPTO_5181	28
PSPTO_5182	28
PSPTO_5183	17
PSPTO_5184	74
PSPTO_5185	129
PSPTO_5186	54
PSPTO_5187	24
PSPTO_5188	84
PSPTO_5189	34
PSPTO_5190	49
PSPTO_5191	129
PSPTO_5192	42
PSPTO_5193	56
PSPTO_5194	21
PSPTO_5195	32
PSPTO_5196	44
PSPTO_5197	40
PSPTO_5198	30
PSPTO_5199	18
PSPTO_5200	221
PSPTO_5201	60
PSPTO_5202	87
PSPTO_5203	48
PSPTO_5204	72
PSPTO_5205	11
PSPTO_5206	60
PSPTO_5207	19
PSPTO_5208	12
PSPTO_5209	78
PSPTO_5210	55
PSPTO_5211	20
PSPTO_5212	45
PSPTO_5213	9
PSPTO_5214	9
PSPTO_5215	44
PSPTO_5216	20
PSPTO_5217	77
PSPTO_5218	38
PSPTO_5219	70
PSPTO_5220	66
PSPTO_5221	120
PSPTO_5222	111
PSPTO_5223	81
PSPTO_5224	38
PSPTO_5225	21
PSPTO_5226	19
PSPTO_5227	49
PSPTO_5228	6
PSPTO_5229	13
PSPTO_5230	41
PSPTO_5231	35
PSPTO_5232	62
PSPTO_5233	2
PSPTO_5234	23
PSPTO_5235	12
PSPTO_5236	4
PSPTO_5237	17
PSPTO_5238	72
PSPTO_5239	58
PSPTO_5240	31
PSPTO_5241	85
PSPTO_5242	59
PSPTO_5243	65
PSPTO_5244	51
PSPTO_5245	28
PSPTO_5246	7
PSPTO_5247	21
PSPTO_5248	33
PSPTO_5249	90
PSPTO_5250	129
PSPTO_5251	68
PSPTO_5252	35
PSPTO_5253	55
PSPTO_5254	27
PSPTO_5255	42
PSPTO_5256	71
PSPTO_5257	35
PSPTO_5258	15
PSPTO_5259	9
PSPTO_5260	25
PSPTO_5261	28
PSPTO_5262	63
PSPTO_5263	37
PSPTO_5264	43
PSPTO_5265	71
PSPTO_5266	56
PSPTO_5267	39
PSPTO_5268	86
PSPTO_5269	90
PSPTO_5270	173
PSPTO_5271	147
PSPTO_5272	56
PSPTO_5273	71
PSPTO_5274	132
PSPTO_5275	153
PSPTO_5276	73
PSPTO_5277	90
PSPTO_5278	68
PSPTO_5279	143
PSPTO_5280	33
PSPTO_5281	4
PSPTO_5282	40
PSPTO_5283	23
PSPTO_5284	227
PSPTO_5285	42
PSPTO_5286	52
PSPTO_5287	24
PSPTO_5288	98
PSPTO_5289	36
PSPTO_5290	32
PSPTO_5291	42
PSPTO_5292	46
PSPTO_5293	103
PSPTO_5294	60
PSPTO_5295	22
PSPTO_5296	28
PSPTO_5297	48
PSPTO_5298	8
PSPTO_5299	66
PSPTO_5300	127
PSPTO_5301	52
PSPTO_5302	18
PSPTO_5303	67
PSPTO_5304	63
PSPTO_5305	12
PSPTO_5306	29
PSPTO_5307	90
PSPTO_5308	68
PSPTO_5309	73
PSPTO_5310	120
PSPTO_5311	50
PSPTO_5312	40
PSPTO_5313	13
PSPTO_5314	56
PSPTO_5315	30
PSPTO_5316	19
PSPTO_5317	38
PSPTO_5318	97
PSPTO_5319	43
PSPTO_5320	64
PSPTO_5321	67
PSPTO_5322	30
PSPTO_5323	25
PSPTO_5324	15
PSPTO_5325	8
PSPTO_5326	7
PSPTO_5327	101
PSPTO_5328	60
PSPTO_5329	98
PSPTO_5330	58
PSPTO_5331	42
PSPTO_5332	26
PSPTO_5333	28
PSPTO_5334	71
PSPTO_5335	29
PSPTO_5336	8
PSPTO_5337	23
PSPTO_5338	41
PSPTO_5339	62
PSPTO_5340	141
PSPTO_5341	173
PSPTO_5342	76
PSPTO_5343	17
PSPTO_5344	38
PSPTO_5345	51
PSPTO_5346	59
PSPTO_5347	9
PSPTO_5348	43
PSPTO_5349	2
PSPTO_5350	4
PSPTO_5351	9
PSPTO_5352	77
PSPTO_5353	13
PSPTO_5354	37
PSPTO_5355	17
PSPTO_5356	83
PSPTO_5357	24
PSPTO_5358	49
PSPTO_5359	46
PSPTO_5360	54
PSPTO_5361	91
PSPTO_5362	21
PSPTO_5363	101
PSPTO_5364	2
PSPTO_5365	65
PSPTO_5367	6
PSPTO_5368	54
PSPTO_5370	25
PSPTO_5371	8
PSPTO_5373	81
PSPTO_5374	10
PSPTO_5375	17
PSPTO_5376	18
PSPTO_5377	33
PSPTO_5378	30
PSPTO_5379	39
PSPTO_5380	82
PSPTO_5381	144
PSPTO_5382	14
PSPTO_5383	17
PSPTO_5384	36
PSPTO_5385	25
PSPTO_5386	4
PSPTO_5387	13
PSPTO_5388	5
PSPTO_5389	21
PSPTO_5390	14
PSPTO_5391	45
PSPTO_5392	33
PSPTO_5393	62
PSPTO_5394	26
PSPTO_5395	229
PSPTO_5396	57
PSPTO_5397	34
PSPTO_5398	110
PSPTO_5399	114
PSPTO_5400	46
PSPTO_5401	59
PSPTO_5402	32
PSPTO_5403	28
PSPTO_5404	37
PSPTO_5405	82
PSPTO_5406	85
PSPTO_5407	298
PSPTO_5408	36
PSPTO_5409	93
PSPTO_5410	57
PSPTO_5411	52
PSPTO_5412	8
PSPTO_5413	136
PSPTO_5414	52
PSPTO_5415	66
PSPTO_5416	31
PSPTO_5417	43
PSPTO_5418	111
PSPTO_5419	48
PSPTO_5420	18
PSPTO_5421	9
PSPTO_5422	42
PSPTO_5423	3
PSPTO_5424	31
PSPTO_5425	134
PSPTO_5426	22
PSPTO_5427	33
PSPTO_5428	49
PSPTO_5430	33
PSPTO_5431	18
PSPTO_5432	176
PSPTO_5433	56
PSPTO_5434	91
PSPTO_5435	146
PSPTO_5436	62
PSPTO_5437	35
PSPTO_5438	191
PSPTO_5439	26
PSPTO_5440	61
PSPTO_5441	42
PSPTO_5442	23
PSPTO_5443	50
PSPTO_5444	10
PSPTO_5445	48
PSPTO_5446	6
PSPTO_5447	15
PSPTO_5448	179
PSPTO_5449	17
PSPTO_5450	11
PSPTO_5451	39
PSPTO_5452	55
PSPTO_5453	90
PSPTO_5454	42
PSPTO_5455	36
PSPTO_5456	30
PSPTO_5457	77
PSPTO_5458	15
PSPTO_5460	46
PSPTO_5461	53
PSPTO_5462	35
PSPTO_5463	85
PSPTO_5464	72
PSPTO_5465	45
PSPTO_5466	60
PSPTO_5467	22
PSPTO_5468	29
PSPTO_5469	146
PSPTO_5470	17
PSPTO_5471	6
PSPTO_5472	69
PSPTO_5473	72
PSPTO_5474	14
PSPTO_5475	25
PSPTO_5476	32
PSPTO_5477	38
PSPTO_5478	55
PSPTO_5479	59
PSPTO_5480	17
PSPTO_5481	174
PSPTO_5482	105
PSPTO_5483	43
PSPTO_5484	33
PSPTO_5485	93
PSPTO_5486	74
PSPTO_5487	33
PSPTO_5488	57
PSPTO_5489	22
PSPTO_5490	47
PSPTO_5491	16
PSPTO_5492	21
PSPTO_5493	50
PSPTO_5494	22
PSPTO_5495	4
PSPTO_5496	1
PSPTO_5497	6
PSPTO_5498	76
PSPTO_5499	62
PSPTO_5500	68
PSPTO_5501	95
PSPTO_5502	29
PSPTO_5503	111
PSPTO_5504	54
PSPTO_5505	16
PSPTO_5506	5
PSPTO_5507	24
PSPTO_5508	20
PSPTO_5509	43
PSPTO_5510	205
PSPTO_5511	144
PSPTO_5512	25
PSPTO_5513	12
PSPTO_5514	14
PSPTO_5515	43
PSPTO_5516	137
PSPTO_5517	74
PSPTO_5518	28
PSPTO_5519	66
PSPTO_5520	15
PSPTO_5521	83
PSPTO_5522	37
PSPTO_5523	72
PSPTO_5524	23
PSPTO_5525	51
PSPTO_5526	43
PSPTO_5527	18
PSPTO_5528	119
PSPTO_5529	41
PSPTO_5530	78
PSPTO_5531	68
PSPTO_5532	132
PSPTO_5533	100
PSPTO_5534	71
PSPTO_5535	177
PSPTO_5536	37
PSPTO_5537	144
PSPTO_5538	70
PSPTO_5539	4
PSPTO_5540	27
PSPTO_5541	43
PSPTO_5542	73
PSPTO_5543	60
PSPTO_5544	4
PSPTO_5545	51
PSPTO_5546	15
PSPTO_5547	105
PSPTO_5548	35
PSPTO_5549	70
PSPTO_5550	99
PSPTO_5551	93
PSPTO_5552	6
PSPTO_5553	118
PSPTO_5554	112
PSPTO_5555	9
PSPTO_5556	48
PSPTO_5557	22
PSPTO_5558	34
PSPTO_5559	67
PSPTO_5560	90
PSPTO_5561	39
PSPTO_5562	36
PSPTO_5563	75
PSPTO_5564	30
PSPTO_5565	29
PSPTO_5566	90
PSPTO_5567	22
PSPTO_5568	21
PSPTO_5569	52
PSPTO_5570	15
PSPTO_5571	69
PSPTO_5572	53
PSPTO_5573	30
PSPTO_5574	24
PSPTO_5575	22
PSPTO_5576	25
PSPTO_5577	2
PSPTO_5578	18
PSPTO_5579	26
PSPTO_5580	38
PSPTO_5581	7
PSPTO_5582	46
PSPTO_5583	24
PSPTO_5584	29
PSPTO_5585	39
PSPTO_5586	24
PSPTO_5587	40
PSPTO_5588	45
PSPTO_5589	17
PSPTO_5590	10
PSPTO_5591	60
PSPTO_5592	35
PSPTO_5593	15
PSPTO_5594	79
PSPTO_5595	118
PSPTO_5596	12
PSPTO_5597	88
PSPTO_5598	22
PSPTO_5599	142
PSPTO_5600	69
PSPTO_5601	119
PSPTO_5602	43
PSPTO_5603	67
PSPTO_5604	31
PSPTO_5605	41
PSPTO_5606	18
PSPTO_5607	62
PSPTO_5608	39
PSPTO_5609	18
PSPTO_5610	106
PSPTO_5611	63
PSPTO_5612	48
PSPTO_5613	10
PSPTO_5614	34
PSPTO_5615	19
PSPTO_5616	3
PSPTO_5617	14
PSPTO_5618	12
PSPTO_5619	5
PSPTO_5620	6
PSPTO_5621	40
PSPTO_5622	205
PSPTO_5623	0
PSPTO_5624	142
PSPTO_5625	29
PSPTO_5626	11
PSPTO_5627	11
PSPTO_5628	21
PSPTO_5629	27
PSPTO_5630	31
PSPTO_5631	34
PSPTO_5632	85
PSPTO_5633	144
PSPTO_5634	26
PSPTO_5635	88
PSPTO_5636	52
PSPTO_5637	8
PSPTO_5638	37
PSPTO_5639	12
PSPTO_5640	41
PSPTO_5641	32
PSPTO_5642	1
PSPTO_5643	2
PSPTO_5644	26
PSPTO_5645	63
PSPTO_5646	38
PSPTO_5647	19
PSPTO_5648	3
PSPTO_5649	12
PSPTO_5650	13
PSPTO_5651	14
PSPTO_5652	33
PSPTO_5653	17
PSPTO_5654	8
PSPTO_5655	15
PSPTO_5656	36
PSPTO_5657	6
PSPTO_5658	7
PSPTO_5659	4
PSPTO_5660	9
PSPTO_5661	11861
PSPTO_5662	13
PSPTO_5663	40011
PSPTO_5664	10
PSPTO_5665	13
PSPTO_5666	307
PSPTO_5667	15
PSPTO_5668	6239
PSPTO_5669	4347
PSPTO_5670	16
PSPTO_5671	6
PSPTO_5672	3
PSPTO_5673	10
PSPTO_5674	2
PSPTO_5675	6
PSPTO_A0072	222
PSPTO_A0073	0
PSPTO_B0001	93
PSPTO_B0002	32
PSPTO_B0003	146
PSPTO_B0004	6
PSPTO_B0005	208
PSPTO_B0006	9
PSPTO_B0007	34
PSPTO_B0008	8
PSPTO_B0009	63
PSPTO_B0010	389
PSPTO_B0011	129
PSPTO_B0012	75
PSPTO_B0013	71
PSPTO_B0014	34
PSPTO_B0015	18
PSPTO_B0016	32
PSPTO_B0017	5
PSPTO_B0018	33
PSPTO_B0019	26
PSPTO_B0020	75
PSPTO_B0021	156
PSPTO_B0022	18
PSPTO_B0023	57
PSPTO_B0024	30
PSPTO_B0025	33
PSPTO_B0026	47
PSPTO_B0027	55
PSPTO_B0028	38
PSPTO_B0029	21
PSPTO_B0030	35
PSPTO_B0031	6
PSPTO_B0032	26
PSPTO_B0033	20
PSPTO_B0034	30
PSPTO_B0035	11
PSPTO_B0036	101
PSPTO_B0037	16
PSPTO_B0038	15
PSPTO_B0039	19
PSPTO_B0040	20
PSPTO_B0041	18
PSPTO_B0042	95
PSPTO_B0043	89
PSPTO_B0044	23
PSPTO_B0045	53
PSPTO_B0046	28
PSPTO_B0047	14
PSPTO_B0048	4
PSPTO_B0049	22
PSPTO_B0050	23
PSPTO_B0051	43
PSPTO_B0052	34
PSPTO_B0053	47
PSPTO_B0054	21
PSPTO_B0055	30
PSPTO_B0056	15
PSPTO_B0057	326
PSPTO_B0058	14
PSPTO_B0059	28
PSPTO_B0060	80
PSPTO_B0061	85
PSPTO_B0062	35
PSPTO_B0063	52
PSPTO_B0064	25
PSPTO_B0065	5
PSPTO_B0066	171
PSPTO_B0067	110
PSPTO_B0068	18
PSPTO_B0069	106
PSPTO_B0070	81
PSPTO_B0071	216
PSPTO_B0072	71
PSPTO_B0073	18
PSPTO_B0074	11
PSPTO_B0075	73
PSPTO_B0076	174
PSPTO_B0077	31
PSPTO_r01	29983
PSPTO_r02	167233
PSPTO_r03	3
PSPTO_r04	29940
PSPTO_r05	167428
PSPTO_r06	8
PSPTO_r07	30189
PSPTO_r08	167836
PSPTO_r09	5
PSPTO_r10	7
PSPTO_r11	166251
PSPTO_r12	34372
PSPTO_r13	11
PSPTO_r14	191143
PSPTO_r15	33743
PSPTO_t01	18
PSPTO_t02	0
PSPTO_t03	6
PSPTO_t04	4
PSPTO_t05	8
PSPTO_t06	3
PSPTO_t07	4
PSPTO_t08	13
PSPTO_t09	5
PSPTO_t10	7
PSPTO_t11	26
PSPTO_t12	6
PSPTO_t13	7
PSPTO_t14	7
PSPTO_t15	6
PSPTO_t16	8
PSPTO_t17	6
PSPTO_t18	22
PSPTO_t19	1
PSPTO_t20	2
PSPTO_t21	3
PSPTO_t22	3
PSPTO_t23	0
PSPTO_t24	18
PSPTO_t25	19
PSPTO_t26	10
PSPTO_t27	2
PSPTO_t28	9
PSPTO_t29	5
PSPTO_t30	10
PSPTO_t31	9
PSPTO_t32	6
PSPTO_t33	1
PSPTO_t34	2
PSPTO_t35	0
PSPTO_t36	3
PSPTO_t37	3
PSPTO_t38	4
PSPTO_t39	4
PSPTO_t40	5
PSPTO_t41	7
PSPTO_t42	15
PSPTO_t43	2
PSPTO_t44	7
PSPTO_t45	14
PSPTO_t46	9
PSPTO_t47	10
PSPTO_t48	14
PSPTO_t49	4
PSPTO_t50	6
PSPTO_t51	9
PSPTO_t52	2
PSPTO_t53	5
PSPTO_t54	1
PSPTO_t55	8
PSPTO_t56	8
PSPTO_t57	4
PSPTO_t58	6
PSPTO_t59	2
PSPTO_t60	3
PSPTO_t61	2
PSPTO_t62	8
PSPTO_t63	11
__no_feature	866366
__ambiguous	9232
__too_low_aQual	0
__not_aligned	7740833
__alignment_not_unique	0
