PSPTOA0001	4
PSPTOA0002	0
PSPTOA0003	1
PSPTOA0004	7
PSPTOA0005	3
PSPTOA0006	9
PSPTOA0007	10
PSPTOA0008	10
PSPTOA0009	6
PSPTOA0010	17
PSPTOA0011	9
PSPTOA0012	16
PSPTOA0013	1
PSPTOA0014	8
PSPTOA0015	2
PSPTOA0016	5
PSPTOA0017	6
PSPTOA0018	16
PSPTOA0019	21
PSPTOA0020	1
PSPTOA0021	4
PSPTOA0022	2
PSPTOA0023	2
PSPTOA0024	0
PSPTOA0025	2
PSPTOA0026	0
PSPTOA0027	4
PSPTOA0028	2
PSPTOA0029	15
PSPTOA0030	5
PSPTOA0031	35
PSPTOA0032	45
PSPTOA0033	1
PSPTOA0034	6
PSPTOA0035	13
PSPTOA0036	17
PSPTOA0037	10
PSPTOA0038	2
PSPTOA0039	23
PSPTOA0040	4
PSPTOA0041	0
PSPTOA0042	1
PSPTOA0043	4
PSPTOA0044	1
PSPTOA0045	4
PSPTOA0046	0
PSPTOA0047	2
PSPTOA0048	1
PSPTOA0049	24
PSPTOA0050	1
PSPTOA0051	3
PSPTOA0052	3
PSPTOA0053	4
PSPTOA0054	1
PSPTOA0055	0
PSPTOA0056	0
PSPTOA0057	8
PSPTOA0058	1
PSPTOA0059	5
PSPTOA0060	13
PSPTOA0061	1
PSPTOA0062	9
PSPTOA0063	3
PSPTOA0064	12
PSPTOA0065	29
PSPTOA0066	1
PSPTOA0067	3
PSPTOA0068	12
PSPTOA0069	0
PSPTOA0070	0
PSPTOA0071	0
PSPTO_0001	11
PSPTO_0002	13
PSPTO_0003	4
PSPTO_0004	46
PSPTO_0005	8
PSPTO_0006	8
PSPTO_0007	5
PSPTO_0008	11
PSPTO_0009	4
PSPTO_0011	6
PSPTO_0012	1
PSPTO_0013	3
PSPTO_0014	0
PSPTO_0015	3
PSPTO_0016	1
PSPTO_0017	7
PSPTO_0018	3
PSPTO_0019	0
PSPTO_0020	1
PSPTO_0021	7
PSPTO_0022	7
PSPTO_0023	0
PSPTO_0024	0
PSPTO_0025	2
PSPTO_0026	3
PSPTO_0027	0
PSPTO_0028	8
PSPTO_0029	1
PSPTO_0030	0
PSPTO_0031	0
PSPTO_0032	1
PSPTO_0033	1
PSPTO_0034	3
PSPTO_0035	7
PSPTO_0036	1
PSPTO_0037	24
PSPTO_0038	6
PSPTO_0039	3
PSPTO_0040	0
PSPTO_0041	0
PSPTO_0042	5
PSPTO_0043	19
PSPTO_0044	0
PSPTO_0045	4
PSPTO_0046	4
PSPTO_0047	3
PSPTO_0048	3
PSPTO_0049	3
PSPTO_0050	4
PSPTO_0051	4
PSPTO_0052	8
PSPTO_0053	1
PSPTO_0054	0
PSPTO_0055	2
PSPTO_0056	0
PSPTO_0057	1
PSPTO_0058	5
PSPTO_0059	1
PSPTO_0060	1
PSPTO_0061	0
PSPTO_0062	3
PSPTO_0063	1
PSPTO_0064	17
PSPTO_0065	5
PSPTO_0066	4
PSPTO_0067	1
PSPTO_0068	1
PSPTO_0069	0
PSPTO_0070	6
PSPTO_0071	8
PSPTO_0072	10
PSPTO_0073	29
PSPTO_0074	11
PSPTO_0075	4
PSPTO_0076	10
PSPTO_0077	12
PSPTO_0078	9
PSPTO_0079	10
PSPTO_0080	6
PSPTO_0081	9
PSPTO_0082	33
PSPTO_0083	53
PSPTO_0084	2
PSPTO_0085	6
PSPTO_0086	1
PSPTO_0087	8
PSPTO_0088	0
PSPTO_0089	25
PSPTO_0090	27
PSPTO_0091	4
PSPTO_0092	17
PSPTO_0093	0
PSPTO_0094	1
PSPTO_0095	6
PSPTO_0096	4
PSPTO_0097	0
PSPTO_0098	3
PSPTO_0099	0
PSPTO_0100	1
PSPTO_0101	88
PSPTO_0102	24
PSPTO_0103	32
PSPTO_0104	0
PSPTO_0105	5
PSPTO_0106	0
PSPTO_0107	13
PSPTO_0108	5
PSPTO_0109	20
PSPTO_0110	22
PSPTO_0111	0
PSPTO_0112	3
PSPTO_0113	6
PSPTO_0114	2
PSPTO_0115	5
PSPTO_0116	2
PSPTO_0117	10
PSPTO_0118	2
PSPTO_0119	1
PSPTO_0120	5
PSPTO_0121	1
PSPTO_0123	0
PSPTO_0124	6
PSPTO_0125	9
PSPTO_0126	2
PSPTO_0127	7
PSPTO_0128	11
PSPTO_0129	6
PSPTO_0130	9
PSPTO_0131	5
PSPTO_0132	0
PSPTO_0133	0
PSPTO_0134	6
PSPTO_0135	7
PSPTO_0136	126
PSPTO_0137	3
PSPTO_0138	4
PSPTO_0139	2
PSPTO_0140	5
PSPTO_0141	1
PSPTO_0142	0
PSPTO_0143	3
PSPTO_0144	26
PSPTO_0145	2
PSPTO_0146	4
PSPTO_0147	3
PSPTO_0148	9
PSPTO_0149	4
PSPTO_0150	0
PSPTO_0151	1
PSPTO_0152	14
PSPTO_0153	4
PSPTO_0154	4
PSPTO_0155	7
PSPTO_0156	33
PSPTO_0157	0
PSPTO_0158	5
PSPTO_0159	3
PSPTO_0161	3
PSPTO_0162	7
PSPTO_0163	2
PSPTO_0164	1
PSPTO_0165	8
PSPTO_0166	2
PSPTO_0167	8
PSPTO_0168	12
PSPTO_0169	2
PSPTO_0170	4
PSPTO_0171	9
PSPTO_0172	0
PSPTO_0173	10
PSPTO_0174	2
PSPTO_0175	2
PSPTO_0176	6
PSPTO_0177	11
PSPTO_0178	3
PSPTO_0179	1
PSPTO_0180	2
PSPTO_0181	0
PSPTO_0182	8
PSPTO_0183	1
PSPTO_0184	13
PSPTO_0185	30
PSPTO_0186	1
PSPTO_0187	4
PSPTO_0188	1
PSPTO_0189	1
PSPTO_0190	2
PSPTO_0191	0
PSPTO_0192	2
PSPTO_0193	2
PSPTO_0194	3
PSPTO_0196	5
PSPTO_0197	1
PSPTO_0200	6
PSPTO_0201	9
PSPTO_0202	2
PSPTO_0203	5
PSPTO_0205	5
PSPTO_0206	10
PSPTO_0207	1
PSPTO_0208	3
PSPTO_0209	2
PSPTO_0210	1
PSPTO_0211	1
PSPTO_0212	2
PSPTO_0213	1
PSPTO_0214	2
PSPTO_0215	2
PSPTO_0216	1
PSPTO_0217	15
PSPTO_0218	5
PSPTO_0219	10
PSPTO_0220	13
PSPTO_0221	0
PSPTO_0222	2
PSPTO_0223	2
PSPTO_0224	2
PSPTO_0225	7
PSPTO_0226	1
PSPTO_0227	1
PSPTO_0228	1
PSPTO_0229	0
PSPTO_0230	3
PSPTO_0231	4
PSPTO_0232	0
PSPTO_0233	6
PSPTO_0234	8
PSPTO_0235	3
PSPTO_0236	6
PSPTO_0237	1
PSPTO_0238	11
PSPTO_0239	26
PSPTO_0240	1
PSPTO_0241	2
PSPTO_0242	1
PSPTO_0243	2
PSPTO_0244	1
PSPTO_0245	2
PSPTO_0246	0
PSPTO_0247	1
PSPTO_0248	0
PSPTO_0249	6
PSPTO_0250	1
PSPTO_0251	0
PSPTO_0252	7
PSPTO_0253	0
PSPTO_0254	4
PSPTO_0255	4
PSPTO_0256	3
PSPTO_0257	2
PSPTO_0258	4
PSPTO_0259	3
PSPTO_0260	1
PSPTO_0261	0
PSPTO_0262	0
PSPTO_0263	2
PSPTO_0264	2
PSPTO_0265	0
PSPTO_0266	1
PSPTO_0267	2
PSPTO_0268	1
PSPTO_0269	0
PSPTO_0270	0
PSPTO_0271	1
PSPTO_0272	8
PSPTO_0273	1
PSPTO_0274	0
PSPTO_0275	9
PSPTO_0276	1
PSPTO_0277	1
PSPTO_0278	6
PSPTO_0279	1
PSPTO_0280	8
PSPTO_0281	0
PSPTO_0282	1
PSPTO_0283	0
PSPTO_0284	0
PSPTO_0285	3
PSPTO_0286	18
PSPTO_0287	4
PSPTO_0288	0
PSPTO_0289	0
PSPTO_0290	0
PSPTO_0291	4
PSPTO_0292	1
PSPTO_0293	2
PSPTO_0294	0
PSPTO_0295	0
PSPTO_0296	0
PSPTO_0297	2
PSPTO_0298	0
PSPTO_0299	2
PSPTO_0300	17
PSPTO_0301	20
PSPTO_0302	1
PSPTO_0303	6
PSPTO_0304	13
PSPTO_0305	11
PSPTO_0306	3
PSPTO_0307	2
PSPTO_0308	0
PSPTO_0309	1
PSPTO_0310	3
PSPTO_0311	4
PSPTO_0312	1
PSPTO_0313	0
PSPTO_0314	5
PSPTO_0315	4
PSPTO_0316	5
PSPTO_0317	3
PSPTO_0318	34
PSPTO_0319	2
PSPTO_0320	1
PSPTO_0321	3
PSPTO_0322	10
PSPTO_0323	8
PSPTO_0324	9
PSPTO_0325	12
PSPTO_0326	1
PSPTO_0327	22
PSPTO_0328	10
PSPTO_0329	4
PSPTO_0330	5
PSPTO_0331	1
PSPTO_0332	3
PSPTO_0333	6
PSPTO_0334	22
PSPTO_0335	11
PSPTO_0336	0
PSPTO_0337	4
PSPTO_0338	2
PSPTO_0339	10
PSPTO_0340	11
PSPTO_0341	32
PSPTO_0342	0
PSPTO_0343	2
PSPTO_0344	18
PSPTO_0345	1
PSPTO_0346	8
PSPTO_0347	1
PSPTO_0348	0
PSPTO_0349	2
PSPTO_0350	3
PSPTO_0351	4
PSPTO_0352	2
PSPTO_0353	2
PSPTO_0354	0
PSPTO_0355	1
PSPTO_0356	0
PSPTO_0357	0
PSPTO_0358	1
PSPTO_0359	38
PSPTO_0360	13
PSPTO_0361	105
PSPTO_0362	1
PSPTO_0363	0
PSPTO_0364	2
PSPTO_0365	3
PSPTO_0366	2
PSPTO_0367	2
PSPTO_0368	1
PSPTO_0369	0
PSPTO_0370	5
PSPTO_0371	0
PSPTO_0372	3
PSPTO_0373	12
PSPTO_0374	13
PSPTO_0375	3
PSPTO_0376	2
PSPTO_0377	2
PSPTO_0378	0
PSPTO_0379	5
PSPTO_0380	7
PSPTO_0381	1
PSPTO_0382	1
PSPTO_0383	13
PSPTO_0384	3
PSPTO_0385	77
PSPTO_0386	3
PSPTO_0387	13
PSPTO_0388	2
PSPTO_0389	5
PSPTO_0390	40
PSPTO_0391	2
PSPTO_0393	2
PSPTO_0394	0
PSPTO_0395	0
PSPTO_0396	1
PSPTO_0397	8
PSPTO_0398	0
PSPTO_0399	4
PSPTO_0400	1
PSPTO_0401	4
PSPTO_0402	3
PSPTO_0403	0
PSPTO_0404	11
PSPTO_0405	16
PSPTO_0406	11
PSPTO_0407	1
PSPTO_0408	0
PSPTO_0409	4
PSPTO_0410	1
PSPTO_0411	2
PSPTO_0412	11
PSPTO_0413	1
PSPTO_0414	1
PSPTO_0415	1
PSPTO_0416	1
PSPTO_0417	4
PSPTO_0418	1
PSPTO_0419	4
PSPTO_0420	16
PSPTO_0421	1
PSPTO_0422	0
PSPTO_0423	3
PSPTO_0424	1
PSPTO_0425	3
PSPTO_0426	2
PSPTO_0427	13
PSPTO_0428	6
PSPTO_0429	5
PSPTO_0430	92
PSPTO_0431	1
PSPTO_0432	2
PSPTO_0433	2
PSPTO_0434	4
PSPTO_0435	6
PSPTO_0436	1
PSPTO_0437	1
PSPTO_0438	3
PSPTO_0439	0
PSPTO_0440	5
PSPTO_0441	22
PSPTO_0442	0
PSPTO_0443	22
PSPTO_0444	1
PSPTO_0445	1
PSPTO_0446	3
PSPTO_0447	0
PSPTO_0448	2
PSPTO_0449	3
PSPTO_0450	4
PSPTO_0451	9
PSPTO_0452	4
PSPTO_0453	14
PSPTO_0454	3
PSPTO_0455	4
PSPTO_0456	5
PSPTO_0457	1
PSPTO_0458	2
PSPTO_0459	0
PSPTO_0460	0
PSPTO_0461	1
PSPTO_0462	4
PSPTO_0463	1
PSPTO_0464	12
PSPTO_0465	1
PSPTO_0466	1
PSPTO_0467	0
PSPTO_0468	1
PSPTO_0469	4
PSPTO_0470	2
PSPTO_0471	7
PSPTO_0472	6
PSPTO_0473	4
PSPTO_0474	1
PSPTO_0475	0
PSPTO_0476	3
PSPTO_0477	1
PSPTO_0478	2
PSPTO_0479	3
PSPTO_0480	7
PSPTO_0481	0
PSPTO_0482	2
PSPTO_0483	0
PSPTO_0484	5
PSPTO_0485	1
PSPTO_0486	0
PSPTO_0487	2
PSPTO_0488	1
PSPTO_0489	1
PSPTO_0490	0
PSPTO_0491	2
PSPTO_0492	1
PSPTO_0493	2
PSPTO_0494	7
PSPTO_0495	3
PSPTO_0496	3
PSPTO_0497	1
PSPTO_0498	2
PSPTO_0499	14
PSPTO_0500	10
PSPTO_0501	2
PSPTO_0502	3
PSPTO_0503	1
PSPTO_0505	2
PSPTO_0506	12
PSPTO_0507	6
PSPTO_0508	3
PSPTO_0509	7
PSPTO_0510	2
PSPTO_0511	7
PSPTO_0512	7
PSPTO_0513	2
PSPTO_0514	0
PSPTO_0515	1
PSPTO_0516	5
PSPTO_0517	1
PSPTO_0518	4
PSPTO_0519	0
PSPTO_0520	1
PSPTO_0521	2
PSPTO_0522	2
PSPTO_0523	4
PSPTO_0524	3
PSPTO_0525	1
PSPTO_0526	0
PSPTO_0527	2
PSPTO_0528	2
PSPTO_0529	5
PSPTO_0530	0
PSPTO_0531	0
PSPTO_0532	0
PSPTO_0533	2
PSPTO_0534	6
PSPTO_0535	2
PSPTO_0536	13
PSPTO_0537	156
PSPTO_0538	11
PSPTO_0539	28
PSPTO_0540	6
PSPTO_0541	1
PSPTO_0542	2
PSPTO_0543	2
PSPTO_0544	4
PSPTO_0545	26
PSPTO_0546	26
PSPTO_0547	81
PSPTO_0548	0
PSPTO_0549	5
PSPTO_0550	1
PSPTO_0551	2
PSPTO_0552	2
PSPTO_0553	19
PSPTO_0554	59
PSPTO_0555	12
PSPTO_0556	6
PSPTO_0557	9
PSPTO_0558	3
PSPTO_0559	1
PSPTO_0560	0
PSPTO_0561	0
PSPTO_0562	1
PSPTO_0563	1
PSPTO_0564	2
PSPTO_0565	2
PSPTO_0566	4
PSPTO_0567	6
PSPTO_0568	10
PSPTO_0569	5
PSPTO_0570	1
PSPTO_0571	1
PSPTO_0572	7
PSPTO_0573	2
PSPTO_0574	0
PSPTO_0575	1
PSPTO_0576	0
PSPTO_0577	6
PSPTO_0578	2
PSPTO_0579	1
PSPTO_0580	4
PSPTO_0581	3
PSPTO_0582	10
PSPTO_0583	0
PSPTO_0584	2
PSPTO_0585	1
PSPTO_0586	4
PSPTO_0587	5
PSPTO_0588	1
PSPTO_0589	0
PSPTO_0591	1
PSPTO_0592	1
PSPTO_0593	2
PSPTO_0594	8
PSPTO_0595	1
PSPTO_0596	3
PSPTO_0597	6
PSPTO_0598	4
PSPTO_0599	15
PSPTO_0600	4
PSPTO_0601	4
PSPTO_0602	1
PSPTO_0603	0
PSPTO_0604	9
PSPTO_0605	1
PSPTO_0606	13
PSPTO_0607	22
PSPTO_0608	0
PSPTO_0609	14
PSPTO_0610	0
PSPTO_0611	4
PSPTO_0612	1
PSPTO_0613	13
PSPTO_0614	33
PSPTO_0615	42
PSPTO_0616	129
PSPTO_0617	171
PSPTO_0618	108
PSPTO_0619	306
PSPTO_0620	361
PSPTO_0621	48
PSPTO_0622	150
PSPTO_0623	568
PSPTO_0624	619
PSPTO_0625	73
PSPTO_0626	158
PSPTO_0627	188
PSPTO_0628	33
PSPTO_0629	163
PSPTO_0630	72
PSPTO_0631	71
PSPTO_0632	145
PSPTO_0633	111
PSPTO_0634	18
PSPTO_0635	48
PSPTO_0636	106
PSPTO_0637	42
PSPTO_0638	138
PSPTO_0639	58
PSPTO_0640	81
PSPTO_0641	144
PSPTO_0642	62
PSPTO_0643	84
PSPTO_0644	33
PSPTO_0645	87
PSPTO_0646	229
PSPTO_0647	18
PSPTO_0648	83
PSPTO_0649	143
PSPTO_0650	164
PSPTO_0651	356
PSPTO_0652	112
PSPTO_0653	42
PSPTO_0654	30
PSPTO_0655	9
PSPTO_0656	23
PSPTO_0657	0
PSPTO_0658	1
PSPTO_0659	4
PSPTO_0660	0
PSPTO_0661	0
PSPTO_0662	1
PSPTO_0663	3
PSPTO_0664	4
PSPTO_0665	1
PSPTO_0666	4
PSPTO_0667	2
PSPTO_0668	1
PSPTO_0669	0
PSPTO_0670	4
PSPTO_0671	1
PSPTO_0672	0
PSPTO_0673	0
PSPTO_0674	2
PSPTO_0675	4
PSPTO_0676	2
PSPTO_0677	5
PSPTO_0678	3
PSPTO_0679	144
PSPTO_0680	2
PSPTO_0681	2
PSPTO_0682	1
PSPTO_0683	2
PSPTO_0684	2
PSPTO_0685	1
PSPTO_0686	4
PSPTO_0687	0
PSPTO_0688	0
PSPTO_0689	2
PSPTO_0690	8
PSPTO_0691	8
PSPTO_0692	12
PSPTO_0693	0
PSPTO_0694	5
PSPTO_0695	6
PSPTO_0696	7
PSPTO_0697	0
PSPTO_0698	15
PSPTO_0699	6
PSPTO_0700	0
PSPTO_0701	2
PSPTO_0702	5
PSPTO_0703	4
PSPTO_0704	3
PSPTO_0705	1
PSPTO_0706	5
PSPTO_0707	2
PSPTO_0708	0
PSPTO_0709	0
PSPTO_0710	0
PSPTO_0711	2
PSPTO_0712	2
PSPTO_0713	1
PSPTO_0714	10
PSPTO_0715	0
PSPTO_0716	1
PSPTO_0717	1
PSPTO_0718	3
PSPTO_0719	0
PSPTO_0720	2
PSPTO_0721	2
PSPTO_0722	29
PSPTO_0723	3
PSPTO_0724	1
PSPTO_0725	3
PSPTO_0726	2
PSPTO_0727	5
PSPTO_0728	16
PSPTO_0729	3
PSPTO_0730	3
PSPTO_0731	0
PSPTO_0732	3
PSPTO_0733	5
PSPTO_0734	1
PSPTO_0735	1
PSPTO_0736	7
PSPTO_0737	3
PSPTO_0738	2
PSPTO_0739	1
PSPTO_0740	6
PSPTO_0741	2
PSPTO_0742	3
PSPTO_0743	3
PSPTO_0744	4
PSPTO_0745	2
PSPTO_0746	4
PSPTO_0747	1
PSPTO_0748	4
PSPTO_0749	0
PSPTO_0750	4
PSPTO_0751	0
PSPTO_0752	2
PSPTO_0753	2
PSPTO_0754	2
PSPTO_0755	1
PSPTO_0756	2
PSPTO_0757	9
PSPTO_0758	0
PSPTO_0759	2
PSPTO_0760	0
PSPTO_0761	1
PSPTO_0762	1
PSPTO_0763	1
PSPTO_0764	2
PSPTO_0765	1
PSPTO_0766	2
PSPTO_0767	1
PSPTO_0768	0
PSPTO_0769	1
PSPTO_0770	1
PSPTO_0771	1
PSPTO_0772	0
PSPTO_0773	1
PSPTO_0774	2
PSPTO_0775	2
PSPTO_0776	7
PSPTO_0777	6
PSPTO_0778	3
PSPTO_0779	2
PSPTO_0780	4
PSPTO_0781	2
PSPTO_0782	7
PSPTO_0783	2
PSPTO_0784	0
PSPTO_0785	0
PSPTO_0786	4
PSPTO_0787	2
PSPTO_0788	2
PSPTO_0789	3
PSPTO_0790	2
PSPTO_0791	1
PSPTO_0792	0
PSPTO_0793	1
PSPTO_0794	2
PSPTO_0795	0
PSPTO_0796	12
PSPTO_0797	72
PSPTO_0798	52
PSPTO_0799	13
PSPTO_0800	13
PSPTO_0801	5
PSPTO_0802	10
PSPTO_0803	1
PSPTO_0804	5
PSPTO_0805	8
PSPTO_0806	47
PSPTO_0807	4
PSPTO_0808	7
PSPTO_0809	6
PSPTO_0810	1
PSPTO_0811	1
PSPTO_0812	0
PSPTO_0813	1
PSPTO_0814	2
PSPTO_0815	8
PSPTO_0816	1
PSPTO_0817	0
PSPTO_0818	3
PSPTO_0819	4
PSPTO_0820	3
PSPTO_0821	0
PSPTO_0822	1
PSPTO_0823	3
PSPTO_0824	1
PSPTO_0825	2
PSPTO_0826	16
PSPTO_0827	11
PSPTO_0828	2
PSPTO_0829	89
PSPTO_0830	5
PSPTO_0831	2
PSPTO_0832	1
PSPTO_0833	0
PSPTO_0834	4
PSPTO_0835	1
PSPTO_0836	1
PSPTO_0837	2
PSPTO_0838	4
PSPTO_0840	8
PSPTO_0841	1
PSPTO_0842	0
PSPTO_0844	3
PSPTO_0846	1
PSPTO_0847	1
PSPTO_0848	4
PSPTO_0849	1
PSPTO_0850	2
PSPTO_0851	4
PSPTO_0852	1
PSPTO_0853	18
PSPTO_0854	4
PSPTO_0855	5
PSPTO_0856	3
PSPTO_0857	0
PSPTO_0858	2
PSPTO_0859	8
PSPTO_0860	1
PSPTO_0861	0
PSPTO_0862	2
PSPTO_0863	3
PSPTO_0864	0
PSPTO_0865	5
PSPTO_0866	0
PSPTO_0867	0
PSPTO_0868	1
PSPTO_0869	2
PSPTO_0871	8
PSPTO_0873	4
PSPTO_0874	3
PSPTO_0875	3
PSPTO_0876	11
PSPTO_0877	5
PSPTO_0878	2
PSPTO_0879	2
PSPTO_0880	0
PSPTO_0881	3
PSPTO_0882	4
PSPTO_0883	18
PSPTO_0884	3
PSPTO_0885	0
PSPTO_0886	3
PSPTO_0887	2
PSPTO_0888	2
PSPTO_0889	2
PSPTO_0890	5
PSPTO_0891	0
PSPTO_0892	4
PSPTO_0893	8
PSPTO_0894	2
PSPTO_0895	0
PSPTO_0896	3
PSPTO_0897	3
PSPTO_0898	3
PSPTO_0899	0
PSPTO_0900	0
PSPTO_0901	0
PSPTO_0902	9
PSPTO_0903	4
PSPTO_0904	4
PSPTO_0905	5
PSPTO_0906	4
PSPTO_0907	6
PSPTO_0908	2
PSPTO_0909	0
PSPTO_0910	2
PSPTO_0911	0
PSPTO_0912	4
PSPTO_0913	1
PSPTO_0914	1
PSPTO_0915	4
PSPTO_0916	2
PSPTO_0917	30
PSPTO_0918	0
PSPTO_0919	1
PSPTO_0920	3
PSPTO_0921	0
PSPTO_0922	2
PSPTO_0923	2
PSPTO_0924	2
PSPTO_0925	5
PSPTO_0926	9
PSPTO_0927	18
PSPTO_0928	0
PSPTO_0929	9
PSPTO_0930	1
PSPTO_0931	1
PSPTO_0932	1
PSPTO_0933	6
PSPTO_0934	3
PSPTO_0935	4
PSPTO_0936	3
PSPTO_0937	1
PSPTO_0938	6
PSPTO_0939	3
PSPTO_0940	9
PSPTO_0941	24
PSPTO_0942	4
PSPTO_0943	33
PSPTO_0944	32
PSPTO_0945	26
PSPTO_0946	7
PSPTO_0947	4
PSPTO_0948	4
PSPTO_0949	56
PSPTO_0950	3
PSPTO_0951	3
PSPTO_0952	1
PSPTO_0953	2
PSPTO_0954	10
PSPTO_0955	3
PSPTO_0956	2
PSPTO_0957	2
PSPTO_0958	0
PSPTO_0959	17
PSPTO_0960	5
PSPTO_0961	11
PSPTO_0962	1
PSPTO_0963	10
PSPTO_0964	20
PSPTO_0965	7
PSPTO_0966	0
PSPTO_0967	2
PSPTO_0968	2
PSPTO_0969	16
PSPTO_0970	4
PSPTO_0971	4
PSPTO_0972	0
PSPTO_0973	0
PSPTO_0974	0
PSPTO_0975	10
PSPTO_0976	17
PSPTO_0977	7
PSPTO_0978	7
PSPTO_0979	2
PSPTO_0980	2
PSPTO_0981	31
PSPTO_0982	8
PSPTO_0983	44
PSPTO_0984	6
PSPTO_0985	4
PSPTO_0986	0
PSPTO_0987	0
PSPTO_0988	15
PSPTO_0989	3
PSPTO_0990	3
PSPTO_0991	1
PSPTO_0992	0
PSPTO_0993	6
PSPTO_0994	2
PSPTO_0995	1
PSPTO_0996	5
PSPTO_0997	1
PSPTO_0998	1
PSPTO_0999	4
PSPTO_1000	11
PSPTO_1001	9
PSPTO_1002	2
PSPTO_1003	8
PSPTO_1004	2
PSPTO_1005	8
PSPTO_1006	0
PSPTO_1007	3
PSPTO_1008	5
PSPTO_1009	2
PSPTO_1010	2
PSPTO_1011	0
PSPTO_1012	0
PSPTO_1013	0
PSPTO_1014	3
PSPTO_1015	2
PSPTO_1016	6
PSPTO_1017	0
PSPTO_1018	0
PSPTO_1019	0
PSPTO_1020	9
PSPTO_1021	1
PSPTO_1022	5
PSPTO_1023	3
PSPTO_1024	1
PSPTO_1025	6
PSPTO_1026	1
PSPTO_1027	2
PSPTO_1028	6
PSPTO_1029	4
PSPTO_1030	3
PSPTO_1031	0
PSPTO_1032	2
PSPTO_1033	3
PSPTO_1034	3
PSPTO_1035	2
PSPTO_1036	1
PSPTO_1037	2
PSPTO_1038	8
PSPTO_1039	10
PSPTO_1040	2
PSPTO_1041	6
PSPTO_1042	1
PSPTO_1043	3
PSPTO_1044	0
PSPTO_1045	0
PSPTO_1046	0
PSPTO_1047	1
PSPTO_1048	0
PSPTO_1049	2
PSPTO_1050	0
PSPTO_1051	1
PSPTO_1052	1
PSPTO_1053	2
PSPTO_1054	6
PSPTO_1055	0
PSPTO_1056	2
PSPTO_1057	1
PSPTO_1058	1
PSPTO_1059	4
PSPTO_1060	0
PSPTO_1061	3
PSPTO_1062	1
PSPTO_1064	2
PSPTO_1065	6
PSPTO_1066	5
PSPTO_1067	13
PSPTO_1068	3
PSPTO_1069	1
PSPTO_1070	24
PSPTO_1071	10
PSPTO_1072	16
PSPTO_1073	7
PSPTO_1074	57
PSPTO_1075	4
PSPTO_1076	3
PSPTO_1077	3
PSPTO_1078	5
PSPTO_1079	31
PSPTO_1080	17
PSPTO_1081	27
PSPTO_1082	2
PSPTO_1083	3
PSPTO_1084	3
PSPTO_1085	3
PSPTO_1086	9
PSPTO_1087	11
PSPTO_1088	7
PSPTO_1089	16
PSPTO_1090	6
PSPTO_1091	2
PSPTO_1092	0
PSPTO_1093	13
PSPTO_1094	3
PSPTO_1095	3
PSPTO_1096	1
PSPTO_1097	8
PSPTO_1098	9
PSPTO_1099	1
PSPTO_1100	10
PSPTO_1101	12
PSPTO_1102	10
PSPTO_1103	86
PSPTO_1104	53
PSPTO_1105	16
PSPTO_1106	3
PSPTO_1107	16
PSPTO_1108	11
PSPTO_1109	10
PSPTO_1110	13
PSPTO_1111	6
PSPTO_1112	3
PSPTO_1114	0
PSPTO_1115	3
PSPTO_1116	4
PSPTO_1117	2
PSPTO_1118	4
PSPTO_1119	2
PSPTO_1120	1
PSPTO_1121	5
PSPTO_1122	1
PSPTO_1123	3
PSPTO_1124	1
PSPTO_1125	3
PSPTO_1126	11
PSPTO_1127	8
PSPTO_1128	8
PSPTO_1129	9
PSPTO_1130	3
PSPTO_1131	2
PSPTO_1132	3
PSPTO_1133	4
PSPTO_1134	2
PSPTO_1135	3
PSPTO_1136	36
PSPTO_1137	1
PSPTO_1138	10
PSPTO_1139	1
PSPTO_1140	8
PSPTO_1141	1
PSPTO_1142	1
PSPTO_1143	1
PSPTO_1144	7
PSPTO_1145	2
PSPTO_1146	4
PSPTO_1147	4
PSPTO_1148	15
PSPTO_1149	4
PSPTO_1150	1
PSPTO_1151	10
PSPTO_1152	2
PSPTO_1153	0
PSPTO_1154	1
PSPTO_1155	0
PSPTO_1156	0
PSPTO_1157	0
PSPTO_1158	0
PSPTO_1159	2
PSPTO_1160	1
PSPTO_1161	0
PSPTO_1162	1
PSPTO_1163	1
PSPTO_1164	38
PSPTO_1165	6
PSPTO_1166	4
PSPTO_1167	2
PSPTO_1168	2
PSPTO_1169	4
PSPTO_1170	0
PSPTO_1171	7
PSPTO_1172	5
PSPTO_1173	4
PSPTO_1174	0
PSPTO_1175	1
PSPTO_1176	1
PSPTO_1177	1
PSPTO_1178	23
PSPTO_1179	3
PSPTO_1180	6
PSPTO_1181	3
PSPTO_1182	3
PSPTO_1183	3
PSPTO_1184	5
PSPTO_1185	5
PSPTO_1186	3
PSPTO_1187	3
PSPTO_1188	8
PSPTO_1189	7
PSPTO_1190	0
PSPTO_1191	5
PSPTO_1192	3
PSPTO_1193	3
PSPTO_1194	1
PSPTO_1195	1
PSPTO_1196	4
PSPTO_1197	0
PSPTO_1198	0
PSPTO_1199	0
PSPTO_1200	1
PSPTO_1201	0
PSPTO_1202	8
PSPTO_1203	0
PSPTO_1204	1
PSPTO_1205	30
PSPTO_1206	1
PSPTO_1207	2
PSPTO_1208	2
PSPTO_1209	1
PSPTO_1210	0
PSPTO_1211	1
PSPTO_1212	0
PSPTO_1213	2
PSPTO_1214	2
PSPTO_1215	3
PSPTO_1216	3
PSPTO_1217	5
PSPTO_1218	4
PSPTO_1219	1
PSPTO_1220	1
PSPTO_1221	4
PSPTO_1222	1
PSPTO_1223	4
PSPTO_1224	0
PSPTO_1225	5
PSPTO_1226	0
PSPTO_1227	9
PSPTO_1228	1
PSPTO_1229	5
PSPTO_1230	0
PSPTO_1231	8
PSPTO_1232	34
PSPTO_1233	27
PSPTO_1234	20
PSPTO_1235	14
PSPTO_1236	18
PSPTO_1237	16
PSPTO_1238	24
PSPTO_1239	28
PSPTO_1240	32
PSPTO_1241	24
PSPTO_1242	16
PSPTO_1243	162
PSPTO_1244	4
PSPTO_1245	2
PSPTO_1246	25
PSPTO_1247	2
PSPTO_1248	0
PSPTO_1249	2
PSPTO_1250	2
PSPTO_1251	1
PSPTO_1252	2
PSPTO_1253	2
PSPTO_1254	7
PSPTO_1255	10
PSPTO_1256	1
PSPTO_1257	2
PSPTO_1258	3
PSPTO_1259	1
PSPTO_1260	4
PSPTO_1261	0
PSPTO_1262	1
PSPTO_1263	1
PSPTO_1264	1
PSPTO_1265	3
PSPTO_1266	37
PSPTO_1267	7
PSPTO_1268	68
PSPTO_1269	7
PSPTO_1270	1
PSPTO_1271	30
PSPTO_1272	1
PSPTO_1273	4
PSPTO_1274	57
PSPTO_1275	54
PSPTO_1276	124
PSPTO_1277	11
PSPTO_1278	3
PSPTO_1279	3
PSPTO_1280	4
PSPTO_1281	2
PSPTO_1282	1
PSPTO_1283	0
PSPTO_1284	0
PSPTO_1285	3
PSPTO_1286	1
PSPTO_1287	52
PSPTO_1288	29
PSPTO_1289	11
PSPTO_1290	7
PSPTO_1291	3
PSPTO_1292	7
PSPTO_1293	3
PSPTO_1294	0
PSPTO_1295	3
PSPTO_1296	9
PSPTO_1297	0
PSPTO_1298	5
PSPTO_1299	10
PSPTO_1300	21
PSPTO_1301	20
PSPTO_1302	18
PSPTO_1303	1
PSPTO_1304	1
PSPTO_1305	1
PSPTO_1306	0
PSPTO_1307	1
PSPTO_1308	2
PSPTO_1309	7
PSPTO_1310	5
PSPTO_1311	0
PSPTO_1312	1
PSPTO_1313	3
PSPTO_1314	2
PSPTO_1315	6
PSPTO_1316	1
PSPTO_1317	2
PSPTO_1318	1
PSPTO_1319	2
PSPTO_1320	1
PSPTO_1321	1
PSPTO_1322	2
PSPTO_1323	12
PSPTO_1324	6
PSPTO_1325	87
PSPTO_1326	326
PSPTO_1327	53
PSPTO_1328	38
PSPTO_1329	59
PSPTO_1330	7
PSPTO_1331	4
PSPTO_1332	30
PSPTO_1333	3
PSPTO_1334	4
PSPTO_1335	1
PSPTO_1336	3
PSPTO_1337	4
PSPTO_1338	4
PSPTO_1339	3
PSPTO_1340	10
PSPTO_1341	1
PSPTO_1342	4
PSPTO_1343	10
PSPTO_1344	5
PSPTO_1345	10
PSPTO_1346	3
PSPTO_1347	3
PSPTO_1348	7
PSPTO_1349	12
PSPTO_1350	4
PSPTO_1351	0
PSPTO_1352	1
PSPTO_1353	1
PSPTO_1354	0
PSPTO_1355	1
PSPTO_1356	2
PSPTO_1357	0
PSPTO_1358	0
PSPTO_1359	1
PSPTO_1360	1
PSPTO_1361	2
PSPTO_1362	2
PSPTO_1363	4
PSPTO_1364	2
PSPTO_1365	3
PSPTO_1366	1
PSPTO_1367	1
PSPTO_1368	0
PSPTO_1369	0
PSPTO_1370	0
PSPTO_1371	0
PSPTO_1372	1
PSPTO_1373	3
PSPTO_1374	0
PSPTO_1375	2
PSPTO_1376	0
PSPTO_1377	8
PSPTO_1378	2
PSPTO_1379	1
PSPTO_1380	0
PSPTO_1381	2
PSPTO_1382	5
PSPTO_1383	0
PSPTO_1384	0
PSPTO_1385	2
PSPTO_1386	0
PSPTO_1387	0
PSPTO_1388	0
PSPTO_1389	5
PSPTO_1390	0
PSPTO_1391	2
PSPTO_1392	2
PSPTO_1393	1
PSPTO_1394	0
PSPTO_1395	0
PSPTO_1396	0
PSPTO_1397	0
PSPTO_1398	1
PSPTO_1399	1
PSPTO_1400	3
PSPTO_1401	1
PSPTO_1402	1
PSPTO_1403	0
PSPTO_1404	0
PSPTO_1405	1
PSPTO_1406	1
PSPTO_1407	3
PSPTO_1408	1
PSPTO_1409	4
PSPTO_1410	28
PSPTO_1411	3
PSPTO_1412	7
PSPTO_1413	8
PSPTO_1414	12
PSPTO_1415	27
PSPTO_1416	14
PSPTO_1417	90
PSPTO_1418	3
PSPTO_1419	8
PSPTO_1420	9
PSPTO_1421	0
PSPTO_1422	2
PSPTO_1423	20
PSPTO_1424	12
PSPTO_1425	12
PSPTO_1426	8
PSPTO_1427	16
PSPTO_1428	8
PSPTO_1429	0
PSPTO_1430	71
PSPTO_1431	62
PSPTO_1432	11
PSPTO_1433	12
PSPTO_1434	15
PSPTO_1435	13
PSPTO_1436	15
PSPTO_1437	26
PSPTO_1438	19
PSPTO_1439	0
PSPTO_1440	11
PSPTO_1441	7
PSPTO_1443	9
PSPTO_1444	69
PSPTO_1445	1
PSPTO_1446	7
PSPTO_1447	0
PSPTO_1448	1
PSPTO_1449	58
PSPTO_1450	23
PSPTO_1451	26
PSPTO_1452	0
PSPTO_1453	5
PSPTO_1454	3
PSPTO_1455	8
PSPTO_1456	3
PSPTO_1457	0
PSPTO_1458	5
PSPTO_1459	77
PSPTO_1460	3
PSPTO_1461	4
PSPTO_1462	1
PSPTO_1463	1
PSPTO_1464	3
PSPTO_1465	2
PSPTO_1466	0
PSPTO_1467	3
PSPTO_1468	8
PSPTO_1469	3
PSPTO_1470	4
PSPTO_1471	2
PSPTO_1472	20
PSPTO_1473	73
PSPTO_1474	63
PSPTO_1475	120
PSPTO_1476	63
PSPTO_1477	1
PSPTO_1478	0
PSPTO_1479	6
PSPTO_1480	15
PSPTO_1481	20
PSPTO_1482	6
PSPTO_1483	1
PSPTO_1484	0
PSPTO_1485	4
PSPTO_1486	1
PSPTO_1487	5
PSPTO_1488	7
PSPTO_1489	8
PSPTO_1490	9
PSPTO_1491	12
PSPTO_1492	7
PSPTO_1493	9
PSPTO_1494	3
PSPTO_1495	3
PSPTO_1496	1
PSPTO_1497	10
PSPTO_1498	4
PSPTO_1499	9
PSPTO_1500	35
PSPTO_1501	28
PSPTO_1502	5
PSPTO_1503	6
PSPTO_1504	2
PSPTO_1505	1
PSPTO_1506	113
PSPTO_1507	52
PSPTO_1508	14
PSPTO_1509	13
PSPTO_1510	3
PSPTO_1511	7
PSPTO_1512	5
PSPTO_1513	0
PSPTO_1514	6
PSPTO_1515	5
PSPTO_1516	1
PSPTO_1517	0
PSPTO_1518	1
PSPTO_1519	1
PSPTO_1520	5
PSPTO_1521	0
PSPTO_1522	2
PSPTO_1523	3
PSPTO_1524	5
PSPTO_1525	5
PSPTO_1526	0
PSPTO_1527	20
PSPTO_1528	32
PSPTO_1529	8
PSPTO_1530	0
PSPTO_1531	22
PSPTO_1532	29
PSPTO_1533	14
PSPTO_1534	144
PSPTO_1535	60
PSPTO_1536	15
PSPTO_1537	18
PSPTO_1538	10
PSPTO_1539	4
PSPTO_1540	3
PSPTO_1541	7
PSPTO_1542	60
PSPTO_1543	5
PSPTO_1544	12
PSPTO_1545	11
PSPTO_1546	1
PSPTO_1547	8
PSPTO_1548	3
PSPTO_1549	18
PSPTO_1550	15
PSPTO_1551	5
PSPTO_1552	23
PSPTO_1553	10
PSPTO_1554	56
PSPTO_1555	2
PSPTO_1556	3
PSPTO_1557	0
PSPTO_1558	10
PSPTO_1559	7
PSPTO_1560	4
PSPTO_1561	3
PSPTO_1562	7
PSPTO_1563	5
PSPTO_1564	12
PSPTO_1565	29
PSPTO_1566	1
PSPTO_1567	7
PSPTO_1568	1
PSPTO_1570	1
PSPTO_1571	7
PSPTO_1572	0
PSPTO_1573	1
PSPTO_1574	0
PSPTO_1575	0
PSPTO_1576	0
PSPTO_1577	8
PSPTO_1578	0
PSPTO_1579	4
PSPTO_1580	1
PSPTO_1581	2
PSPTO_1582	2
PSPTO_1583	4
PSPTO_1584	3
PSPTO_1585	3
PSPTO_1586	2
PSPTO_1587	20
PSPTO_1588	0
PSPTO_1589	2
PSPTO_1590	7
PSPTO_1591	0
PSPTO_1592	6
PSPTO_1593	9
PSPTO_1594	0
PSPTO_1595	1
PSPTO_1596	6
PSPTO_1597	9
PSPTO_1598	6
PSPTO_1599	1
PSPTO_1600	6
PSPTO_1601	3
PSPTO_1602	3
PSPTO_1603	0
PSPTO_1604	3
PSPTO_1605	6
PSPTO_1606	4
PSPTO_1607	5
PSPTO_1608	24
PSPTO_1609	4
PSPTO_1610	2
PSPTO_1611	0
PSPTO_1612	3
PSPTO_1613	1
PSPTO_1614	2
PSPTO_1615	1
PSPTO_1616	1
PSPTO_1617	2
PSPTO_1618	4
PSPTO_1619	4
PSPTO_1620	11
PSPTO_1621	19
PSPTO_1622	2
PSPTO_1623	0
PSPTO_1624	6
PSPTO_1625	1
PSPTO_1626	0
PSPTO_1627	1
PSPTO_1628	0
PSPTO_1629	0
PSPTO_1630	0
PSPTO_1631	7
PSPTO_1632	11
PSPTO_1633	13
PSPTO_1634	0
PSPTO_1635	2
PSPTO_1636	0
PSPTO_1637	5
PSPTO_1638	2
PSPTO_1639	10
PSPTO_1640	4
PSPTO_1641	0
PSPTO_1642	2
PSPTO_1643	6
PSPTO_1644	7
PSPTO_1645	2
PSPTO_1646	8
PSPTO_1647	0
PSPTO_1648	4
PSPTO_1649	1
PSPTO_1650	1
PSPTO_1651	1
PSPTO_1652	0
PSPTO_1653	5
PSPTO_1654	3
PSPTO_1655	1
PSPTO_1656	4
PSPTO_1657	7
PSPTO_1658	0
PSPTO_1659	2
PSPTO_1660	13
PSPTO_1661	36
PSPTO_1662	0
PSPTO_1663	1
PSPTO_1664	1
PSPTO_1665	0
PSPTO_1666	0
PSPTO_1667	5
PSPTO_1668	0
PSPTO_1669	10
PSPTO_1670	4
PSPTO_1671	189
PSPTO_1672	0
PSPTO_1673	2
PSPTO_1674	2
PSPTO_1675	0
PSPTO_1676	0
PSPTO_1677	1
PSPTO_1678	0
PSPTO_1679	1
PSPTO_1680	0
PSPTO_1681	1
PSPTO_1682	5
PSPTO_1683	3
PSPTO_1684	10
PSPTO_1685	3
PSPTO_1686	5
PSPTO_1687	2
PSPTO_1688	3
PSPTO_1689	6
PSPTO_1690	3
PSPTO_1691	3
PSPTO_1692	2
PSPTO_1693	6
PSPTO_1694	15
PSPTO_1695	7
PSPTO_1696	6
PSPTO_1697	0
PSPTO_1698	41
PSPTO_1699	2
PSPTO_1700	29
PSPTO_1701	4
PSPTO_1702	6
PSPTO_1703	2
PSPTO_1704	1
PSPTO_1705	8
PSPTO_1706	2
PSPTO_1707	11
PSPTO_1708	4
PSPTO_1709	6
PSPTO_1710	1
PSPTO_1711	5
PSPTO_1712	5
PSPTO_1713	3
PSPTO_1714	0
PSPTO_1715	5
PSPTO_1716	2
PSPTO_1717	1
PSPTO_1718	4
PSPTO_1719	1
PSPTO_1720	29
PSPTO_1721	17
PSPTO_1722	2
PSPTO_1723	0
PSPTO_1724	0
PSPTO_1725	9
PSPTO_1726	0
PSPTO_1727	1
PSPTO_1728	0
PSPTO_1729	1
PSPTO_1730	2
PSPTO_1731	8
PSPTO_1732	42
PSPTO_1733	13
PSPTO_1734	17
PSPTO_1735	3
PSPTO_1736	7
PSPTO_1737	6
PSPTO_1738	8
PSPTO_1739	15
PSPTO_1740	8
PSPTO_1741	11
PSPTO_1742	13
PSPTO_1743	6
PSPTO_1744	10
PSPTO_1745	81
PSPTO_1746	24
PSPTO_1747	22
PSPTO_1748	19
PSPTO_1749	17
PSPTO_1750	333
PSPTO_1751	1
PSPTO_1752	1
PSPTO_1753	3
PSPTO_1754	4
PSPTO_1755	3
PSPTO_1756	15
PSPTO_1757	1
PSPTO_1758	8
PSPTO_1759	1
PSPTO_1760	18
PSPTO_1761	9
PSPTO_1762	3
PSPTO_1763	0
PSPTO_1764	3
PSPTO_1765	37
PSPTO_1766	0
PSPTO_1767	0
PSPTO_1768	1
PSPTO_1769	1
PSPTO_1770	1
PSPTO_1771	0
PSPTO_1772	2
PSPTO_1773	4
PSPTO_1774	1
PSPTO_1775	77
PSPTO_1776	1
PSPTO_1777	3
PSPTO_1778	14
PSPTO_1779	21
PSPTO_1780	5
PSPTO_1781	6
PSPTO_1782	13
PSPTO_1783	9
PSPTO_1784	1
PSPTO_1785	10
PSPTO_1786	0
PSPTO_1787	0
PSPTO_1788	2
PSPTO_1789	1
PSPTO_1790	1
PSPTO_1791	1
PSPTO_1792	0
PSPTO_1793	0
PSPTO_1794	0
PSPTO_1795	1
PSPTO_1796	0
PSPTO_1797	1
PSPTO_1798	0
PSPTO_1799	2
PSPTO_1800	0
PSPTO_1801	4
PSPTO_1802	3
PSPTO_1803	0
PSPTO_1804	0
PSPTO_1805	0
PSPTO_1806	8
PSPTO_1807	2
PSPTO_1808	5
PSPTO_1809	5
PSPTO_1810	4
PSPTO_1811	3
PSPTO_1812	7
PSPTO_1813	0
PSPTO_1814	1
PSPTO_1815	24
PSPTO_1816	0
PSPTO_1817	3
PSPTO_1818	2
PSPTO_1819	0
PSPTO_1820	3
PSPTO_1821	11
PSPTO_1822	15
PSPTO_1823	1
PSPTO_1824	5
PSPTO_1825	28
PSPTO_1826	34
PSPTO_1827	2
PSPTO_1828	2
PSPTO_1829	7
PSPTO_1830	8
PSPTO_1831	4
PSPTO_1832	35
PSPTO_1833	9
PSPTO_1834	7
PSPTO_1835	13
PSPTO_1836	13
PSPTO_1838	7
PSPTO_1839	20
PSPTO_1840	0
PSPTO_1841	8
PSPTO_1842	44
PSPTO_1843	15
PSPTO_1844	2
PSPTO_1845	0
PSPTO_1846	5
PSPTO_1847	99
PSPTO_1848	0
PSPTO_1849	1
PSPTO_1850	13
PSPTO_1851	27
PSPTO_1852	13
PSPTO_1853	0
PSPTO_1854	0
PSPTO_1855	8
PSPTO_1856	2
PSPTO_1857	4
PSPTO_1858	5
PSPTO_1859	4
PSPTO_1860	1
PSPTO_1861	1
PSPTO_1862	2
PSPTO_1863	0
PSPTO_1864	0
PSPTO_1865	2
PSPTO_1866	2
PSPTO_1867	2
PSPTO_1868	6
PSPTO_1869	1
PSPTO_1870	19
PSPTO_1871	2
PSPTO_1872	1
PSPTO_1873	4
PSPTO_1874	7
PSPTO_1875	3
PSPTO_1876	0
PSPTO_1877	0
PSPTO_1878	3
PSPTO_1879	15
PSPTO_1880	1
PSPTO_1881	3
PSPTO_1882	2
PSPTO_1883	2
PSPTO_1884	0
PSPTO_1885	2
PSPTO_1886	23
PSPTO_1887	3
PSPTO_1888	1
PSPTO_1889	1
PSPTO_1890	2
PSPTO_1891	7
PSPTO_1892	0
PSPTO_1893	0
PSPTO_1894	1
PSPTO_1895	0
PSPTO_1896	1
PSPTO_1897	3
PSPTO_1898	0
PSPTO_1899	0
PSPTO_1900	0
PSPTO_1901	4
PSPTO_1902	21
PSPTO_1903	0
PSPTO_1904	2
PSPTO_1905	0
PSPTO_1906	0
PSPTO_1907	1
PSPTO_1908	1
PSPTO_1909	11
PSPTO_1910	12
PSPTO_1911	4
PSPTO_1912	1
PSPTO_1913	2
PSPTO_1914	8
PSPTO_1915	1
PSPTO_1916	9
PSPTO_1917	2
PSPTO_1918	14
PSPTO_1919	1
PSPTO_1920	4
PSPTO_1921	1
PSPTO_1922	4
PSPTO_1923	18
PSPTO_1924	22
PSPTO_1925	23
PSPTO_1926	1
PSPTO_1927	22
PSPTO_1928	9
PSPTO_1929	1
PSPTO_1930	3
PSPTO_1931	5
PSPTO_1932	0
PSPTO_1933	5
PSPTO_1934	6
PSPTO_1935	17
PSPTO_1936	40
PSPTO_1937	2
PSPTO_1938	1
PSPTO_1939	6
PSPTO_1940	17
PSPTO_1941	8
PSPTO_1942	7
PSPTO_1943	14
PSPTO_1944	36
PSPTO_1945	30
PSPTO_1946	22
PSPTO_1947	20
PSPTO_1948	9
PSPTO_1949	314
PSPTO_1950	12
PSPTO_1951	115
PSPTO_1952	10
PSPTO_1953	12
PSPTO_1954	18
PSPTO_1955	8
PSPTO_1956	7
PSPTO_1957	6
PSPTO_1958	19
PSPTO_1959	13
PSPTO_1960	9
PSPTO_1961	8
PSPTO_1962	1
PSPTO_1963	5
PSPTO_1964	2
PSPTO_1965	6
PSPTO_1966	10
PSPTO_1967	0
PSPTO_1968	1
PSPTO_1969	10
PSPTO_1970	2
PSPTO_1971	2
PSPTO_1972	1
PSPTO_1973	0
PSPTO_1974	1
PSPTO_1975	1
PSPTO_1976	15
PSPTO_1977	19
PSPTO_1978	10
PSPTO_1979	5
PSPTO_1980	8
PSPTO_1981	29
PSPTO_1982	57
PSPTO_1983	5
PSPTO_1984	5
PSPTO_1985	3
PSPTO_1986	11
PSPTO_1987	12
PSPTO_1988	9
PSPTO_1989	5
PSPTO_1990	3
PSPTO_1991	5
PSPTO_1992	2
PSPTO_1993	26
PSPTO_1994	0
PSPTO_1995	0
PSPTO_1996	2
PSPTO_1997	0
PSPTO_1998	3
PSPTO_1999	4
PSPTO_2000	3
PSPTO_2001	5
PSPTO_2002	1
PSPTO_2003	2
PSPTO_2004	3
PSPTO_2005	1
PSPTO_2006	0
PSPTO_2007	4
PSPTO_2008	4
PSPTO_2009	3
PSPTO_2010	7
PSPTO_2011	5
PSPTO_2012	2
PSPTO_2013	0
PSPTO_2014	7
PSPTO_2015	0
PSPTO_2016	23
PSPTO_2017	2
PSPTO_2018	3
PSPTO_2019	3
PSPTO_2020	34
PSPTO_2021	5
PSPTO_2022	6
PSPTO_2023	0
PSPTO_2024	2
PSPTO_2025	1
PSPTO_2026	4
PSPTO_2027	1
PSPTO_2028	0
PSPTO_2029	6
PSPTO_2030	5
PSPTO_2031	1
PSPTO_2032	3
PSPTO_2033	1
PSPTO_2034	1
PSPTO_2035	5
PSPTO_2036	0
PSPTO_2037	2
PSPTO_2038	1
PSPTO_2039	7
PSPTO_2040	5
PSPTO_2041	10
PSPTO_2042	5
PSPTO_2043	10
PSPTO_2044	3
PSPTO_2045	3
PSPTO_2046	2
PSPTO_2047	1
PSPTO_2048	3
PSPTO_2049	0
PSPTO_2050	0
PSPTO_2051	4
PSPTO_2052	0
PSPTO_2053	2
PSPTO_2054	3
PSPTO_2055	8
PSPTO_2056	9
PSPTO_2057	1
PSPTO_2058	0
PSPTO_2059	7
PSPTO_2060	4
PSPTO_2061	4
PSPTO_2062	3
PSPTO_2063	3
PSPTO_2064	10
PSPTO_2065	7
PSPTO_2066	1
PSPTO_2067	0
PSPTO_2068	1
PSPTO_2069	0
PSPTO_2070	3
PSPTO_2071	1
PSPTO_2072	1
PSPTO_2073	1
PSPTO_2074	0
PSPTO_2075	0
PSPTO_2076	0
PSPTO_2077	5
PSPTO_2078	3
PSPTO_2079	0
PSPTO_2080	0
PSPTO_2081	1
PSPTO_2082	3
PSPTO_2083	2
PSPTO_2084	2
PSPTO_2085	1
PSPTO_2086	1
PSPTO_2087	0
PSPTO_2088	0
PSPTO_2089	3
PSPTO_2090	2
PSPTO_2091	0
PSPTO_2092	2
PSPTO_2093	0
PSPTO_2094	1
PSPTO_2095	0
PSPTO_2096	0
PSPTO_2097	1
PSPTO_2098	3
PSPTO_2099	11
PSPTO_2100	0
PSPTO_2101	9
PSPTO_2102	28
PSPTO_2103	7
PSPTO_2104	5
PSPTO_2105	4
PSPTO_2106	20
PSPTO_2107	2
PSPTO_2108	2
PSPTO_2109	1
PSPTO_2110	5
PSPTO_2111	5
PSPTO_2112	9
PSPTO_2113	2
PSPTO_2114	1
PSPTO_2115	13
PSPTO_2116	0
PSPTO_2117	14
PSPTO_2118	8
PSPTO_2119	21
PSPTO_2120	3
PSPTO_2121	0
PSPTO_2122	1
PSPTO_2123	3
PSPTO_2124	3
PSPTO_2125	1
PSPTO_2126	2
PSPTO_2127	6
PSPTO_2128	1
PSPTO_2129	3
PSPTO_2130	0
PSPTO_2131	4
PSPTO_2132	0
PSPTO_2133	1
PSPTO_2134	1
PSPTO_2135	18
PSPTO_2136	4
PSPTO_2137	0
PSPTO_2138	1
PSPTO_2139	1
PSPTO_2140	0
PSPTO_2141	0
PSPTO_2142	1
PSPTO_2143	0
PSPTO_2144	1
PSPTO_2145	2
PSPTO_2146	4
PSPTO_2147	2
PSPTO_2148	2
PSPTO_2149	2
PSPTO_2150	11
PSPTO_2151	3
PSPTO_2152	0
PSPTO_2153	1
PSPTO_2154	0
PSPTO_2155	2
PSPTO_2156	1
PSPTO_2158	0
PSPTO_2159	1
PSPTO_2160	0
PSPTO_2161	6
PSPTO_2162	4
PSPTO_2163	16
PSPTO_2164	22
PSPTO_2165	6
PSPTO_2166	15
PSPTO_2167	6
PSPTO_2168	0
PSPTO_2169	4
PSPTO_2170	92
PSPTO_2171	9
PSPTO_2172	2
PSPTO_2173	196
PSPTO_2174	171
PSPTO_2175	157
PSPTO_2176	90
PSPTO_2177	0
PSPTO_2178	2
PSPTO_2179	5
PSPTO_2180	4
PSPTO_2181	1
PSPTO_2182	9
PSPTO_2183	6
PSPTO_2184	9
PSPTO_2185	22
PSPTO_2186	17
PSPTO_2187	2
PSPTO_2188	6
PSPTO_2189	7
PSPTO_2190	4
PSPTO_2191	3
PSPTO_2192	0
PSPTO_2193	3
PSPTO_2194	104
PSPTO_2195	22
PSPTO_2196	18
PSPTO_2197	107
PSPTO_2198	63
PSPTO_2199	270
PSPTO_2200	106
PSPTO_2201	141
PSPTO_2202	194
PSPTO_2203	198
PSPTO_2204	2
PSPTO_2205	3
PSPTO_2206	4
PSPTO_2207	104
PSPTO_2208	170
PSPTO_2209	12
PSPTO_2210	31
PSPTO_2211	15
PSPTO_2212	1
PSPTO_2213	5
PSPTO_2214	5
PSPTO_2215	0
PSPTO_2216	5
PSPTO_2217	3
PSPTO_2218	0
PSPTO_2219	0
PSPTO_2220	3
PSPTO_2221	0
PSPTO_2222	1
PSPTO_2223	0
PSPTO_2224	5
PSPTO_2225	4
PSPTO_2226	1
PSPTO_2227	0
PSPTO_2228	0
PSPTO_2229	0
PSPTO_2230	1
PSPTO_2231	5
PSPTO_2232	5
PSPTO_2233	3
PSPTO_2234	8
PSPTO_2235	0
PSPTO_2236	2
PSPTO_2237	4
PSPTO_2238	0
PSPTO_2239	12
PSPTO_2240	0
PSPTO_2241	1
PSPTO_2242	2
PSPTO_2243	0
PSPTO_2244	1
PSPTO_2245	11
PSPTO_2246	1
PSPTO_2247	2
PSPTO_2248	2
PSPTO_2249	3
PSPTO_2250	3
PSPTO_2251	1
PSPTO_2252	0
PSPTO_2253	2
PSPTO_2254	13
PSPTO_2255	7
PSPTO_2256	9
PSPTO_2257	0
PSPTO_2258	6
PSPTO_2259	3
PSPTO_2260	7
PSPTO_2261	2
PSPTO_2262	2
PSPTO_2263	1
PSPTO_2264	1
PSPTO_2265	1
PSPTO_2266	4
PSPTO_2267	5
PSPTO_2268	6
PSPTO_2269	2
PSPTO_2270	8
PSPTO_2271	2
PSPTO_2272	75
PSPTO_2273	0
PSPTO_2274	9
PSPTO_2275	3
PSPTO_2276	4
PSPTO_2277	1
PSPTO_2278	2
PSPTO_2279	6
PSPTO_2280	4
PSPTO_2281	0
PSPTO_2282	2
PSPTO_2283	9
PSPTO_2284	9
PSPTO_2285	1
PSPTO_2286	8
PSPTO_2287	9
PSPTO_2288	10
PSPTO_2289	9
PSPTO_2290	4
PSPTO_2291	4
PSPTO_2292	51
PSPTO_2293	5
PSPTO_2294	5
PSPTO_2295	9
PSPTO_2296	0
PSPTO_2297	8
PSPTO_2298	46
PSPTO_2299	1712
PSPTO_2300	0
PSPTO_2301	1
PSPTO_2302	0
PSPTO_2303	3
PSPTO_2304	0
PSPTO_2305	3
PSPTO_2306	2
PSPTO_2307	1
PSPTO_2308	1
PSPTO_2309	12
PSPTO_2310	8
PSPTO_2311	13
PSPTO_2312	2
PSPTO_2313	3
PSPTO_2314	15
PSPTO_2315	6
PSPTO_2316	0
PSPTO_2317	3
PSPTO_2318	2
PSPTO_2319	0
PSPTO_2320	0
PSPTO_2321	1
PSPTO_2322	1
PSPTO_2323	4
PSPTO_2324	5
PSPTO_2325	0
PSPTO_2326	4
PSPTO_2327	3
PSPTO_2328	6
PSPTO_2329	1
PSPTO_2330	0
PSPTO_2331	10
PSPTO_2332	0
PSPTO_2333	13
PSPTO_2334	15
PSPTO_2335	3
PSPTO_2336	1
PSPTO_2337	1
PSPTO_2338	5
PSPTO_2339	2
PSPTO_2340	5
PSPTO_2341	6
PSPTO_2342	2
PSPTO_2343	0
PSPTO_2344	4
PSPTO_2345	1
PSPTO_2346	2
PSPTO_2347	1
PSPTO_2348	0
PSPTO_2349	4
PSPTO_2350	85
PSPTO_2351	1
PSPTO_2352	4
PSPTO_2353	5
PSPTO_2354	5
PSPTO_2355	2
PSPTO_2356	1
PSPTO_2358	38
PSPTO_2359	2
PSPTO_2360	0
PSPTO_2361	3
PSPTO_2362	2
PSPTO_2363	1
PSPTO_2364	5
PSPTO_2365	1
PSPTO_2366	8
PSPTO_2367	9
PSPTO_2368	6
PSPTO_2369	3
PSPTO_2370	6
PSPTO_2371	4
PSPTO_2372	4
PSPTO_2373	11
PSPTO_2374	0
PSPTO_2375	10
PSPTO_2376	25
PSPTO_2377	15
PSPTO_2378	73
PSPTO_2379	135
PSPTO_2380	138
PSPTO_2381	123
PSPTO_2382	12
PSPTO_2383	33
PSPTO_2384	19
PSPTO_2385	10
PSPTO_2386	1
PSPTO_2387	1
PSPTO_2388	0
PSPTO_2389	2
PSPTO_2390	0
PSPTO_2391	3
PSPTO_2392	0
PSPTO_2394	6
PSPTO_2395	2
PSPTO_2396	1
PSPTO_2397	1
PSPTO_2398	0
PSPTO_2399	2
PSPTO_2400	1
PSPTO_2401	1
PSPTO_2402	0
PSPTO_2403	3
PSPTO_2404	3
PSPTO_2405	3
PSPTO_2406	1
PSPTO_2407	2
PSPTO_2408	1
PSPTO_2409	0
PSPTO_2410	2
PSPTO_2411	0
PSPTO_2412	1
PSPTO_2413	0
PSPTO_2414	1
PSPTO_2415	0
PSPTO_2416	3
PSPTO_2417	1
PSPTO_2418	0
PSPTO_2419	2
PSPTO_2420	0
PSPTO_2421	1
PSPTO_2422	5
PSPTO_2423	0
PSPTO_2424	1
PSPTO_2425	1
PSPTO_2426	7
PSPTO_2427	4
PSPTO_2428	5
PSPTO_2429	4
PSPTO_2430	3
PSPTO_2431	1
PSPTO_2432	10
PSPTO_2433	0
PSPTO_2434	2
PSPTO_2435	6
PSPTO_2436	1
PSPTO_2437	10
PSPTO_2438	6
PSPTO_2439	4
PSPTO_2440	4
PSPTO_2441	17
PSPTO_2442	5
PSPTO_2443	0
PSPTO_2444	1
PSPTO_2445	1
PSPTO_2446	2
PSPTO_2447	2
PSPTO_2448	0
PSPTO_2449	1
PSPTO_2450	2
PSPTO_2451	0
PSPTO_2452	1
PSPTO_2453	0
PSPTO_2454	0
PSPTO_2455	2
PSPTO_2456	0
PSPTO_2457	7
PSPTO_2458	5
PSPTO_2459	1
PSPTO_2460	5
PSPTO_2461	0
PSPTO_2462	0
PSPTO_2463	0
PSPTO_2464	3
PSPTO_2465	4
PSPTO_2466	0
PSPTO_2467	3
PSPTO_2468	0
PSPTO_2469	1
PSPTO_2470	4
PSPTO_2471	3
PSPTO_2472	3
PSPTO_2473	3
PSPTO_2474	4
PSPTO_2475	10
PSPTO_2476	0
PSPTO_2477	0
PSPTO_2478	0
PSPTO_2479	2
PSPTO_2480	3
PSPTO_2481	1
PSPTO_2482	0
PSPTO_2483	0
PSPTO_2484	4
PSPTO_2485	1
PSPTO_2486	0
PSPTO_2487	0
PSPTO_2488	1
PSPTO_2489	5
PSPTO_2490	2
PSPTO_2491	13
PSPTO_2492	6
PSPTO_2493	3
PSPTO_2494	0
PSPTO_2495	1
PSPTO_2496	4
PSPTO_2497	0
PSPTO_2498	0
PSPTO_2499	2
PSPTO_2500	6
PSPTO_2501	0
PSPTO_2502	0
PSPTO_2503	0
PSPTO_2504	2
PSPTO_2505	8
PSPTO_2506	3
PSPTO_2507	3
PSPTO_2508	0
PSPTO_2509	3
PSPTO_2510	4
PSPTO_2511	4
PSPTO_2513	0
PSPTO_2514	1
PSPTO_2515	2
PSPTO_2516	7
PSPTO_2517	2
PSPTO_2518	4
PSPTO_2519	2
PSPTO_2520	1
PSPTO_2521	2
PSPTO_2522	0
PSPTO_2523	1
PSPTO_2524	0
PSPTO_2525	2
PSPTO_2526	4
PSPTO_2527	2
PSPTO_2528	0
PSPTO_2529	1
PSPTO_2530	0
PSPTO_2531	11
PSPTO_2532	10
PSPTO_2533	0
PSPTO_2534	3
PSPTO_2535	2
PSPTO_2536	0
PSPTO_2537	0
PSPTO_2538	2
PSPTO_2539	1
PSPTO_2540	2
PSPTO_2541	7
PSPTO_2542	1
PSPTO_2543	1
PSPTO_2544	4
PSPTO_2545	0
PSPTO_2546	2
PSPTO_2547	4
PSPTO_2548	1
PSPTO_2549	1
PSPTO_2550	1
PSPTO_2551	2
PSPTO_2552	1
PSPTO_2553	3
PSPTO_2554	9
PSPTO_2555	0
PSPTO_2556	1
PSPTO_2557	0
PSPTO_2558	0
PSPTO_2559	0
PSPTO_2560	1
PSPTO_2561	3
PSPTO_2562	3
PSPTO_2563	3
PSPTO_2564	0
PSPTO_2565	0
PSPTO_2566	1
PSPTO_2567	1
PSPTO_2568	3
PSPTO_2569	2
PSPTO_2570	2
PSPTO_2571	1
PSPTO_2572	1
PSPTO_2573	1
PSPTO_2574	1
PSPTO_2575	0
PSPTO_2576	0
PSPTO_2577	1
PSPTO_2578	1
PSPTO_2579	0
PSPTO_2580	2
PSPTO_2581	2
PSPTO_2582	1
PSPTO_2583	0
PSPTO_2584	1
PSPTO_2585	0
PSPTO_2586	1
PSPTO_2587	0
PSPTO_2588	0
PSPTO_2589	5
PSPTO_2590	1
PSPTO_2591	1
PSPTO_2592	5
PSPTO_2593	3
PSPTO_2594	1
PSPTO_2595	4
PSPTO_2596	0
PSPTO_2597	2
PSPTO_2598	2
PSPTO_2599	2
PSPTO_2600	14
PSPTO_2601	0
PSPTO_2602	9
PSPTO_2603	2
PSPTO_2604	0
PSPTO_2605	0
PSPTO_2606	4
PSPTO_2607	2
PSPTO_2608	5
PSPTO_2609	5
PSPTO_2610	4
PSPTO_2611	0
PSPTO_2612	1
PSPTO_2613	0
PSPTO_2614	2
PSPTO_2615	2
PSPTO_2616	15
PSPTO_2617	1
PSPTO_2618	3
PSPTO_2620	1
PSPTO_2621	4
PSPTO_2622	2
PSPTO_2623	5
PSPTO_2624	0
PSPTO_2625	3
PSPTO_2626	1
PSPTO_2627	2
PSPTO_2628	3
PSPTO_2629	0
PSPTO_2630	2
PSPTO_2631	0
PSPTO_2632	4
PSPTO_2633	0
PSPTO_2634	2
PSPTO_2635	0
PSPTO_2636	2
PSPTO_2637	1
PSPTO_2638	2
PSPTO_2639	0
PSPTO_2640	2
PSPTO_2641	0
PSPTO_2642	2
PSPTO_2643	1
PSPTO_2644	0
PSPTO_2645	0
PSPTO_2646	7
PSPTO_2647	5
PSPTO_2648	1
PSPTO_2649	17
PSPTO_2650	1
PSPTO_2651	1
PSPTO_2652	4
PSPTO_2653	11
PSPTO_2654	3
PSPTO_2655	3
PSPTO_2656	3
PSPTO_2657	5
PSPTO_2658	0
PSPTO_2659	5
PSPTO_2660	3
PSPTO_2661	3
PSPTO_2662	2
PSPTO_2663	5
PSPTO_2664	2
PSPTO_2665	0
PSPTO_2666	1
PSPTO_2667	2
PSPTO_2668	1
PSPTO_2669	0
PSPTO_2670	4
PSPTO_2671	6
PSPTO_2672	2
PSPTO_2673	3
PSPTO_2674	2
PSPTO_2675	0
PSPTO_2676	2
PSPTO_2677	2
PSPTO_2678	3
PSPTO_2679	0
PSPTO_2680	9
PSPTO_2681	4
PSPTO_2683	0
PSPTO_2684	42
PSPTO_2685	0
PSPTO_2686	0
PSPTO_2687	14
PSPTO_2688	0
PSPTO_2689	0
PSPTO_2690	0
PSPTO_2691	5
PSPTO_2692	5
PSPTO_2693	0
PSPTO_2694	3
PSPTO_2695	10
PSPTO_2696	3
PSPTO_2697	13
PSPTO_2698	0
PSPTO_2699	1
PSPTO_2700	15
PSPTO_2701	0
PSPTO_2702	2
PSPTO_2703	4
PSPTO_2704	1
PSPTO_2705	1
PSPTO_2706	0
PSPTO_2707	11
PSPTO_2708	4
PSPTO_2709	1
PSPTO_2710	7
PSPTO_2711	6
PSPTO_2712	5
PSPTO_2713	1
PSPTO_2714	3
PSPTO_2715	4
PSPTO_2716	7
PSPTO_2717	5
PSPTO_2718	7
PSPTO_2719	3
PSPTO_2720	4
PSPTO_2721	0
PSPTO_2722	3
PSPTO_2723	0
PSPTO_2724	1
PSPTO_2725	2
PSPTO_2726	0
PSPTO_2727	0
PSPTO_2728	2
PSPTO_2729	11
PSPTO_2730	22
PSPTO_2731	5
PSPTO_2732	37
PSPTO_2733	5
PSPTO_2734	3
PSPTO_2735	12
PSPTO_2736	6
PSPTO_2737	0
PSPTO_2738	1
PSPTO_2739	2
PSPTO_2740	3
PSPTO_2741	3
PSPTO_2742	3
PSPTO_2743	2
PSPTO_2744	3
PSPTO_2745	3
PSPTO_2746	2
PSPTO_2747	2
PSPTO_2748	2
PSPTO_2749	2
PSPTO_2750	4
PSPTO_2751	3
PSPTO_2752	8
PSPTO_2753	1
PSPTO_2754	6
PSPTO_2755	8
PSPTO_2756	0
PSPTO_2757	4
PSPTO_2758	2
PSPTO_2759	3
PSPTO_2760	8
PSPTO_2761	10
PSPTO_2762	10
PSPTO_2763	1
PSPTO_2764	3
PSPTO_2765	3
PSPTO_2766	10
PSPTO_2767	3
PSPTO_2768	0
PSPTO_2769	21
PSPTO_2770	1
PSPTO_2771	1
PSPTO_2772	4
PSPTO_2773	2
PSPTO_2774	3
PSPTO_2775	3
PSPTO_2776	2
PSPTO_2777	2
PSPTO_2778	1
PSPTO_2779	0
PSPTO_2780	2
PSPTO_2781	5
PSPTO_2782	1
PSPTO_2783	9
PSPTO_2784	7
PSPTO_2785	4
PSPTO_2786	0
PSPTO_2787	0
PSPTO_2788	0
PSPTO_2789	0
PSPTO_2790	6
PSPTO_2791	3
PSPTO_2792	1
PSPTO_2793	0
PSPTO_2794	0
PSPTO_2795	5
PSPTO_2796	3
PSPTO_2797	0
PSPTO_2798	1
PSPTO_2799	1
PSPTO_2800	1
PSPTO_2801	3
PSPTO_2802	0
PSPTO_2803	1
PSPTO_2804	1
PSPTO_2805	40
PSPTO_2806	3
PSPTO_2807	0
PSPTO_2808	1
PSPTO_2809	1
PSPTO_2810	1
PSPTO_2811	2
PSPTO_2812	2
PSPTO_2813	1
PSPTO_2814	2
PSPTO_2815	0
PSPTO_2816	0
PSPTO_2817	0
PSPTO_2818	4
PSPTO_2819	1
PSPTO_2820	0
PSPTO_2821	1
PSPTO_2822	1
PSPTO_2823	1
PSPTO_2824	7
PSPTO_2825	1
PSPTO_2826	0
PSPTO_2827	1
PSPTO_2828	2
PSPTO_2829	3
PSPTO_2830	9
PSPTO_2831	1
PSPTO_2832	3
PSPTO_2833	3
PSPTO_2834	0
PSPTO_2835	1
PSPTO_2836	5
PSPTO_2837	0
PSPTO_2838	0
PSPTO_2839	1
PSPTO_2840	3
PSPTO_2841	0
PSPTO_2842	0
PSPTO_2843	1
PSPTO_2844	4
PSPTO_2845	1
PSPTO_2846	1
PSPTO_2847	1
PSPTO_2848	2
PSPTO_2849	2
PSPTO_2850	2
PSPTO_2851	4
PSPTO_2852	0
PSPTO_2853	17
PSPTO_2855	0
PSPTO_2856	17
PSPTO_2857	3
PSPTO_2858	0
PSPTO_2859	6
PSPTO_2860	2
PSPTO_2861	0
PSPTO_2862	2
PSPTO_2863	4
PSPTO_2864	4
PSPTO_2865	0
PSPTO_2866	0
PSPTO_2867	2
PSPTO_2868	6
PSPTO_2869	0
PSPTO_2870	3
PSPTO_2871	6
PSPTO_2872	1
PSPTO_2873	2
PSPTO_2874	5
PSPTO_2875	0
PSPTO_2876	1
PSPTO_2877	0
PSPTO_2878	2
PSPTO_2879	0
PSPTO_2880	2
PSPTO_2881	0
PSPTO_2882	0
PSPTO_2883	0
PSPTO_2885	0
PSPTO_2886	1
PSPTO_2887	6
PSPTO_2888	1
PSPTO_2889	0
PSPTO_2890	0
PSPTO_2891	0
PSPTO_2892	0
PSPTO_2893	2
PSPTO_2894	5
PSPTO_2895	11
PSPTO_2896	6
PSPTO_2897	0
PSPTO_2898	1
PSPTO_2899	0
PSPTO_2900	2
PSPTO_2901	0
PSPTO_2902	2
PSPTO_2903	0
PSPTO_2904	2
PSPTO_2905	1
PSPTO_2906	1
PSPTO_2907	1
PSPTO_2908	1
PSPTO_2909	1
PSPTO_2910	2
PSPTO_2911	1
PSPTO_2912	2
PSPTO_2913	2
PSPTO_2914	2
PSPTO_2915	1
PSPTO_2916	3
PSPTO_2917	0
PSPTO_2918	0
PSPTO_2919	0
PSPTO_2920	1
PSPTO_2921	2
PSPTO_2922	0
PSPTO_2923	1
PSPTO_2924	0
PSPTO_2925	1
PSPTO_2926	0
PSPTO_2927	0
PSPTO_2928	1
PSPTO_2929	1
PSPTO_2930	1
PSPTO_2931	3
PSPTO_2932	4
PSPTO_2933	3
PSPTO_2934	1
PSPTO_2935	0
PSPTO_2936	2
PSPTO_2937	1
PSPTO_2938	0
PSPTO_2939	0
PSPTO_2940	2
PSPTO_2941	1
PSPTO_2942	0
PSPTO_2943	3
PSPTO_2944	2
PSPTO_2945	2
PSPTO_2946	3
PSPTO_2947	3
PSPTO_2948	1
PSPTO_2949	1
PSPTO_2950	3
PSPTO_2951	1
PSPTO_2952	4
PSPTO_2953	1
PSPTO_2954	0
PSPTO_2955	4
PSPTO_2956	3
PSPTO_2957	0
PSPTO_2958	0
PSPTO_2959	2
PSPTO_2960	0
PSPTO_2961	1
PSPTO_2962	1
PSPTO_2963	1
PSPTO_2964	1
PSPTO_2965	0
PSPTO_2966	0
PSPTO_2967	0
PSPTO_2968	2
PSPTO_2969	1
PSPTO_2970	0
PSPTO_2971	13
PSPTO_2972	5
PSPTO_2973	0
PSPTO_2974	0
PSPTO_2975	1
PSPTO_2976	1
PSPTO_2977	2
PSPTO_2978	3
PSPTO_2979	3
PSPTO_2980	4
PSPTO_2981	1
PSPTO_2982	2
PSPTO_2983	0
PSPTO_2984	3
PSPTO_2985	1
PSPTO_2986	0
PSPTO_2987	3
PSPTO_2988	0
PSPTO_2989	1
PSPTO_2990	1
PSPTO_2991	2
PSPTO_2992	1
PSPTO_2993	2
PSPTO_2994	1
PSPTO_2995	1
PSPTO_2996	1
PSPTO_2997	1
PSPTO_2998	4
PSPTO_2999	0
PSPTO_3000	0
PSPTO_3001	2
PSPTO_3002	3
PSPTO_3003	0
PSPTO_3004	0
PSPTO_3005	5
PSPTO_3006	0
PSPTO_3007	1
PSPTO_3008	2
PSPTO_3009	2
PSPTO_3010	1
PSPTO_3011	2
PSPTO_3012	1
PSPTO_3013	1
PSPTO_3014	0
PSPTO_3015	0
PSPTO_3016	1
PSPTO_3017	8
PSPTO_3018	0
PSPTO_3019	1
PSPTO_3020	0
PSPTO_3021	3
PSPTO_3022	7
PSPTO_3023	6
PSPTO_3024	6
PSPTO_3025	2
PSPTO_3026	1
PSPTO_3027	4
PSPTO_3028	5
PSPTO_3029	3
PSPTO_3030	2
PSPTO_3031	1
PSPTO_3032	2
PSPTO_3033	8
PSPTO_3034	1
PSPTO_3035	23
PSPTO_3036	2
PSPTO_3037	4
PSPTO_3038	0
PSPTO_3039	4
PSPTO_3040	3
PSPTO_3041	3
PSPTO_3042	1
PSPTO_3043	2
PSPTO_3044	0
PSPTO_3045	1
PSPTO_3046	2
PSPTO_3047	0
PSPTO_3048	1
PSPTO_3049	0
PSPTO_3050	3
PSPTO_3051	0
PSPTO_3052	1
PSPTO_3053	1
PSPTO_3054	3
PSPTO_3055	1
PSPTO_3056	2
PSPTO_3057	3
PSPTO_3058	5
PSPTO_3059	2
PSPTO_3060	0
PSPTO_3061	0
PSPTO_3062	4
PSPTO_3063	3
PSPTO_3064	1
PSPTO_3065	0
PSPTO_3066	3
PSPTO_3067	2
PSPTO_3068	2
PSPTO_3069	1
PSPTO_3070	0
PSPTO_3071	1
PSPTO_3072	0
PSPTO_3073	0
PSPTO_3074	1
PSPTO_3075	1
PSPTO_3076	3
PSPTO_3077	1
PSPTO_3078	1
PSPTO_3079	4
PSPTO_3080	1
PSPTO_3081	1
PSPTO_3082	1
PSPTO_3083	0
PSPTO_3084	0
PSPTO_3085	1
PSPTO_3086	0
PSPTO_3087	6
PSPTO_3088	4
PSPTO_3089	0
PSPTO_3090	2
PSPTO_3091	1
PSPTO_3092	0
PSPTO_3094	0
PSPTO_3095	2
PSPTO_3096	1
PSPTO_3097	0
PSPTO_3098	2
PSPTO_3099	0
PSPTO_3100	1
PSPTO_3101	0
PSPTO_3102	2
PSPTO_3103	42
PSPTO_3104	0
PSPTO_3105	6
PSPTO_3106	8
PSPTO_3107	9
PSPTO_3108	50
PSPTO_3109	2
PSPTO_3110	2
PSPTO_3111	5
PSPTO_3112	14
PSPTO_3113	28
PSPTO_3114	7
PSPTO_3115	4
PSPTO_3116	2
PSPTO_3117	1
PSPTO_3118	3
PSPTO_3119	12
PSPTO_3120	4
PSPTO_3121	30
PSPTO_3122	21
PSPTO_3123	15
PSPTO_3124	3
PSPTO_3125	29
PSPTO_3126	11
PSPTO_3127	14
PSPTO_3128	22
PSPTO_3129	27
PSPTO_3130	18
PSPTO_3131	3
PSPTO_3132	1
PSPTO_3133	0
PSPTO_3134	2
PSPTO_3135	2
PSPTO_3136	5
PSPTO_3137	1
PSPTO_3138	1
PSPTO_3139	0
PSPTO_3140	0
PSPTO_3141	3
PSPTO_3142	1
PSPTO_3143	1
PSPTO_3144	5
PSPTO_3145	9
PSPTO_3146	5
PSPTO_3147	1
PSPTO_3148	5
PSPTO_3149	8
PSPTO_3150	11
PSPTO_3151	11
PSPTO_3152	9
PSPTO_3153	7
PSPTO_3154	3
PSPTO_3155	106
PSPTO_3156	0
PSPTO_3157	3
PSPTO_3158	7
PSPTO_3159	1
PSPTO_3160	2
PSPTO_3161	1
PSPTO_3162	15
PSPTO_3163	1
PSPTO_3164	3
PSPTO_3165	1
PSPTO_3166	2
PSPTO_3167	2
PSPTO_3168	0
PSPTO_3169	1
PSPTO_3170	11
PSPTO_3171	3
PSPTO_3172	7
PSPTO_3173	2
PSPTO_3174	13
PSPTO_3175	1
PSPTO_3176	11
PSPTO_3177	3
PSPTO_3178	4
PSPTO_3179	19
PSPTO_3180	7
PSPTO_3181	1
PSPTO_3182	0
PSPTO_3183	0
PSPTO_3184	0
PSPTO_3185	2
PSPTO_3186	4
PSPTO_3187	1
PSPTO_3188	1
PSPTO_3189	0
PSPTO_3190	5
PSPTO_3191	0
PSPTO_3192	1
PSPTO_3193	14
PSPTO_3194	3
PSPTO_3195	8
PSPTO_3196	1
PSPTO_3197	2
PSPTO_3198	1
PSPTO_3199	1
PSPTO_3200	2
PSPTO_3201	1
PSPTO_3202	1
PSPTO_3203	0
PSPTO_3204	1
PSPTO_3205	0
PSPTO_3206	2
PSPTO_3207	0
PSPTO_3208	9
PSPTO_3210	4
PSPTO_3211	2
PSPTO_3212	0
PSPTO_3213	5
PSPTO_3214	1
PSPTO_3215	0
PSPTO_3216	9
PSPTO_3217	2
PSPTO_3218	6
PSPTO_3219	0
PSPTO_3220	7
PSPTO_3221	1
PSPTO_3222	1
PSPTO_3223	3
PSPTO_3224	2
PSPTO_3225	2
PSPTO_3226	2
PSPTO_3227	1
PSPTO_3228	1
PSPTO_3229	19
PSPTO_3230	1
PSPTO_3231	2
PSPTO_3232	0
PSPTO_3233	3
PSPTO_3234	2
PSPTO_3235	2
PSPTO_3236	0
PSPTO_3237	14
PSPTO_3238	0
PSPTO_3239	0
PSPTO_3240	1
PSPTO_3241	1
PSPTO_3242	0
PSPTO_3243	2
PSPTO_3244	1
PSPTO_3245	1
PSPTO_3246	1
PSPTO_3247	3
PSPTO_3248	0
PSPTO_3249	0
PSPTO_3250	0
PSPTO_3251	0
PSPTO_3252	1
PSPTO_3253	0
PSPTO_3254	2
PSPTO_3255	0
PSPTO_3256	2
PSPTO_3257	1
PSPTO_3258	0
PSPTO_3259	7
PSPTO_3260	1
PSPTO_3261	1
PSPTO_3262	5
PSPTO_3263	1
PSPTO_3264	2
PSPTO_3265	5
PSPTO_3266	1
PSPTO_3267	1
PSPTO_3268	2
PSPTO_3269	7
PSPTO_3270	12
PSPTO_3271	6
PSPTO_3272	7
PSPTO_3273	1
PSPTO_3274	6
PSPTO_3275	1
PSPTO_3276	0
PSPTO_3277	0
PSPTO_3278	7
PSPTO_3279	0
PSPTO_3280	2
PSPTO_3281	3
PSPTO_3282	2
PSPTO_3283	0
PSPTO_3284	0
PSPTO_3285	1
PSPTO_3286	0
PSPTO_3287	0
PSPTO_3288	0
PSPTO_3289	1
PSPTO_3290	1
PSPTO_3291	9
PSPTO_3292	1
PSPTO_3293	9
PSPTO_3294	3
PSPTO_3295	0
PSPTO_3296	7
PSPTO_3297	6
PSPTO_3298	5
PSPTO_3299	5
PSPTO_3300	0
PSPTO_3301	0
PSPTO_3302	2
PSPTO_3303	0
PSPTO_3304	3
PSPTO_3305	2
PSPTO_3306	2
PSPTO_3307	10
PSPTO_3308	0
PSPTO_3309	0
PSPTO_3310	1
PSPTO_3311	1
PSPTO_3312	2
PSPTO_3313	2
PSPTO_3314	5
PSPTO_3315	8
PSPTO_3316	9
PSPTO_3317	10
PSPTO_3318	7
PSPTO_3319	2
PSPTO_3320	2
PSPTO_3321	1
PSPTO_3322	1
PSPTO_3323	8
PSPTO_3324	0
PSPTO_3325	6
PSPTO_3326	5
PSPTO_3327	1
PSPTO_3328	8
PSPTO_3329	3
PSPTO_3330	5
PSPTO_3331	0
PSPTO_3332	3
PSPTO_3333	40
PSPTO_3334	2
PSPTO_3335	1
PSPTO_3336	1
PSPTO_3337	4
PSPTO_3338	1
PSPTO_3339	3
PSPTO_3340	0
PSPTO_3341	1
PSPTO_3342	3
PSPTO_3343	6
PSPTO_3344	16
PSPTO_3345	26
PSPTO_3346	1
PSPTO_3347	14
PSPTO_3348	8
PSPTO_3349	21
PSPTO_3350	0
PSPTO_3351	0
PSPTO_3352	4
PSPTO_3353	113
PSPTO_3354	6
PSPTO_3355	5
PSPTO_3356	291
PSPTO_3357	1
PSPTO_3358	10
PSPTO_3359	1
PSPTO_3360	33
PSPTO_3361	13
PSPTO_3362	4
PSPTO_3363	3
PSPTO_3364	1
PSPTO_3365	5
PSPTO_3366	97
PSPTO_3367	159
PSPTO_3368	32
PSPTO_3369	86
PSPTO_3370	229
PSPTO_3371	57
PSPTO_3372	37
PSPTO_3373	11
PSPTO_3374	10
PSPTO_3375	66
PSPTO_3376	55
PSPTO_3377	34
PSPTO_3378	6
PSPTO_3379	1
PSPTO_3380	1
PSPTO_3381	1
PSPTO_3382	2
PSPTO_3383	0
PSPTO_3384	1
PSPTO_3385	1
PSPTO_3386	7
PSPTO_3387	37
PSPTO_3388	1
PSPTO_3389	1
PSPTO_3390	3
PSPTO_3391	1
PSPTO_3392	3
PSPTO_3393	4
PSPTO_3394	2
PSPTO_3395	1
PSPTO_3396	0
PSPTO_3397	2
PSPTO_3398	3
PSPTO_3399	1
PSPTO_3400	2
PSPTO_3401	0
PSPTO_3402	1
PSPTO_3403	3
PSPTO_3404	0
PSPTO_3405	1
PSPTO_3406	0
PSPTO_3407	0
PSPTO_3408	0
PSPTO_3409	2
PSPTO_3410	0
PSPTO_3411	0
PSPTO_3412	1
PSPTO_3413	2
PSPTO_3414	0
PSPTO_3415	0
PSPTO_3416	0
PSPTO_3417	1
PSPTO_3418	2
PSPTO_3419	1
PSPTO_3420	2
PSPTO_3421	2
PSPTO_3422	0
PSPTO_3423	0
PSPTO_3424	0
PSPTO_3425	0
PSPTO_3426	0
PSPTO_3427	0
PSPTO_3428	1
PSPTO_3429	0
PSPTO_3430	0
PSPTO_3432	1
PSPTO_3433	2
PSPTO_3435	0
PSPTO_3436	4
PSPTO_3437	15
PSPTO_3438	3
PSPTO_3439	3
PSPTO_3440	1
PSPTO_3441	2
PSPTO_3442	0
PSPTO_3443	0
PSPTO_3444	0
PSPTO_3445	2
PSPTO_3446	1
PSPTO_3447	0
PSPTO_3448	0
PSPTO_3449	0
PSPTO_3450	0
PSPTO_3451	0
PSPTO_3452	0
PSPTO_3453	3
PSPTO_3454	0
PSPTO_3455	4
PSPTO_3456	9
PSPTO_3457	4
PSPTO_3458	0
PSPTO_3459	1
PSPTO_3460	6
PSPTO_3461	1
PSPTO_3462	1
PSPTO_3463	14
PSPTO_3464	4
PSPTO_3465	0
PSPTO_3466	2
PSPTO_3467	1
PSPTO_3468	7
PSPTO_3469	0
PSPTO_3470	0
PSPTO_3471	4
PSPTO_3472	0
PSPTO_3473	2
PSPTO_3474	2
PSPTO_3475	0
PSPTO_3476	1
PSPTO_3477	2
PSPTO_3478	1
PSPTO_3479	1
PSPTO_3480	5
PSPTO_3481	0
PSPTO_3482	3
PSPTO_3483	2
PSPTO_3484	3
PSPTO_3485	8
PSPTO_3486	1
PSPTO_3487	4
PSPTO_3488	1
PSPTO_3489	1
PSPTO_3490	1
PSPTO_3491	4
PSPTO_3492	5
PSPTO_3493	0
PSPTO_3494	1
PSPTO_3495	3
PSPTO_3496	4
PSPTO_3497	10
PSPTO_3498	2
PSPTO_3499	0
PSPTO_3500	2
PSPTO_3501	10
PSPTO_3502	3
PSPTO_3503	7
PSPTO_3504	2
PSPTO_3505	1
PSPTO_3506	3
PSPTO_3507	3
PSPTO_3508	9
PSPTO_3509	2
PSPTO_3510	2
PSPTO_3511	1
PSPTO_3512	8
PSPTO_3513	8
PSPTO_3514	20
PSPTO_3515	0
PSPTO_3516	4
PSPTO_3517	5
PSPTO_3518	1
PSPTO_3519	0
PSPTO_3520	14
PSPTO_3521	27
PSPTO_3522	7
PSPTO_3523	7
PSPTO_3524	10
PSPTO_3525	6
PSPTO_3526	7
PSPTO_3527	12
PSPTO_3528	0
PSPTO_3529	4
PSPTO_3530	8
PSPTO_3531	4
PSPTO_3532	5
PSPTO_3533	1
PSPTO_3534	1
PSPTO_3535	3
PSPTO_3536	2
PSPTO_3537	2
PSPTO_3538	1
PSPTO_3539	0
PSPTO_3540	2
PSPTO_3541	2
PSPTO_3542	5
PSPTO_3543	1
PSPTO_3544	1
PSPTO_3545	8
PSPTO_3546	1
PSPTO_3547	4
PSPTO_3548	9
PSPTO_3549	4
PSPTO_3550	14
PSPTO_3551	21
PSPTO_3552	2
PSPTO_3553	22
PSPTO_3554	16
PSPTO_3555	0
PSPTO_3556	0
PSPTO_3557	0
PSPTO_3558	0
PSPTO_3559	14
PSPTO_3560	3
PSPTO_3561	0
PSPTO_3562	0
PSPTO_3563	1
PSPTO_3564	1
PSPTO_3565	9
PSPTO_3566	6
PSPTO_3567	3
PSPTO_3568	1
PSPTO_3569	45
PSPTO_3570	8
PSPTO_3571	1
PSPTO_3572	3
PSPTO_3573	1
PSPTO_3574	1
PSPTO_3575	1
PSPTO_3576	4
PSPTO_3577	12
PSPTO_3578	0
PSPTO_3579	5
PSPTO_3580	1
PSPTO_3581	0
PSPTO_3582	6
PSPTO_3583	1
PSPTO_3584	3
PSPTO_3585	1
PSPTO_3586	0
PSPTO_3587	0
PSPTO_3588	0
PSPTO_3589	6
PSPTO_3590	1
PSPTO_3591	2
PSPTO_3592	3
PSPTO_3593	4
PSPTO_3594	1
PSPTO_3595	5
PSPTO_3596	1
PSPTO_3597	2
PSPTO_3598	1
PSPTO_3599	4
PSPTO_3600	2
PSPTO_3601	1
PSPTO_3602	4
PSPTO_3603	0
PSPTO_3604	0
PSPTO_3605	18
PSPTO_3606	0
PSPTO_3607	3
PSPTO_3608	1
PSPTO_3609	3
PSPTO_3610	2
PSPTO_3611	0
PSPTO_3612	2
PSPTO_3613	14
PSPTO_3614	0
PSPTO_3615	1
PSPTO_3616	6
PSPTO_3617	0
PSPTO_3618	2
PSPTO_3619	0
PSPTO_3620	1
PSPTO_3621	0
PSPTO_3624	2
PSPTO_3625	2
PSPTO_3626	5
PSPTO_3627	1
PSPTO_3628	0
PSPTO_3629	0
PSPTO_3630	5
PSPTO_3631	1
PSPTO_3632	0
PSPTO_3633	0
PSPTO_3634	1
PSPTO_3635	0
PSPTO_3636	0
PSPTO_3637	0
PSPTO_3638	2
PSPTO_3639	0
PSPTO_3640	1
PSPTO_3641	0
PSPTO_3642	1
PSPTO_3643	0
PSPTO_3644	4
PSPTO_3645	35
PSPTO_3646	12
PSPTO_3647	0
PSPTO_3648	0
PSPTO_3649	4
PSPTO_3650	6
PSPTO_3651	9
PSPTO_3652	0
PSPTO_3653	0
PSPTO_3654	3
PSPTO_3655	6
PSPTO_3656	9
PSPTO_3657	4
PSPTO_3658	11
PSPTO_3659	2
PSPTO_3660	20
PSPTO_3661	31
PSPTO_3662	6
PSPTO_3663	17
PSPTO_3664	5
PSPTO_3665	3
PSPTO_3666	4
PSPTO_3667	2
PSPTO_3668	4
PSPTO_3669	1
PSPTO_3670	5
PSPTO_3671	0
PSPTO_3672	1
PSPTO_3673	1
PSPTO_3674	2
PSPTO_3675	2
PSPTO_3676	2
PSPTO_3677	2
PSPTO_3678	2
PSPTO_3679	1
PSPTO_3680	2
PSPTO_3681	0
PSPTO_3682	2
PSPTO_3683	0
PSPTO_3684	0
PSPTO_3685	1
PSPTO_3686	1
PSPTO_3687	7
PSPTO_3688	2
PSPTO_3689	7
PSPTO_3690	3
PSPTO_3691	11
PSPTO_3692	3
PSPTO_3693	1
PSPTO_3694	6
PSPTO_3695	0
PSPTO_3696	6
PSPTO_3697	0
PSPTO_3698	0
PSPTO_3699	6
PSPTO_3700	22
PSPTO_3701	2
PSPTO_3702	0
PSPTO_3703	5
PSPTO_3704	1
PSPTO_3705	10
PSPTO_3706	6
PSPTO_3707	12
PSPTO_3708	11
PSPTO_3709	8
PSPTO_3710	0
PSPTO_3711	5
PSPTO_3712	1
PSPTO_3713	8
PSPTO_3714	6
PSPTO_3715	14
PSPTO_3716	2
PSPTO_3717	6
PSPTO_3718	2
PSPTO_3719	5
PSPTO_3720	8
PSPTO_3721	19
PSPTO_3722	37
PSPTO_3723	30
PSPTO_3724	98
PSPTO_3725	68
PSPTO_3726	17
PSPTO_3727	46
PSPTO_3728	0
PSPTO_3729	7
PSPTO_3730	4
PSPTO_3731	7
PSPTO_3732	3
PSPTO_3733	12
PSPTO_3734	5
PSPTO_3735	6
PSPTO_3736	0
PSPTO_3737	3
PSPTO_3738	1
PSPTO_3739	3
PSPTO_3740	2
PSPTO_3741	3
PSPTO_3742	26
PSPTO_3743	29
PSPTO_3744	27
PSPTO_3745	5
PSPTO_3746	3
PSPTO_3747	4
PSPTO_3748	0
PSPTO_3749	0
PSPTO_3750	4
PSPTO_3751	2
PSPTO_3752	289
PSPTO_3753	8
PSPTO_3754	4
PSPTO_3755	1
PSPTO_3756	1
PSPTO_3757	60
PSPTO_3758	2
PSPTO_3759	1
PSPTO_3760	2
PSPTO_3761	0
PSPTO_3762	0
PSPTO_3763	2
PSPTO_3764	1
PSPTO_3765	2
PSPTO_3766	6
PSPTO_3767	1
PSPTO_3768	19
PSPTO_3769	1
PSPTO_3770	0
PSPTO_3771	1
PSPTO_3772	1
PSPTO_3773	2
PSPTO_3774	1
PSPTO_3775	2
PSPTO_3776	1
PSPTO_3777	4
PSPTO_3778	1
PSPTO_3779	0
PSPTO_3780	10
PSPTO_3781	7
PSPTO_3782	0
PSPTO_3783	4
PSPTO_3784	5
PSPTO_3785	4
PSPTO_3786	3
PSPTO_3787	11
PSPTO_3788	43
PSPTO_3789	6
PSPTO_3790	3
PSPTO_3791	0
PSPTO_3792	9
PSPTO_3793	4
PSPTO_3794	0
PSPTO_3795	4
PSPTO_3796	9
PSPTO_3797	2
PSPTO_3798	2
PSPTO_3799	3
PSPTO_3800	7
PSPTO_3801	3
PSPTO_3802	5
PSPTO_3803	4
PSPTO_3804	2
PSPTO_3805	1
PSPTO_3806	3
PSPTO_3807	2
PSPTO_3808	3
PSPTO_3809	4
PSPTO_3810	24
PSPTO_3811	32
PSPTO_3812	4
PSPTO_3813	13
PSPTO_3814	6
PSPTO_3815	12
PSPTO_3816	3
PSPTO_3817	3
PSPTO_3818	34
PSPTO_3819	1
PSPTO_3820	4
PSPTO_3821	2
PSPTO_3822	9
PSPTO_3823	2
PSPTO_3824	5
PSPTO_3825	3
PSPTO_3826	2
PSPTO_3827	1
PSPTO_3828	4
PSPTO_3829	3
PSPTO_3830	23
PSPTO_3831	50
PSPTO_3832	13
PSPTO_3833	10
PSPTO_3834	4
PSPTO_3835	17
PSPTO_3836	26
PSPTO_3837	0
PSPTO_3838	0
PSPTO_3839	4
PSPTO_3840	1
PSPTO_3841	99
PSPTO_3842	2
PSPTO_3843	6
PSPTO_3844	1
PSPTO_3845	1
PSPTO_3846	4
PSPTO_3847	4
PSPTO_3848	6
PSPTO_3849	0
PSPTO_3850	2
PSPTO_3851	10
PSPTO_3852	2
PSPTO_3853	0
PSPTO_3854	0
PSPTO_3855	5
PSPTO_3856	1
PSPTO_3857	25
PSPTO_3858	0
PSPTO_3859	2
PSPTO_3860	3
PSPTO_3861	1
PSPTO_3862	8
PSPTO_3863	2
PSPTO_3864	6
PSPTO_3865	0
PSPTO_3866	0
PSPTO_3867	2
PSPTO_3868	0
PSPTO_3869	0
PSPTO_3870	5
PSPTO_3871	0
PSPTO_3872	8
PSPTO_3873	19
PSPTO_3874	9
PSPTO_3875	3
PSPTO_3876	18
PSPTO_3877	0
PSPTO_3878	4
PSPTO_3879	1
PSPTO_3880	1
PSPTO_3881	1
PSPTO_3882	1
PSPTO_3883	3
PSPTO_3884	7
PSPTO_3885	26
PSPTO_3886	5
PSPTO_3887	2
PSPTO_3888	2
PSPTO_3889	5
PSPTO_3890	46
PSPTO_3891	6
PSPTO_3892	0
PSPTO_3893	2
PSPTO_3894	3
PSPTO_3895	1
PSPTO_3896	0
PSPTO_3897	11
PSPTO_3898	0
PSPTO_3899	6
PSPTO_3900	7
PSPTO_3901	7
PSPTO_3902	3
PSPTO_3903	6
PSPTO_3904	1
PSPTO_3905	3
PSPTO_3906	5
PSPTO_3907	2
PSPTO_3908	4
PSPTO_3909	7
PSPTO_3910	7
PSPTO_3911	7
PSPTO_3912	6
PSPTO_3913	6
PSPTO_3914	16
PSPTO_3915	1
PSPTO_3916	3
PSPTO_3917	3
PSPTO_3918	3
PSPTO_3919	6
PSPTO_3920	5
PSPTO_3921	0
PSPTO_3922	9
PSPTO_3923	3
PSPTO_3924	13
PSPTO_3925	6
PSPTO_3926	0
PSPTO_3927	7
PSPTO_3929	3
PSPTO_3930	5
PSPTO_3931	0
PSPTO_3932	2
PSPTO_3933	1
PSPTO_3934	0
PSPTO_3935	1
PSPTO_3936	3
PSPTO_3937	0
PSPTO_3938	0
PSPTO_3939	0
PSPTO_3940	0
PSPTO_3941	2
PSPTO_3942	1
PSPTO_3943	0
PSPTO_3944	0
PSPTO_3945	0
PSPTO_3946	1
PSPTO_3947	1
PSPTO_3948	0
PSPTO_3949	4
PSPTO_3950	15
PSPTO_3951	7
PSPTO_3952	21
PSPTO_3953	27
PSPTO_3954	6
PSPTO_3955	8
PSPTO_3956	2
PSPTO_3957	1
PSPTO_3958	10
PSPTO_3959	13
PSPTO_3960	0
PSPTO_3961	2
PSPTO_3962	1
PSPTO_3963	12
PSPTO_3965	2
PSPTO_3966	1
PSPTO_3968	9
PSPTO_3969	3
PSPTO_3970	42
PSPTO_3971	170
PSPTO_3972	78
PSPTO_3973	18
PSPTO_3974	8
PSPTO_3975	11
PSPTO_3976	4
PSPTO_3977	2
PSPTO_3978	7
PSPTO_3979	1
PSPTO_3980	5
PSPTO_3981	65
PSPTO_3982	0
PSPTO_3983	10
PSPTO_3984	5
PSPTO_3985	3
PSPTO_3986	3
PSPTO_3987	41
PSPTO_3988	22
PSPTO_3989	6
PSPTO_3990	5
PSPTO_3991	9
PSPTO_3992	5
PSPTO_3993	6
PSPTO_3994	0
PSPTO_3995	14
PSPTO_3996	10
PSPTO_3997	0
PSPTO_3998	0
PSPTO_3999	6
PSPTO_4001	2
PSPTO_4002	1
PSPTO_4003	0
PSPTO_4004	2
PSPTO_4005	2
PSPTO_4006	0
PSPTO_4007	1
PSPTO_4008	1
PSPTO_4009	1
PSPTO_4010	7
PSPTO_4011	1
PSPTO_4012	1
PSPTO_4013	2
PSPTO_4014	4
PSPTO_4015	1
PSPTO_4016	0
PSPTO_4017	2
PSPTO_4018	5
PSPTO_4019	12
PSPTO_4020	0
PSPTO_4021	2
PSPTO_4022	3
PSPTO_4023	1
PSPTO_4024	22
PSPTO_4025	1
PSPTO_4026	0
PSPTO_4027	5
PSPTO_4028	0
PSPTO_4029	3
PSPTO_4030	6
PSPTO_4031	14
PSPTO_4032	3
PSPTO_4033	17
PSPTO_4034	2
PSPTO_4035	1
PSPTO_4036	1
PSPTO_4037	1
PSPTO_4038	1
PSPTO_4039	1
PSPTO_4040	4
PSPTO_4041	6
PSPTO_4042	0
PSPTO_4043	0
PSPTO_4044	1
PSPTO_4045	0
PSPTO_4046	4
PSPTO_4047	2
PSPTO_4048	0
PSPTO_4049	0
PSPTO_4050	0
PSPTO_4051	1
PSPTO_4052	2
PSPTO_4053	0
PSPTO_4054	3
PSPTO_4055	0
PSPTO_4056	0
PSPTO_4057	2
PSPTO_4058	15
PSPTO_4059	9
PSPTO_4060	1
PSPTO_4061	0
PSPTO_4062	0
PSPTO_4063	4
PSPTO_4064	1
PSPTO_4065	0
PSPTO_4066	1
PSPTO_4067	1
PSPTO_4068	4
PSPTO_4069	0
PSPTO_4070	1
PSPTO_4071	1
PSPTO_4072	0
PSPTO_4073	3
PSPTO_4074	1
PSPTO_4075	3
PSPTO_4076	3
PSPTO_4077	1
PSPTO_4078	2
PSPTO_4079	3
PSPTO_4080	0
PSPTO_4081	8
PSPTO_4082	0
PSPTO_4083	0
PSPTO_4084	6
PSPTO_4087	0
PSPTO_4088	4
PSPTO_4089	2
PSPTO_4090	3
PSPTO_4091	6
PSPTO_4092	5
PSPTO_4093	8
PSPTO_4094	12
PSPTO_4095	19
PSPTO_4096	0
PSPTO_4097	5
PSPTO_4098	7
PSPTO_4099	0
PSPTO_4100	4
PSPTO_4101	2
PSPTO_4102	0
PSPTO_4103	10
PSPTO_4104	27
PSPTO_4105	3
PSPTO_4106	2
PSPTO_4107	3
PSPTO_4108	13
PSPTO_4109	0
PSPTO_4110	1
PSPTO_4111	2
PSPTO_4112	2
PSPTO_4113	3
PSPTO_4114	14
PSPTO_4115	10
PSPTO_4116	1
PSPTO_4117	9
PSPTO_4118	0
PSPTO_4119	5
PSPTO_4120	4
PSPTO_4121	0
PSPTO_4122	2
PSPTO_4123	2
PSPTO_4124	3
PSPTO_4125	0
PSPTO_4126	5
PSPTO_4127	0
PSPTO_4128	3
PSPTO_4129	5
PSPTO_4130	1
PSPTO_4131	0
PSPTO_4132	1
PSPTO_4133	17
PSPTO_4134	1
PSPTO_4135	2
PSPTO_4136	3
PSPTO_4137	0
PSPTO_4138	2
PSPTO_4139	0
PSPTO_4140	0
PSPTO_4141	6
PSPTO_4142	1
PSPTO_4143	7
PSPTO_4144	10
PSPTO_4145	206
PSPTO_4146	3
PSPTO_4147	29
PSPTO_4148	6
PSPTO_4149	3
PSPTO_4150	0
PSPTO_4151	2
PSPTO_4152	6
PSPTO_4153	1
PSPTO_4154	1
PSPTO_4155	25
PSPTO_4156	4
PSPTO_4157	14
PSPTO_4158	4
PSPTO_4159	1
PSPTO_4160	84
PSPTO_4161	10
PSPTO_4162	2
PSPTO_4163	1
PSPTO_4164	9
PSPTO_4165	5
PSPTO_4166	0
PSPTO_4167	11
PSPTO_4168	29
PSPTO_4169	2
PSPTO_4170	234
PSPTO_4171	0
PSPTO_4172	1
PSPTO_4173	2
PSPTO_4174	1
PSPTO_4175	2
PSPTO_4176	2
PSPTO_4177	1
PSPTO_4178	3
PSPTO_4179	5
PSPTO_4180	2
PSPTO_4181	3
PSPTO_4182	5
PSPTO_4183	0
PSPTO_4184	0
PSPTO_4185	3
PSPTO_4186	1
PSPTO_4187	1
PSPTO_4188	1
PSPTO_4189	1
PSPTO_4190	4
PSPTO_4191	5
PSPTO_4192	0
PSPTO_4193	1
PSPTO_4194	1
PSPTO_4195	1
PSPTO_4196	20
PSPTO_4197	1
PSPTO_4198	0
PSPTO_4199	0
PSPTO_4200	2
PSPTO_4201	4
PSPTO_4202	2
PSPTO_4203	2
PSPTO_4204	0
PSPTO_4205	1
PSPTO_4206	2
PSPTO_4207	3
PSPTO_4208	7
PSPTO_4209	4
PSPTO_4210	36
PSPTO_4211	3
PSPTO_4212	4
PSPTO_4213	2
PSPTO_4214	2
PSPTO_4215	2
PSPTO_4216	10
PSPTO_4217	1
PSPTO_4218	2
PSPTO_4219	12
PSPTO_4220	32
PSPTO_4221	59
PSPTO_4222	90
PSPTO_4223	323
PSPTO_4224	108
PSPTO_4225	5
PSPTO_4226	1
PSPTO_4227	1
PSPTO_4228	11
PSPTO_4229	6
PSPTO_4230	4
PSPTO_4231	0
PSPTO_4232	2
PSPTO_4233	1
PSPTO_4234	3
PSPTO_4235	4
PSPTO_4236	10
PSPTO_4237	23
PSPTO_4238	0
PSPTO_4239	1
PSPTO_4240	1
PSPTO_4241	0
PSPTO_4242	1
PSPTO_4243	2
PSPTO_4244	3
PSPTO_4245	1
PSPTO_4246	0
PSPTO_4247	1
PSPTO_4248	4
PSPTO_4249	2
PSPTO_4250	6
PSPTO_4251	7
PSPTO_4252	3
PSPTO_4253	2
PSPTO_4254	9
PSPTO_4255	0
PSPTO_4256	1
PSPTO_4257	3
PSPTO_4258	0
PSPTO_4259	2
PSPTO_4260	0
PSPTO_4261	1
PSPTO_4262	0
PSPTO_4263	1
PSPTO_4264	0
PSPTO_4265	1
PSPTO_4266	0
PSPTO_4267	0
PSPTO_4268	1
PSPTO_4269	3
PSPTO_4270	1
PSPTO_4271	2
PSPTO_4272	3
PSPTO_4273	1
PSPTO_4274	2
PSPTO_4275	1
PSPTO_4276	1
PSPTO_4277	0
PSPTO_4278	0
PSPTO_4279	1
PSPTO_4280	1
PSPTO_4281	0
PSPTO_4282	0
PSPTO_4283	6
PSPTO_4284	32
PSPTO_4285	105
PSPTO_4286	7
PSPTO_4287	2
PSPTO_4288	3
PSPTO_4289	2
PSPTO_4290	22
PSPTO_4291	5
PSPTO_4292	3
PSPTO_4293	6
PSPTO_4294	5
PSPTO_4295	3
PSPTO_4296	0
PSPTO_4297	4
PSPTO_4298	0
PSPTO_4299	1
PSPTO_4300	3
PSPTO_4301	2
PSPTO_4302	2
PSPTO_4303	7
PSPTO_4304	18
PSPTO_4305	23
PSPTO_4306	4
PSPTO_4307	6
PSPTO_4308	1
PSPTO_4309	0
PSPTO_4310	4
PSPTO_4312	14
PSPTO_4313	1
PSPTO_4314	10
PSPTO_4315	33
PSPTO_4316	3
PSPTO_4317	3
PSPTO_4318	2
PSPTO_4319	5
PSPTO_4320	0
PSPTO_4321	10
PSPTO_4322	15
PSPTO_4323	6
PSPTO_4324	1
PSPTO_4325	8
PSPTO_4326	2
PSPTO_4327	3
PSPTO_4328	1
PSPTO_4329	3
PSPTO_4330	0
PSPTO_4331	0
PSPTO_4332	2
PSPTO_4333	3
PSPTO_4334	3
PSPTO_4335	6
PSPTO_4336	1
PSPTO_4337	63
PSPTO_4338	8
PSPTO_4339	38
PSPTO_4340	15
PSPTO_4341	2
PSPTO_4342	6
PSPTO_4343	6
PSPTO_4344	8
PSPTO_4345	0
PSPTO_4346	0
PSPTO_4347	9
PSPTO_4348	4
PSPTO_4349	4
PSPTO_4350	6
PSPTO_4351	4
PSPTO_4352	2
PSPTO_4353	2
PSPTO_4354	1
PSPTO_4355	1
PSPTO_4356	0
PSPTO_4357	1
PSPTO_4358	3
PSPTO_4359	10
PSPTO_4360	9
PSPTO_4361	1
PSPTO_4362	2
PSPTO_4363	105
PSPTO_4364	1
PSPTO_4365	6
PSPTO_4366	6
PSPTO_4367	1
PSPTO_4368	4
PSPTO_4369	8
PSPTO_4370	3
PSPTO_4371	1
PSPTO_4372	1
PSPTO_4373	7
PSPTO_4374	5
PSPTO_4375	1
PSPTO_4376	372
PSPTO_4377	25
PSPTO_4378	1
PSPTO_4379	3
PSPTO_4380	2
PSPTO_4381	22
PSPTO_4382	1
PSPTO_4383	2
PSPTO_4384	0
PSPTO_4385	7
PSPTO_4386	8
PSPTO_4387	2
PSPTO_4388	0
PSPTO_4389	6
PSPTO_4390	0
PSPTO_4392	26
PSPTO_4393	16
PSPTO_4394	4
PSPTO_4395	1
PSPTO_4396	3
PSPTO_4397	8
PSPTO_4398	4
PSPTO_4399	13
PSPTO_4400	94
PSPTO_4401	3
PSPTO_4402	59
PSPTO_4403	83
PSPTO_4404	20
PSPTO_4405	7
PSPTO_4406	8
PSPTO_4407	23
PSPTO_4408	8
PSPTO_4409	8
PSPTO_4410	12
PSPTO_4411	5
PSPTO_4412	24
PSPTO_4413	23
PSPTO_4414	10
PSPTO_4415	1
PSPTO_4416	16
PSPTO_4417	7
PSPTO_4418	2
PSPTO_4419	16
PSPTO_4420	3
PSPTO_4421	2
PSPTO_4422	21
PSPTO_4423	8
PSPTO_4424	4
PSPTO_4425	86
PSPTO_4426	103
PSPTO_4427	2
PSPTO_4428	8
PSPTO_4429	7
PSPTO_4430	1
PSPTO_4431	8
PSPTO_4432	22
PSPTO_4433	7
PSPTO_4434	4
PSPTO_4435	5
PSPTO_4436	1
PSPTO_4437	17
PSPTO_4438	28
PSPTO_4439	15
PSPTO_4440	0
PSPTO_4441	27
PSPTO_4442	3
PSPTO_4443	7
PSPTO_4444	15
PSPTO_4445	7
PSPTO_4446	2
PSPTO_4447	6
PSPTO_4448	8
PSPTO_4449	3
PSPTO_4450	2
PSPTO_4451	15
PSPTO_4452	13
PSPTO_4453	11
PSPTO_4454	14
PSPTO_4455	8
PSPTO_4456	7
PSPTO_4457	0
PSPTO_4458	1
PSPTO_4459	2
PSPTO_4460	1
PSPTO_4461	2
PSPTO_4462	0
PSPTO_4463	13
PSPTO_4464	0
PSPTO_4465	11
PSPTO_4466	7
PSPTO_4467	6
PSPTO_4468	8
PSPTO_4469	4
PSPTO_4470	1
PSPTO_4471	8
PSPTO_4472	29
PSPTO_4473	8
PSPTO_4474	31
PSPTO_4475	28
PSPTO_4476	2
PSPTO_4477	5
PSPTO_4478	3
PSPTO_4479	4
PSPTO_4480	3
PSPTO_4481	1
PSPTO_4482	8
PSPTO_4483	1
PSPTO_4484	3
PSPTO_4485	3
PSPTO_4486	67
PSPTO_4487	103
PSPTO_4488	10
PSPTO_4489	3
PSPTO_4490	112
PSPTO_4491	40
PSPTO_4492	5
PSPTO_4493	10
PSPTO_4494	12
PSPTO_4495	23
PSPTO_4496	9
PSPTO_4497	98
PSPTO_4498	10
PSPTO_4499	2
PSPTO_4500	11
PSPTO_4501	75
PSPTO_4502	38
PSPTO_4503	9
PSPTO_4504	33
PSPTO_4505	625
PSPTO_4506	32
PSPTO_4507	10
PSPTO_4508	6
PSPTO_4509	19
PSPTO_4510	3
PSPTO_4511	3
PSPTO_4512	4
PSPTO_4513	1
PSPTO_4514	0
PSPTO_4515	2
PSPTO_4516	15
PSPTO_4517	0
PSPTO_4518	4
PSPTO_4519	11
PSPTO_4520	5
PSPTO_4521	1
PSPTO_4522	2
PSPTO_4523	0
PSPTO_4524	2
PSPTO_4525	0
PSPTO_4526	2
PSPTO_4527	0
PSPTO_4528	3
PSPTO_4529	13
PSPTO_4530	55
PSPTO_4531	6
PSPTO_4532	2
PSPTO_4533	0
PSPTO_4534	3
PSPTO_4535	2
PSPTO_4536	0
PSPTO_4537	0
PSPTO_4538	6
PSPTO_4539	2
PSPTO_4540	0
PSPTO_4541	2
PSPTO_4542	4
PSPTO_4543	8
PSPTO_4544	5
PSPTO_4545	2
PSPTO_4546	1
PSPTO_4547	1
PSPTO_4548	1
PSPTO_4549	1
PSPTO_4550	5
PSPTO_4551	2
PSPTO_4552	0
PSPTO_4553	5
PSPTO_4554	8
PSPTO_4555	6
PSPTO_4556	0
PSPTO_4557	9
PSPTO_4558	24
PSPTO_4559	3
PSPTO_4560	26
PSPTO_4561	11
PSPTO_4562	4
PSPTO_4563	4
PSPTO_4564	8
PSPTO_4565	1
PSPTO_4566	2
PSPTO_4567	11
PSPTO_4568	1
PSPTO_4569	9
PSPTO_4570	1
PSPTO_4571	1
PSPTO_4572	23
PSPTO_4573	4
PSPTO_4574	2
PSPTO_4575	7
PSPTO_4576	2
PSPTO_4577	2
PSPTO_4578	1
PSPTO_4579	22
PSPTO_4580	1
PSPTO_4581	16
PSPTO_4582	8
PSPTO_4583	1
PSPTO_4584	2
PSPTO_4585	16
PSPTO_4586	152
PSPTO_4587	7
PSPTO_4588	2
PSPTO_4589	2
PSPTO_4590	0
PSPTO_4591	1
PSPTO_4592	0
PSPTO_4593	6
PSPTO_4594	0
PSPTO_4595	2
PSPTO_4596	5
PSPTO_4597	0
PSPTO_4599	1
PSPTO_4600	1
PSPTO_4601	2
PSPTO_4602	21
PSPTO_4603	5
PSPTO_4604	8
PSPTO_4605	7
PSPTO_4606	2
PSPTO_4607	12
PSPTO_4608	6
PSPTO_4609	1
PSPTO_4610	9
PSPTO_4611	19
PSPTO_4612	6
PSPTO_4613	10
PSPTO_4614	0
PSPTO_4615	2
PSPTO_4616	4
PSPTO_4617	0
PSPTO_4618	2
PSPTO_4619	3
PSPTO_4620	0
PSPTO_4621	3
PSPTO_4622	2
PSPTO_4623	1
PSPTO_4624	8
PSPTO_4625	3
PSPTO_4626	0
PSPTO_4627	9
PSPTO_4628	1
PSPTO_4629	1
PSPTO_4630	0
PSPTO_4631	16
PSPTO_4632	39
PSPTO_4633	7
PSPTO_4634	4
PSPTO_4635	1
PSPTO_4636	0
PSPTO_4637	1
PSPTO_4638	8
PSPTO_4639	2
PSPTO_4640	12
PSPTO_4641	2
PSPTO_4642	7
PSPTO_4643	5
PSPTO_4644	0
PSPTO_4645	7
PSPTO_4646	4
PSPTO_4647	7
PSPTO_4648	12
PSPTO_4649	1
PSPTO_4650	2
PSPTO_4651	1
PSPTO_4652	0
PSPTO_4653	1
PSPTO_4654	3
PSPTO_4656	2
PSPTO_4657	3
PSPTO_4658	1
PSPTO_4659	1
PSPTO_4660	2
PSPTO_4661	3
PSPTO_4662	1
PSPTO_4663	2
PSPTO_4664	3
PSPTO_4665	4
PSPTO_4666	4
PSPTO_4667	9
PSPTO_4668	0
PSPTO_4669	2
PSPTO_4670	5
PSPTO_4671	1
PSPTO_4672	0
PSPTO_4673	2
PSPTO_4674	2
PSPTO_4675	3
PSPTO_4676	2
PSPTO_4677	3
PSPTO_4678	0
PSPTO_4679	3
PSPTO_4680	2
PSPTO_4681	0
PSPTO_4682	0
PSPTO_4683	0
PSPTO_4684	1
PSPTO_4685	2
PSPTO_4686	9
PSPTO_4687	8
PSPTO_4688	0
PSPTO_4689	6
PSPTO_4690	0
PSPTO_4691	6
PSPTO_4692	0
PSPTO_4693	11
PSPTO_4694	0
PSPTO_4695	1
PSPTO_4696	5
PSPTO_4697	1
PSPTO_4699	41
PSPTO_4702	3
PSPTO_4703	1
PSPTO_4704	0
PSPTO_4705	3
PSPTO_4706	0
PSPTO_4707	0
PSPTO_4708	1
PSPTO_4709	2
PSPTO_4710	3
PSPTO_4711	0
PSPTO_4712	1
PSPTO_4713	1
PSPTO_4714	1
PSPTO_4716	2
PSPTO_4717	3
PSPTO_4718	2
PSPTO_4719	1
PSPTO_4720	4
PSPTO_4721	0
PSPTO_4722	2
PSPTO_4723	0
PSPTO_4724	1
PSPTO_4725	2
PSPTO_4726	1
PSPTO_4727	1
PSPTO_4729	2
PSPTO_4730	3
PSPTO_4732	2
PSPTO_4733	4
PSPTO_4734	0
PSPTO_4735	106
PSPTO_4737	1
PSPTO_4738	0
PSPTO_4741	1
PSPTO_4742	11
PSPTO_4743	5
PSPTO_4744	4
PSPTO_4745	3
PSPTO_4746	2
PSPTO_4747	0
PSPTO_4748	2
PSPTO_4749	4
PSPTO_4750	1
PSPTO_4751	9
PSPTO_4752	15
PSPTO_4753	4
PSPTO_4754	2
PSPTO_4755	4
PSPTO_4756	1
PSPTO_4757	0
PSPTO_4758	0
PSPTO_4759	0
PSPTO_4760	4
PSPTO_4761	11
PSPTO_4762	15
PSPTO_4763	7
PSPTO_4764	7
PSPTO_4765	0
PSPTO_4766	7
PSPTO_4767	2
PSPTO_4768	1
PSPTO_4769	1
PSPTO_4770	6
PSPTO_4771	2
PSPTO_4772	9
PSPTO_4773	0
PSPTO_4774	1
PSPTO_4775	5
PSPTO_4776	0
PSPTO_4777	1
PSPTO_4778	0
PSPTO_4779	1
PSPTO_4780	2
PSPTO_4781	4
PSPTO_4782	3
PSPTO_4784	5
PSPTO_4785	0
PSPTO_4786	1
PSPTO_4787	3
PSPTO_4788	7
PSPTO_4789	2
PSPTO_4790	3
PSPTO_4791	8
PSPTO_4792	3
PSPTO_4793	0
PSPTO_4794	1
PSPTO_4795	7
PSPTO_4796	7
PSPTO_4797	0
PSPTO_4798	1
PSPTO_4799	4
PSPTO_4800	16
PSPTO_4801	0
PSPTO_4802	4
PSPTO_4803	0
PSPTO_4804	28
PSPTO_4805	30
PSPTO_4806	11
PSPTO_4807	19
PSPTO_4808	5
PSPTO_4809	1
PSPTO_4810	0
PSPTO_4811	0
PSPTO_4812	18
PSPTO_4813	4
PSPTO_4814	5
PSPTO_4815	0
PSPTO_4816	0
PSPTO_4817	7
PSPTO_4818	23
PSPTO_4819	6
PSPTO_4820	1
PSPTO_4821	16
PSPTO_4822	10
PSPTO_4823	3
PSPTO_4824	1
PSPTO_4825	4
PSPTO_4826	8
PSPTO_4827	5
PSPTO_4828	4
PSPTO_4829	6
PSPTO_4830	0
PSPTO_4831	3
PSPTO_4832	1
PSPTO_4833	3
PSPTO_4834	1
PSPTO_4835	0
PSPTO_4836	8
PSPTO_4837	3
PSPTO_4838	1
PSPTO_4839	17
PSPTO_4840	4
PSPTO_4841	2
PSPTO_4842	8
PSPTO_4843	7
PSPTO_4844	3
PSPTO_4845	5
PSPTO_4846	2
PSPTO_4847	0
PSPTO_4848	6
PSPTO_4849	1
PSPTO_4850	0
PSPTO_4851	1
PSPTO_4852	1
PSPTO_4853	6
PSPTO_4854	1
PSPTO_4855	2
PSPTO_4856	3
PSPTO_4857	0
PSPTO_4858	4
PSPTO_4859	4
PSPTO_4860	10
PSPTO_4861	32
PSPTO_4862	5
PSPTO_4863	3
PSPTO_4864	6
PSPTO_4865	3
PSPTO_4866	21
PSPTO_4867	17
PSPTO_4868	6
PSPTO_4869	3
PSPTO_4870	3
PSPTO_4871	0
PSPTO_4872	1
PSPTO_4873	0
PSPTO_4874	4
PSPTO_4875	6
PSPTO_4876	0
PSPTO_4877	5
PSPTO_4878	5
PSPTO_4879	0
PSPTO_4880	2
PSPTO_4881	1
PSPTO_4882	1
PSPTO_4883	6
PSPTO_4884	2
PSPTO_4885	1
PSPTO_4886	0
PSPTO_4887	0
PSPTO_4888	2
PSPTO_4889	1
PSPTO_4890	1
PSPTO_4891	3
PSPTO_4892	0
PSPTO_4893	1
PSPTO_4894	2
PSPTO_4895	4
PSPTO_4896	9
PSPTO_4897	17
PSPTO_4898	0
PSPTO_4899	4
PSPTO_4900	1
PSPTO_4901	1
PSPTO_4902	1
PSPTO_4903	8
PSPTO_4905	2
PSPTO_4906	20
PSPTO_4907	7
PSPTO_4908	2
PSPTO_4909	0
PSPTO_4910	0
PSPTO_4911	2
PSPTO_4912	1
PSPTO_4913	3
PSPTO_4914	5
PSPTO_4915	2
PSPTO_4916	2
PSPTO_4917	2
PSPTO_4918	4
PSPTO_4919	4
PSPTO_4920	2
PSPTO_4921	7
PSPTO_4922	5
PSPTO_4923	5
PSPTO_4924	2
PSPTO_4925	5
PSPTO_4926	6
PSPTO_4927	1
PSPTO_4928	28
PSPTO_4929	8
PSPTO_4930	142
PSPTO_4931	134
PSPTO_4932	102
PSPTO_4933	138
PSPTO_4934	10
PSPTO_4935	49
PSPTO_4936	6
PSPTO_4937	26
PSPTO_4938	2
PSPTO_4939	16
PSPTO_4940	24
PSPTO_4941	40
PSPTO_4942	30
PSPTO_4943	3
PSPTO_4944	10
PSPTO_4945	4
PSPTO_4946	4
PSPTO_4947	4
PSPTO_4948	3
PSPTO_4949	0
PSPTO_4950	6
PSPTO_4951	4
PSPTO_4952	4
PSPTO_4953	6
PSPTO_4954	13
PSPTO_4955	9
PSPTO_4956	13
PSPTO_4957	8
PSPTO_4958	5
PSPTO_4959	17
PSPTO_4960	15
PSPTO_4961	0
PSPTO_4962	3
PSPTO_4963	18
PSPTO_4964	5
PSPTO_4965	6
PSPTO_4966	3
PSPTO_4967	5
PSPTO_4968	1
PSPTO_4969	2
PSPTO_4970	12
PSPTO_4971	6
PSPTO_4972	3
PSPTO_4973	7
PSPTO_4974	19
PSPTO_4975	2
PSPTO_4976	13
PSPTO_4977	8
PSPTO_4978	7
PSPTO_4979	2
PSPTO_4980	5
PSPTO_4981	3
PSPTO_4982	7
PSPTO_4983	9
PSPTO_4984	6
PSPTO_4985	4
PSPTO_4986	6
PSPTO_4987	5
PSPTO_4988	2
PSPTO_4989	0
PSPTO_4990	10
PSPTO_4991	3
PSPTO_4992	22
PSPTO_4993	1
PSPTO_4994	9
PSPTO_4995	0
PSPTO_4996	3
PSPTO_4997	7
PSPTO_4998	9
PSPTO_4999	2
PSPTO_5000	2
PSPTO_5001	2
PSPTO_5002	1
PSPTO_5003	7
PSPTO_5004	12
PSPTO_5005	135
PSPTO_5006	53
PSPTO_5007	6
PSPTO_5008	2
PSPTO_5009	5
PSPTO_5010	1
PSPTO_5011	6
PSPTO_5012	3
PSPTO_5013	1
PSPTO_5014	11
PSPTO_5015	27
PSPTO_5016	9
PSPTO_5017	128
PSPTO_5018	2
PSPTO_5019	1
PSPTO_5020	3
PSPTO_5021	4
PSPTO_5022	6
PSPTO_5023	4
PSPTO_5024	27
PSPTO_5025	1
PSPTO_5026	0
PSPTO_5027	2
PSPTO_5028	4
PSPTO_5029	2
PSPTO_5030	22
PSPTO_5031	1
PSPTO_5032	1
PSPTO_5033	1
PSPTO_5034	3
PSPTO_5035	3
PSPTO_5036	2
PSPTO_5037	12
PSPTO_5038	1
PSPTO_5039	5
PSPTO_5040	10
PSPTO_5041	5
PSPTO_5043	2
PSPTO_5044	2
PSPTO_5045	5
PSPTO_5046	5
PSPTO_5047	5
PSPTO_5048	3
PSPTO_5049	5
PSPTO_5050	2
PSPTO_5051	0
PSPTO_5052	1
PSPTO_5053	1
PSPTO_5054	3
PSPTO_5055	6
PSPTO_5056	1
PSPTO_5057	28
PSPTO_5058	3
PSPTO_5059	0
PSPTO_5060	2
PSPTO_5061	0
PSPTO_5062	0
PSPTO_5063	3
PSPTO_5064	1
PSPTO_5065	2
PSPTO_5066	3
PSPTO_5067	2
PSPTO_5068	80
PSPTO_5069	22
PSPTO_5070	22
PSPTO_5071	14
PSPTO_5072	4
PSPTO_5073	0
PSPTO_5074	4
PSPTO_5075	3
PSPTO_5076	1
PSPTO_5077	2
PSPTO_5078	0
PSPTO_5079	1
PSPTO_5080	1
PSPTO_5081	2
PSPTO_5082	1
PSPTO_5083	1
PSPTO_5084	3
PSPTO_5085	0
PSPTO_5086	1
PSPTO_5087	4
PSPTO_5088	0
PSPTO_5089	2
PSPTO_5090	6
PSPTO_5091	3
PSPTO_5092	0
PSPTO_5093	0
PSPTO_5094	0
PSPTO_5095	1
PSPTO_5096	1
PSPTO_5097	0
PSPTO_5098	0
PSPTO_5099	3
PSPTO_5100	0
PSPTO_5101	1
PSPTO_5102	1
PSPTO_5103	1
PSPTO_5104	2
PSPTO_5105	1
PSPTO_5106	1
PSPTO_5107	1
PSPTO_5108	0
PSPTO_5109	0
PSPTO_5110	5
PSPTO_5111	2
PSPTO_5112	0
PSPTO_5113	3
PSPTO_5114	1
PSPTO_5115	3
PSPTO_5116	0
PSPTO_5117	0
PSPTO_5118	7
PSPTO_5119	6
PSPTO_5120	0
PSPTO_5121	5
PSPTO_5122	0
PSPTO_5123	22
PSPTO_5124	1
PSPTO_5125	26
PSPTO_5126	8
PSPTO_5127	2
PSPTO_5128	4
PSPTO_5129	1
PSPTO_5130	5
PSPTO_5131	1
PSPTO_5132	5
PSPTO_5133	7
PSPTO_5134	22
PSPTO_5135	0
PSPTO_5136	40
PSPTO_5137	2
PSPTO_5138	19
PSPTO_5139	9
PSPTO_5140	12
PSPTO_5141	45
PSPTO_5142	6
PSPTO_5143	7
PSPTO_5144	0
PSPTO_5145	4
PSPTO_5146	0
PSPTO_5147	14
PSPTO_5148	6
PSPTO_5149	3
PSPTO_5150	9
PSPTO_5151	3
PSPTO_5152	8
PSPTO_5153	5
PSPTO_5154	3
PSPTO_5155	8
PSPTO_5156	4
PSPTO_5157	9
PSPTO_5158	0
PSPTO_5159	3
PSPTO_5160	4
PSPTO_5161	44
PSPTO_5162	76
PSPTO_5163	0
PSPTO_5164	16
PSPTO_5165	30
PSPTO_5166	1
PSPTO_5167	6
PSPTO_5168	14
PSPTO_5169	5
PSPTO_5170	14
PSPTO_5171	6
PSPTO_5172	5
PSPTO_5173	0
PSPTO_5174	1
PSPTO_5175	11
PSPTO_5176	1
PSPTO_5177	1
PSPTO_5178	0
PSPTO_5179	4
PSPTO_5180	7
PSPTO_5181	0
PSPTO_5182	4
PSPTO_5183	1
PSPTO_5184	1
PSPTO_5185	0
PSPTO_5186	2
PSPTO_5187	0
PSPTO_5188	0
PSPTO_5189	2
PSPTO_5190	1
PSPTO_5191	11
PSPTO_5192	3
PSPTO_5193	4
PSPTO_5194	3
PSPTO_5195	0
PSPTO_5196	2
PSPTO_5197	0
PSPTO_5198	1
PSPTO_5199	0
PSPTO_5200	3
PSPTO_5201	2
PSPTO_5202	8
PSPTO_5203	5
PSPTO_5204	6
PSPTO_5205	1
PSPTO_5206	1
PSPTO_5207	0
PSPTO_5208	1
PSPTO_5209	7
PSPTO_5210	3
PSPTO_5211	0
PSPTO_5212	7
PSPTO_5213	1
PSPTO_5214	0
PSPTO_5215	10
PSPTO_5216	5
PSPTO_5217	0
PSPTO_5218	1
PSPTO_5219	2
PSPTO_5220	0
PSPTO_5221	6
PSPTO_5222	10
PSPTO_5223	3
PSPTO_5224	2
PSPTO_5225	1
PSPTO_5226	13
PSPTO_5227	5
PSPTO_5228	0
PSPTO_5229	1
PSPTO_5230	4
PSPTO_5231	1
PSPTO_5232	3
PSPTO_5233	1
PSPTO_5234	2
PSPTO_5235	0
PSPTO_5236	0
PSPTO_5237	0
PSPTO_5238	3
PSPTO_5239	9
PSPTO_5240	4
PSPTO_5241	10
PSPTO_5242	34
PSPTO_5243	9
PSPTO_5244	3
PSPTO_5245	2
PSPTO_5246	0
PSPTO_5247	0
PSPTO_5248	3
PSPTO_5249	5
PSPTO_5250	25
PSPTO_5251	11
PSPTO_5252	3
PSPTO_5253	6
PSPTO_5254	1
PSPTO_5255	3
PSPTO_5256	2
PSPTO_5257	2
PSPTO_5258	1
PSPTO_5259	2
PSPTO_5260	7
PSPTO_5261	3
PSPTO_5262	6
PSPTO_5263	6
PSPTO_5264	1
PSPTO_5265	0
PSPTO_5266	1
PSPTO_5267	2
PSPTO_5268	4
PSPTO_5269	11
PSPTO_5270	3
PSPTO_5271	3
PSPTO_5272	2
PSPTO_5273	3
PSPTO_5274	4
PSPTO_5275	4
PSPTO_5276	5
PSPTO_5277	4
PSPTO_5278	6
PSPTO_5279	16
PSPTO_5280	0
PSPTO_5281	0
PSPTO_5282	7
PSPTO_5283	2
PSPTO_5284	21
PSPTO_5285	9
PSPTO_5286	1
PSPTO_5287	0
PSPTO_5288	5
PSPTO_5289	3
PSPTO_5290	3
PSPTO_5291	7
PSPTO_5292	14
PSPTO_5293	18
PSPTO_5294	20
PSPTO_5295	2
PSPTO_5296	2
PSPTO_5297	6
PSPTO_5298	0
PSPTO_5299	4
PSPTO_5300	7
PSPTO_5301	3
PSPTO_5302	2
PSPTO_5303	1
PSPTO_5304	14
PSPTO_5305	1
PSPTO_5306	3
PSPTO_5307	13
PSPTO_5308	7
PSPTO_5309	6
PSPTO_5310	13
PSPTO_5311	1
PSPTO_5312	2
PSPTO_5313	0
PSPTO_5314	0
PSPTO_5315	0
PSPTO_5316	1
PSPTO_5317	0
PSPTO_5318	18
PSPTO_5319	0
PSPTO_5320	4
PSPTO_5321	0
PSPTO_5322	1
PSPTO_5323	1
PSPTO_5324	6
PSPTO_5325	0
PSPTO_5326	1
PSPTO_5327	17
PSPTO_5328	7
PSPTO_5329	18
PSPTO_5330	7
PSPTO_5331	6
PSPTO_5332	1
PSPTO_5333	3
PSPTO_5334	5
PSPTO_5335	3
PSPTO_5336	0
PSPTO_5337	6
PSPTO_5338	5
PSPTO_5339	5
PSPTO_5340	10
PSPTO_5341	16
PSPTO_5342	8
PSPTO_5343	4
PSPTO_5344	3
PSPTO_5345	4
PSPTO_5346	1
PSPTO_5347	1
PSPTO_5348	1
PSPTO_5349	0
PSPTO_5350	0
PSPTO_5351	2
PSPTO_5352	6
PSPTO_5353	1
PSPTO_5354	1
PSPTO_5355	0
PSPTO_5356	4
PSPTO_5357	6
PSPTO_5358	6
PSPTO_5359	0
PSPTO_5360	0
PSPTO_5361	1
PSPTO_5362	1
PSPTO_5363	7
PSPTO_5364	1
PSPTO_5365	20
PSPTO_5367	0
PSPTO_5368	11
PSPTO_5370	1
PSPTO_5371	1
PSPTO_5373	3
PSPTO_5374	0
PSPTO_5375	1
PSPTO_5376	3
PSPTO_5377	7
PSPTO_5378	9
PSPTO_5379	8
PSPTO_5380	14
PSPTO_5381	9
PSPTO_5382	3
PSPTO_5383	1
PSPTO_5384	3
PSPTO_5385	1
PSPTO_5386	0
PSPTO_5387	0
PSPTO_5388	0
PSPTO_5389	1
PSPTO_5390	2
PSPTO_5391	11
PSPTO_5392	4
PSPTO_5393	2
PSPTO_5394	1
PSPTO_5395	4
PSPTO_5396	2
PSPTO_5397	2
PSPTO_5398	1
PSPTO_5399	6
PSPTO_5400	0
PSPTO_5401	1
PSPTO_5402	4
PSPTO_5403	6
PSPTO_5404	9
PSPTO_5405	4
PSPTO_5406	0
PSPTO_5407	14
PSPTO_5408	3
PSPTO_5409	4
PSPTO_5410	4
PSPTO_5411	8
PSPTO_5412	1
PSPTO_5413	22
PSPTO_5414	6
PSPTO_5415	8
PSPTO_5416	6
PSPTO_5417	2
PSPTO_5418	14
PSPTO_5419	3
PSPTO_5420	6
PSPTO_5421	2
PSPTO_5422	4
PSPTO_5423	0
PSPTO_5424	7
PSPTO_5425	15
PSPTO_5426	3
PSPTO_5427	3
PSPTO_5428	3
PSPTO_5430	7
PSPTO_5431	8
PSPTO_5432	164
PSPTO_5433	32
PSPTO_5434	16
PSPTO_5435	67
PSPTO_5436	6
PSPTO_5437	3
PSPTO_5438	16
PSPTO_5439	1
PSPTO_5440	4
PSPTO_5441	4
PSPTO_5442	1
PSPTO_5443	8
PSPTO_5444	1
PSPTO_5445	10
PSPTO_5446	2
PSPTO_5447	0
PSPTO_5448	8
PSPTO_5449	0
PSPTO_5450	1
PSPTO_5451	18
PSPTO_5452	8
PSPTO_5453	6
PSPTO_5454	4
PSPTO_5455	1
PSPTO_5456	2
PSPTO_5457	4
PSPTO_5458	0
PSPTO_5460	7
PSPTO_5461	18
PSPTO_5462	3
PSPTO_5463	1
PSPTO_5464	3
PSPTO_5465	12
PSPTO_5466	153
PSPTO_5467	3
PSPTO_5468	0
PSPTO_5469	10
PSPTO_5470	1
PSPTO_5471	0
PSPTO_5472	1
PSPTO_5473	9
PSPTO_5474	0
PSPTO_5475	2
PSPTO_5476	1
PSPTO_5477	0
PSPTO_5478	0
PSPTO_5479	7
PSPTO_5480	2
PSPTO_5481	6
PSPTO_5482	16
PSPTO_5483	5
PSPTO_5484	3
PSPTO_5485	2
PSPTO_5486	7
PSPTO_5487	3
PSPTO_5488	2
PSPTO_5489	4
PSPTO_5490	3
PSPTO_5491	2
PSPTO_5492	3
PSPTO_5493	5
PSPTO_5494	4
PSPTO_5495	2
PSPTO_5496	0
PSPTO_5497	1
PSPTO_5498	2
PSPTO_5499	12
PSPTO_5500	6
PSPTO_5501	8
PSPTO_5502	8
PSPTO_5503	2
PSPTO_5504	1
PSPTO_5505	2
PSPTO_5506	1
PSPTO_5507	1
PSPTO_5508	1
PSPTO_5509	0
PSPTO_5510	90
PSPTO_5511	64
PSPTO_5512	0
PSPTO_5513	0
PSPTO_5514	0
PSPTO_5515	4
PSPTO_5516	11
PSPTO_5517	13
PSPTO_5518	5
PSPTO_5519	2
PSPTO_5520	3
PSPTO_5521	0
PSPTO_5522	13
PSPTO_5523	0
PSPTO_5524	0
PSPTO_5525	2
PSPTO_5526	0
PSPTO_5527	1
PSPTO_5528	4
PSPTO_5529	4
PSPTO_5530	1
PSPTO_5531	5
PSPTO_5532	2
PSPTO_5533	0
PSPTO_5534	0
PSPTO_5535	9
PSPTO_5536	1
PSPTO_5537	5
PSPTO_5538	1
PSPTO_5539	0
PSPTO_5540	1
PSPTO_5541	2
PSPTO_5542	16
PSPTO_5543	7
PSPTO_5544	1
PSPTO_5545	2
PSPTO_5546	1
PSPTO_5547	2
PSPTO_5548	2
PSPTO_5549	3
PSPTO_5550	7
PSPTO_5551	1
PSPTO_5552	0
PSPTO_5553	13
PSPTO_5554	5
PSPTO_5555	0
PSPTO_5556	7
PSPTO_5557	3
PSPTO_5558	3
PSPTO_5559	1
PSPTO_5560	0
PSPTO_5561	0
PSPTO_5562	1
PSPTO_5563	0
PSPTO_5564	3
PSPTO_5565	3
PSPTO_5566	9
PSPTO_5567	1
PSPTO_5568	2
PSPTO_5569	3
PSPTO_5570	1
PSPTO_5571	8
PSPTO_5572	1
PSPTO_5573	6
PSPTO_5574	4
PSPTO_5575	2
PSPTO_5576	0
PSPTO_5577	0
PSPTO_5578	0
PSPTO_5579	1
PSPTO_5580	2
PSPTO_5581	0
PSPTO_5582	5
PSPTO_5583	2
PSPTO_5584	0
PSPTO_5585	0
PSPTO_5586	2
PSPTO_5587	1
PSPTO_5588	1
PSPTO_5589	0
PSPTO_5590	1
PSPTO_5591	14
PSPTO_5592	1
PSPTO_5593	0
PSPTO_5594	18
PSPTO_5595	5
PSPTO_5596	0
PSPTO_5597	17
PSPTO_5598	26
PSPTO_5599	209
PSPTO_5600	113
PSPTO_5601	294
PSPTO_5602	89
PSPTO_5603	100
PSPTO_5604	31
PSPTO_5605	21
PSPTO_5606	4
PSPTO_5607	4
PSPTO_5608	6
PSPTO_5609	4
PSPTO_5610	37
PSPTO_5611	1
PSPTO_5612	37
PSPTO_5613	9
PSPTO_5614	20
PSPTO_5615	16
PSPTO_5616	1
PSPTO_5617	0
PSPTO_5618	1
PSPTO_5619	0
PSPTO_5620	0
PSPTO_5621	9
PSPTO_5622	1
PSPTO_5623	0
PSPTO_5624	3
PSPTO_5625	3
PSPTO_5626	0
PSPTO_5627	1
PSPTO_5628	2
PSPTO_5629	1
PSPTO_5630	2
PSPTO_5631	3
PSPTO_5632	14
PSPTO_5633	7
PSPTO_5634	7
PSPTO_5635	9
PSPTO_5636	12
PSPTO_5637	2
PSPTO_5638	0
PSPTO_5639	3
PSPTO_5640	2
PSPTO_5641	7
PSPTO_5642	1
PSPTO_5643	0
PSPTO_5644	5
PSPTO_5645	10
PSPTO_5646	3
PSPTO_5647	1
PSPTO_5648	0
PSPTO_5649	0
PSPTO_5650	2
PSPTO_5651	5
PSPTO_5652	1
PSPTO_5653	1
PSPTO_5654	0
PSPTO_5655	4
PSPTO_5656	6
PSPTO_5657	1
PSPTO_5658	0
PSPTO_5659	0
PSPTO_5660	0
PSPTO_5661	2331
PSPTO_5662	9
PSPTO_5663	4610
PSPTO_5664	0
PSPTO_5665	0
PSPTO_5666	73
PSPTO_5667	2
PSPTO_5668	402
PSPTO_5669	38
PSPTO_5670	6
PSPTO_5671	1
PSPTO_5672	1
PSPTO_5673	1
PSPTO_5674	1
PSPTO_5675	0
PSPTO_A0072	15
PSPTO_A0073	0
PSPTO_B0001	2
PSPTO_B0002	6
PSPTO_B0003	10
PSPTO_B0004	0
PSPTO_B0005	21
PSPTO_B0006	0
PSPTO_B0007	1
PSPTO_B0008	0
PSPTO_B0009	4
PSPTO_B0010	41
PSPTO_B0011	18
PSPTO_B0012	12
PSPTO_B0013	3
PSPTO_B0014	4
PSPTO_B0015	3
PSPTO_B0016	1
PSPTO_B0017	0
PSPTO_B0018	4
PSPTO_B0019	6
PSPTO_B0020	25
PSPTO_B0021	13
PSPTO_B0022	3
PSPTO_B0023	6
PSPTO_B0024	3
PSPTO_B0025	6
PSPTO_B0026	10
PSPTO_B0027	12
PSPTO_B0028	0
PSPTO_B0029	0
PSPTO_B0030	2
PSPTO_B0031	1
PSPTO_B0032	3
PSPTO_B0033	2
PSPTO_B0034	4
PSPTO_B0035	2
PSPTO_B0036	17
PSPTO_B0037	1
PSPTO_B0038	5
PSPTO_B0039	1
PSPTO_B0040	4
PSPTO_B0041	0
PSPTO_B0042	5
PSPTO_B0043	7
PSPTO_B0044	2
PSPTO_B0045	8
PSPTO_B0046	2
PSPTO_B0047	2
PSPTO_B0048	1
PSPTO_B0049	1
PSPTO_B0050	0
PSPTO_B0051	4
PSPTO_B0052	4
PSPTO_B0053	3
PSPTO_B0054	2
PSPTO_B0055	2
PSPTO_B0056	0
PSPTO_B0057	23
PSPTO_B0058	1
PSPTO_B0059	1
PSPTO_B0060	4
PSPTO_B0061	6
PSPTO_B0062	2
PSPTO_B0063	1
PSPTO_B0064	3
PSPTO_B0065	0
PSPTO_B0066	10
PSPTO_B0067	3
PSPTO_B0068	3
PSPTO_B0069	6
PSPTO_B0070	11
PSPTO_B0071	12
PSPTO_B0072	7
PSPTO_B0073	5
PSPTO_B0074	1
PSPTO_B0075	2
PSPTO_B0076	8
PSPTO_B0077	0
PSPTO_r01	3643
PSPTO_r02	6912
PSPTO_r03	0
PSPTO_r04	3476
PSPTO_r05	7028
PSPTO_r06	1
PSPTO_r07	3617
PSPTO_r08	7102
PSPTO_r09	2
PSPTO_r10	3
PSPTO_r11	7565
PSPTO_r12	4129
PSPTO_r13	1
PSPTO_r14	7916
PSPTO_r15	3968
PSPTO_t01	0
PSPTO_t02	0
PSPTO_t03	10
PSPTO_t04	4
PSPTO_t05	5
PSPTO_t06	0
PSPTO_t07	3
PSPTO_t08	0
PSPTO_t09	6
PSPTO_t10	4
PSPTO_t11	5
PSPTO_t12	3
PSPTO_t13	2
PSPTO_t14	4
PSPTO_t15	3
PSPTO_t16	2
PSPTO_t17	1
PSPTO_t18	15
PSPTO_t19	0
PSPTO_t20	0
PSPTO_t21	2
PSPTO_t22	0
PSPTO_t23	1
PSPTO_t24	2
PSPTO_t25	1
PSPTO_t26	1
PSPTO_t27	1
PSPTO_t28	0
PSPTO_t29	1
PSPTO_t30	1
PSPTO_t31	0
PSPTO_t32	1
PSPTO_t33	0
PSPTO_t34	0
PSPTO_t35	0
PSPTO_t36	0
PSPTO_t37	1
PSPTO_t38	0
PSPTO_t39	2
PSPTO_t40	0
PSPTO_t41	4
PSPTO_t42	10
PSPTO_t43	1
PSPTO_t44	2
PSPTO_t45	5
PSPTO_t46	1
PSPTO_t47	2
PSPTO_t48	5
PSPTO_t49	2
PSPTO_t50	0
PSPTO_t51	0
PSPTO_t52	3
PSPTO_t53	0
PSPTO_t54	0
PSPTO_t55	1
PSPTO_t56	0
PSPTO_t57	2
PSPTO_t58	0
PSPTO_t59	0
PSPTO_t60	0
PSPTO_t61	0
PSPTO_t62	5
PSPTO_t63	3
__no_feature	39097
__ambiguous	1232
__too_low_aQual	0
__not_aligned	131543
__alignment_not_unique	0
