PSPTOA0001	31
PSPTOA0002	26
PSPTOA0003	23
PSPTOA0004	65
PSPTOA0005	19
PSPTOA0006	37
PSPTOA0007	79
PSPTOA0008	55
PSPTOA0009	56
PSPTOA0010	112
PSPTOA0011	46
PSPTOA0012	122
PSPTOA0013	15
PSPTOA0014	155
PSPTOA0015	45
PSPTOA0016	17
PSPTOA0017	13
PSPTOA0018	36
PSPTOA0019	82
PSPTOA0020	13
PSPTOA0021	16
PSPTOA0022	23
PSPTOA0023	19
PSPTOA0024	15
PSPTOA0025	22
PSPTOA0026	10
PSPTOA0027	8
PSPTOA0028	18
PSPTOA0029	97
PSPTOA0030	28
PSPTOA0031	80
PSPTOA0032	308
PSPTOA0033	19
PSPTOA0034	64
PSPTOA0035	48
PSPTOA0036	82
PSPTOA0037	62
PSPTOA0038	12
PSPTOA0039	34
PSPTOA0040	21
PSPTOA0041	4
PSPTOA0042	17
PSPTOA0043	8
PSPTOA0044	28
PSPTOA0045	33
PSPTOA0046	10
PSPTOA0047	15
PSPTOA0048	24
PSPTOA0049	152
PSPTOA0050	6
PSPTOA0051	26
PSPTOA0052	21
PSPTOA0053	44
PSPTOA0054	10
PSPTOA0055	16
PSPTOA0056	13
PSPTOA0057	57
PSPTOA0058	14
PSPTOA0059	20
PSPTOA0060	66
PSPTOA0061	4
PSPTOA0062	40
PSPTOA0063	20
PSPTOA0064	123
PSPTOA0065	152
PSPTOA0066	40
PSPTOA0067	30
PSPTOA0068	85
PSPTOA0069	7
PSPTOA0070	11
PSPTOA0071	1
PSPTO_0001	39
PSPTO_0002	26
PSPTO_0003	10
PSPTO_0004	52
PSPTO_0005	36
PSPTO_0006	43
PSPTO_0007	14
PSPTO_0008	66
PSPTO_0009	15
PSPTO_0011	25
PSPTO_0012	21
PSPTO_0013	12
PSPTO_0014	7
PSPTO_0015	10
PSPTO_0016	7
PSPTO_0017	19
PSPTO_0018	8
PSPTO_0019	4
PSPTO_0020	7
PSPTO_0021	41
PSPTO_0022	24
PSPTO_0023	15
PSPTO_0024	4
PSPTO_0025	36
PSPTO_0026	13
PSPTO_0027	11
PSPTO_0028	24
PSPTO_0029	11
PSPTO_0030	25
PSPTO_0031	14
PSPTO_0032	9
PSPTO_0033	11
PSPTO_0034	16
PSPTO_0035	20
PSPTO_0036	0
PSPTO_0037	97
PSPTO_0038	40
PSPTO_0039	20
PSPTO_0040	0
PSPTO_0041	6
PSPTO_0042	20
PSPTO_0043	136
PSPTO_0044	12
PSPTO_0045	29
PSPTO_0046	56
PSPTO_0047	37
PSPTO_0048	9
PSPTO_0049	22
PSPTO_0050	26
PSPTO_0051	9
PSPTO_0052	47
PSPTO_0053	26
PSPTO_0054	4
PSPTO_0055	15
PSPTO_0056	12
PSPTO_0057	18
PSPTO_0058	26
PSPTO_0059	14
PSPTO_0060	3
PSPTO_0061	16
PSPTO_0062	25
PSPTO_0063	10
PSPTO_0064	110
PSPTO_0065	38
PSPTO_0066	16
PSPTO_0067	28
PSPTO_0068	16
PSPTO_0069	45
PSPTO_0070	28
PSPTO_0071	31
PSPTO_0072	23
PSPTO_0073	69
PSPTO_0074	30
PSPTO_0075	9
PSPTO_0076	16
PSPTO_0077	35
PSPTO_0078	21
PSPTO_0079	39
PSPTO_0080	19
PSPTO_0081	12
PSPTO_0082	113
PSPTO_0083	117
PSPTO_0084	9
PSPTO_0085	21
PSPTO_0086	5
PSPTO_0087	41
PSPTO_0088	1
PSPTO_0089	7
PSPTO_0090	15
PSPTO_0091	14
PSPTO_0092	55
PSPTO_0093	5
PSPTO_0094	25
PSPTO_0095	23
PSPTO_0096	46
PSPTO_0097	3
PSPTO_0098	30
PSPTO_0099	9
PSPTO_0100	5
PSPTO_0101	132
PSPTO_0102	44
PSPTO_0103	42
PSPTO_0104	0
PSPTO_0105	22
PSPTO_0106	3
PSPTO_0107	39
PSPTO_0108	26
PSPTO_0109	93
PSPTO_0110	97
PSPTO_0111	14
PSPTO_0112	8
PSPTO_0113	20
PSPTO_0114	24
PSPTO_0115	81
PSPTO_0116	16
PSPTO_0117	145
PSPTO_0118	26
PSPTO_0119	35
PSPTO_0120	29
PSPTO_0121	13
PSPTO_0123	9
PSPTO_0124	20
PSPTO_0125	24
PSPTO_0126	71
PSPTO_0127	110
PSPTO_0128	24
PSPTO_0129	35
PSPTO_0130	58
PSPTO_0131	49
PSPTO_0132	1
PSPTO_0133	0
PSPTO_0134	35
PSPTO_0135	12
PSPTO_0136	539
PSPTO_0137	8
PSPTO_0138	24
PSPTO_0139	14
PSPTO_0140	13
PSPTO_0141	33
PSPTO_0142	3
PSPTO_0143	10
PSPTO_0144	81
PSPTO_0145	13
PSPTO_0146	19
PSPTO_0147	20
PSPTO_0148	51
PSPTO_0149	15
PSPTO_0150	8
PSPTO_0151	9
PSPTO_0152	104
PSPTO_0153	18
PSPTO_0154	102
PSPTO_0155	58
PSPTO_0156	111
PSPTO_0157	13
PSPTO_0158	17
PSPTO_0159	19
PSPTO_0161	33
PSPTO_0162	34
PSPTO_0163	1
PSPTO_0164	15
PSPTO_0165	37
PSPTO_0166	14
PSPTO_0167	36
PSPTO_0168	42
PSPTO_0169	16
PSPTO_0170	19
PSPTO_0171	29
PSPTO_0172	17
PSPTO_0173	39
PSPTO_0174	13
PSPTO_0175	20
PSPTO_0176	26
PSPTO_0177	10
PSPTO_0178	12
PSPTO_0179	26
PSPTO_0180	22
PSPTO_0181	25
PSPTO_0182	17
PSPTO_0183	11
PSPTO_0184	20
PSPTO_0185	46
PSPTO_0186	15
PSPTO_0187	18
PSPTO_0188	27
PSPTO_0189	5
PSPTO_0190	7
PSPTO_0191	4
PSPTO_0192	25
PSPTO_0193	15
PSPTO_0194	13
PSPTO_0196	24
PSPTO_0197	2
PSPTO_0200	17
PSPTO_0201	24
PSPTO_0202	21
PSPTO_0203	19
PSPTO_0205	20
PSPTO_0206	82
PSPTO_0207	7
PSPTO_0208	12
PSPTO_0209	11
PSPTO_0210	17
PSPTO_0211	22
PSPTO_0212	14
PSPTO_0213	4
PSPTO_0214	6
PSPTO_0215	1
PSPTO_0216	2
PSPTO_0217	56
PSPTO_0218	41
PSPTO_0219	100
PSPTO_0220	86
PSPTO_0221	19
PSPTO_0222	9
PSPTO_0223	13
PSPTO_0224	22
PSPTO_0225	21
PSPTO_0226	3
PSPTO_0227	2
PSPTO_0228	5
PSPTO_0229	7
PSPTO_0230	47
PSPTO_0231	81
PSPTO_0232	5
PSPTO_0233	14
PSPTO_0234	35
PSPTO_0235	11
PSPTO_0236	35
PSPTO_0237	7
PSPTO_0238	23
PSPTO_0239	48
PSPTO_0240	35
PSPTO_0241	13
PSPTO_0242	7
PSPTO_0243	10
PSPTO_0244	12
PSPTO_0245	8
PSPTO_0246	3
PSPTO_0247	14
PSPTO_0248	27
PSPTO_0249	40
PSPTO_0250	14
PSPTO_0251	10
PSPTO_0252	35
PSPTO_0253	3
PSPTO_0254	22
PSPTO_0255	20
PSPTO_0256	15
PSPTO_0257	27
PSPTO_0258	18
PSPTO_0259	7
PSPTO_0260	14
PSPTO_0261	7
PSPTO_0262	1
PSPTO_0263	24
PSPTO_0264	16
PSPTO_0265	12
PSPTO_0266	20
PSPTO_0267	23
PSPTO_0268	26
PSPTO_0269	4
PSPTO_0270	9
PSPTO_0271	6
PSPTO_0272	74
PSPTO_0273	3
PSPTO_0274	0
PSPTO_0275	26
PSPTO_0276	20
PSPTO_0277	3
PSPTO_0278	22
PSPTO_0279	8
PSPTO_0280	21
PSPTO_0281	16
PSPTO_0282	15
PSPTO_0283	5
PSPTO_0284	7
PSPTO_0285	23
PSPTO_0286	37
PSPTO_0287	29
PSPTO_0288	3
PSPTO_0289	1
PSPTO_0290	7
PSPTO_0291	10
PSPTO_0292	15
PSPTO_0293	10
PSPTO_0294	7
PSPTO_0295	8
PSPTO_0296	1
PSPTO_0297	15
PSPTO_0298	17
PSPTO_0299	33
PSPTO_0300	109
PSPTO_0301	75
PSPTO_0302	0
PSPTO_0303	46
PSPTO_0304	38
PSPTO_0305	43
PSPTO_0306	23
PSPTO_0307	0
PSPTO_0308	10
PSPTO_0309	5
PSPTO_0310	9
PSPTO_0311	12
PSPTO_0312	26
PSPTO_0313	10
PSPTO_0314	33
PSPTO_0315	23
PSPTO_0316	22
PSPTO_0317	31
PSPTO_0318	118
PSPTO_0319	29
PSPTO_0320	2
PSPTO_0321	16
PSPTO_0322	20
PSPTO_0323	51
PSPTO_0324	28
PSPTO_0325	36
PSPTO_0326	5
PSPTO_0327	26
PSPTO_0328	43
PSPTO_0329	38
PSPTO_0330	15
PSPTO_0331	1
PSPTO_0332	7
PSPTO_0333	23
PSPTO_0334	57
PSPTO_0335	36
PSPTO_0336	6
PSPTO_0337	11
PSPTO_0338	12
PSPTO_0339	51
PSPTO_0340	41
PSPTO_0341	60
PSPTO_0342	1
PSPTO_0343	19
PSPTO_0344	39
PSPTO_0345	2
PSPTO_0346	20
PSPTO_0347	8
PSPTO_0348	20
PSPTO_0349	8
PSPTO_0350	18
PSPTO_0351	21
PSPTO_0352	30
PSPTO_0353	14
PSPTO_0354	0
PSPTO_0355	8
PSPTO_0356	7
PSPTO_0357	4
PSPTO_0358	21
PSPTO_0359	107
PSPTO_0360	28
PSPTO_0361	62
PSPTO_0362	11
PSPTO_0363	6
PSPTO_0364	9
PSPTO_0365	12
PSPTO_0366	18
PSPTO_0367	8
PSPTO_0368	4
PSPTO_0369	10
PSPTO_0370	15
PSPTO_0371	7
PSPTO_0372	30
PSPTO_0373	59
PSPTO_0374	47
PSPTO_0375	30
PSPTO_0376	12
PSPTO_0377	14
PSPTO_0378	22
PSPTO_0379	15
PSPTO_0380	34
PSPTO_0381	5
PSPTO_0382	20
PSPTO_0383	57
PSPTO_0384	13
PSPTO_0385	116
PSPTO_0386	19
PSPTO_0387	49
PSPTO_0388	10
PSPTO_0389	27
PSPTO_0390	74
PSPTO_0391	13
PSPTO_0393	6
PSPTO_0394	3
PSPTO_0395	6
PSPTO_0396	30
PSPTO_0397	20
PSPTO_0398	14
PSPTO_0399	13
PSPTO_0400	9
PSPTO_0401	13
PSPTO_0402	13
PSPTO_0403	7
PSPTO_0404	10
PSPTO_0405	65
PSPTO_0406	125
PSPTO_0407	28
PSPTO_0408	26
PSPTO_0409	36
PSPTO_0410	15
PSPTO_0411	14
PSPTO_0412	26
PSPTO_0413	21
PSPTO_0414	20
PSPTO_0415	6
PSPTO_0416	7
PSPTO_0417	3
PSPTO_0418	12
PSPTO_0419	21
PSPTO_0420	72
PSPTO_0421	20
PSPTO_0422	4
PSPTO_0423	1
PSPTO_0424	14
PSPTO_0425	19
PSPTO_0426	13
PSPTO_0427	55
PSPTO_0428	34
PSPTO_0429	51
PSPTO_0430	362
PSPTO_0431	9
PSPTO_0432	9
PSPTO_0433	4
PSPTO_0434	12
PSPTO_0435	10
PSPTO_0436	18
PSPTO_0437	12
PSPTO_0438	33
PSPTO_0439	41
PSPTO_0440	3
PSPTO_0441	63
PSPTO_0442	7
PSPTO_0443	69
PSPTO_0444	5
PSPTO_0445	9
PSPTO_0446	10
PSPTO_0447	2
PSPTO_0448	9
PSPTO_0449	2
PSPTO_0450	14
PSPTO_0451	38
PSPTO_0452	9
PSPTO_0453	114
PSPTO_0454	15
PSPTO_0455	42
PSPTO_0456	19
PSPTO_0457	12
PSPTO_0458	27
PSPTO_0459	0
PSPTO_0460	6
PSPTO_0461	12
PSPTO_0462	16
PSPTO_0463	9
PSPTO_0464	14
PSPTO_0465	39
PSPTO_0466	19
PSPTO_0467	2
PSPTO_0468	8
PSPTO_0469	12
PSPTO_0470	10
PSPTO_0471	23
PSPTO_0472	38
PSPTO_0473	36
PSPTO_0474	8
PSPTO_0475	9
PSPTO_0476	19
PSPTO_0477	6
PSPTO_0478	7
PSPTO_0479	4
PSPTO_0480	34
PSPTO_0481	23
PSPTO_0482	8
PSPTO_0483	13
PSPTO_0484	10
PSPTO_0485	5
PSPTO_0486	8
PSPTO_0487	14
PSPTO_0488	12
PSPTO_0489	13
PSPTO_0490	7
PSPTO_0491	20
PSPTO_0492	12
PSPTO_0493	3
PSPTO_0494	45
PSPTO_0495	24
PSPTO_0496	13
PSPTO_0497	17
PSPTO_0498	15
PSPTO_0499	76
PSPTO_0500	61
PSPTO_0501	17
PSPTO_0502	6
PSPTO_0503	2
PSPTO_0505	28
PSPTO_0506	37
PSPTO_0507	56
PSPTO_0508	55
PSPTO_0509	38
PSPTO_0510	10
PSPTO_0511	19
PSPTO_0512	26
PSPTO_0513	43
PSPTO_0514	30
PSPTO_0515	7
PSPTO_0516	22
PSPTO_0517	13
PSPTO_0518	53
PSPTO_0519	7
PSPTO_0520	35
PSPTO_0521	10
PSPTO_0522	16
PSPTO_0523	10
PSPTO_0524	29
PSPTO_0525	6
PSPTO_0526	1
PSPTO_0527	19
PSPTO_0528	25
PSPTO_0529	15
PSPTO_0530	7
PSPTO_0531	15
PSPTO_0532	2
PSPTO_0533	19
PSPTO_0534	16
PSPTO_0535	11
PSPTO_0536	78
PSPTO_0537	236
PSPTO_0538	44
PSPTO_0539	5
PSPTO_0540	8
PSPTO_0541	8
PSPTO_0542	6
PSPTO_0543	14
PSPTO_0544	22
PSPTO_0545	223
PSPTO_0546	217
PSPTO_0547	882
PSPTO_0548	9
PSPTO_0549	6
PSPTO_0550	18
PSPTO_0551	9
PSPTO_0552	13
PSPTO_0553	22
PSPTO_0554	52
PSPTO_0555	27
PSPTO_0556	38
PSPTO_0557	23
PSPTO_0558	68
PSPTO_0559	20
PSPTO_0560	18
PSPTO_0561	0
PSPTO_0562	10
PSPTO_0563	10
PSPTO_0564	4
PSPTO_0565	14
PSPTO_0566	12
PSPTO_0567	9
PSPTO_0568	38
PSPTO_0569	47
PSPTO_0570	9
PSPTO_0571	14
PSPTO_0572	26
PSPTO_0573	8
PSPTO_0574	3
PSPTO_0575	13
PSPTO_0576	5
PSPTO_0577	30
PSPTO_0578	3
PSPTO_0579	3
PSPTO_0580	37
PSPTO_0581	31
PSPTO_0582	18
PSPTO_0583	22
PSPTO_0584	16
PSPTO_0585	10
PSPTO_0586	19
PSPTO_0587	69
PSPTO_0588	7
PSPTO_0589	15
PSPTO_0591	32
PSPTO_0592	27
PSPTO_0593	31
PSPTO_0594	39
PSPTO_0595	11
PSPTO_0596	19
PSPTO_0597	12
PSPTO_0598	7
PSPTO_0599	32
PSPTO_0600	11
PSPTO_0601	15
PSPTO_0602	24
PSPTO_0603	7
PSPTO_0604	34
PSPTO_0605	15
PSPTO_0606	28
PSPTO_0607	14
PSPTO_0608	0
PSPTO_0609	57
PSPTO_0610	16
PSPTO_0611	25
PSPTO_0612	7
PSPTO_0613	19
PSPTO_0614	40
PSPTO_0615	30
PSPTO_0616	70
PSPTO_0617	34
PSPTO_0618	25
PSPTO_0619	234
PSPTO_0620	412
PSPTO_0621	32
PSPTO_0622	45
PSPTO_0623	241
PSPTO_0624	293
PSPTO_0625	35
PSPTO_0626	48
PSPTO_0627	66
PSPTO_0628	18
PSPTO_0629	75
PSPTO_0630	37
PSPTO_0631	37
PSPTO_0632	70
PSPTO_0633	39
PSPTO_0634	12
PSPTO_0635	14
PSPTO_0636	58
PSPTO_0637	26
PSPTO_0638	61
PSPTO_0639	48
PSPTO_0640	30
PSPTO_0641	46
PSPTO_0642	26
PSPTO_0643	32
PSPTO_0644	14
PSPTO_0645	39
PSPTO_0646	114
PSPTO_0647	9
PSPTO_0648	37
PSPTO_0649	51
PSPTO_0650	62
PSPTO_0651	141
PSPTO_0652	39
PSPTO_0653	6
PSPTO_0654	96
PSPTO_0655	31
PSPTO_0656	38
PSPTO_0657	5
PSPTO_0658	17
PSPTO_0659	7
PSPTO_0660	9
PSPTO_0661	7
PSPTO_0662	10
PSPTO_0663	5
PSPTO_0664	12
PSPTO_0665	9
PSPTO_0666	22
PSPTO_0667	17
PSPTO_0668	10
PSPTO_0669	5
PSPTO_0670	24
PSPTO_0671	12
PSPTO_0672	2
PSPTO_0673	9
PSPTO_0674	7
PSPTO_0675	40
PSPTO_0676	89
PSPTO_0677	24
PSPTO_0678	12
PSPTO_0679	14
PSPTO_0680	6
PSPTO_0681	21
PSPTO_0682	8
PSPTO_0683	6
PSPTO_0684	24
PSPTO_0685	11
PSPTO_0686	17
PSPTO_0687	11
PSPTO_0688	13
PSPTO_0689	7
PSPTO_0690	32
PSPTO_0691	14
PSPTO_0692	19
PSPTO_0693	13
PSPTO_0694	11
PSPTO_0695	13
PSPTO_0696	17
PSPTO_0697	10
PSPTO_0698	43
PSPTO_0699	8
PSPTO_0700	3
PSPTO_0701	24
PSPTO_0702	16
PSPTO_0703	19
PSPTO_0704	21
PSPTO_0705	10
PSPTO_0706	7
PSPTO_0707	7
PSPTO_0708	3
PSPTO_0709	3
PSPTO_0710	6
PSPTO_0711	16
PSPTO_0712	10
PSPTO_0713	15
PSPTO_0714	22
PSPTO_0715	7
PSPTO_0716	3
PSPTO_0717	9
PSPTO_0718	3
PSPTO_0719	2
PSPTO_0720	4
PSPTO_0721	0
PSPTO_0722	25
PSPTO_0723	7
PSPTO_0724	4
PSPTO_0725	8
PSPTO_0726	13
PSPTO_0727	15
PSPTO_0728	57
PSPTO_0729	44
PSPTO_0730	13
PSPTO_0731	6
PSPTO_0732	37
PSPTO_0733	45
PSPTO_0734	11
PSPTO_0735	13
PSPTO_0736	11
PSPTO_0737	36
PSPTO_0738	21
PSPTO_0739	31
PSPTO_0740	12
PSPTO_0741	14
PSPTO_0742	46
PSPTO_0743	92
PSPTO_0744	54
PSPTO_0745	1
PSPTO_0746	23
PSPTO_0747	8
PSPTO_0748	52
PSPTO_0749	9
PSPTO_0750	43
PSPTO_0751	23
PSPTO_0752	0
PSPTO_0753	21
PSPTO_0754	20
PSPTO_0755	14
PSPTO_0756	20
PSPTO_0757	18
PSPTO_0758	15
PSPTO_0759	31
PSPTO_0760	14
PSPTO_0761	10
PSPTO_0762	13
PSPTO_0763	9
PSPTO_0764	17
PSPTO_0765	13
PSPTO_0766	24
PSPTO_0767	13
PSPTO_0768	8
PSPTO_0769	23
PSPTO_0770	4
PSPTO_0771	7
PSPTO_0772	13
PSPTO_0773	14
PSPTO_0774	35
PSPTO_0775	32
PSPTO_0776	47
PSPTO_0777	54
PSPTO_0778	38
PSPTO_0779	15
PSPTO_0780	22
PSPTO_0781	7
PSPTO_0782	20
PSPTO_0783	15
PSPTO_0784	22
PSPTO_0785	17
PSPTO_0786	6
PSPTO_0787	14
PSPTO_0788	16
PSPTO_0789	15
PSPTO_0790	12
PSPTO_0791	20
PSPTO_0792	3
PSPTO_0793	9
PSPTO_0794	14
PSPTO_0795	15
PSPTO_0796	25
PSPTO_0797	21
PSPTO_0798	19
PSPTO_0799	20
PSPTO_0800	48
PSPTO_0801	23
PSPTO_0802	12
PSPTO_0803	3
PSPTO_0804	21
PSPTO_0805	31
PSPTO_0806	58
PSPTO_0807	10
PSPTO_0808	6
PSPTO_0809	20
PSPTO_0810	9
PSPTO_0811	13
PSPTO_0812	21
PSPTO_0813	13
PSPTO_0814	14
PSPTO_0815	78
PSPTO_0816	11
PSPTO_0817	45
PSPTO_0818	4
PSPTO_0819	9
PSPTO_0820	39
PSPTO_0821	14
PSPTO_0822	5
PSPTO_0823	18
PSPTO_0824	11
PSPTO_0825	1
PSPTO_0826	20
PSPTO_0827	17
PSPTO_0828	12
PSPTO_0829	137
PSPTO_0830	14
PSPTO_0831	31
PSPTO_0832	10
PSPTO_0833	13
PSPTO_0834	26
PSPTO_0835	12
PSPTO_0836	7
PSPTO_0837	16
PSPTO_0838	30
PSPTO_0840	31
PSPTO_0841	10
PSPTO_0842	1
PSPTO_0844	20
PSPTO_0846	26
PSPTO_0847	6
PSPTO_0848	14
PSPTO_0849	9
PSPTO_0850	2
PSPTO_0851	12
PSPTO_0852	20
PSPTO_0853	38
PSPTO_0854	14
PSPTO_0855	20
PSPTO_0856	16
PSPTO_0857	9
PSPTO_0858	8
PSPTO_0859	37
PSPTO_0860	1
PSPTO_0861	14
PSPTO_0862	11
PSPTO_0863	6
PSPTO_0864	12
PSPTO_0865	8
PSPTO_0866	2
PSPTO_0867	6
PSPTO_0868	2
PSPTO_0869	3
PSPTO_0871	35
PSPTO_0873	16
PSPTO_0874	17
PSPTO_0875	19
PSPTO_0876	48
PSPTO_0877	20
PSPTO_0878	13
PSPTO_0879	14
PSPTO_0880	10
PSPTO_0881	19
PSPTO_0882	13
PSPTO_0883	98
PSPTO_0884	10
PSPTO_0885	20
PSPTO_0886	19
PSPTO_0887	5
PSPTO_0888	14
PSPTO_0889	10
PSPTO_0890	16
PSPTO_0891	9
PSPTO_0892	46
PSPTO_0893	11
PSPTO_0894	16
PSPTO_0895	10
PSPTO_0896	16
PSPTO_0897	8
PSPTO_0898	37
PSPTO_0899	4
PSPTO_0900	3
PSPTO_0901	6
PSPTO_0902	23
PSPTO_0903	14
PSPTO_0904	28
PSPTO_0905	37
PSPTO_0906	10
PSPTO_0907	12
PSPTO_0908	20
PSPTO_0909	3
PSPTO_0910	9
PSPTO_0911	13
PSPTO_0912	40
PSPTO_0913	34
PSPTO_0914	7
PSPTO_0915	11
PSPTO_0916	24
PSPTO_0917	55
PSPTO_0918	0
PSPTO_0919	8
PSPTO_0920	13
PSPTO_0921	5
PSPTO_0922	5
PSPTO_0923	18
PSPTO_0924	18
PSPTO_0925	30
PSPTO_0926	40
PSPTO_0927	891
PSPTO_0928	6
PSPTO_0929	30
PSPTO_0930	10
PSPTO_0931	3
PSPTO_0932	10
PSPTO_0933	25
PSPTO_0934	29
PSPTO_0935	13
PSPTO_0936	24
PSPTO_0937	23
PSPTO_0938	32
PSPTO_0939	26
PSPTO_0940	64
PSPTO_0941	57
PSPTO_0942	44
PSPTO_0943	67
PSPTO_0944	99
PSPTO_0945	99
PSPTO_0946	23
PSPTO_0947	16
PSPTO_0948	12
PSPTO_0949	189
PSPTO_0950	12
PSPTO_0951	25
PSPTO_0952	7
PSPTO_0953	11
PSPTO_0954	76
PSPTO_0955	28
PSPTO_0956	22
PSPTO_0957	12
PSPTO_0958	15
PSPTO_0959	101
PSPTO_0960	8
PSPTO_0961	17
PSPTO_0962	9
PSPTO_0963	11
PSPTO_0964	62
PSPTO_0965	33
PSPTO_0966	0
PSPTO_0967	8
PSPTO_0968	13
PSPTO_0969	20
PSPTO_0970	15
PSPTO_0971	18
PSPTO_0972	7
PSPTO_0973	12
PSPTO_0974	1
PSPTO_0975	106
PSPTO_0976	55
PSPTO_0977	31
PSPTO_0978	19
PSPTO_0979	10
PSPTO_0980	5
PSPTO_0981	27
PSPTO_0982	7
PSPTO_0983	29
PSPTO_0984	15
PSPTO_0985	44
PSPTO_0986	19
PSPTO_0987	5
PSPTO_0988	28
PSPTO_0989	5
PSPTO_0990	12
PSPTO_0991	13
PSPTO_0992	9
PSPTO_0993	19
PSPTO_0994	68
PSPTO_0995	15
PSPTO_0996	16
PSPTO_0997	16
PSPTO_0998	9
PSPTO_0999	23
PSPTO_1000	41
PSPTO_1001	32
PSPTO_1002	50
PSPTO_1003	12
PSPTO_1004	12
PSPTO_1005	52
PSPTO_1006	6
PSPTO_1007	12
PSPTO_1008	82
PSPTO_1009	10
PSPTO_1010	23
PSPTO_1011	2
PSPTO_1012	4
PSPTO_1013	25
PSPTO_1014	13
PSPTO_1015	27
PSPTO_1016	84
PSPTO_1017	4
PSPTO_1018	1
PSPTO_1019	1
PSPTO_1020	26
PSPTO_1021	2
PSPTO_1022	19
PSPTO_1023	9
PSPTO_1024	11
PSPTO_1025	15
PSPTO_1026	14
PSPTO_1027	22
PSPTO_1028	24
PSPTO_1029	11
PSPTO_1030	54
PSPTO_1031	5
PSPTO_1032	7
PSPTO_1033	17
PSPTO_1034	24
PSPTO_1035	11
PSPTO_1036	10
PSPTO_1037	5
PSPTO_1038	9
PSPTO_1039	85
PSPTO_1040	19
PSPTO_1041	40
PSPTO_1042	15
PSPTO_1043	9
PSPTO_1044	4
PSPTO_1045	6
PSPTO_1046	5
PSPTO_1047	10
PSPTO_1048	8
PSPTO_1049	15
PSPTO_1050	4
PSPTO_1051	9
PSPTO_1052	19
PSPTO_1053	4
PSPTO_1054	17
PSPTO_1055	8
PSPTO_1056	23
PSPTO_1057	5
PSPTO_1058	6
PSPTO_1059	69
PSPTO_1060	1
PSPTO_1061	42
PSPTO_1062	49
PSPTO_1064	21
PSPTO_1065	28
PSPTO_1066	228
PSPTO_1067	48
PSPTO_1068	39
PSPTO_1069	7
PSPTO_1070	43
PSPTO_1071	31
PSPTO_1072	58
PSPTO_1073	28
PSPTO_1074	121
PSPTO_1075	12
PSPTO_1076	11
PSPTO_1077	8
PSPTO_1078	35
PSPTO_1079	71
PSPTO_1080	33
PSPTO_1081	36
PSPTO_1082	3
PSPTO_1083	21
PSPTO_1084	17
PSPTO_1085	17
PSPTO_1086	13
PSPTO_1087	32
PSPTO_1088	15
PSPTO_1089	53
PSPTO_1090	29
PSPTO_1091	10
PSPTO_1092	1
PSPTO_1093	52
PSPTO_1094	16
PSPTO_1095	11
PSPTO_1096	8
PSPTO_1097	65
PSPTO_1098	31
PSPTO_1099	2
PSPTO_1100	67
PSPTO_1101	14
PSPTO_1102	6
PSPTO_1103	36
PSPTO_1104	32
PSPTO_1105	12
PSPTO_1106	8
PSPTO_1107	54
PSPTO_1108	28
PSPTO_1109	32
PSPTO_1110	50
PSPTO_1111	36
PSPTO_1112	2
PSPTO_1114	4
PSPTO_1115	9
PSPTO_1116	11
PSPTO_1117	7
PSPTO_1118	21
PSPTO_1119	18
PSPTO_1120	7
PSPTO_1121	26
PSPTO_1122	27
PSPTO_1123	46
PSPTO_1124	10
PSPTO_1125	17
PSPTO_1126	111
PSPTO_1127	56
PSPTO_1128	29
PSPTO_1129	17
PSPTO_1130	20
PSPTO_1131	12
PSPTO_1132	14
PSPTO_1133	15
PSPTO_1134	11
PSPTO_1135	17
PSPTO_1136	91
PSPTO_1137	2
PSPTO_1138	36
PSPTO_1139	4
PSPTO_1140	18
PSPTO_1141	0
PSPTO_1142	5
PSPTO_1143	9
PSPTO_1144	16
PSPTO_1145	7
PSPTO_1146	11
PSPTO_1147	11
PSPTO_1148	46
PSPTO_1149	28
PSPTO_1150	23
PSPTO_1151	43
PSPTO_1152	24
PSPTO_1153	5
PSPTO_1154	9
PSPTO_1155	5
PSPTO_1156	16
PSPTO_1157	8
PSPTO_1158	8
PSPTO_1159	32
PSPTO_1160	24
PSPTO_1161	4
PSPTO_1162	9
PSPTO_1163	24
PSPTO_1164	110
PSPTO_1165	31
PSPTO_1166	14
PSPTO_1167	19
PSPTO_1168	10
PSPTO_1169	42
PSPTO_1170	6
PSPTO_1171	29
PSPTO_1172	20
PSPTO_1173	13
PSPTO_1174	13
PSPTO_1175	12
PSPTO_1176	1
PSPTO_1177	3
PSPTO_1178	33
PSPTO_1179	7
PSPTO_1180	10
PSPTO_1181	17
PSPTO_1182	16
PSPTO_1183	32
PSPTO_1184	61
PSPTO_1185	49
PSPTO_1186	11
PSPTO_1187	20
PSPTO_1188	19
PSPTO_1189	33
PSPTO_1190	2
PSPTO_1191	34
PSPTO_1192	12
PSPTO_1193	13
PSPTO_1194	20
PSPTO_1195	20
PSPTO_1196	27
PSPTO_1197	7
PSPTO_1198	1
PSPTO_1199	2
PSPTO_1200	19
PSPTO_1201	8
PSPTO_1202	61
PSPTO_1203	12
PSPTO_1204	29
PSPTO_1205	116
PSPTO_1206	38
PSPTO_1207	29
PSPTO_1208	18
PSPTO_1209	6
PSPTO_1210	6
PSPTO_1211	19
PSPTO_1212	5
PSPTO_1213	14
PSPTO_1214	11
PSPTO_1215	15
PSPTO_1216	24
PSPTO_1217	17
PSPTO_1218	28
PSPTO_1219	1
PSPTO_1220	7
PSPTO_1221	20
PSPTO_1222	4
PSPTO_1223	14
PSPTO_1224	7
PSPTO_1225	37
PSPTO_1226	2
PSPTO_1227	27
PSPTO_1228	21
PSPTO_1229	25
PSPTO_1230	5
PSPTO_1231	64
PSPTO_1232	33
PSPTO_1233	8
PSPTO_1234	13
PSPTO_1235	8
PSPTO_1236	9
PSPTO_1237	16
PSPTO_1238	18
PSPTO_1239	13
PSPTO_1240	22
PSPTO_1241	11
PSPTO_1242	16
PSPTO_1243	22
PSPTO_1244	8
PSPTO_1245	6
PSPTO_1246	189
PSPTO_1247	13
PSPTO_1248	6
PSPTO_1249	15
PSPTO_1250	6
PSPTO_1251	5
PSPTO_1252	3
PSPTO_1253	30
PSPTO_1254	14
PSPTO_1255	106
PSPTO_1256	16
PSPTO_1257	14
PSPTO_1258	15
PSPTO_1259	4
PSPTO_1260	17
PSPTO_1261	12
PSPTO_1262	2
PSPTO_1263	11
PSPTO_1264	2
PSPTO_1265	12
PSPTO_1266	52
PSPTO_1267	10
PSPTO_1268	74
PSPTO_1269	4
PSPTO_1270	8
PSPTO_1271	41
PSPTO_1272	17
PSPTO_1273	24
PSPTO_1274	152
PSPTO_1275	58
PSPTO_1276	145
PSPTO_1277	12
PSPTO_1278	75
PSPTO_1279	71
PSPTO_1280	19
PSPTO_1281	22
PSPTO_1282	9
PSPTO_1283	9
PSPTO_1284	30
PSPTO_1285	19
PSPTO_1286	8
PSPTO_1287	99
PSPTO_1288	52
PSPTO_1289	38
PSPTO_1290	32
PSPTO_1291	21
PSPTO_1292	36
PSPTO_1293	14
PSPTO_1294	7
PSPTO_1295	30
PSPTO_1296	64
PSPTO_1297	1
PSPTO_1298	14
PSPTO_1299	14
PSPTO_1300	45
PSPTO_1301	46
PSPTO_1302	47
PSPTO_1303	4
PSPTO_1304	12
PSPTO_1305	17
PSPTO_1306	16
PSPTO_1307	4
PSPTO_1308	38
PSPTO_1309	17
PSPTO_1310	24
PSPTO_1311	71
PSPTO_1312	16
PSPTO_1313	4
PSPTO_1314	3
PSPTO_1315	19
PSPTO_1316	15
PSPTO_1317	12
PSPTO_1318	6
PSPTO_1319	2
PSPTO_1320	80
PSPTO_1321	0
PSPTO_1322	25
PSPTO_1323	201
PSPTO_1324	29
PSPTO_1325	80
PSPTO_1326	238
PSPTO_1327	41
PSPTO_1328	19
PSPTO_1329	51
PSPTO_1330	23
PSPTO_1331	10
PSPTO_1332	75
PSPTO_1333	13
PSPTO_1334	232
PSPTO_1335	24
PSPTO_1336	3
PSPTO_1337	13
PSPTO_1338	28
PSPTO_1339	10
PSPTO_1340	59
PSPTO_1341	20
PSPTO_1342	11
PSPTO_1343	24
PSPTO_1344	2
PSPTO_1345	34
PSPTO_1346	22
PSPTO_1347	22
PSPTO_1348	88
PSPTO_1349	55
PSPTO_1350	12
PSPTO_1351	3
PSPTO_1352	4
PSPTO_1353	2
PSPTO_1354	3
PSPTO_1355	18
PSPTO_1356	13
PSPTO_1357	21
PSPTO_1358	13
PSPTO_1359	18
PSPTO_1360	25
PSPTO_1361	25
PSPTO_1362	5
PSPTO_1363	25
PSPTO_1364	4
PSPTO_1365	24
PSPTO_1366	1
PSPTO_1367	10
PSPTO_1368	8
PSPTO_1369	7
PSPTO_1370	15
PSPTO_1371	8
PSPTO_1372	14
PSPTO_1373	16
PSPTO_1374	2
PSPTO_1375	18
PSPTO_1376	3
PSPTO_1377	51
PSPTO_1378	16
PSPTO_1379	25
PSPTO_1380	19
PSPTO_1381	30
PSPTO_1382	22
PSPTO_1383	3
PSPTO_1384	4
PSPTO_1385	8
PSPTO_1386	3
PSPTO_1387	4
PSPTO_1388	4
PSPTO_1389	19
PSPTO_1390	6
PSPTO_1391	16
PSPTO_1392	12
PSPTO_1393	7
PSPTO_1394	2
PSPTO_1395	5
PSPTO_1396	3
PSPTO_1397	8
PSPTO_1398	6
PSPTO_1399	3
PSPTO_1400	13
PSPTO_1401	9
PSPTO_1402	10
PSPTO_1403	8
PSPTO_1404	9
PSPTO_1405	22
PSPTO_1406	6
PSPTO_1407	15
PSPTO_1408	6
PSPTO_1409	20
PSPTO_1410	348
PSPTO_1411	13
PSPTO_1412	13
PSPTO_1413	21
PSPTO_1414	10
PSPTO_1415	20
PSPTO_1416	21
PSPTO_1417	737
PSPTO_1418	15
PSPTO_1419	15
PSPTO_1420	14
PSPTO_1421	6
PSPTO_1422	9
PSPTO_1423	27
PSPTO_1424	17
PSPTO_1425	13
PSPTO_1426	17
PSPTO_1427	29
PSPTO_1428	7
PSPTO_1429	8
PSPTO_1430	21
PSPTO_1431	29
PSPTO_1432	9
PSPTO_1433	21
PSPTO_1434	39
PSPTO_1435	25
PSPTO_1436	25
PSPTO_1437	59
PSPTO_1438	23
PSPTO_1439	6
PSPTO_1440	8
PSPTO_1441	24
PSPTO_1443	28
PSPTO_1444	85
PSPTO_1445	8
PSPTO_1446	18
PSPTO_1447	3
PSPTO_1448	9
PSPTO_1449	62
PSPTO_1450	28
PSPTO_1451	32
PSPTO_1452	2
PSPTO_1453	74
PSPTO_1454	19
PSPTO_1455	23
PSPTO_1456	9
PSPTO_1457	6
PSPTO_1458	13
PSPTO_1459	74
PSPTO_1460	6
PSPTO_1461	7
PSPTO_1462	6
PSPTO_1463	2
PSPTO_1464	6
PSPTO_1465	12
PSPTO_1466	5
PSPTO_1467	6
PSPTO_1468	23
PSPTO_1469	14
PSPTO_1470	15
PSPTO_1471	6
PSPTO_1472	24
PSPTO_1473	15
PSPTO_1474	17
PSPTO_1475	34
PSPTO_1476	26
PSPTO_1477	14
PSPTO_1478	6
PSPTO_1479	7
PSPTO_1480	17
PSPTO_1481	38
PSPTO_1482	45
PSPTO_1483	36
PSPTO_1484	7
PSPTO_1485	61
PSPTO_1486	11
PSPTO_1487	14
PSPTO_1488	23
PSPTO_1489	50
PSPTO_1490	69
PSPTO_1491	100
PSPTO_1492	43
PSPTO_1493	162
PSPTO_1494	38
PSPTO_1495	57
PSPTO_1496	30
PSPTO_1497	108
PSPTO_1498	38
PSPTO_1499	40
PSPTO_1500	25
PSPTO_1501	19
PSPTO_1502	8
PSPTO_1503	67
PSPTO_1504	20
PSPTO_1505	6
PSPTO_1506	446
PSPTO_1507	170
PSPTO_1508	66
PSPTO_1509	20
PSPTO_1510	13
PSPTO_1511	35
PSPTO_1512	21
PSPTO_1513	12
PSPTO_1514	162
PSPTO_1515	21
PSPTO_1516	1
PSPTO_1517	1
PSPTO_1518	13
PSPTO_1519	6
PSPTO_1520	28
PSPTO_1521	3
PSPTO_1522	9
PSPTO_1523	19
PSPTO_1524	38
PSPTO_1525	18
PSPTO_1526	3
PSPTO_1527	14
PSPTO_1528	35
PSPTO_1529	9
PSPTO_1530	8
PSPTO_1531	20
PSPTO_1532	27
PSPTO_1533	11
PSPTO_1534	56
PSPTO_1535	20
PSPTO_1536	31
PSPTO_1537	23
PSPTO_1538	13
PSPTO_1539	16
PSPTO_1540	11
PSPTO_1541	53
PSPTO_1542	51
PSPTO_1543	8
PSPTO_1544	13
PSPTO_1545	7
PSPTO_1546	11
PSPTO_1547	24
PSPTO_1548	3
PSPTO_1549	71
PSPTO_1550	59
PSPTO_1551	30
PSPTO_1552	65
PSPTO_1553	28
PSPTO_1554	76
PSPTO_1555	4
PSPTO_1556	10
PSPTO_1557	7
PSPTO_1558	23
PSPTO_1559	17
PSPTO_1560	4
PSPTO_1561	10
PSPTO_1562	15
PSPTO_1563	16
PSPTO_1564	88
PSPTO_1565	157
PSPTO_1566	0
PSPTO_1567	15
PSPTO_1568	10
PSPTO_1570	3
PSPTO_1571	19
PSPTO_1572	5
PSPTO_1573	10
PSPTO_1574	11
PSPTO_1575	7
PSPTO_1576	4
PSPTO_1577	23
PSPTO_1578	11
PSPTO_1579	17
PSPTO_1580	12
PSPTO_1581	5
PSPTO_1582	17
PSPTO_1583	8
PSPTO_1584	13
PSPTO_1585	9
PSPTO_1586	5
PSPTO_1587	23
PSPTO_1588	27
PSPTO_1589	4
PSPTO_1590	8
PSPTO_1591	1
PSPTO_1592	6
PSPTO_1593	14
PSPTO_1594	5
PSPTO_1595	20
PSPTO_1596	70
PSPTO_1597	49
PSPTO_1598	22
PSPTO_1599	8
PSPTO_1600	66
PSPTO_1601	13
PSPTO_1602	25
PSPTO_1603	3
PSPTO_1604	39
PSPTO_1605	45
PSPTO_1606	25
PSPTO_1607	17
PSPTO_1608	80
PSPTO_1609	43
PSPTO_1610	25
PSPTO_1611	1
PSPTO_1612	26
PSPTO_1613	21
PSPTO_1614	4
PSPTO_1615	20
PSPTO_1616	4
PSPTO_1617	12
PSPTO_1618	18
PSPTO_1619	11
PSPTO_1620	89
PSPTO_1621	115
PSPTO_1622	18
PSPTO_1623	22
PSPTO_1624	95
PSPTO_1625	7
PSPTO_1626	5
PSPTO_1627	10
PSPTO_1628	8
PSPTO_1629	1
PSPTO_1630	5
PSPTO_1631	42
PSPTO_1632	62
PSPTO_1633	62
PSPTO_1634	7
PSPTO_1635	25
PSPTO_1636	10
PSPTO_1637	31
PSPTO_1638	10
PSPTO_1639	32
PSPTO_1640	49
PSPTO_1641	2
PSPTO_1642	7
PSPTO_1643	12
PSPTO_1644	24
PSPTO_1645	8
PSPTO_1646	47
PSPTO_1647	4
PSPTO_1648	28
PSPTO_1649	25
PSPTO_1650	35
PSPTO_1651	0
PSPTO_1652	6
PSPTO_1653	21
PSPTO_1654	14
PSPTO_1655	8
PSPTO_1656	18
PSPTO_1657	29
PSPTO_1658	6
PSPTO_1659	18
PSPTO_1660	65
PSPTO_1661	72
PSPTO_1662	3
PSPTO_1663	2
PSPTO_1664	6
PSPTO_1665	0
PSPTO_1666	13
PSPTO_1667	17
PSPTO_1668	4
PSPTO_1669	15
PSPTO_1670	32
PSPTO_1671	274
PSPTO_1672	7
PSPTO_1673	12
PSPTO_1674	15
PSPTO_1675	4
PSPTO_1676	12
PSPTO_1677	16
PSPTO_1678	5
PSPTO_1679	9
PSPTO_1680	17
PSPTO_1681	10
PSPTO_1682	134
PSPTO_1683	10
PSPTO_1684	11
PSPTO_1685	18
PSPTO_1686	7
PSPTO_1687	2
PSPTO_1688	13
PSPTO_1689	5
PSPTO_1690	6
PSPTO_1691	27
PSPTO_1692	9
PSPTO_1693	22
PSPTO_1694	51
PSPTO_1695	16
PSPTO_1696	13
PSPTO_1697	6
PSPTO_1698	99
PSPTO_1699	8
PSPTO_1700	21
PSPTO_1701	33
PSPTO_1702	52
PSPTO_1703	3
PSPTO_1704	8
PSPTO_1705	7
PSPTO_1706	4
PSPTO_1707	51
PSPTO_1708	9
PSPTO_1709	19
PSPTO_1710	12
PSPTO_1711	17
PSPTO_1712	7
PSPTO_1713	13
PSPTO_1714	11
PSPTO_1715	16
PSPTO_1716	9
PSPTO_1717	10
PSPTO_1718	23
PSPTO_1719	17
PSPTO_1720	45
PSPTO_1721	88
PSPTO_1722	8
PSPTO_1723	2
PSPTO_1724	23
PSPTO_1725	94
PSPTO_1726	7
PSPTO_1727	6
PSPTO_1728	12
PSPTO_1729	23
PSPTO_1730	26
PSPTO_1731	62
PSPTO_1732	34
PSPTO_1733	10
PSPTO_1734	19
PSPTO_1735	13
PSPTO_1736	30
PSPTO_1737	49
PSPTO_1738	28
PSPTO_1739	56
PSPTO_1740	17
PSPTO_1741	19
PSPTO_1742	18
PSPTO_1743	24
PSPTO_1744	22
PSPTO_1745	77
PSPTO_1746	19
PSPTO_1747	34
PSPTO_1748	32
PSPTO_1749	21
PSPTO_1750	392
PSPTO_1751	23
PSPTO_1752	11
PSPTO_1753	15
PSPTO_1754	27
PSPTO_1755	29
PSPTO_1756	113
PSPTO_1757	5
PSPTO_1758	16
PSPTO_1759	4
PSPTO_1760	7
PSPTO_1761	17
PSPTO_1762	10
PSPTO_1763	13
PSPTO_1764	14
PSPTO_1765	20
PSPTO_1766	11
PSPTO_1767	1
PSPTO_1768	17
PSPTO_1769	16
PSPTO_1770	6
PSPTO_1771	7
PSPTO_1772	8
PSPTO_1773	8
PSPTO_1774	1
PSPTO_1775	38
PSPTO_1776	14
PSPTO_1777	13
PSPTO_1778	33
PSPTO_1779	32
PSPTO_1780	15
PSPTO_1781	28
PSPTO_1782	32
PSPTO_1783	11
PSPTO_1784	5
PSPTO_1785	42
PSPTO_1786	4
PSPTO_1787	15
PSPTO_1788	10
PSPTO_1789	19
PSPTO_1790	14
PSPTO_1791	7
PSPTO_1792	14
PSPTO_1793	0
PSPTO_1794	19
PSPTO_1795	15
PSPTO_1796	4
PSPTO_1797	13
PSPTO_1798	5
PSPTO_1799	5
PSPTO_1800	17
PSPTO_1801	27
PSPTO_1802	24
PSPTO_1803	20
PSPTO_1804	0
PSPTO_1805	15
PSPTO_1806	39
PSPTO_1807	21
PSPTO_1808	15
PSPTO_1809	12
PSPTO_1810	15
PSPTO_1811	11
PSPTO_1812	13
PSPTO_1813	7
PSPTO_1814	8
PSPTO_1815	36
PSPTO_1816	2
PSPTO_1817	14
PSPTO_1818	4
PSPTO_1819	15
PSPTO_1820	13
PSPTO_1821	41
PSPTO_1822	143
PSPTO_1823	34
PSPTO_1824	3
PSPTO_1825	208
PSPTO_1826	20
PSPTO_1827	7
PSPTO_1828	6
PSPTO_1829	20
PSPTO_1830	8
PSPTO_1831	15
PSPTO_1832	34
PSPTO_1833	14
PSPTO_1834	19
PSPTO_1835	31
PSPTO_1836	20
PSPTO_1838	6
PSPTO_1839	28
PSPTO_1840	2
PSPTO_1841	25
PSPTO_1842	52
PSPTO_1843	29
PSPTO_1844	35
PSPTO_1845	4
PSPTO_1846	19
PSPTO_1847	216
PSPTO_1848	2
PSPTO_1849	7
PSPTO_1850	42
PSPTO_1851	36
PSPTO_1852	50
PSPTO_1853	3
PSPTO_1854	6
PSPTO_1855	24
PSPTO_1856	16
PSPTO_1857	18
PSPTO_1858	11
PSPTO_1859	12
PSPTO_1860	7
PSPTO_1861	7
PSPTO_1862	13
PSPTO_1863	7
PSPTO_1864	6
PSPTO_1865	14
PSPTO_1866	12
PSPTO_1867	7
PSPTO_1868	24
PSPTO_1869	5
PSPTO_1870	158
PSPTO_1871	20
PSPTO_1872	0
PSPTO_1873	17
PSPTO_1874	22
PSPTO_1875	12
PSPTO_1876	3
PSPTO_1877	6
PSPTO_1878	19
PSPTO_1879	47
PSPTO_1880	15
PSPTO_1881	27
PSPTO_1882	23
PSPTO_1883	18
PSPTO_1884	6
PSPTO_1885	14
PSPTO_1886	52
PSPTO_1887	21
PSPTO_1888	12
PSPTO_1889	15
PSPTO_1890	18
PSPTO_1891	22
PSPTO_1892	28
PSPTO_1893	16
PSPTO_1894	9
PSPTO_1895	6
PSPTO_1896	10
PSPTO_1897	17
PSPTO_1898	3
PSPTO_1899	19
PSPTO_1900	2
PSPTO_1901	13
PSPTO_1902	72
PSPTO_1903	8
PSPTO_1904	56
PSPTO_1905	4
PSPTO_1906	13
PSPTO_1907	17
PSPTO_1908	10
PSPTO_1909	18
PSPTO_1910	51
PSPTO_1911	79
PSPTO_1912	36
PSPTO_1913	146
PSPTO_1914	217
PSPTO_1915	109
PSPTO_1916	219
PSPTO_1917	20
PSPTO_1918	242
PSPTO_1919	110
PSPTO_1920	202
PSPTO_1921	17
PSPTO_1922	48
PSPTO_1923	156
PSPTO_1924	341
PSPTO_1925	392
PSPTO_1926	53
PSPTO_1927	366
PSPTO_1928	142
PSPTO_1929	18
PSPTO_1930	18
PSPTO_1931	18
PSPTO_1932	1
PSPTO_1933	378
PSPTO_1934	391
PSPTO_1935	447
PSPTO_1936	1278
PSPTO_1937	19
PSPTO_1938	4
PSPTO_1939	491
PSPTO_1940	888
PSPTO_1941	464
PSPTO_1942	295
PSPTO_1943	284
PSPTO_1944	428
PSPTO_1945	416
PSPTO_1946	144
PSPTO_1947	90
PSPTO_1948	29
PSPTO_1949	3870
PSPTO_1950	163
PSPTO_1951	1014
PSPTO_1952	342
PSPTO_1953	252
PSPTO_1954	206
PSPTO_1955	420
PSPTO_1956	261
PSPTO_1957	252
PSPTO_1958	387
PSPTO_1959	236
PSPTO_1960	142
PSPTO_1961	96
PSPTO_1962	18
PSPTO_1963	48
PSPTO_1964	69
PSPTO_1965	21
PSPTO_1966	483
PSPTO_1967	5
PSPTO_1968	104
PSPTO_1969	184
PSPTO_1970	134
PSPTO_1971	86
PSPTO_1972	48
PSPTO_1973	15
PSPTO_1974	31
PSPTO_1975	27
PSPTO_1976	426
PSPTO_1977	603
PSPTO_1978	203
PSPTO_1979	242
PSPTO_1980	130
PSPTO_1981	179
PSPTO_1982	873
PSPTO_1983	137
PSPTO_1984	28
PSPTO_1985	34
PSPTO_1986	114
PSPTO_1987	173
PSPTO_1988	253
PSPTO_1989	107
PSPTO_1990	16
PSPTO_1991	15
PSPTO_1992	40
PSPTO_1993	11
PSPTO_1994	8
PSPTO_1995	0
PSPTO_1996	29
PSPTO_1997	3
PSPTO_1998	14
PSPTO_1999	12
PSPTO_2000	11
PSPTO_2001	9
PSPTO_2002	0
PSPTO_2003	4
PSPTO_2004	18
PSPTO_2005	21
PSPTO_2006	7
PSPTO_2007	14
PSPTO_2008	15
PSPTO_2009	30
PSPTO_2010	13
PSPTO_2011	83
PSPTO_2012	6
PSPTO_2013	3
PSPTO_2014	39
PSPTO_2015	8
PSPTO_2016	63
PSPTO_2017	16
PSPTO_2018	11
PSPTO_2019	28
PSPTO_2020	61
PSPTO_2021	31
PSPTO_2022	11
PSPTO_2023	15
PSPTO_2024	14
PSPTO_2025	14
PSPTO_2026	13
PSPTO_2027	0
PSPTO_2028	7
PSPTO_2029	34
PSPTO_2030	22
PSPTO_2031	3
PSPTO_2032	13
PSPTO_2033	5
PSPTO_2034	8
PSPTO_2035	7
PSPTO_2036	5
PSPTO_2037	13
PSPTO_2038	13
PSPTO_2039	24
PSPTO_2040	18
PSPTO_2041	80
PSPTO_2042	35
PSPTO_2043	19
PSPTO_2044	21
PSPTO_2045	8
PSPTO_2046	5
PSPTO_2047	5
PSPTO_2048	26
PSPTO_2049	9
PSPTO_2050	8
PSPTO_2051	41
PSPTO_2052	3
PSPTO_2053	21
PSPTO_2054	30
PSPTO_2055	12
PSPTO_2056	23
PSPTO_2057	61
PSPTO_2058	7
PSPTO_2059	42
PSPTO_2060	37
PSPTO_2061	50
PSPTO_2062	14
PSPTO_2063	15
PSPTO_2064	32
PSPTO_2065	16
PSPTO_2066	7
PSPTO_2067	1
PSPTO_2068	10
PSPTO_2069	5
PSPTO_2070	11
PSPTO_2071	12
PSPTO_2072	3
PSPTO_2073	13
PSPTO_2074	2
PSPTO_2075	5
PSPTO_2076	6
PSPTO_2077	13
PSPTO_2078	7
PSPTO_2079	4
PSPTO_2080	4
PSPTO_2081	5
PSPTO_2082	14
PSPTO_2083	30
PSPTO_2084	1
PSPTO_2085	9
PSPTO_2086	3
PSPTO_2087	4
PSPTO_2088	2
PSPTO_2089	30
PSPTO_2090	15
PSPTO_2091	9
PSPTO_2092	20
PSPTO_2093	5
PSPTO_2094	8
PSPTO_2095	0
PSPTO_2096	3
PSPTO_2097	6
PSPTO_2098	10
PSPTO_2099	32
PSPTO_2100	4
PSPTO_2101	50
PSPTO_2102	29
PSPTO_2103	28
PSPTO_2104	15
PSPTO_2105	20
PSPTO_2106	50
PSPTO_2107	20
PSPTO_2108	14
PSPTO_2109	21
PSPTO_2110	20
PSPTO_2111	11
PSPTO_2112	15
PSPTO_2113	22
PSPTO_2114	10
PSPTO_2115	23
PSPTO_2116	13
PSPTO_2117	30
PSPTO_2118	60
PSPTO_2119	112
PSPTO_2120	14
PSPTO_2121	11
PSPTO_2122	5
PSPTO_2123	10
PSPTO_2124	39
PSPTO_2125	5
PSPTO_2126	18
PSPTO_2127	17
PSPTO_2128	8
PSPTO_2129	25
PSPTO_2130	7
PSPTO_2131	16
PSPTO_2132	8
PSPTO_2133	23
PSPTO_2134	86
PSPTO_2135	2250
PSPTO_2136	515
PSPTO_2137	133
PSPTO_2138	10
PSPTO_2139	14
PSPTO_2140	8
PSPTO_2141	20
PSPTO_2142	24
PSPTO_2143	13
PSPTO_2144	11
PSPTO_2145	22
PSPTO_2146	72
PSPTO_2147	165
PSPTO_2148	951
PSPTO_2149	804
PSPTO_2150	1647
PSPTO_2151	27
PSPTO_2152	248
PSPTO_2153	57
PSPTO_2154	35
PSPTO_2155	42
PSPTO_2156	31
PSPTO_2158	33
PSPTO_2159	36
PSPTO_2160	23
PSPTO_2161	128
PSPTO_2162	24
PSPTO_2163	42
PSPTO_2164	95
PSPTO_2165	26
PSPTO_2166	22
PSPTO_2167	35
PSPTO_2168	6
PSPTO_2169	20
PSPTO_2170	202
PSPTO_2171	153
PSPTO_2172	21
PSPTO_2173	83
PSPTO_2174	48
PSPTO_2175	81
PSPTO_2176	77
PSPTO_2177	12
PSPTO_2178	7
PSPTO_2179	23
PSPTO_2180	23
PSPTO_2181	20
PSPTO_2182	16
PSPTO_2183	11
PSPTO_2184	14
PSPTO_2185	17
PSPTO_2186	29
PSPTO_2187	13
PSPTO_2188	7
PSPTO_2189	10
PSPTO_2190	28
PSPTO_2191	30
PSPTO_2192	2
PSPTO_2193	36
PSPTO_2194	110
PSPTO_2195	29
PSPTO_2196	24
PSPTO_2197	98
PSPTO_2198	102
PSPTO_2199	340
PSPTO_2200	162
PSPTO_2201	167
PSPTO_2202	291
PSPTO_2203	309
PSPTO_2204	21
PSPTO_2205	8
PSPTO_2206	11
PSPTO_2207	159
PSPTO_2208	220
PSPTO_2209	44
PSPTO_2210	139
PSPTO_2211	70
PSPTO_2212	17
PSPTO_2213	33
PSPTO_2214	15
PSPTO_2215	19
PSPTO_2216	10
PSPTO_2217	20
PSPTO_2218	13
PSPTO_2219	1
PSPTO_2220	7
PSPTO_2221	18
PSPTO_2222	17
PSPTO_2223	12
PSPTO_2224	42
PSPTO_2225	38
PSPTO_2226	12
PSPTO_2227	10
PSPTO_2228	17
PSPTO_2229	1
PSPTO_2230	5
PSPTO_2231	41
PSPTO_2232	25
PSPTO_2233	16
PSPTO_2234	20
PSPTO_2235	9
PSPTO_2236	28
PSPTO_2237	66
PSPTO_2238	5
PSPTO_2239	95
PSPTO_2240	5
PSPTO_2241	0
PSPTO_2242	19
PSPTO_2243	31
PSPTO_2244	10
PSPTO_2245	79
PSPTO_2246	19
PSPTO_2247	24
PSPTO_2248	14
PSPTO_2249	17
PSPTO_2250	35
PSPTO_2251	35
PSPTO_2252	23
PSPTO_2253	5
PSPTO_2254	21
PSPTO_2255	7
PSPTO_2256	20
PSPTO_2257	16
PSPTO_2258	27
PSPTO_2259	44
PSPTO_2260	22
PSPTO_2261	19
PSPTO_2262	6
PSPTO_2263	15
PSPTO_2264	6
PSPTO_2265	14
PSPTO_2266	31
PSPTO_2267	8
PSPTO_2268	17
PSPTO_2269	6
PSPTO_2270	14
PSPTO_2271	0
PSPTO_2272	167
PSPTO_2273	0
PSPTO_2274	17
PSPTO_2275	14
PSPTO_2276	15
PSPTO_2277	16
PSPTO_2278	16
PSPTO_2279	47
PSPTO_2280	10
PSPTO_2281	14
PSPTO_2282	13
PSPTO_2283	17
PSPTO_2284	9
PSPTO_2285	4
PSPTO_2286	12
PSPTO_2287	24
PSPTO_2288	28
PSPTO_2289	37
PSPTO_2290	20
PSPTO_2291	8
PSPTO_2292	221
PSPTO_2293	15
PSPTO_2294	12
PSPTO_2295	35
PSPTO_2296	28
PSPTO_2297	52
PSPTO_2298	215
PSPTO_2299	2107
PSPTO_2300	11
PSPTO_2301	17
PSPTO_2302	9
PSPTO_2303	16
PSPTO_2304	19
PSPTO_2305	17
PSPTO_2306	3
PSPTO_2307	19
PSPTO_2308	3
PSPTO_2309	16
PSPTO_2310	86
PSPTO_2311	37
PSPTO_2312	26
PSPTO_2313	20
PSPTO_2314	25
PSPTO_2315	18
PSPTO_2316	12
PSPTO_2317	35
PSPTO_2318	14
PSPTO_2319	5
PSPTO_2320	7
PSPTO_2321	13
PSPTO_2322	7
PSPTO_2323	22
PSPTO_2324	13
PSPTO_2325	2
PSPTO_2326	26
PSPTO_2327	6
PSPTO_2328	19
PSPTO_2329	6
PSPTO_2330	1
PSPTO_2331	26
PSPTO_2332	7
PSPTO_2333	23
PSPTO_2334	28
PSPTO_2335	34
PSPTO_2336	11
PSPTO_2337	23
PSPTO_2338	14
PSPTO_2339	11
PSPTO_2340	24
PSPTO_2341	28
PSPTO_2342	4
PSPTO_2343	9
PSPTO_2344	14
PSPTO_2345	11
PSPTO_2346	49
PSPTO_2347	11
PSPTO_2348	7
PSPTO_2349	9
PSPTO_2350	191
PSPTO_2351	10
PSPTO_2352	7
PSPTO_2353	22
PSPTO_2354	25
PSPTO_2355	21
PSPTO_2356	18
PSPTO_2358	38
PSPTO_2359	19
PSPTO_2360	9
PSPTO_2361	17
PSPTO_2362	52
PSPTO_2363	5
PSPTO_2364	8
PSPTO_2365	6
PSPTO_2366	16
PSPTO_2367	8
PSPTO_2368	8
PSPTO_2369	12
PSPTO_2370	12
PSPTO_2371	19
PSPTO_2372	9
PSPTO_2373	22
PSPTO_2374	8
PSPTO_2375	18
PSPTO_2376	50
PSPTO_2377	56
PSPTO_2378	52
PSPTO_2379	191
PSPTO_2380	122
PSPTO_2381	102
PSPTO_2382	15
PSPTO_2383	46
PSPTO_2384	68
PSPTO_2385	26
PSPTO_2386	10
PSPTO_2387	9
PSPTO_2388	7
PSPTO_2389	8
PSPTO_2390	19
PSPTO_2391	9
PSPTO_2392	1
PSPTO_2394	30
PSPTO_2395	13
PSPTO_2396	10
PSPTO_2397	9
PSPTO_2398	18
PSPTO_2399	5
PSPTO_2400	12
PSPTO_2401	11
PSPTO_2402	10
PSPTO_2403	19
PSPTO_2404	7
PSPTO_2405	13
PSPTO_2406	3
PSPTO_2407	9
PSPTO_2408	10
PSPTO_2409	2
PSPTO_2410	16
PSPTO_2411	0
PSPTO_2412	4
PSPTO_2413	5
PSPTO_2414	3
PSPTO_2415	12
PSPTO_2416	12
PSPTO_2417	7
PSPTO_2418	7
PSPTO_2419	5
PSPTO_2420	2
PSPTO_2421	12
PSPTO_2422	23
PSPTO_2423	4
PSPTO_2424	6
PSPTO_2425	14
PSPTO_2426	21
PSPTO_2427	14
PSPTO_2428	27
PSPTO_2429	17
PSPTO_2430	15
PSPTO_2431	21
PSPTO_2432	17
PSPTO_2433	0
PSPTO_2434	11
PSPTO_2435	32
PSPTO_2436	6
PSPTO_2437	36
PSPTO_2438	37
PSPTO_2439	31
PSPTO_2440	16
PSPTO_2441	432
PSPTO_2442	165
PSPTO_2443	22
PSPTO_2444	5
PSPTO_2445	6
PSPTO_2446	12
PSPTO_2447	13
PSPTO_2448	35
PSPTO_2449	18
PSPTO_2450	62
PSPTO_2451	9
PSPTO_2452	28
PSPTO_2453	13
PSPTO_2454	16
PSPTO_2455	1
PSPTO_2456	1
PSPTO_2457	63
PSPTO_2458	36
PSPTO_2459	5
PSPTO_2460	27
PSPTO_2461	3
PSPTO_2462	3
PSPTO_2463	16
PSPTO_2464	10
PSPTO_2465	36
PSPTO_2466	3
PSPTO_2467	27
PSPTO_2468	1
PSPTO_2469	1
PSPTO_2470	27
PSPTO_2471	20
PSPTO_2472	137
PSPTO_2473	60
PSPTO_2474	11
PSPTO_2475	49
PSPTO_2476	24
PSPTO_2477	5
PSPTO_2478	19
PSPTO_2479	98
PSPTO_2480	91
PSPTO_2481	8
PSPTO_2482	8
PSPTO_2483	3
PSPTO_2484	22
PSPTO_2485	20
PSPTO_2486	7
PSPTO_2487	7
PSPTO_2488	8
PSPTO_2489	26
PSPTO_2490	28
PSPTO_2491	42
PSPTO_2492	19
PSPTO_2493	34
PSPTO_2494	7
PSPTO_2495	10
PSPTO_2496	10
PSPTO_2497	4
PSPTO_2498	3
PSPTO_2499	19
PSPTO_2500	32
PSPTO_2501	46
PSPTO_2502	5
PSPTO_2503	12
PSPTO_2504	9
PSPTO_2505	44
PSPTO_2506	73
PSPTO_2507	6
PSPTO_2508	7
PSPTO_2509	10
PSPTO_2510	18
PSPTO_2511	157
PSPTO_2513	2
PSPTO_2514	16
PSPTO_2515	39
PSPTO_2516	26
PSPTO_2517	27
PSPTO_2518	17
PSPTO_2519	21
PSPTO_2520	13
PSPTO_2521	1
PSPTO_2522	7
PSPTO_2523	10
PSPTO_2524	10
PSPTO_2525	11
PSPTO_2526	55
PSPTO_2527	14
PSPTO_2528	25
PSPTO_2529	0
PSPTO_2530	0
PSPTO_2531	13
PSPTO_2532	22
PSPTO_2533	9
PSPTO_2534	6
PSPTO_2535	37
PSPTO_2536	2
PSPTO_2537	4
PSPTO_2538	8
PSPTO_2539	4
PSPTO_2540	16
PSPTO_2541	24
PSPTO_2542	5
PSPTO_2543	8
PSPTO_2544	17
PSPTO_2545	9
PSPTO_2546	21
PSPTO_2547	13
PSPTO_2548	30
PSPTO_2549	14
PSPTO_2550	1
PSPTO_2551	4
PSPTO_2552	12
PSPTO_2553	9
PSPTO_2554	57
PSPTO_2555	8
PSPTO_2556	4
PSPTO_2557	10
PSPTO_2558	9
PSPTO_2559	5
PSPTO_2560	9
PSPTO_2561	15
PSPTO_2562	9
PSPTO_2563	12
PSPTO_2564	7
PSPTO_2565	14
PSPTO_2566	10
PSPTO_2567	10
PSPTO_2568	20
PSPTO_2569	27
PSPTO_2570	18
PSPTO_2571	25
PSPTO_2572	7
PSPTO_2573	15
PSPTO_2574	7
PSPTO_2575	10
PSPTO_2576	5
PSPTO_2577	12
PSPTO_2578	12
PSPTO_2579	9
PSPTO_2580	25
PSPTO_2581	15
PSPTO_2582	19
PSPTO_2583	12
PSPTO_2584	6
PSPTO_2585	11
PSPTO_2586	9
PSPTO_2587	2
PSPTO_2588	16
PSPTO_2589	10
PSPTO_2590	12
PSPTO_2591	23
PSPTO_2592	38
PSPTO_2593	19
PSPTO_2594	2
PSPTO_2595	170
PSPTO_2596	38
PSPTO_2597	170
PSPTO_2598	82
PSPTO_2599	130
PSPTO_2600	1312
PSPTO_2601	101
PSPTO_2602	922
PSPTO_2603	132
PSPTO_2604	169
PSPTO_2605	302
PSPTO_2606	46
PSPTO_2607	14
PSPTO_2608	8
PSPTO_2609	2
PSPTO_2610	6
PSPTO_2611	6
PSPTO_2612	10
PSPTO_2613	5
PSPTO_2614	6
PSPTO_2615	16
PSPTO_2616	359
PSPTO_2617	13
PSPTO_2618	14
PSPTO_2620	13
PSPTO_2621	27
PSPTO_2622	16
PSPTO_2623	22
PSPTO_2624	7
PSPTO_2625	27
PSPTO_2626	10
PSPTO_2627	16
PSPTO_2628	7
PSPTO_2629	7
PSPTO_2630	6
PSPTO_2631	3
PSPTO_2632	46
PSPTO_2633	8
PSPTO_2634	6
PSPTO_2635	13
PSPTO_2636	19
PSPTO_2637	8
PSPTO_2638	24
PSPTO_2639	21
PSPTO_2640	8
PSPTO_2641	6
PSPTO_2642	8
PSPTO_2643	7
PSPTO_2644	7
PSPTO_2645	16
PSPTO_2646	21
PSPTO_2647	18
PSPTO_2648	5
PSPTO_2649	27
PSPTO_2650	3
PSPTO_2651	2
PSPTO_2652	26
PSPTO_2653	40
PSPTO_2654	10
PSPTO_2655	17
PSPTO_2656	42
PSPTO_2657	31
PSPTO_2658	6
PSPTO_2659	19
PSPTO_2660	25
PSPTO_2661	22
PSPTO_2662	18
PSPTO_2663	20
PSPTO_2664	12
PSPTO_2665	8
PSPTO_2666	11
PSPTO_2667	9
PSPTO_2668	16
PSPTO_2669	5
PSPTO_2670	12
PSPTO_2671	26
PSPTO_2672	4
PSPTO_2673	20
PSPTO_2674	14
PSPTO_2675	3
PSPTO_2676	14
PSPTO_2677	6
PSPTO_2678	12
PSPTO_2679	2
PSPTO_2680	37
PSPTO_2681	3
PSPTO_2683	5
PSPTO_2684	664
PSPTO_2685	5
PSPTO_2686	7
PSPTO_2687	29
PSPTO_2688	13
PSPTO_2689	18
PSPTO_2690	5
PSPTO_2691	35
PSPTO_2692	17
PSPTO_2693	8
PSPTO_2694	10
PSPTO_2695	109
PSPTO_2696	32
PSPTO_2697	81
PSPTO_2698	11
PSPTO_2699	30
PSPTO_2700	676
PSPTO_2701	20
PSPTO_2702	24
PSPTO_2703	38
PSPTO_2704	20
PSPTO_2705	10
PSPTO_2706	3
PSPTO_2707	26
PSPTO_2708	9
PSPTO_2709	8
PSPTO_2710	24
PSPTO_2711	30
PSPTO_2712	36
PSPTO_2713	7
PSPTO_2714	18
PSPTO_2715	16
PSPTO_2716	62
PSPTO_2717	37
PSPTO_2718	43
PSPTO_2719	10
PSPTO_2720	29
PSPTO_2721	8
PSPTO_2722	18
PSPTO_2723	4
PSPTO_2724	6
PSPTO_2725	13
PSPTO_2726	5
PSPTO_2727	0
PSPTO_2728	21
PSPTO_2729	14
PSPTO_2730	31
PSPTO_2731	43
PSPTO_2732	100
PSPTO_2733	28
PSPTO_2734	16
PSPTO_2735	40
PSPTO_2736	35
PSPTO_2737	5
PSPTO_2738	14
PSPTO_2739	11
PSPTO_2740	11
PSPTO_2741	11
PSPTO_2742	8
PSPTO_2743	3
PSPTO_2744	6
PSPTO_2745	33
PSPTO_2746	11
PSPTO_2747	11
PSPTO_2748	30
PSPTO_2749	23
PSPTO_2750	55
PSPTO_2751	25
PSPTO_2752	31
PSPTO_2753	12
PSPTO_2754	38
PSPTO_2755	38
PSPTO_2756	21
PSPTO_2757	19
PSPTO_2758	16
PSPTO_2759	38
PSPTO_2760	123
PSPTO_2761	119
PSPTO_2762	118
PSPTO_2763	22
PSPTO_2764	18
PSPTO_2765	10
PSPTO_2766	19
PSPTO_2767	5
PSPTO_2768	1
PSPTO_2769	66
PSPTO_2770	5
PSPTO_2771	7
PSPTO_2772	10
PSPTO_2773	31
PSPTO_2774	9
PSPTO_2775	29
PSPTO_2776	11
PSPTO_2777	10
PSPTO_2778	5
PSPTO_2779	5
PSPTO_2780	10
PSPTO_2781	15
PSPTO_2782	22
PSPTO_2783	20
PSPTO_2784	40
PSPTO_2785	11
PSPTO_2786	6
PSPTO_2787	11
PSPTO_2788	16
PSPTO_2789	2
PSPTO_2790	11
PSPTO_2791	8
PSPTO_2792	6
PSPTO_2793	7
PSPTO_2794	14
PSPTO_2795	39
PSPTO_2796	17
PSPTO_2797	5
PSPTO_2798	8
PSPTO_2799	5
PSPTO_2800	7
PSPTO_2801	10
PSPTO_2802	9
PSPTO_2803	14
PSPTO_2804	11
PSPTO_2805	176
PSPTO_2806	27
PSPTO_2807	25
PSPTO_2808	12
PSPTO_2809	16
PSPTO_2810	5
PSPTO_2811	11
PSPTO_2812	10
PSPTO_2813	15
PSPTO_2814	11
PSPTO_2815	5
PSPTO_2816	4
PSPTO_2817	1
PSPTO_2818	17
PSPTO_2819	12
PSPTO_2820	15
PSPTO_2821	17
PSPTO_2822	10
PSPTO_2823	1
PSPTO_2824	14
PSPTO_2825	16
PSPTO_2826	1
PSPTO_2827	3
PSPTO_2828	64
PSPTO_2829	255
PSPTO_2830	918
PSPTO_2831	49
PSPTO_2832	78
PSPTO_2833	12
PSPTO_2834	13
PSPTO_2835	8
PSPTO_2836	15
PSPTO_2837	10
PSPTO_2838	1
PSPTO_2839	4
PSPTO_2840	31
PSPTO_2841	7
PSPTO_2842	13
PSPTO_2843	11
PSPTO_2844	15
PSPTO_2845	6
PSPTO_2846	16
PSPTO_2847	11
PSPTO_2848	2
PSPTO_2849	6
PSPTO_2850	6
PSPTO_2851	14
PSPTO_2852	6
PSPTO_2853	36
PSPTO_2855	3
PSPTO_2856	43
PSPTO_2857	11
PSPTO_2858	2
PSPTO_2859	36
PSPTO_2860	23
PSPTO_2861	5
PSPTO_2862	8
PSPTO_2863	34
PSPTO_2864	9
PSPTO_2865	8
PSPTO_2866	1
PSPTO_2867	5
PSPTO_2868	53
PSPTO_2869	1
PSPTO_2870	21
PSPTO_2871	42
PSPTO_2872	41
PSPTO_2873	12
PSPTO_2874	43
PSPTO_2875	12
PSPTO_2876	15
PSPTO_2877	20
PSPTO_2878	11
PSPTO_2879	6
PSPTO_2880	12
PSPTO_2881	7
PSPTO_2882	20
PSPTO_2883	54
PSPTO_2885	1
PSPTO_2886	5
PSPTO_2887	14
PSPTO_2888	7
PSPTO_2889	1
PSPTO_2890	1
PSPTO_2891	9
PSPTO_2892	2
PSPTO_2893	14
PSPTO_2894	27
PSPTO_2895	126
PSPTO_2896	65
PSPTO_2897	11
PSPTO_2898	15
PSPTO_2899	10
PSPTO_2900	11
PSPTO_2901	14
PSPTO_2902	14
PSPTO_2903	8
PSPTO_2904	12
PSPTO_2905	8
PSPTO_2906	11
PSPTO_2907	84
PSPTO_2908	59
PSPTO_2909	22
PSPTO_2910	16
PSPTO_2911	9
PSPTO_2912	10
PSPTO_2913	9
PSPTO_2914	4
PSPTO_2915	10
PSPTO_2916	6
PSPTO_2917	13
PSPTO_2918	3
PSPTO_2919	9
PSPTO_2920	5
PSPTO_2921	21
PSPTO_2922	5
PSPTO_2923	16
PSPTO_2924	1
PSPTO_2925	7
PSPTO_2926	16
PSPTO_2927	5
PSPTO_2928	9
PSPTO_2929	5
PSPTO_2930	3
PSPTO_2931	23
PSPTO_2932	22
PSPTO_2933	12
PSPTO_2934	7
PSPTO_2935	18
PSPTO_2936	9
PSPTO_2937	6
PSPTO_2938	5
PSPTO_2939	12
PSPTO_2940	18
PSPTO_2941	12
PSPTO_2942	1
PSPTO_2943	29
PSPTO_2944	7
PSPTO_2945	6
PSPTO_2946	17
PSPTO_2947	20
PSPTO_2948	10
PSPTO_2949	5
PSPTO_2950	13
PSPTO_2951	17
PSPTO_2952	62
PSPTO_2953	0
PSPTO_2954	5
PSPTO_2955	15
PSPTO_2956	8
PSPTO_2957	14
PSPTO_2958	5
PSPTO_2959	12
PSPTO_2960	15
PSPTO_2961	12
PSPTO_2962	6
PSPTO_2963	12
PSPTO_2964	11
PSPTO_2965	3
PSPTO_2966	6
PSPTO_2967	5
PSPTO_2968	14
PSPTO_2969	6
PSPTO_2970	2
PSPTO_2971	33
PSPTO_2972	32
PSPTO_2973	19
PSPTO_2974	13
PSPTO_2975	13
PSPTO_2976	37
PSPTO_2977	22
PSPTO_2978	19
PSPTO_2979	4
PSPTO_2980	15
PSPTO_2981	11
PSPTO_2982	33
PSPTO_2983	3
PSPTO_2984	16
PSPTO_2985	18
PSPTO_2986	5
PSPTO_2987	16
PSPTO_2988	14
PSPTO_2989	14
PSPTO_2990	11
PSPTO_2991	13
PSPTO_2992	12
PSPTO_2993	21
PSPTO_2994	7
PSPTO_2995	24
PSPTO_2996	12
PSPTO_2997	79
PSPTO_2998	7
PSPTO_2999	5
PSPTO_3000	3
PSPTO_3001	11
PSPTO_3002	12
PSPTO_3003	4
PSPTO_3004	11
PSPTO_3005	9
PSPTO_3006	9
PSPTO_3007	19
PSPTO_3008	11
PSPTO_3009	13
PSPTO_3010	9
PSPTO_3011	13
PSPTO_3012	7
PSPTO_3013	9
PSPTO_3014	12
PSPTO_3015	2
PSPTO_3016	6
PSPTO_3017	29
PSPTO_3018	1
PSPTO_3019	12
PSPTO_3020	10
PSPTO_3021	10
PSPTO_3022	17
PSPTO_3023	38
PSPTO_3024	21
PSPTO_3025	12
PSPTO_3026	2
PSPTO_3027	11
PSPTO_3028	33
PSPTO_3029	13
PSPTO_3030	9
PSPTO_3031	13
PSPTO_3032	18
PSPTO_3033	30
PSPTO_3034	3
PSPTO_3035	136
PSPTO_3036	24
PSPTO_3037	5
PSPTO_3038	16
PSPTO_3039	26
PSPTO_3040	10
PSPTO_3041	23
PSPTO_3042	4
PSPTO_3043	13
PSPTO_3044	9
PSPTO_3045	5
PSPTO_3046	29
PSPTO_3047	9
PSPTO_3048	8
PSPTO_3049	8
PSPTO_3050	18
PSPTO_3051	0
PSPTO_3052	10
PSPTO_3053	3
PSPTO_3054	12
PSPTO_3055	1
PSPTO_3056	8
PSPTO_3057	10
PSPTO_3058	14
PSPTO_3059	10
PSPTO_3060	18
PSPTO_3061	5
PSPTO_3062	17
PSPTO_3063	7
PSPTO_3064	14
PSPTO_3065	19
PSPTO_3066	5
PSPTO_3067	2
PSPTO_3068	32
PSPTO_3069	7
PSPTO_3070	2
PSPTO_3071	19
PSPTO_3072	7
PSPTO_3073	9
PSPTO_3074	31
PSPTO_3075	11
PSPTO_3076	7
PSPTO_3077	11
PSPTO_3078	4
PSPTO_3079	12
PSPTO_3080	15
PSPTO_3081	5
PSPTO_3082	9
PSPTO_3083	10
PSPTO_3084	8
PSPTO_3085	6
PSPTO_3086	5
PSPTO_3087	36
PSPTO_3088	13
PSPTO_3089	9
PSPTO_3090	10
PSPTO_3091	14
PSPTO_3092	14
PSPTO_3094	3
PSPTO_3095	10
PSPTO_3096	5
PSPTO_3097	1
PSPTO_3098	29
PSPTO_3099	20
PSPTO_3100	18
PSPTO_3101	12
PSPTO_3102	11
PSPTO_3103	60
PSPTO_3104	0
PSPTO_3105	27
PSPTO_3106	33
PSPTO_3107	25
PSPTO_3108	81
PSPTO_3109	10
PSPTO_3110	6
PSPTO_3111	32
PSPTO_3112	52
PSPTO_3113	150
PSPTO_3114	61
PSPTO_3115	16
PSPTO_3116	9
PSPTO_3117	3
PSPTO_3118	6
PSPTO_3119	76
PSPTO_3120	26
PSPTO_3121	75
PSPTO_3122	82
PSPTO_3123	89
PSPTO_3124	3
PSPTO_3125	165
PSPTO_3126	93
PSPTO_3127	96
PSPTO_3128	153
PSPTO_3129	190
PSPTO_3130	149
PSPTO_3131	38
PSPTO_3132	32
PSPTO_3133	12
PSPTO_3134	21
PSPTO_3135	64
PSPTO_3136	10
PSPTO_3137	23
PSPTO_3138	13
PSPTO_3139	3
PSPTO_3140	6
PSPTO_3141	26
PSPTO_3142	11
PSPTO_3143	16
PSPTO_3144	14
PSPTO_3145	204
PSPTO_3146	23
PSPTO_3147	8
PSPTO_3148	26
PSPTO_3149	63
PSPTO_3150	20
PSPTO_3151	5
PSPTO_3152	15
PSPTO_3153	12
PSPTO_3154	6
PSPTO_3155	485
PSPTO_3156	3
PSPTO_3157	184
PSPTO_3158	36
PSPTO_3159	23
PSPTO_3160	6
PSPTO_3161	15
PSPTO_3162	19
PSPTO_3163	12
PSPTO_3164	28
PSPTO_3165	13
PSPTO_3166	13
PSPTO_3167	6
PSPTO_3168	1
PSPTO_3169	2
PSPTO_3170	19
PSPTO_3171	12
PSPTO_3172	24
PSPTO_3173	13
PSPTO_3174	67
PSPTO_3175	7
PSPTO_3176	156
PSPTO_3177	44
PSPTO_3178	47
PSPTO_3179	125
PSPTO_3180	41
PSPTO_3181	6
PSPTO_3182	11
PSPTO_3183	6
PSPTO_3184	9
PSPTO_3185	19
PSPTO_3186	20
PSPTO_3187	2
PSPTO_3188	15
PSPTO_3189	17
PSPTO_3190	24
PSPTO_3191	10
PSPTO_3192	13
PSPTO_3193	66
PSPTO_3194	16
PSPTO_3195	26
PSPTO_3196	15
PSPTO_3197	27
PSPTO_3198	9
PSPTO_3199	13
PSPTO_3200	14
PSPTO_3201	9
PSPTO_3202	17
PSPTO_3203	4
PSPTO_3204	9
PSPTO_3205	17
PSPTO_3206	12
PSPTO_3207	13
PSPTO_3208	68
PSPTO_3210	46
PSPTO_3211	36
PSPTO_3212	1
PSPTO_3213	29
PSPTO_3214	12
PSPTO_3215	1
PSPTO_3216	28
PSPTO_3217	10
PSPTO_3218	23
PSPTO_3219	5
PSPTO_3220	10
PSPTO_3221	3
PSPTO_3222	12
PSPTO_3223	21
PSPTO_3224	13
PSPTO_3225	7
PSPTO_3226	8
PSPTO_3227	0
PSPTO_3228	6
PSPTO_3229	235
PSPTO_3230	19
PSPTO_3231	11
PSPTO_3232	3
PSPTO_3233	16
PSPTO_3234	11
PSPTO_3235	7
PSPTO_3236	10
PSPTO_3237	334
PSPTO_3238	14
PSPTO_3239	0
PSPTO_3240	4
PSPTO_3241	19
PSPTO_3242	23
PSPTO_3243	10
PSPTO_3244	7
PSPTO_3245	6
PSPTO_3246	11
PSPTO_3247	12
PSPTO_3248	15
PSPTO_3249	7
PSPTO_3250	7
PSPTO_3251	9
PSPTO_3252	7
PSPTO_3253	2
PSPTO_3254	16
PSPTO_3255	4
PSPTO_3256	11
PSPTO_3257	15
PSPTO_3258	15
PSPTO_3259	17
PSPTO_3260	6
PSPTO_3261	6
PSPTO_3262	22
PSPTO_3263	3
PSPTO_3264	26
PSPTO_3265	19
PSPTO_3266	5
PSPTO_3267	11
PSPTO_3268	8
PSPTO_3269	12
PSPTO_3270	119
PSPTO_3271	50
PSPTO_3272	18
PSPTO_3273	13
PSPTO_3274	28
PSPTO_3275	5
PSPTO_3276	0
PSPTO_3277	20
PSPTO_3278	25
PSPTO_3279	15
PSPTO_3280	18
PSPTO_3281	9
PSPTO_3282	47
PSPTO_3283	7
PSPTO_3284	8
PSPTO_3285	8
PSPTO_3286	8
PSPTO_3287	17
PSPTO_3288	2
PSPTO_3289	6
PSPTO_3290	8
PSPTO_3291	18
PSPTO_3292	11
PSPTO_3293	26
PSPTO_3294	39
PSPTO_3295	8
PSPTO_3296	39
PSPTO_3297	20
PSPTO_3298	16
PSPTO_3299	26
PSPTO_3300	12
PSPTO_3301	6
PSPTO_3302	36
PSPTO_3303	0
PSPTO_3304	10
PSPTO_3305	6
PSPTO_3306	15
PSPTO_3307	43
PSPTO_3308	9
PSPTO_3309	10
PSPTO_3310	16
PSPTO_3311	13
PSPTO_3312	14
PSPTO_3313	13
PSPTO_3314	18
PSPTO_3315	10
PSPTO_3316	33
PSPTO_3317	30
PSPTO_3318	22
PSPTO_3319	15
PSPTO_3320	9
PSPTO_3321	5
PSPTO_3322	11
PSPTO_3323	26
PSPTO_3324	0
PSPTO_3325	37
PSPTO_3326	19
PSPTO_3327	7
PSPTO_3328	17
PSPTO_3329	25
PSPTO_3330	22
PSPTO_3331	10
PSPTO_3332	21
PSPTO_3333	124
PSPTO_3334	7
PSPTO_3335	12
PSPTO_3336	12
PSPTO_3337	13
PSPTO_3338	3
PSPTO_3339	4
PSPTO_3340	4
PSPTO_3341	4
PSPTO_3342	8
PSPTO_3343	37
PSPTO_3344	40
PSPTO_3345	36
PSPTO_3346	4
PSPTO_3347	23
PSPTO_3348	11
PSPTO_3349	50
PSPTO_3350	8
PSPTO_3351	34
PSPTO_3352	9
PSPTO_3353	463
PSPTO_3354	25
PSPTO_3355	61
PSPTO_3356	254
PSPTO_3357	2
PSPTO_3358	10
PSPTO_3359	13
PSPTO_3360	12
PSPTO_3361	8
PSPTO_3362	6
PSPTO_3363	18
PSPTO_3364	17
PSPTO_3365	18
PSPTO_3366	109
PSPTO_3367	86
PSPTO_3368	23
PSPTO_3369	85
PSPTO_3370	101
PSPTO_3371	20
PSPTO_3372	11
PSPTO_3373	11
PSPTO_3374	8
PSPTO_3375	32
PSPTO_3376	49
PSPTO_3377	25
PSPTO_3378	32
PSPTO_3379	107
PSPTO_3380	20
PSPTO_3381	7
PSPTO_3382	3
PSPTO_3383	4
PSPTO_3384	10
PSPTO_3385	3
PSPTO_3386	50
PSPTO_3387	132
PSPTO_3388	11
PSPTO_3389	10
PSPTO_3390	15
PSPTO_3391	5
PSPTO_3392	10
PSPTO_3393	38
PSPTO_3394	4
PSPTO_3395	1
PSPTO_3396	7
PSPTO_3397	11
PSPTO_3398	28
PSPTO_3399	5
PSPTO_3400	14
PSPTO_3401	2
PSPTO_3402	2
PSPTO_3403	8
PSPTO_3404	4
PSPTO_3405	12
PSPTO_3406	1
PSPTO_3407	10
PSPTO_3408	2
PSPTO_3409	17
PSPTO_3410	18
PSPTO_3411	1
PSPTO_3412	21
PSPTO_3413	9
PSPTO_3414	0
PSPTO_3415	6
PSPTO_3416	4
PSPTO_3417	2
PSPTO_3418	34
PSPTO_3419	1
PSPTO_3420	4
PSPTO_3421	17
PSPTO_3422	3
PSPTO_3423	1
PSPTO_3424	1
PSPTO_3425	1
PSPTO_3426	1
PSPTO_3427	13
PSPTO_3428	4
PSPTO_3429	0
PSPTO_3430	7
PSPTO_3432	11
PSPTO_3433	18
PSPTO_3435	6
PSPTO_3436	11
PSPTO_3437	47
PSPTO_3438	5
PSPTO_3439	8
PSPTO_3440	14
PSPTO_3441	2
PSPTO_3442	0
PSPTO_3443	6
PSPTO_3444	1
PSPTO_3445	5
PSPTO_3446	13
PSPTO_3447	4
PSPTO_3448	4
PSPTO_3449	9
PSPTO_3450	10
PSPTO_3451	6
PSPTO_3452	14
PSPTO_3453	6
PSPTO_3454	7
PSPTO_3455	13
PSPTO_3456	16
PSPTO_3457	15
PSPTO_3458	9
PSPTO_3459	12
PSPTO_3460	23
PSPTO_3461	31
PSPTO_3462	70
PSPTO_3463	32
PSPTO_3464	38
PSPTO_3465	16
PSPTO_3466	5
PSPTO_3467	13
PSPTO_3468	20
PSPTO_3469	9
PSPTO_3470	10
PSPTO_3471	46
PSPTO_3472	5
PSPTO_3473	14
PSPTO_3474	6
PSPTO_3475	3
PSPTO_3476	5
PSPTO_3477	10
PSPTO_3478	16
PSPTO_3479	28
PSPTO_3480	61
PSPTO_3481	4
PSPTO_3482	18
PSPTO_3483	9
PSPTO_3484	15
PSPTO_3485	46
PSPTO_3486	2
PSPTO_3487	5
PSPTO_3488	22
PSPTO_3489	24
PSPTO_3490	13
PSPTO_3491	13
PSPTO_3492	55
PSPTO_3493	33
PSPTO_3494	55
PSPTO_3495	63
PSPTO_3496	60
PSPTO_3497	124
PSPTO_3498	51
PSPTO_3499	21
PSPTO_3500	48
PSPTO_3501	25
PSPTO_3502	30
PSPTO_3503	59
PSPTO_3504	28
PSPTO_3505	28
PSPTO_3506	12
PSPTO_3507	18
PSPTO_3508	23
PSPTO_3509	2
PSPTO_3510	11
PSPTO_3511	21
PSPTO_3512	66
PSPTO_3513	19
PSPTO_3514	61
PSPTO_3515	12
PSPTO_3516	43
PSPTO_3517	49
PSPTO_3518	2
PSPTO_3519	9
PSPTO_3520	24
PSPTO_3521	37
PSPTO_3522	40
PSPTO_3523	73
PSPTO_3524	301
PSPTO_3525	32
PSPTO_3526	21
PSPTO_3527	128
PSPTO_3528	16
PSPTO_3529	68
PSPTO_3530	86
PSPTO_3531	13
PSPTO_3532	39
PSPTO_3533	30
PSPTO_3534	39
PSPTO_3535	28
PSPTO_3536	22
PSPTO_3537	26
PSPTO_3538	14
PSPTO_3539	30
PSPTO_3540	7
PSPTO_3541	21
PSPTO_3542	8
PSPTO_3543	6
PSPTO_3544	12
PSPTO_3545	27
PSPTO_3546	4
PSPTO_3547	12
PSPTO_3548	44
PSPTO_3549	13
PSPTO_3550	70
PSPTO_3551	109
PSPTO_3552	9
PSPTO_3553	72
PSPTO_3554	21
PSPTO_3555	16
PSPTO_3556	12
PSPTO_3557	22
PSPTO_3558	17
PSPTO_3559	84
PSPTO_3560	65
PSPTO_3561	13
PSPTO_3562	3
PSPTO_3563	15
PSPTO_3564	8
PSPTO_3565	21
PSPTO_3566	36
PSPTO_3567	14
PSPTO_3568	1
PSPTO_3569	123
PSPTO_3570	33
PSPTO_3571	1
PSPTO_3572	27
PSPTO_3573	2
PSPTO_3574	74
PSPTO_3575	17
PSPTO_3576	8
PSPTO_3577	195
PSPTO_3578	10
PSPTO_3579	37
PSPTO_3580	242
PSPTO_3581	9
PSPTO_3582	20
PSPTO_3583	2
PSPTO_3584	23
PSPTO_3585	3
PSPTO_3586	15
PSPTO_3587	6
PSPTO_3588	8
PSPTO_3589	19
PSPTO_3590	10
PSPTO_3591	10
PSPTO_3592	13
PSPTO_3593	19
PSPTO_3594	11
PSPTO_3595	21
PSPTO_3596	20
PSPTO_3597	30
PSPTO_3598	29
PSPTO_3599	34
PSPTO_3600	10
PSPTO_3601	22
PSPTO_3602	83
PSPTO_3603	5
PSPTO_3604	13
PSPTO_3605	123
PSPTO_3606	2
PSPTO_3607	3
PSPTO_3608	10
PSPTO_3609	10
PSPTO_3610	11
PSPTO_3611	1
PSPTO_3612	5
PSPTO_3613	31
PSPTO_3614	2
PSPTO_3615	23
PSPTO_3616	30
PSPTO_3617	4
PSPTO_3618	19
PSPTO_3619	4
PSPTO_3620	13
PSPTO_3621	20
PSPTO_3624	12
PSPTO_3625	21
PSPTO_3626	27
PSPTO_3627	17
PSPTO_3628	4
PSPTO_3629	8
PSPTO_3630	36
PSPTO_3631	6
PSPTO_3632	0
PSPTO_3633	12
PSPTO_3634	9
PSPTO_3635	10
PSPTO_3636	14
PSPTO_3637	11
PSPTO_3638	7
PSPTO_3639	13
PSPTO_3640	19
PSPTO_3641	5
PSPTO_3642	14
PSPTO_3643	9
PSPTO_3644	17
PSPTO_3645	51
PSPTO_3646	30
PSPTO_3647	7
PSPTO_3648	15
PSPTO_3649	18
PSPTO_3650	29
PSPTO_3651	35
PSPTO_3652	1
PSPTO_3653	0
PSPTO_3654	5
PSPTO_3655	28
PSPTO_3656	33
PSPTO_3657	43
PSPTO_3658	46
PSPTO_3659	2
PSPTO_3660	82
PSPTO_3661	69
PSPTO_3662	30
PSPTO_3663	42
PSPTO_3664	10
PSPTO_3665	14
PSPTO_3666	28
PSPTO_3667	14
PSPTO_3668	33
PSPTO_3669	9
PSPTO_3670	19
PSPTO_3671	22
PSPTO_3672	15
PSPTO_3673	0
PSPTO_3674	15
PSPTO_3675	5
PSPTO_3676	2
PSPTO_3677	5
PSPTO_3678	14
PSPTO_3679	16
PSPTO_3680	31
PSPTO_3681	9
PSPTO_3682	15
PSPTO_3683	0
PSPTO_3684	7
PSPTO_3685	19
PSPTO_3686	15
PSPTO_3687	93
PSPTO_3688	22
PSPTO_3689	31
PSPTO_3690	15
PSPTO_3691	27
PSPTO_3692	59
PSPTO_3693	11
PSPTO_3694	14
PSPTO_3695	11
PSPTO_3696	63
PSPTO_3697	0
PSPTO_3698	2
PSPTO_3699	100
PSPTO_3700	74
PSPTO_3701	18
PSPTO_3702	18
PSPTO_3703	26
PSPTO_3704	29
PSPTO_3705	44
PSPTO_3706	25
PSPTO_3707	55
PSPTO_3708	90
PSPTO_3709	25
PSPTO_3710	10
PSPTO_3711	18
PSPTO_3712	10
PSPTO_3713	26
PSPTO_3714	11
PSPTO_3715	7
PSPTO_3716	11
PSPTO_3717	16
PSPTO_3718	12
PSPTO_3719	21
PSPTO_3720	34
PSPTO_3721	60
PSPTO_3722	36
PSPTO_3723	62
PSPTO_3724	363
PSPTO_3725	197
PSPTO_3726	40
PSPTO_3727	29
PSPTO_3728	5
PSPTO_3729	4
PSPTO_3730	29
PSPTO_3731	15
PSPTO_3732	8
PSPTO_3733	18
PSPTO_3734	19
PSPTO_3735	55
PSPTO_3736	13
PSPTO_3737	14
PSPTO_3738	14
PSPTO_3739	25
PSPTO_3740	12
PSPTO_3741	27
PSPTO_3742	26
PSPTO_3743	27
PSPTO_3744	19
PSPTO_3745	15
PSPTO_3746	29
PSPTO_3747	24
PSPTO_3748	14
PSPTO_3749	2
PSPTO_3750	6
PSPTO_3751	3
PSPTO_3752	224
PSPTO_3753	49
PSPTO_3754	26
PSPTO_3755	3
PSPTO_3756	25
PSPTO_3757	126
PSPTO_3758	17
PSPTO_3759	8
PSPTO_3760	8
PSPTO_3761	6
PSPTO_3762	17
PSPTO_3763	18
PSPTO_3764	16
PSPTO_3765	19
PSPTO_3766	37
PSPTO_3767	8
PSPTO_3768	82
PSPTO_3769	4
PSPTO_3770	17
PSPTO_3771	14
PSPTO_3772	12
PSPTO_3773	8
PSPTO_3774	8
PSPTO_3775	3
PSPTO_3776	11
PSPTO_3777	12
PSPTO_3778	25
PSPTO_3779	16
PSPTO_3780	16
PSPTO_3781	15
PSPTO_3782	8
PSPTO_3783	14
PSPTO_3784	19
PSPTO_3785	14
PSPTO_3786	27
PSPTO_3787	22
PSPTO_3788	129
PSPTO_3789	13
PSPTO_3790	10
PSPTO_3791	11
PSPTO_3792	14
PSPTO_3793	18
PSPTO_3794	8
PSPTO_3795	24
PSPTO_3796	26
PSPTO_3797	24
PSPTO_3798	15
PSPTO_3799	7
PSPTO_3800	30
PSPTO_3801	20
PSPTO_3802	12
PSPTO_3803	32
PSPTO_3804	15
PSPTO_3805	12
PSPTO_3806	17
PSPTO_3807	16
PSPTO_3808	12
PSPTO_3809	22
PSPTO_3810	50
PSPTO_3811	52
PSPTO_3812	19
PSPTO_3813	25
PSPTO_3814	27
PSPTO_3815	34
PSPTO_3816	15
PSPTO_3817	13
PSPTO_3818	155
PSPTO_3819	43
PSPTO_3820	25
PSPTO_3821	64
PSPTO_3822	13
PSPTO_3823	19
PSPTO_3824	21
PSPTO_3825	17
PSPTO_3826	17
PSPTO_3827	9
PSPTO_3828	17
PSPTO_3829	9
PSPTO_3830	47
PSPTO_3831	77
PSPTO_3832	36
PSPTO_3833	26
PSPTO_3834	27
PSPTO_3835	5
PSPTO_3836	29
PSPTO_3837	7
PSPTO_3838	30
PSPTO_3839	7
PSPTO_3840	12
PSPTO_3841	51
PSPTO_3842	13
PSPTO_3843	14
PSPTO_3844	2
PSPTO_3845	10
PSPTO_3846	9
PSPTO_3847	17
PSPTO_3848	38
PSPTO_3849	10
PSPTO_3850	6
PSPTO_3851	51
PSPTO_3852	11
PSPTO_3853	9
PSPTO_3854	12
PSPTO_3855	4
PSPTO_3856	13
PSPTO_3857	141
PSPTO_3858	6
PSPTO_3859	6
PSPTO_3860	59
PSPTO_3861	1
PSPTO_3862	39
PSPTO_3863	4
PSPTO_3864	84
PSPTO_3865	8
PSPTO_3866	1
PSPTO_3867	4
PSPTO_3868	4
PSPTO_3869	1
PSPTO_3870	17
PSPTO_3871	14
PSPTO_3872	22
PSPTO_3873	48
PSPTO_3874	25
PSPTO_3875	6
PSPTO_3876	10
PSPTO_3877	19
PSPTO_3878	43
PSPTO_3879	12
PSPTO_3880	9
PSPTO_3881	12
PSPTO_3882	10
PSPTO_3883	9
PSPTO_3884	33
PSPTO_3885	129
PSPTO_3886	16
PSPTO_3887	17
PSPTO_3888	18
PSPTO_3889	24
PSPTO_3890	108
PSPTO_3891	16
PSPTO_3892	10
PSPTO_3893	12
PSPTO_3894	24
PSPTO_3895	2
PSPTO_3896	1
PSPTO_3897	10
PSPTO_3898	13
PSPTO_3899	35
PSPTO_3900	42
PSPTO_3901	17
PSPTO_3902	23
PSPTO_3903	28
PSPTO_3904	5
PSPTO_3905	9
PSPTO_3906	16
PSPTO_3907	2
PSPTO_3908	18
PSPTO_3909	15
PSPTO_3910	10
PSPTO_3911	24
PSPTO_3912	23
PSPTO_3913	28
PSPTO_3914	35
PSPTO_3915	14
PSPTO_3916	5
PSPTO_3917	29
PSPTO_3918	5
PSPTO_3919	18
PSPTO_3920	9
PSPTO_3921	4
PSPTO_3922	11
PSPTO_3923	17
PSPTO_3924	28
PSPTO_3925	116
PSPTO_3926	23
PSPTO_3927	50
PSPTO_3929	3
PSPTO_3930	24
PSPTO_3931	0
PSPTO_3932	8
PSPTO_3933	2
PSPTO_3934	3
PSPTO_3935	4
PSPTO_3936	9
PSPTO_3937	10
PSPTO_3938	20
PSPTO_3939	20
PSPTO_3940	3
PSPTO_3941	8
PSPTO_3942	10
PSPTO_3943	1
PSPTO_3944	7
PSPTO_3945	1
PSPTO_3946	7
PSPTO_3947	3
PSPTO_3948	4
PSPTO_3949	39
PSPTO_3950	22
PSPTO_3951	13
PSPTO_3952	32
PSPTO_3953	32
PSPTO_3954	7
PSPTO_3955	8
PSPTO_3956	16
PSPTO_3957	4
PSPTO_3958	27
PSPTO_3959	28
PSPTO_3960	11
PSPTO_3961	9
PSPTO_3962	1
PSPTO_3963	18
PSPTO_3965	27
PSPTO_3966	1
PSPTO_3968	17
PSPTO_3969	12
PSPTO_3970	108
PSPTO_3971	216
PSPTO_3972	148
PSPTO_3973	87
PSPTO_3974	19
PSPTO_3975	35
PSPTO_3976	9
PSPTO_3977	28
PSPTO_3978	13
PSPTO_3979	8
PSPTO_3980	14
PSPTO_3981	37
PSPTO_3982	11
PSPTO_3983	21
PSPTO_3984	6
PSPTO_3985	9
PSPTO_3986	13
PSPTO_3987	246
PSPTO_3988	23
PSPTO_3989	11
PSPTO_3990	9
PSPTO_3991	64
PSPTO_3992	18
PSPTO_3993	51
PSPTO_3994	17
PSPTO_3995	19
PSPTO_3996	31
PSPTO_3997	2
PSPTO_3998	1
PSPTO_3999	24
PSPTO_4001	9
PSPTO_4002	19
PSPTO_4003	2
PSPTO_4004	13
PSPTO_4005	6
PSPTO_4006	26
PSPTO_4007	7
PSPTO_4008	6
PSPTO_4009	3
PSPTO_4010	28
PSPTO_4011	1
PSPTO_4012	10
PSPTO_4013	9
PSPTO_4014	10
PSPTO_4015	4
PSPTO_4016	3
PSPTO_4017	8
PSPTO_4018	21
PSPTO_4019	9
PSPTO_4020	7
PSPTO_4021	9
PSPTO_4022	6
PSPTO_4023	8
PSPTO_4024	29
PSPTO_4025	12
PSPTO_4026	1
PSPTO_4027	13
PSPTO_4028	1
PSPTO_4029	5
PSPTO_4030	17
PSPTO_4031	19
PSPTO_4032	15
PSPTO_4033	75
PSPTO_4034	21
PSPTO_4035	6
PSPTO_4036	4
PSPTO_4037	3
PSPTO_4038	13
PSPTO_4039	9
PSPTO_4040	13
PSPTO_4041	38
PSPTO_4042	1
PSPTO_4043	7
PSPTO_4044	12
PSPTO_4045	15
PSPTO_4046	38
PSPTO_4047	10
PSPTO_4048	4
PSPTO_4049	1
PSPTO_4050	3
PSPTO_4051	6
PSPTO_4052	9
PSPTO_4053	1
PSPTO_4054	10
PSPTO_4055	0
PSPTO_4056	3
PSPTO_4057	22
PSPTO_4058	46
PSPTO_4059	5
PSPTO_4060	18
PSPTO_4061	17
PSPTO_4062	8
PSPTO_4063	17
PSPTO_4064	12
PSPTO_4065	4
PSPTO_4066	4
PSPTO_4067	8
PSPTO_4068	14
PSPTO_4069	6
PSPTO_4070	3
PSPTO_4071	14
PSPTO_4072	7
PSPTO_4073	16
PSPTO_4074	5
PSPTO_4075	7
PSPTO_4076	15
PSPTO_4077	9
PSPTO_4078	13
PSPTO_4079	69
PSPTO_4080	8
PSPTO_4081	34
PSPTO_4082	14
PSPTO_4083	9
PSPTO_4084	44
PSPTO_4087	6
PSPTO_4088	24
PSPTO_4089	14
PSPTO_4090	16
PSPTO_4091	24
PSPTO_4092	24
PSPTO_4093	60
PSPTO_4094	13
PSPTO_4095	53
PSPTO_4096	4
PSPTO_4097	20
PSPTO_4098	30
PSPTO_4099	0
PSPTO_4100	12
PSPTO_4101	18
PSPTO_4102	2
PSPTO_4103	42
PSPTO_4104	43
PSPTO_4105	21
PSPTO_4106	30
PSPTO_4107	2
PSPTO_4108	76
PSPTO_4109	7
PSPTO_4110	25
PSPTO_4111	5
PSPTO_4112	7
PSPTO_4113	11
PSPTO_4114	30
PSPTO_4115	123
PSPTO_4116	7
PSPTO_4117	35
PSPTO_4118	3
PSPTO_4119	13
PSPTO_4120	27
PSPTO_4121	12
PSPTO_4122	8
PSPTO_4123	17
PSPTO_4124	8
PSPTO_4125	3
PSPTO_4126	8
PSPTO_4127	14
PSPTO_4128	25
PSPTO_4129	27
PSPTO_4130	3
PSPTO_4131	1
PSPTO_4132	13
PSPTO_4133	36
PSPTO_4134	28
PSPTO_4135	54
PSPTO_4136	34
PSPTO_4137	4
PSPTO_4138	2
PSPTO_4139	14
PSPTO_4140	12
PSPTO_4141	35
PSPTO_4142	10
PSPTO_4143	124
PSPTO_4144	11
PSPTO_4145	114
PSPTO_4146	31
PSPTO_4147	21
PSPTO_4148	10
PSPTO_4149	7
PSPTO_4150	6
PSPTO_4151	22
PSPTO_4152	26
PSPTO_4153	1
PSPTO_4154	2
PSPTO_4155	48
PSPTO_4156	161
PSPTO_4157	14
PSPTO_4158	7
PSPTO_4159	20
PSPTO_4160	4
PSPTO_4161	29
PSPTO_4162	38
PSPTO_4163	16
PSPTO_4164	17
PSPTO_4165	21
PSPTO_4166	15
PSPTO_4167	57
PSPTO_4168	174
PSPTO_4169	33
PSPTO_4170	941
PSPTO_4171	6
PSPTO_4172	11
PSPTO_4173	3
PSPTO_4174	12
PSPTO_4175	22
PSPTO_4176	17
PSPTO_4177	10
PSPTO_4178	32
PSPTO_4179	328
PSPTO_4180	14
PSPTO_4181	11
PSPTO_4182	25
PSPTO_4183	29
PSPTO_4184	4
PSPTO_4185	9
PSPTO_4186	4
PSPTO_4187	12
PSPTO_4188	8
PSPTO_4189	5
PSPTO_4190	11
PSPTO_4191	60
PSPTO_4192	12
PSPTO_4193	16
PSPTO_4194	5
PSPTO_4195	4
PSPTO_4196	109
PSPTO_4197	16
PSPTO_4198	12
PSPTO_4199	8
PSPTO_4200	7
PSPTO_4201	8
PSPTO_4202	18
PSPTO_4203	13
PSPTO_4204	19
PSPTO_4205	18
PSPTO_4206	13
PSPTO_4207	24
PSPTO_4208	69
PSPTO_4209	60
PSPTO_4210	120
PSPTO_4211	8
PSPTO_4212	14
PSPTO_4213	14
PSPTO_4214	7
PSPTO_4215	12
PSPTO_4216	17
PSPTO_4217	11
PSPTO_4218	7
PSPTO_4219	17
PSPTO_4220	20
PSPTO_4221	207
PSPTO_4222	448
PSPTO_4223	1448
PSPTO_4224	284
PSPTO_4225	25
PSPTO_4226	7
PSPTO_4227	8
PSPTO_4228	16
PSPTO_4229	27
PSPTO_4230	15
PSPTO_4231	8
PSPTO_4232	13
PSPTO_4233	2
PSPTO_4234	12
PSPTO_4235	14
PSPTO_4236	56
PSPTO_4237	330
PSPTO_4238	13
PSPTO_4239	5
PSPTO_4240	8
PSPTO_4241	8
PSPTO_4242	5
PSPTO_4243	53
PSPTO_4244	22
PSPTO_4245	28
PSPTO_4246	2
PSPTO_4247	4
PSPTO_4248	12
PSPTO_4249	28
PSPTO_4250	16
PSPTO_4251	33
PSPTO_4252	0
PSPTO_4253	21
PSPTO_4254	34
PSPTO_4255	2
PSPTO_4256	14
PSPTO_4257	2
PSPTO_4258	6
PSPTO_4259	21
PSPTO_4260	4
PSPTO_4261	5
PSPTO_4262	7
PSPTO_4263	9
PSPTO_4264	8
PSPTO_4265	20
PSPTO_4266	3
PSPTO_4267	17
PSPTO_4268	3
PSPTO_4269	9
PSPTO_4270	8
PSPTO_4271	12
PSPTO_4272	22
PSPTO_4273	5
PSPTO_4274	8
PSPTO_4275	11
PSPTO_4276	10
PSPTO_4277	7
PSPTO_4278	15
PSPTO_4279	3
PSPTO_4280	8
PSPTO_4281	9
PSPTO_4282	3
PSPTO_4283	14
PSPTO_4284	13
PSPTO_4285	40
PSPTO_4286	15
PSPTO_4287	16
PSPTO_4288	18
PSPTO_4289	25
PSPTO_4290	32
PSPTO_4291	17
PSPTO_4292	14
PSPTO_4293	92
PSPTO_4294	48
PSPTO_4295	42
PSPTO_4296	11
PSPTO_4297	14
PSPTO_4298	11
PSPTO_4299	3
PSPTO_4300	59
PSPTO_4301	9
PSPTO_4302	12
PSPTO_4303	25
PSPTO_4304	69
PSPTO_4305	70
PSPTO_4306	20
PSPTO_4307	19
PSPTO_4308	13
PSPTO_4309	22
PSPTO_4310	15
PSPTO_4312	9
PSPTO_4313	4
PSPTO_4314	6
PSPTO_4315	68
PSPTO_4316	14
PSPTO_4317	11
PSPTO_4318	14
PSPTO_4319	11
PSPTO_4320	16
PSPTO_4321	50
PSPTO_4322	57
PSPTO_4323	27
PSPTO_4324	62
PSPTO_4325	99
PSPTO_4326	4
PSPTO_4327	12
PSPTO_4328	8
PSPTO_4329	25
PSPTO_4330	2
PSPTO_4331	4
PSPTO_4332	21
PSPTO_4333	13
PSPTO_4334	13
PSPTO_4335	69
PSPTO_4336	76
PSPTO_4337	56
PSPTO_4338	19
PSPTO_4339	40
PSPTO_4340	71
PSPTO_4341	38
PSPTO_4342	34
PSPTO_4343	35
PSPTO_4344	37
PSPTO_4345	0
PSPTO_4346	8
PSPTO_4347	21
PSPTO_4348	22
PSPTO_4349	15
PSPTO_4350	15
PSPTO_4351	2
PSPTO_4352	12
PSPTO_4353	6
PSPTO_4354	8
PSPTO_4355	11
PSPTO_4356	2
PSPTO_4357	14
PSPTO_4358	23
PSPTO_4359	41
PSPTO_4360	23
PSPTO_4361	16
PSPTO_4362	4
PSPTO_4363	27
PSPTO_4364	1
PSPTO_4365	38
PSPTO_4366	50
PSPTO_4367	20
PSPTO_4368	11
PSPTO_4369	11
PSPTO_4370	20
PSPTO_4371	20
PSPTO_4372	4
PSPTO_4373	30
PSPTO_4374	16
PSPTO_4375	9
PSPTO_4376	357
PSPTO_4377	37
PSPTO_4378	1
PSPTO_4379	21
PSPTO_4380	12
PSPTO_4381	44
PSPTO_4382	8
PSPTO_4383	14
PSPTO_4384	4
PSPTO_4385	22
PSPTO_4386	55
PSPTO_4387	40
PSPTO_4388	3
PSPTO_4389	28
PSPTO_4390	4
PSPTO_4392	27
PSPTO_4393	17
PSPTO_4394	12
PSPTO_4395	22
PSPTO_4396	23
PSPTO_4397	22
PSPTO_4398	17
PSPTO_4399	15
PSPTO_4400	98
PSPTO_4401	12
PSPTO_4402	96
PSPTO_4403	193
PSPTO_4404	40
PSPTO_4405	21
PSPTO_4406	19
PSPTO_4407	25
PSPTO_4408	23
PSPTO_4409	36
PSPTO_4410	25
PSPTO_4411	31
PSPTO_4412	40
PSPTO_4413	42
PSPTO_4414	23
PSPTO_4415	4
PSPTO_4416	22
PSPTO_4417	23
PSPTO_4418	38
PSPTO_4419	36
PSPTO_4420	12
PSPTO_4421	4
PSPTO_4422	90
PSPTO_4423	16
PSPTO_4424	8
PSPTO_4425	32
PSPTO_4426	33
PSPTO_4427	13
PSPTO_4428	8
PSPTO_4429	11
PSPTO_4430	11
PSPTO_4431	25
PSPTO_4432	26
PSPTO_4433	8
PSPTO_4434	23
PSPTO_4435	10
PSPTO_4436	7
PSPTO_4437	30
PSPTO_4438	39
PSPTO_4439	12
PSPTO_4440	0
PSPTO_4441	39
PSPTO_4442	10
PSPTO_4443	31
PSPTO_4444	65
PSPTO_4445	24
PSPTO_4446	17
PSPTO_4447	26
PSPTO_4448	9
PSPTO_4449	7
PSPTO_4450	4
PSPTO_4451	28
PSPTO_4452	31
PSPTO_4453	43
PSPTO_4454	144
PSPTO_4455	52
PSPTO_4456	7
PSPTO_4457	4
PSPTO_4458	6
PSPTO_4459	56
PSPTO_4460	48
PSPTO_4461	85
PSPTO_4462	13
PSPTO_4463	38
PSPTO_4464	7
PSPTO_4465	52
PSPTO_4466	28
PSPTO_4467	42
PSPTO_4468	34
PSPTO_4469	14
PSPTO_4470	3
PSPTO_4471	14
PSPTO_4472	35
PSPTO_4473	10
PSPTO_4474	38
PSPTO_4475	26
PSPTO_4476	7
PSPTO_4477	10
PSPTO_4478	5
PSPTO_4479	16
PSPTO_4480	12
PSPTO_4481	7
PSPTO_4482	29
PSPTO_4483	5
PSPTO_4484	31
PSPTO_4485	16
PSPTO_4486	45
PSPTO_4487	49
PSPTO_4488	15
PSPTO_4489	4
PSPTO_4490	86
PSPTO_4491	47
PSPTO_4492	12
PSPTO_4493	15
PSPTO_4494	27
PSPTO_4495	29
PSPTO_4496	23
PSPTO_4497	269
PSPTO_4498	33
PSPTO_4499	4
PSPTO_4500	15
PSPTO_4501	113
PSPTO_4502	41
PSPTO_4503	25
PSPTO_4504	41
PSPTO_4505	714
PSPTO_4506	66
PSPTO_4507	46
PSPTO_4508	27
PSPTO_4509	21
PSPTO_4510	8
PSPTO_4511	18
PSPTO_4512	5
PSPTO_4513	16
PSPTO_4514	24
PSPTO_4515	7
PSPTO_4516	83
PSPTO_4517	7
PSPTO_4518	50
PSPTO_4519	64
PSPTO_4520	21
PSPTO_4521	7
PSPTO_4522	14
PSPTO_4523	10
PSPTO_4524	14
PSPTO_4525	0
PSPTO_4526	17
PSPTO_4527	10
PSPTO_4528	30
PSPTO_4529	51
PSPTO_4530	144
PSPTO_4531	155
PSPTO_4532	28
PSPTO_4533	11
PSPTO_4534	22
PSPTO_4535	10
PSPTO_4536	14
PSPTO_4537	12
PSPTO_4538	22
PSPTO_4539	12
PSPTO_4540	6
PSPTO_4541	101
PSPTO_4542	26
PSPTO_4543	210
PSPTO_4544	38
PSPTO_4545	10
PSPTO_4546	49
PSPTO_4547	30
PSPTO_4548	12
PSPTO_4549	9
PSPTO_4550	21
PSPTO_4551	18
PSPTO_4552	3
PSPTO_4553	19
PSPTO_4554	16
PSPTO_4555	18
PSPTO_4556	10
PSPTO_4557	25
PSPTO_4558	70
PSPTO_4559	18
PSPTO_4560	15
PSPTO_4561	15
PSPTO_4562	11
PSPTO_4563	12
PSPTO_4564	10
PSPTO_4565	12
PSPTO_4566	4
PSPTO_4567	28
PSPTO_4568	6
PSPTO_4569	30
PSPTO_4570	12
PSPTO_4571	17
PSPTO_4572	50
PSPTO_4573	6
PSPTO_4574	33
PSPTO_4575	33
PSPTO_4576	13
PSPTO_4577	10
PSPTO_4578	12
PSPTO_4579	11
PSPTO_4580	44
PSPTO_4581	13
PSPTO_4582	19
PSPTO_4583	11
PSPTO_4584	12
PSPTO_4585	42
PSPTO_4586	775
PSPTO_4587	43
PSPTO_4588	4
PSPTO_4589	24
PSPTO_4590	4
PSPTO_4591	4
PSPTO_4592	2
PSPTO_4593	35
PSPTO_4594	9
PSPTO_4595	12
PSPTO_4596	19
PSPTO_4597	5
PSPTO_4599	5
PSPTO_4600	8
PSPTO_4601	5
PSPTO_4602	41
PSPTO_4603	18
PSPTO_4604	48
PSPTO_4605	45
PSPTO_4606	21
PSPTO_4607	39
PSPTO_4608	12
PSPTO_4609	7
PSPTO_4610	55
PSPTO_4611	68
PSPTO_4612	19
PSPTO_4613	119
PSPTO_4614	8
PSPTO_4615	14
PSPTO_4616	22
PSPTO_4617	2
PSPTO_4618	7
PSPTO_4619	11
PSPTO_4620	20
PSPTO_4621	12
PSPTO_4622	22
PSPTO_4623	3
PSPTO_4624	132
PSPTO_4625	13
PSPTO_4626	12
PSPTO_4627	44
PSPTO_4628	7
PSPTO_4629	9
PSPTO_4630	12
PSPTO_4631	66
PSPTO_4632	128
PSPTO_4633	14
PSPTO_4634	15
PSPTO_4635	11
PSPTO_4636	5
PSPTO_4637	10
PSPTO_4638	49
PSPTO_4639	22
PSPTO_4640	37
PSPTO_4641	82
PSPTO_4642	28
PSPTO_4643	10
PSPTO_4644	2
PSPTO_4645	20
PSPTO_4646	8
PSPTO_4647	28
PSPTO_4648	40
PSPTO_4649	1
PSPTO_4650	27
PSPTO_4651	13
PSPTO_4652	10
PSPTO_4653	17
PSPTO_4654	19
PSPTO_4656	12
PSPTO_4657	26
PSPTO_4658	27
PSPTO_4659	11
PSPTO_4660	16
PSPTO_4661	15
PSPTO_4662	16
PSPTO_4663	12
PSPTO_4664	14
PSPTO_4665	9
PSPTO_4666	7
PSPTO_4667	29
PSPTO_4668	5
PSPTO_4669	7
PSPTO_4670	18
PSPTO_4671	13
PSPTO_4672	0
PSPTO_4673	52
PSPTO_4674	3
PSPTO_4675	9
PSPTO_4676	12
PSPTO_4677	11
PSPTO_4678	9
PSPTO_4679	19
PSPTO_4680	24
PSPTO_4681	3
PSPTO_4682	2
PSPTO_4683	24
PSPTO_4684	7
PSPTO_4685	14
PSPTO_4686	148
PSPTO_4687	120
PSPTO_4688	5
PSPTO_4689	32
PSPTO_4690	10
PSPTO_4691	20
PSPTO_4692	6
PSPTO_4693	21
PSPTO_4694	2
PSPTO_4695	3
PSPTO_4696	27
PSPTO_4697	4
PSPTO_4699	250
PSPTO_4702	17
PSPTO_4703	5
PSPTO_4704	11
PSPTO_4705	12
PSPTO_4706	2
PSPTO_4707	5
PSPTO_4708	13
PSPTO_4709	18
PSPTO_4710	17
PSPTO_4711	7
PSPTO_4712	8
PSPTO_4713	7
PSPTO_4714	10
PSPTO_4716	4
PSPTO_4717	6
PSPTO_4718	39
PSPTO_4719	5
PSPTO_4720	30
PSPTO_4721	7
PSPTO_4722	8
PSPTO_4723	11
PSPTO_4724	3
PSPTO_4725	20
PSPTO_4726	13
PSPTO_4727	18
PSPTO_4729	7
PSPTO_4730	13
PSPTO_4732	8
PSPTO_4733	14
PSPTO_4734	3
PSPTO_4735	220
PSPTO_4737	25
PSPTO_4738	1
PSPTO_4741	6
PSPTO_4742	45
PSPTO_4743	35
PSPTO_4744	25
PSPTO_4745	43
PSPTO_4746	24
PSPTO_4747	9
PSPTO_4748	18
PSPTO_4749	22
PSPTO_4750	11
PSPTO_4751	99
PSPTO_4752	118
PSPTO_4753	18
PSPTO_4754	27
PSPTO_4755	7
PSPTO_4756	9
PSPTO_4757	0
PSPTO_4758	0
PSPTO_4759	6
PSPTO_4760	12
PSPTO_4761	49
PSPTO_4762	35
PSPTO_4763	20
PSPTO_4764	31
PSPTO_4765	3
PSPTO_4766	19
PSPTO_4767	7
PSPTO_4768	11
PSPTO_4769	13
PSPTO_4770	29
PSPTO_4771	22
PSPTO_4772	75
PSPTO_4773	10
PSPTO_4774	13
PSPTO_4775	22
PSPTO_4776	21
PSPTO_4777	5
PSPTO_4778	4
PSPTO_4779	16
PSPTO_4780	24
PSPTO_4781	43
PSPTO_4782	18
PSPTO_4784	29
PSPTO_4785	1
PSPTO_4786	13
PSPTO_4787	21
PSPTO_4788	29
PSPTO_4789	21
PSPTO_4790	19
PSPTO_4791	81
PSPTO_4792	13
PSPTO_4793	9
PSPTO_4794	6
PSPTO_4795	25
PSPTO_4796	62
PSPTO_4797	4
PSPTO_4798	13
PSPTO_4799	10
PSPTO_4800	28
PSPTO_4801	3
PSPTO_4802	11
PSPTO_4803	1
PSPTO_4804	24
PSPTO_4805	97
PSPTO_4806	26
PSPTO_4807	46
PSPTO_4808	35
PSPTO_4809	15
PSPTO_4810	20
PSPTO_4811	1
PSPTO_4812	32
PSPTO_4813	7
PSPTO_4814	20
PSPTO_4815	3
PSPTO_4816	1
PSPTO_4817	41
PSPTO_4818	61
PSPTO_4819	21
PSPTO_4820	5
PSPTO_4821	25
PSPTO_4822	31
PSPTO_4823	15
PSPTO_4824	18
PSPTO_4825	15
PSPTO_4826	21
PSPTO_4827	8
PSPTO_4828	11
PSPTO_4829	18
PSPTO_4830	8
PSPTO_4831	26
PSPTO_4832	47
PSPTO_4833	91
PSPTO_4834	27
PSPTO_4835	4
PSPTO_4836	20
PSPTO_4837	39
PSPTO_4838	3
PSPTO_4839	77
PSPTO_4840	44
PSPTO_4841	12
PSPTO_4842	66
PSPTO_4843	44
PSPTO_4844	14
PSPTO_4845	69
PSPTO_4846	9
PSPTO_4847	36
PSPTO_4848	329
PSPTO_4849	161
PSPTO_4850	51
PSPTO_4851	30
PSPTO_4852	28
PSPTO_4853	52
PSPTO_4854	35
PSPTO_4855	18
PSPTO_4856	18
PSPTO_4857	0
PSPTO_4858	17
PSPTO_4859	13
PSPTO_4860	29
PSPTO_4861	89
PSPTO_4862	7
PSPTO_4863	22
PSPTO_4864	11
PSPTO_4865	7
PSPTO_4866	18
PSPTO_4867	29
PSPTO_4868	21
PSPTO_4869	5
PSPTO_4870	8
PSPTO_4871	8
PSPTO_4872	7
PSPTO_4873	7
PSPTO_4874	26
PSPTO_4875	10
PSPTO_4876	13
PSPTO_4877	20
PSPTO_4878	22
PSPTO_4879	10
PSPTO_4880	19
PSPTO_4881	9
PSPTO_4882	12
PSPTO_4883	21
PSPTO_4884	15
PSPTO_4885	33
PSPTO_4886	16
PSPTO_4887	14
PSPTO_4888	10
PSPTO_4889	5
PSPTO_4890	8
PSPTO_4891	5
PSPTO_4892	6
PSPTO_4893	8
PSPTO_4894	4
PSPTO_4895	25
PSPTO_4896	27
PSPTO_4897	68
PSPTO_4898	14
PSPTO_4899	21
PSPTO_4900	38
PSPTO_4901	9
PSPTO_4902	15
PSPTO_4903	67
PSPTO_4905	16
PSPTO_4906	17
PSPTO_4907	36
PSPTO_4908	11
PSPTO_4909	8
PSPTO_4910	5
PSPTO_4911	11
PSPTO_4912	26
PSPTO_4913	14
PSPTO_4914	11
PSPTO_4915	4
PSPTO_4916	8
PSPTO_4917	10
PSPTO_4918	4
PSPTO_4919	83
PSPTO_4920	8
PSPTO_4921	19
PSPTO_4922	39
PSPTO_4923	32
PSPTO_4924	23
PSPTO_4925	74
PSPTO_4926	37
PSPTO_4927	27
PSPTO_4928	28
PSPTO_4929	20
PSPTO_4930	48
PSPTO_4931	71
PSPTO_4932	39
PSPTO_4933	49
PSPTO_4934	34
PSPTO_4935	152
PSPTO_4936	60
PSPTO_4937	30
PSPTO_4938	23
PSPTO_4939	57
PSPTO_4940	45
PSPTO_4941	106
PSPTO_4942	72
PSPTO_4943	44
PSPTO_4944	35
PSPTO_4945	19
PSPTO_4946	16
PSPTO_4947	22
PSPTO_4948	13
PSPTO_4949	8
PSPTO_4950	10
PSPTO_4951	21
PSPTO_4952	98
PSPTO_4953	132
PSPTO_4954	50
PSPTO_4955	55
PSPTO_4956	49
PSPTO_4957	19
PSPTO_4958	24
PSPTO_4959	39
PSPTO_4960	40
PSPTO_4961	12
PSPTO_4962	13
PSPTO_4963	40
PSPTO_4964	23
PSPTO_4965	25
PSPTO_4966	22
PSPTO_4967	20
PSPTO_4968	9
PSPTO_4969	31
PSPTO_4970	59
PSPTO_4971	28
PSPTO_4972	24
PSPTO_4973	27
PSPTO_4974	32
PSPTO_4975	47
PSPTO_4976	139
PSPTO_4977	15
PSPTO_4978	27
PSPTO_4979	7
PSPTO_4980	22
PSPTO_4981	20
PSPTO_4982	20
PSPTO_4983	18
PSPTO_4984	19
PSPTO_4985	14
PSPTO_4986	18
PSPTO_4987	6
PSPTO_4988	17
PSPTO_4989	19
PSPTO_4990	18
PSPTO_4991	14
PSPTO_4992	25
PSPTO_4993	36
PSPTO_4994	33
PSPTO_4995	3
PSPTO_4996	26
PSPTO_4997	28
PSPTO_4998	11
PSPTO_4999	6
PSPTO_5000	10
PSPTO_5001	13
PSPTO_5002	17
PSPTO_5003	17
PSPTO_5004	31
PSPTO_5005	117
PSPTO_5006	63
PSPTO_5007	17
PSPTO_5008	10
PSPTO_5009	20
PSPTO_5010	31
PSPTO_5011	10
PSPTO_5012	5
PSPTO_5013	10
PSPTO_5014	61
PSPTO_5015	18
PSPTO_5016	25
PSPTO_5017	123
PSPTO_5018	17
PSPTO_5019	12
PSPTO_5020	23
PSPTO_5021	22
PSPTO_5022	40
PSPTO_5023	34
PSPTO_5024	81
PSPTO_5025	6
PSPTO_5026	8
PSPTO_5027	10
PSPTO_5028	19
PSPTO_5029	11
PSPTO_5030	115
PSPTO_5031	30
PSPTO_5032	17
PSPTO_5033	8
PSPTO_5034	14
PSPTO_5035	20
PSPTO_5036	17
PSPTO_5037	22
PSPTO_5038	13
PSPTO_5039	15
PSPTO_5040	35
PSPTO_5041	33
PSPTO_5043	20
PSPTO_5044	4
PSPTO_5045	23
PSPTO_5046	12
PSPTO_5047	21
PSPTO_5048	10
PSPTO_5049	11
PSPTO_5050	9
PSPTO_5051	5
PSPTO_5052	13
PSPTO_5053	5
PSPTO_5054	17
PSPTO_5055	37
PSPTO_5056	21
PSPTO_5057	50
PSPTO_5058	36
PSPTO_5059	4
PSPTO_5060	4
PSPTO_5061	14
PSPTO_5062	9
PSPTO_5063	22
PSPTO_5064	10
PSPTO_5065	11
PSPTO_5066	10
PSPTO_5067	8
PSPTO_5068	118
PSPTO_5069	18
PSPTO_5070	43
PSPTO_5071	65
PSPTO_5072	24
PSPTO_5073	4
PSPTO_5074	27
PSPTO_5075	13
PSPTO_5076	11
PSPTO_5077	14
PSPTO_5078	3
PSPTO_5079	26
PSPTO_5080	19
PSPTO_5081	18
PSPTO_5082	11
PSPTO_5083	20
PSPTO_5084	27
PSPTO_5085	4
PSPTO_5086	17
PSPTO_5087	63
PSPTO_5088	1
PSPTO_5089	5
PSPTO_5090	15
PSPTO_5091	37
PSPTO_5092	16
PSPTO_5093	3
PSPTO_5094	5
PSPTO_5095	11
PSPTO_5096	23
PSPTO_5097	7
PSPTO_5098	18
PSPTO_5099	22
PSPTO_5100	4
PSPTO_5101	6
PSPTO_5102	32
PSPTO_5103	7
PSPTO_5104	12
PSPTO_5105	7
PSPTO_5106	4
PSPTO_5107	22
PSPTO_5108	3
PSPTO_5109	7
PSPTO_5110	12
PSPTO_5111	13
PSPTO_5112	28
PSPTO_5113	46
PSPTO_5114	7
PSPTO_5115	19
PSPTO_5116	8
PSPTO_5117	17
PSPTO_5118	17
PSPTO_5119	54
PSPTO_5120	7
PSPTO_5121	39
PSPTO_5122	0
PSPTO_5123	75
PSPTO_5124	6
PSPTO_5125	94
PSPTO_5126	21
PSPTO_5127	15
PSPTO_5128	115
PSPTO_5129	24
PSPTO_5130	21
PSPTO_5131	31
PSPTO_5132	58
PSPTO_5133	26
PSPTO_5134	38
PSPTO_5135	7
PSPTO_5136	10
PSPTO_5137	28
PSPTO_5138	21
PSPTO_5139	14
PSPTO_5140	55
PSPTO_5141	112
PSPTO_5142	18
PSPTO_5143	26
PSPTO_5144	18
PSPTO_5145	25
PSPTO_5146	8
PSPTO_5147	113
PSPTO_5148	22
PSPTO_5149	10
PSPTO_5150	35
PSPTO_5151	25
PSPTO_5152	31
PSPTO_5153	13
PSPTO_5154	12
PSPTO_5155	11
PSPTO_5156	14
PSPTO_5157	26
PSPTO_5158	12
PSPTO_5159	32
PSPTO_5160	19
PSPTO_5161	180
PSPTO_5162	307
PSPTO_5163	16
PSPTO_5164	16
PSPTO_5165	173
PSPTO_5166	46
PSPTO_5167	21
PSPTO_5168	98
PSPTO_5169	25
PSPTO_5170	71
PSPTO_5171	26
PSPTO_5172	8
PSPTO_5173	5
PSPTO_5174	25
PSPTO_5175	192
PSPTO_5176	38
PSPTO_5177	18
PSPTO_5178	44
PSPTO_5179	12
PSPTO_5180	42
PSPTO_5181	8
PSPTO_5182	15
PSPTO_5183	3
PSPTO_5184	11
PSPTO_5185	14
PSPTO_5186	10
PSPTO_5187	4
PSPTO_5188	7
PSPTO_5189	14
PSPTO_5190	5
PSPTO_5191	59
PSPTO_5192	22
PSPTO_5193	36
PSPTO_5194	12
PSPTO_5195	7
PSPTO_5196	8
PSPTO_5197	10
PSPTO_5198	9
PSPTO_5199	2
PSPTO_5200	33
PSPTO_5201	11
PSPTO_5202	41
PSPTO_5203	38
PSPTO_5204	70
PSPTO_5205	6
PSPTO_5206	21
PSPTO_5207	8
PSPTO_5208	4
PSPTO_5209	46
PSPTO_5210	30
PSPTO_5211	4
PSPTO_5212	25
PSPTO_5213	2
PSPTO_5214	3
PSPTO_5215	31
PSPTO_5216	17
PSPTO_5217	10
PSPTO_5218	9
PSPTO_5219	13
PSPTO_5220	24
PSPTO_5221	30
PSPTO_5222	36
PSPTO_5223	21
PSPTO_5224	5
PSPTO_5225	6
PSPTO_5226	47
PSPTO_5227	10
PSPTO_5228	4
PSPTO_5229	9
PSPTO_5230	57
PSPTO_5231	10
PSPTO_5232	39
PSPTO_5233	2
PSPTO_5234	7
PSPTO_5235	11
PSPTO_5236	0
PSPTO_5237	9
PSPTO_5238	31
PSPTO_5239	33
PSPTO_5240	28
PSPTO_5241	33
PSPTO_5242	19
PSPTO_5243	18
PSPTO_5244	11
PSPTO_5245	13
PSPTO_5246	7
PSPTO_5247	8
PSPTO_5248	11
PSPTO_5249	27
PSPTO_5250	85
PSPTO_5251	22
PSPTO_5252	8
PSPTO_5253	47
PSPTO_5254	18
PSPTO_5255	15
PSPTO_5256	13
PSPTO_5257	41
PSPTO_5258	5
PSPTO_5259	4
PSPTO_5260	12
PSPTO_5261	7
PSPTO_5262	12
PSPTO_5263	33
PSPTO_5264	16
PSPTO_5265	21
PSPTO_5266	14
PSPTO_5267	10
PSPTO_5268	24
PSPTO_5269	40
PSPTO_5270	13
PSPTO_5271	20
PSPTO_5272	24
PSPTO_5273	21
PSPTO_5274	26
PSPTO_5275	24
PSPTO_5276	13
PSPTO_5277	25
PSPTO_5278	19
PSPTO_5279	194
PSPTO_5280	8
PSPTO_5281	7
PSPTO_5282	20
PSPTO_5283	15
PSPTO_5284	79
PSPTO_5285	23
PSPTO_5286	10
PSPTO_5287	9
PSPTO_5288	28
PSPTO_5289	11
PSPTO_5290	15
PSPTO_5291	49
PSPTO_5292	36
PSPTO_5293	59
PSPTO_5294	52
PSPTO_5295	34
PSPTO_5296	19
PSPTO_5297	7
PSPTO_5298	3
PSPTO_5299	32
PSPTO_5300	43
PSPTO_5301	23
PSPTO_5302	9
PSPTO_5303	32
PSPTO_5304	23
PSPTO_5305	1
PSPTO_5306	24
PSPTO_5307	72
PSPTO_5308	43
PSPTO_5309	24
PSPTO_5310	38
PSPTO_5311	11
PSPTO_5312	32
PSPTO_5313	1
PSPTO_5314	7
PSPTO_5315	5
PSPTO_5316	9
PSPTO_5317	41
PSPTO_5318	55
PSPTO_5319	9
PSPTO_5320	5
PSPTO_5321	10
PSPTO_5322	15
PSPTO_5323	4
PSPTO_5324	7
PSPTO_5325	1
PSPTO_5326	8
PSPTO_5327	63
PSPTO_5328	34
PSPTO_5329	55
PSPTO_5330	12
PSPTO_5331	44
PSPTO_5332	8
PSPTO_5333	9
PSPTO_5334	16
PSPTO_5335	10
PSPTO_5336	3
PSPTO_5337	13
PSPTO_5338	8
PSPTO_5339	17
PSPTO_5340	289
PSPTO_5341	33
PSPTO_5342	19
PSPTO_5343	5
PSPTO_5344	14
PSPTO_5345	21
PSPTO_5346	21
PSPTO_5347	3
PSPTO_5348	23
PSPTO_5349	3
PSPTO_5350	5
PSPTO_5351	16
PSPTO_5352	171
PSPTO_5353	9
PSPTO_5354	26
PSPTO_5355	9
PSPTO_5356	31
PSPTO_5357	11
PSPTO_5358	46
PSPTO_5359	9
PSPTO_5360	9
PSPTO_5361	23
PSPTO_5362	19
PSPTO_5363	53
PSPTO_5364	0
PSPTO_5365	25
PSPTO_5367	3
PSPTO_5368	20
PSPTO_5370	10
PSPTO_5371	3
PSPTO_5373	24
PSPTO_5374	7
PSPTO_5375	13
PSPTO_5376	7
PSPTO_5377	18
PSPTO_5378	13
PSPTO_5379	16
PSPTO_5380	23
PSPTO_5381	13
PSPTO_5382	30
PSPTO_5383	17
PSPTO_5384	20
PSPTO_5385	18
PSPTO_5386	7
PSPTO_5387	3
PSPTO_5388	7
PSPTO_5389	6
PSPTO_5390	14
PSPTO_5391	26
PSPTO_5392	37
PSPTO_5393	15
PSPTO_5394	6
PSPTO_5395	52
PSPTO_5396	19
PSPTO_5397	13
PSPTO_5398	20
PSPTO_5399	15
PSPTO_5400	7
PSPTO_5401	14
PSPTO_5402	13
PSPTO_5403	8
PSPTO_5404	39
PSPTO_5405	13
PSPTO_5406	90
PSPTO_5407	287
PSPTO_5408	48
PSPTO_5409	30
PSPTO_5410	14
PSPTO_5411	28
PSPTO_5412	4
PSPTO_5413	85
PSPTO_5414	34
PSPTO_5415	42
PSPTO_5416	34
PSPTO_5417	18
PSPTO_5418	74
PSPTO_5419	17
PSPTO_5420	25
PSPTO_5421	7
PSPTO_5422	38
PSPTO_5423	3
PSPTO_5424	29
PSPTO_5425	65
PSPTO_5426	19
PSPTO_5427	29
PSPTO_5428	25
PSPTO_5430	20
PSPTO_5431	17
PSPTO_5432	162
PSPTO_5433	55
PSPTO_5434	38
PSPTO_5435	220
PSPTO_5436	25
PSPTO_5437	15
PSPTO_5438	101
PSPTO_5439	7
PSPTO_5440	26
PSPTO_5441	16
PSPTO_5442	5
PSPTO_5443	29
PSPTO_5444	3
PSPTO_5445	36
PSPTO_5446	0
PSPTO_5447	13
PSPTO_5448	34
PSPTO_5449	7
PSPTO_5450	4
PSPTO_5451	16
PSPTO_5452	14
PSPTO_5453	30
PSPTO_5454	20
PSPTO_5455	8
PSPTO_5456	11
PSPTO_5457	31
PSPTO_5458	11
PSPTO_5460	31
PSPTO_5461	54
PSPTO_5462	8
PSPTO_5463	24
PSPTO_5464	15
PSPTO_5465	25
PSPTO_5466	234
PSPTO_5467	10
PSPTO_5468	10
PSPTO_5469	42
PSPTO_5470	6
PSPTO_5471	2
PSPTO_5472	13
PSPTO_5473	30
PSPTO_5474	10
PSPTO_5475	10
PSPTO_5476	12
PSPTO_5477	10
PSPTO_5478	21
PSPTO_5479	19
PSPTO_5480	11
PSPTO_5481	78
PSPTO_5482	100
PSPTO_5483	24
PSPTO_5484	31
PSPTO_5485	22
PSPTO_5486	23
PSPTO_5487	18
PSPTO_5488	20
PSPTO_5489	12
PSPTO_5490	19
PSPTO_5491	20
PSPTO_5492	21
PSPTO_5493	15
PSPTO_5494	9
PSPTO_5495	6
PSPTO_5496	3
PSPTO_5497	4
PSPTO_5498	26
PSPTO_5499	23
PSPTO_5500	21
PSPTO_5501	17
PSPTO_5502	32
PSPTO_5503	26
PSPTO_5504	28
PSPTO_5505	13
PSPTO_5506	10
PSPTO_5507	11
PSPTO_5508	6
PSPTO_5509	16
PSPTO_5510	97
PSPTO_5511	83
PSPTO_5512	11
PSPTO_5513	8
PSPTO_5514	7
PSPTO_5515	13
PSPTO_5516	36
PSPTO_5517	47
PSPTO_5518	46
PSPTO_5519	31
PSPTO_5520	20
PSPTO_5521	22
PSPTO_5522	24
PSPTO_5523	17
PSPTO_5524	2
PSPTO_5525	10
PSPTO_5526	9
PSPTO_5527	9
PSPTO_5528	46
PSPTO_5529	108
PSPTO_5530	16
PSPTO_5531	16
PSPTO_5532	27
PSPTO_5533	18
PSPTO_5534	13
PSPTO_5535	35
PSPTO_5536	7
PSPTO_5537	29
PSPTO_5538	25
PSPTO_5539	6
PSPTO_5540	5
PSPTO_5541	6
PSPTO_5542	87
PSPTO_5543	29
PSPTO_5544	5
PSPTO_5545	6
PSPTO_5546	8
PSPTO_5547	27
PSPTO_5548	13
PSPTO_5549	23
PSPTO_5550	23
PSPTO_5551	18
PSPTO_5552	3
PSPTO_5553	39
PSPTO_5554	93
PSPTO_5555	10
PSPTO_5556	15
PSPTO_5557	9
PSPTO_5558	22
PSPTO_5559	16
PSPTO_5560	21
PSPTO_5561	11
PSPTO_5562	13
PSPTO_5563	20
PSPTO_5564	17
PSPTO_5565	15
PSPTO_5566	30
PSPTO_5567	9
PSPTO_5568	2
PSPTO_5569	26
PSPTO_5570	2
PSPTO_5571	41
PSPTO_5572	29
PSPTO_5573	19
PSPTO_5574	15
PSPTO_5575	8
PSPTO_5576	7
PSPTO_5577	0
PSPTO_5578	8
PSPTO_5579	14
PSPTO_5580	16
PSPTO_5581	3
PSPTO_5582	25
PSPTO_5583	3
PSPTO_5584	12
PSPTO_5585	8
PSPTO_5586	5
PSPTO_5587	7
PSPTO_5588	16
PSPTO_5589	8
PSPTO_5590	5
PSPTO_5591	25
PSPTO_5592	22
PSPTO_5593	10
PSPTO_5594	67
PSPTO_5595	28
PSPTO_5596	16
PSPTO_5597	33
PSPTO_5598	22
PSPTO_5599	130
PSPTO_5600	44
PSPTO_5601	121
PSPTO_5602	44
PSPTO_5603	35
PSPTO_5604	32
PSPTO_5605	19
PSPTO_5606	11
PSPTO_5607	13
PSPTO_5608	22
PSPTO_5609	6
PSPTO_5610	48
PSPTO_5611	17
PSPTO_5612	30
PSPTO_5613	4
PSPTO_5614	15
PSPTO_5615	3
PSPTO_5616	0
PSPTO_5617	8
PSPTO_5618	5
PSPTO_5619	0
PSPTO_5620	1
PSPTO_5621	7
PSPTO_5622	34
PSPTO_5623	0
PSPTO_5624	43
PSPTO_5625	11
PSPTO_5626	2
PSPTO_5627	6
PSPTO_5628	5
PSPTO_5629	23
PSPTO_5630	13
PSPTO_5631	14
PSPTO_5632	49
PSPTO_5633	58
PSPTO_5634	9
PSPTO_5635	185
PSPTO_5636	122
PSPTO_5637	2
PSPTO_5638	21
PSPTO_5639	6
PSPTO_5640	14
PSPTO_5641	12
PSPTO_5642	3
PSPTO_5643	1
PSPTO_5644	9
PSPTO_5645	73
PSPTO_5646	10
PSPTO_5647	12
PSPTO_5648	2
PSPTO_5649	24
PSPTO_5650	2
PSPTO_5651	11
PSPTO_5652	14
PSPTO_5653	2
PSPTO_5654	2
PSPTO_5655	6
PSPTO_5656	6
PSPTO_5657	10
PSPTO_5658	2
PSPTO_5659	3
PSPTO_5660	5
PSPTO_5661	13924
PSPTO_5662	9
PSPTO_5663	39320
PSPTO_5664	3
PSPTO_5665	3
PSPTO_5666	270
PSPTO_5667	9
PSPTO_5668	1961
PSPTO_5669	499
PSPTO_5670	38
PSPTO_5671	2
PSPTO_5672	1
PSPTO_5673	3
PSPTO_5674	1
PSPTO_5675	6
PSPTO_A0072	156
PSPTO_A0073	1
PSPTO_B0001	20
PSPTO_B0002	23
PSPTO_B0003	66
PSPTO_B0004	2
PSPTO_B0005	127
PSPTO_B0006	8
PSPTO_B0007	37
PSPTO_B0008	9
PSPTO_B0009	29
PSPTO_B0010	244
PSPTO_B0011	99
PSPTO_B0012	37
PSPTO_B0013	31
PSPTO_B0014	12
PSPTO_B0015	12
PSPTO_B0016	21
PSPTO_B0017	1
PSPTO_B0018	21
PSPTO_B0019	8
PSPTO_B0020	79
PSPTO_B0021	187
PSPTO_B0022	9
PSPTO_B0023	40
PSPTO_B0024	13
PSPTO_B0025	22
PSPTO_B0026	49
PSPTO_B0027	41
PSPTO_B0028	15
PSPTO_B0029	7
PSPTO_B0030	15
PSPTO_B0031	6
PSPTO_B0032	13
PSPTO_B0033	10
PSPTO_B0034	21
PSPTO_B0035	13
PSPTO_B0036	76
PSPTO_B0037	14
PSPTO_B0038	7
PSPTO_B0039	12
PSPTO_B0040	14
PSPTO_B0041	10
PSPTO_B0042	66
PSPTO_B0043	55
PSPTO_B0044	16
PSPTO_B0045	15
PSPTO_B0046	13
PSPTO_B0047	12
PSPTO_B0048	3
PSPTO_B0049	10
PSPTO_B0050	7
PSPTO_B0051	15
PSPTO_B0052	33
PSPTO_B0053	35
PSPTO_B0054	12
PSPTO_B0055	50
PSPTO_B0056	12
PSPTO_B0057	179
PSPTO_B0058	6
PSPTO_B0059	22
PSPTO_B0060	28
PSPTO_B0061	35
PSPTO_B0062	13
PSPTO_B0063	17
PSPTO_B0064	17
PSPTO_B0065	1
PSPTO_B0066	60
PSPTO_B0067	31
PSPTO_B0068	16
PSPTO_B0069	90
PSPTO_B0070	65
PSPTO_B0071	92
PSPTO_B0072	44
PSPTO_B0073	9
PSPTO_B0074	6
PSPTO_B0075	21
PSPTO_B0076	84
PSPTO_B0077	3
PSPTO_r01	40
PSPTO_r02	60
PSPTO_r03	1
PSPTO_r04	39
PSPTO_r05	74
PSPTO_r06	0
PSPTO_r07	43
PSPTO_r08	71
PSPTO_r09	0
PSPTO_r10	0
PSPTO_r11	63
PSPTO_r12	40
PSPTO_r13	0
PSPTO_r14	78
PSPTO_r15	38
PSPTO_t01	16
PSPTO_t02	1
PSPTO_t03	1
PSPTO_t04	2
PSPTO_t05	4
PSPTO_t06	3
PSPTO_t07	2
PSPTO_t08	8
PSPTO_t09	3
PSPTO_t10	2
PSPTO_t11	4
PSPTO_t12	6
PSPTO_t13	4
PSPTO_t14	4
PSPTO_t15	2
PSPTO_t16	2
PSPTO_t17	4
PSPTO_t18	7
PSPTO_t19	1
PSPTO_t20	2
PSPTO_t21	1
PSPTO_t22	3
PSPTO_t23	0
PSPTO_t24	16
PSPTO_t25	6
PSPTO_t26	10
PSPTO_t27	6
PSPTO_t28	0
PSPTO_t29	6
PSPTO_t30	3
PSPTO_t31	4
PSPTO_t32	1
PSPTO_t33	2
PSPTO_t34	1
PSPTO_t35	1
PSPTO_t36	1
PSPTO_t37	1
PSPTO_t38	1
PSPTO_t39	0
PSPTO_t40	1
PSPTO_t41	3
PSPTO_t42	0
PSPTO_t43	2
PSPTO_t44	1
PSPTO_t45	8
PSPTO_t46	3
PSPTO_t47	4
PSPTO_t48	4
PSPTO_t49	3
PSPTO_t50	1
PSPTO_t51	5
PSPTO_t52	2
PSPTO_t53	1
PSPTO_t54	1
PSPTO_t55	10
PSPTO_t56	6
PSPTO_t57	6
PSPTO_t58	2
PSPTO_t59	2
PSPTO_t60	2
PSPTO_t61	0
PSPTO_t62	1
PSPTO_t63	1
__no_feature	87757
__ambiguous	3192
__too_low_aQual	0
__not_aligned	10738
__alignment_not_unique	0
