PSPTOA0001	33
PSPTOA0002	16
PSPTOA0003	8
PSPTOA0004	36
PSPTOA0005	12
PSPTOA0006	32
PSPTOA0007	51
PSPTOA0008	32
PSPTOA0009	46
PSPTOA0010	53
PSPTOA0011	29
PSPTOA0012	79
PSPTOA0013	9
PSPTOA0014	91
PSPTOA0015	27
PSPTOA0016	6
PSPTOA0017	5
PSPTOA0018	16
PSPTOA0019	62
PSPTOA0020	4
PSPTOA0021	13
PSPTOA0022	21
PSPTOA0023	11
PSPTOA0024	15
PSPTOA0025	8
PSPTOA0026	1
PSPTOA0027	7
PSPTOA0028	11
PSPTOA0029	42
PSPTOA0030	21
PSPTOA0031	62
PSPTOA0032	202
PSPTOA0033	11
PSPTOA0034	55
PSPTOA0035	25
PSPTOA0036	51
PSPTOA0037	40
PSPTOA0038	8
PSPTOA0039	21
PSPTOA0040	15
PSPTOA0041	1
PSPTOA0042	10
PSPTOA0043	7
PSPTOA0044	19
PSPTOA0045	22
PSPTOA0046	9
PSPTOA0047	13
PSPTOA0048	18
PSPTOA0049	120
PSPTOA0050	12
PSPTOA0051	14
PSPTOA0052	13
PSPTOA0053	24
PSPTOA0054	6
PSPTOA0055	16
PSPTOA0056	9
PSPTOA0057	36
PSPTOA0058	10
PSPTOA0059	20
PSPTOA0060	48
PSPTOA0061	3
PSPTOA0062	44
PSPTOA0063	13
PSPTOA0064	74
PSPTOA0065	117
PSPTOA0066	25
PSPTOA0067	21
PSPTOA0068	53
PSPTOA0069	1
PSPTOA0070	5
PSPTOA0071	3
PSPTO_0001	24
PSPTO_0002	20
PSPTO_0003	18
PSPTO_0004	67
PSPTO_0005	44
PSPTO_0006	23
PSPTO_0007	13
PSPTO_0008	48
PSPTO_0009	17
PSPTO_0011	23
PSPTO_0012	16
PSPTO_0013	16
PSPTO_0014	4
PSPTO_0015	5
PSPTO_0016	6
PSPTO_0017	35
PSPTO_0018	6
PSPTO_0019	11
PSPTO_0020	7
PSPTO_0021	24
PSPTO_0022	17
PSPTO_0023	9
PSPTO_0024	0
PSPTO_0025	19
PSPTO_0026	10
PSPTO_0027	12
PSPTO_0028	19
PSPTO_0029	10
PSPTO_0030	19
PSPTO_0031	17
PSPTO_0032	14
PSPTO_0033	12
PSPTO_0034	18
PSPTO_0035	16
PSPTO_0036	2
PSPTO_0037	69
PSPTO_0038	25
PSPTO_0039	18
PSPTO_0040	6
PSPTO_0041	3
PSPTO_0042	17
PSPTO_0043	81
PSPTO_0044	11
PSPTO_0045	7
PSPTO_0046	32
PSPTO_0047	28
PSPTO_0048	20
PSPTO_0049	12
PSPTO_0050	25
PSPTO_0051	9
PSPTO_0052	44
PSPTO_0053	15
PSPTO_0054	2
PSPTO_0055	10
PSPTO_0056	8
PSPTO_0057	20
PSPTO_0058	29
PSPTO_0059	15
PSPTO_0060	7
PSPTO_0061	7
PSPTO_0062	22
PSPTO_0063	8
PSPTO_0064	64
PSPTO_0065	25
PSPTO_0066	13
PSPTO_0067	23
PSPTO_0068	12
PSPTO_0069	27
PSPTO_0070	27
PSPTO_0071	19
PSPTO_0072	11
PSPTO_0073	44
PSPTO_0074	18
PSPTO_0075	5
PSPTO_0076	10
PSPTO_0077	21
PSPTO_0078	13
PSPTO_0079	16
PSPTO_0080	7
PSPTO_0081	11
PSPTO_0082	71
PSPTO_0083	88
PSPTO_0084	7
PSPTO_0085	15
PSPTO_0086	13
PSPTO_0087	22
PSPTO_0088	1
PSPTO_0089	5
PSPTO_0090	4
PSPTO_0091	6
PSPTO_0092	30
PSPTO_0093	2
PSPTO_0094	22
PSPTO_0095	24
PSPTO_0096	29
PSPTO_0097	7
PSPTO_0098	34
PSPTO_0099	10
PSPTO_0100	9
PSPTO_0101	79
PSPTO_0102	29
PSPTO_0103	37
PSPTO_0104	0
PSPTO_0105	27
PSPTO_0106	4
PSPTO_0107	43
PSPTO_0108	30
PSPTO_0109	43
PSPTO_0110	56
PSPTO_0111	20
PSPTO_0112	8
PSPTO_0113	13
PSPTO_0114	16
PSPTO_0115	37
PSPTO_0116	16
PSPTO_0117	108
PSPTO_0118	24
PSPTO_0119	29
PSPTO_0120	10
PSPTO_0121	17
PSPTO_0123	3
PSPTO_0124	10
PSPTO_0125	29
PSPTO_0126	32
PSPTO_0127	73
PSPTO_0128	17
PSPTO_0129	22
PSPTO_0130	41
PSPTO_0131	30
PSPTO_0132	6
PSPTO_0133	3
PSPTO_0134	26
PSPTO_0135	13
PSPTO_0136	327
PSPTO_0137	9
PSPTO_0138	24
PSPTO_0139	7
PSPTO_0140	15
PSPTO_0141	32
PSPTO_0142	2
PSPTO_0143	6
PSPTO_0144	59
PSPTO_0145	12
PSPTO_0146	21
PSPTO_0147	7
PSPTO_0148	39
PSPTO_0149	11
PSPTO_0150	6
PSPTO_0151	9
PSPTO_0152	58
PSPTO_0153	13
PSPTO_0154	47
PSPTO_0155	23
PSPTO_0156	64
PSPTO_0157	9
PSPTO_0158	15
PSPTO_0159	18
PSPTO_0161	25
PSPTO_0162	26
PSPTO_0163	3
PSPTO_0164	12
PSPTO_0165	16
PSPTO_0166	15
PSPTO_0167	24
PSPTO_0168	40
PSPTO_0169	7
PSPTO_0170	16
PSPTO_0171	10
PSPTO_0172	5
PSPTO_0173	29
PSPTO_0174	21
PSPTO_0175	17
PSPTO_0176	27
PSPTO_0177	7
PSPTO_0178	10
PSPTO_0179	25
PSPTO_0180	13
PSPTO_0181	25
PSPTO_0182	18
PSPTO_0183	13
PSPTO_0184	10
PSPTO_0185	37
PSPTO_0186	5
PSPTO_0187	7
PSPTO_0188	14
PSPTO_0189	8
PSPTO_0190	10
PSPTO_0191	2
PSPTO_0192	11
PSPTO_0193	11
PSPTO_0194	4
PSPTO_0196	28
PSPTO_0197	5
PSPTO_0200	20
PSPTO_0201	23
PSPTO_0202	18
PSPTO_0203	20
PSPTO_0205	18
PSPTO_0206	61
PSPTO_0207	2
PSPTO_0208	9
PSPTO_0209	11
PSPTO_0210	9
PSPTO_0211	12
PSPTO_0212	9
PSPTO_0213	2
PSPTO_0214	5
PSPTO_0215	1
PSPTO_0216	4
PSPTO_0217	43
PSPTO_0218	26
PSPTO_0219	49
PSPTO_0220	54
PSPTO_0221	18
PSPTO_0222	4
PSPTO_0223	7
PSPTO_0224	19
PSPTO_0225	17
PSPTO_0226	0
PSPTO_0227	2
PSPTO_0228	6
PSPTO_0229	6
PSPTO_0230	44
PSPTO_0231	48
PSPTO_0232	1
PSPTO_0233	16
PSPTO_0234	36
PSPTO_0235	5
PSPTO_0236	20
PSPTO_0237	6
PSPTO_0238	13
PSPTO_0239	27
PSPTO_0240	20
PSPTO_0241	10
PSPTO_0242	7
PSPTO_0243	10
PSPTO_0244	13
PSPTO_0245	6
PSPTO_0246	0
PSPTO_0247	7
PSPTO_0248	26
PSPTO_0249	37
PSPTO_0250	15
PSPTO_0251	18
PSPTO_0252	24
PSPTO_0253	0
PSPTO_0254	25
PSPTO_0255	21
PSPTO_0256	16
PSPTO_0257	18
PSPTO_0258	18
PSPTO_0259	12
PSPTO_0260	8
PSPTO_0261	6
PSPTO_0262	3
PSPTO_0263	18
PSPTO_0264	24
PSPTO_0265	6
PSPTO_0266	10
PSPTO_0267	21
PSPTO_0268	21
PSPTO_0269	3
PSPTO_0270	7
PSPTO_0271	10
PSPTO_0272	62
PSPTO_0273	7
PSPTO_0274	5
PSPTO_0275	25
PSPTO_0276	9
PSPTO_0277	6
PSPTO_0278	18
PSPTO_0279	6
PSPTO_0280	13
PSPTO_0281	21
PSPTO_0282	9
PSPTO_0283	2
PSPTO_0284	5
PSPTO_0285	12
PSPTO_0286	44
PSPTO_0287	15
PSPTO_0288	1
PSPTO_0289	2
PSPTO_0290	4
PSPTO_0291	4
PSPTO_0292	8
PSPTO_0293	3
PSPTO_0294	2
PSPTO_0295	6
PSPTO_0296	2
PSPTO_0297	10
PSPTO_0298	18
PSPTO_0299	22
PSPTO_0300	88
PSPTO_0301	37
PSPTO_0302	0
PSPTO_0303	23
PSPTO_0304	19
PSPTO_0305	29
PSPTO_0306	30
PSPTO_0307	1
PSPTO_0308	5
PSPTO_0309	8
PSPTO_0310	11
PSPTO_0311	9
PSPTO_0312	12
PSPTO_0313	5
PSPTO_0314	13
PSPTO_0315	31
PSPTO_0316	23
PSPTO_0317	13
PSPTO_0318	61
PSPTO_0319	18
PSPTO_0320	4
PSPTO_0321	10
PSPTO_0322	23
PSPTO_0323	28
PSPTO_0324	36
PSPTO_0325	21
PSPTO_0326	4
PSPTO_0327	24
PSPTO_0328	32
PSPTO_0329	27
PSPTO_0330	11
PSPTO_0331	0
PSPTO_0332	2
PSPTO_0333	15
PSPTO_0334	25
PSPTO_0335	26
PSPTO_0336	7
PSPTO_0337	4
PSPTO_0338	6
PSPTO_0339	50
PSPTO_0340	20
PSPTO_0341	45
PSPTO_0342	0
PSPTO_0343	14
PSPTO_0344	40
PSPTO_0345	3
PSPTO_0346	9
PSPTO_0347	13
PSPTO_0348	21
PSPTO_0349	16
PSPTO_0350	7
PSPTO_0351	14
PSPTO_0352	26
PSPTO_0353	15
PSPTO_0354	0
PSPTO_0355	8
PSPTO_0356	9
PSPTO_0357	5
PSPTO_0358	8
PSPTO_0359	93
PSPTO_0360	19
PSPTO_0361	38
PSPTO_0362	4
PSPTO_0363	7
PSPTO_0364	15
PSPTO_0365	10
PSPTO_0366	15
PSPTO_0367	5
PSPTO_0368	5
PSPTO_0369	9
PSPTO_0370	16
PSPTO_0371	6
PSPTO_0372	27
PSPTO_0373	37
PSPTO_0374	33
PSPTO_0375	27
PSPTO_0376	12
PSPTO_0377	9
PSPTO_0378	11
PSPTO_0379	22
PSPTO_0380	28
PSPTO_0381	7
PSPTO_0382	16
PSPTO_0383	41
PSPTO_0384	3
PSPTO_0385	82
PSPTO_0386	15
PSPTO_0387	34
PSPTO_0388	5
PSPTO_0389	12
PSPTO_0390	41
PSPTO_0391	8
PSPTO_0393	8
PSPTO_0394	9
PSPTO_0395	6
PSPTO_0396	23
PSPTO_0397	31
PSPTO_0398	11
PSPTO_0399	15
PSPTO_0400	12
PSPTO_0401	12
PSPTO_0402	12
PSPTO_0403	5
PSPTO_0404	12
PSPTO_0405	33
PSPTO_0406	78
PSPTO_0407	25
PSPTO_0408	22
PSPTO_0409	18
PSPTO_0410	9
PSPTO_0411	11
PSPTO_0412	22
PSPTO_0413	13
PSPTO_0414	13
PSPTO_0415	6
PSPTO_0416	2
PSPTO_0417	8
PSPTO_0418	15
PSPTO_0419	9
PSPTO_0420	48
PSPTO_0421	13
PSPTO_0422	4
PSPTO_0423	7
PSPTO_0424	14
PSPTO_0425	17
PSPTO_0426	17
PSPTO_0427	37
PSPTO_0428	20
PSPTO_0429	35
PSPTO_0430	230
PSPTO_0431	8
PSPTO_0432	2
PSPTO_0433	6
PSPTO_0434	10
PSPTO_0435	4
PSPTO_0436	12
PSPTO_0437	5
PSPTO_0438	20
PSPTO_0439	26
PSPTO_0440	6
PSPTO_0441	48
PSPTO_0442	4
PSPTO_0443	53
PSPTO_0444	3
PSPTO_0445	14
PSPTO_0446	16
PSPTO_0447	6
PSPTO_0448	13
PSPTO_0449	7
PSPTO_0450	9
PSPTO_0451	24
PSPTO_0452	17
PSPTO_0453	72
PSPTO_0454	16
PSPTO_0455	29
PSPTO_0456	10
PSPTO_0457	4
PSPTO_0458	33
PSPTO_0459	1
PSPTO_0460	12
PSPTO_0461	12
PSPTO_0462	13
PSPTO_0463	10
PSPTO_0464	12
PSPTO_0465	23
PSPTO_0466	22
PSPTO_0467	0
PSPTO_0468	7
PSPTO_0469	5
PSPTO_0470	4
PSPTO_0471	26
PSPTO_0472	26
PSPTO_0473	25
PSPTO_0474	10
PSPTO_0475	11
PSPTO_0476	15
PSPTO_0477	5
PSPTO_0478	13
PSPTO_0479	9
PSPTO_0480	23
PSPTO_0481	14
PSPTO_0482	6
PSPTO_0483	10
PSPTO_0484	11
PSPTO_0485	8
PSPTO_0486	3
PSPTO_0487	11
PSPTO_0488	12
PSPTO_0489	12
PSPTO_0490	10
PSPTO_0491	17
PSPTO_0492	14
PSPTO_0493	6
PSPTO_0494	30
PSPTO_0495	13
PSPTO_0496	13
PSPTO_0497	15
PSPTO_0498	12
PSPTO_0499	47
PSPTO_0500	34
PSPTO_0501	19
PSPTO_0502	7
PSPTO_0503	0
PSPTO_0505	28
PSPTO_0506	37
PSPTO_0507	33
PSPTO_0508	41
PSPTO_0509	17
PSPTO_0510	13
PSPTO_0511	18
PSPTO_0512	29
PSPTO_0513	16
PSPTO_0514	27
PSPTO_0515	6
PSPTO_0516	15
PSPTO_0517	6
PSPTO_0518	31
PSPTO_0519	9
PSPTO_0520	21
PSPTO_0521	8
PSPTO_0522	14
PSPTO_0523	11
PSPTO_0524	14
PSPTO_0525	2
PSPTO_0526	2
PSPTO_0527	15
PSPTO_0528	11
PSPTO_0529	9
PSPTO_0530	3
PSPTO_0531	9
PSPTO_0532	2
PSPTO_0533	9
PSPTO_0534	15
PSPTO_0535	4
PSPTO_0536	50
PSPTO_0537	176
PSPTO_0538	29
PSPTO_0539	8
PSPTO_0540	10
PSPTO_0541	7
PSPTO_0542	11
PSPTO_0543	3
PSPTO_0544	22
PSPTO_0545	183
PSPTO_0546	144
PSPTO_0547	557
PSPTO_0548	6
PSPTO_0549	9
PSPTO_0550	4
PSPTO_0551	7
PSPTO_0552	17
PSPTO_0553	17
PSPTO_0554	27
PSPTO_0555	32
PSPTO_0556	26
PSPTO_0557	30
PSPTO_0558	35
PSPTO_0559	30
PSPTO_0560	17
PSPTO_0561	1
PSPTO_0562	13
PSPTO_0563	13
PSPTO_0564	7
PSPTO_0565	8
PSPTO_0566	11
PSPTO_0567	11
PSPTO_0568	24
PSPTO_0569	34
PSPTO_0570	9
PSPTO_0571	4
PSPTO_0572	15
PSPTO_0573	7
PSPTO_0574	7
PSPTO_0575	5
PSPTO_0576	3
PSPTO_0577	21
PSPTO_0578	3
PSPTO_0579	2
PSPTO_0580	29
PSPTO_0581	20
PSPTO_0582	13
PSPTO_0583	20
PSPTO_0584	9
PSPTO_0585	4
PSPTO_0586	23
PSPTO_0587	51
PSPTO_0588	2
PSPTO_0589	12
PSPTO_0591	20
PSPTO_0592	10
PSPTO_0593	20
PSPTO_0594	25
PSPTO_0595	15
PSPTO_0596	23
PSPTO_0597	8
PSPTO_0598	5
PSPTO_0599	18
PSPTO_0600	11
PSPTO_0601	14
PSPTO_0602	21
PSPTO_0603	7
PSPTO_0604	22
PSPTO_0605	10
PSPTO_0606	28
PSPTO_0607	11
PSPTO_0608	2
PSPTO_0609	45
PSPTO_0610	13
PSPTO_0611	34
PSPTO_0612	8
PSPTO_0613	7
PSPTO_0614	24
PSPTO_0615	18
PSPTO_0616	40
PSPTO_0617	30
PSPTO_0618	17
PSPTO_0619	154
PSPTO_0620	278
PSPTO_0621	9
PSPTO_0622	25
PSPTO_0623	169
PSPTO_0624	209
PSPTO_0625	15
PSPTO_0626	31
PSPTO_0627	28
PSPTO_0628	9
PSPTO_0629	37
PSPTO_0630	21
PSPTO_0631	20
PSPTO_0632	39
PSPTO_0633	23
PSPTO_0634	9
PSPTO_0635	13
PSPTO_0636	50
PSPTO_0637	21
PSPTO_0638	45
PSPTO_0639	30
PSPTO_0640	19
PSPTO_0641	32
PSPTO_0642	14
PSPTO_0643	19
PSPTO_0644	8
PSPTO_0645	22
PSPTO_0646	70
PSPTO_0647	8
PSPTO_0648	30
PSPTO_0649	30
PSPTO_0650	55
PSPTO_0651	87
PSPTO_0652	27
PSPTO_0653	8
PSPTO_0654	86
PSPTO_0655	23
PSPTO_0656	18
PSPTO_0657	8
PSPTO_0658	8
PSPTO_0659	12
PSPTO_0660	11
PSPTO_0661	13
PSPTO_0662	3
PSPTO_0663	5
PSPTO_0664	9
PSPTO_0665	15
PSPTO_0666	13
PSPTO_0667	10
PSPTO_0668	8
PSPTO_0669	4
PSPTO_0670	18
PSPTO_0671	18
PSPTO_0672	1
PSPTO_0673	5
PSPTO_0674	7
PSPTO_0675	22
PSPTO_0676	79
PSPTO_0677	8
PSPTO_0678	18
PSPTO_0679	9
PSPTO_0680	5
PSPTO_0681	25
PSPTO_0682	7
PSPTO_0683	16
PSPTO_0684	11
PSPTO_0685	8
PSPTO_0686	19
PSPTO_0687	8
PSPTO_0688	9
PSPTO_0689	3
PSPTO_0690	20
PSPTO_0691	17
PSPTO_0692	22
PSPTO_0693	4
PSPTO_0694	12
PSPTO_0695	9
PSPTO_0696	13
PSPTO_0697	6
PSPTO_0698	30
PSPTO_0699	12
PSPTO_0700	5
PSPTO_0701	24
PSPTO_0702	9
PSPTO_0703	9
PSPTO_0704	7
PSPTO_0705	13
PSPTO_0706	13
PSPTO_0707	0
PSPTO_0708	3
PSPTO_0709	4
PSPTO_0710	4
PSPTO_0711	13
PSPTO_0712	7
PSPTO_0713	7
PSPTO_0714	21
PSPTO_0715	7
PSPTO_0716	3
PSPTO_0717	2
PSPTO_0718	7
PSPTO_0719	3
PSPTO_0720	4
PSPTO_0721	4
PSPTO_0722	18
PSPTO_0723	9
PSPTO_0724	10
PSPTO_0725	4
PSPTO_0726	13
PSPTO_0727	24
PSPTO_0728	39
PSPTO_0729	18
PSPTO_0730	12
PSPTO_0731	1
PSPTO_0732	38
PSPTO_0733	28
PSPTO_0734	8
PSPTO_0735	1
PSPTO_0736	6
PSPTO_0737	38
PSPTO_0738	16
PSPTO_0739	12
PSPTO_0740	11
PSPTO_0741	13
PSPTO_0742	27
PSPTO_0743	51
PSPTO_0744	40
PSPTO_0745	6
PSPTO_0746	24
PSPTO_0747	7
PSPTO_0748	28
PSPTO_0749	7
PSPTO_0750	27
PSPTO_0751	7
PSPTO_0752	2
PSPTO_0753	18
PSPTO_0754	18
PSPTO_0755	17
PSPTO_0756	16
PSPTO_0757	10
PSPTO_0758	9
PSPTO_0759	25
PSPTO_0760	12
PSPTO_0761	10
PSPTO_0762	15
PSPTO_0763	11
PSPTO_0764	17
PSPTO_0765	14
PSPTO_0766	13
PSPTO_0767	12
PSPTO_0768	30
PSPTO_0769	24
PSPTO_0770	3
PSPTO_0771	5
PSPTO_0772	15
PSPTO_0773	14
PSPTO_0774	31
PSPTO_0775	26
PSPTO_0776	29
PSPTO_0777	47
PSPTO_0778	27
PSPTO_0779	8
PSPTO_0780	14
PSPTO_0781	10
PSPTO_0782	14
PSPTO_0783	15
PSPTO_0784	20
PSPTO_0785	24
PSPTO_0786	15
PSPTO_0787	12
PSPTO_0788	14
PSPTO_0789	14
PSPTO_0790	13
PSPTO_0791	16
PSPTO_0792	6
PSPTO_0793	11
PSPTO_0794	12
PSPTO_0795	14
PSPTO_0796	20
PSPTO_0797	8
PSPTO_0798	10
PSPTO_0799	19
PSPTO_0800	43
PSPTO_0801	14
PSPTO_0802	4
PSPTO_0803	2
PSPTO_0804	12
PSPTO_0805	16
PSPTO_0806	58
PSPTO_0807	9
PSPTO_0808	7
PSPTO_0809	15
PSPTO_0810	9
PSPTO_0811	8
PSPTO_0812	12
PSPTO_0813	10
PSPTO_0814	8
PSPTO_0815	61
PSPTO_0816	4
PSPTO_0817	31
PSPTO_0818	1
PSPTO_0819	7
PSPTO_0820	35
PSPTO_0821	10
PSPTO_0822	4
PSPTO_0823	12
PSPTO_0824	25
PSPTO_0825	4
PSPTO_0826	14
PSPTO_0827	10
PSPTO_0828	10
PSPTO_0829	71
PSPTO_0830	11
PSPTO_0831	24
PSPTO_0832	8
PSPTO_0833	9
PSPTO_0834	27
PSPTO_0835	8
PSPTO_0836	10
PSPTO_0837	15
PSPTO_0838	15
PSPTO_0840	17
PSPTO_0841	9
PSPTO_0842	5
PSPTO_0844	18
PSPTO_0846	19
PSPTO_0847	3
PSPTO_0848	13
PSPTO_0849	7
PSPTO_0850	1
PSPTO_0851	9
PSPTO_0852	12
PSPTO_0853	34
PSPTO_0854	10
PSPTO_0855	4
PSPTO_0856	10
PSPTO_0857	4
PSPTO_0858	1
PSPTO_0859	28
PSPTO_0860	2
PSPTO_0861	6
PSPTO_0862	11
PSPTO_0863	7
PSPTO_0864	6
PSPTO_0865	7
PSPTO_0866	4
PSPTO_0867	5
PSPTO_0868	0
PSPTO_0869	2
PSPTO_0871	24
PSPTO_0873	6
PSPTO_0874	20
PSPTO_0875	27
PSPTO_0876	31
PSPTO_0877	19
PSPTO_0878	7
PSPTO_0879	12
PSPTO_0880	11
PSPTO_0881	13
PSPTO_0882	6
PSPTO_0883	72
PSPTO_0884	11
PSPTO_0885	21
PSPTO_0886	11
PSPTO_0887	8
PSPTO_0888	5
PSPTO_0889	12
PSPTO_0890	16
PSPTO_0891	4
PSPTO_0892	28
PSPTO_0893	6
PSPTO_0894	10
PSPTO_0895	11
PSPTO_0896	11
PSPTO_0897	4
PSPTO_0898	30
PSPTO_0899	11
PSPTO_0900	1
PSPTO_0901	3
PSPTO_0902	15
PSPTO_0903	14
PSPTO_0904	24
PSPTO_0905	29
PSPTO_0906	6
PSPTO_0907	10
PSPTO_0908	10
PSPTO_0909	2
PSPTO_0910	14
PSPTO_0911	11
PSPTO_0912	23
PSPTO_0913	31
PSPTO_0914	7
PSPTO_0915	6
PSPTO_0916	16
PSPTO_0917	39
PSPTO_0918	1
PSPTO_0919	11
PSPTO_0920	11
PSPTO_0921	2
PSPTO_0922	2
PSPTO_0923	7
PSPTO_0924	9
PSPTO_0925	14
PSPTO_0926	27
PSPTO_0927	472
PSPTO_0928	2
PSPTO_0929	32
PSPTO_0930	5
PSPTO_0931	10
PSPTO_0932	8
PSPTO_0933	28
PSPTO_0934	19
PSPTO_0935	15
PSPTO_0936	12
PSPTO_0937	17
PSPTO_0938	32
PSPTO_0939	11
PSPTO_0940	33
PSPTO_0941	41
PSPTO_0942	26
PSPTO_0943	41
PSPTO_0944	67
PSPTO_0945	67
PSPTO_0946	28
PSPTO_0947	13
PSPTO_0948	21
PSPTO_0949	127
PSPTO_0950	7
PSPTO_0951	17
PSPTO_0952	4
PSPTO_0953	11
PSPTO_0954	71
PSPTO_0955	17
PSPTO_0956	20
PSPTO_0957	15
PSPTO_0958	9
PSPTO_0959	44
PSPTO_0960	11
PSPTO_0961	17
PSPTO_0962	10
PSPTO_0963	9
PSPTO_0964	27
PSPTO_0965	27
PSPTO_0966	0
PSPTO_0967	10
PSPTO_0968	15
PSPTO_0969	12
PSPTO_0970	14
PSPTO_0971	8
PSPTO_0972	3
PSPTO_0973	10
PSPTO_0974	3
PSPTO_0975	60
PSPTO_0976	43
PSPTO_0977	21
PSPTO_0978	14
PSPTO_0979	3
PSPTO_0980	9
PSPTO_0981	21
PSPTO_0982	8
PSPTO_0983	11
PSPTO_0984	10
PSPTO_0985	28
PSPTO_0986	16
PSPTO_0987	2
PSPTO_0988	19
PSPTO_0989	9
PSPTO_0990	18
PSPTO_0991	13
PSPTO_0992	7
PSPTO_0993	11
PSPTO_0994	34
PSPTO_0995	17
PSPTO_0996	9
PSPTO_0997	12
PSPTO_0998	7
PSPTO_0999	35
PSPTO_1000	30
PSPTO_1001	16
PSPTO_1002	20
PSPTO_1003	8
PSPTO_1004	8
PSPTO_1005	36
PSPTO_1006	2
PSPTO_1007	16
PSPTO_1008	47
PSPTO_1009	7
PSPTO_1010	16
PSPTO_1011	1
PSPTO_1012	6
PSPTO_1013	10
PSPTO_1014	13
PSPTO_1015	20
PSPTO_1016	32
PSPTO_1017	3
PSPTO_1018	3
PSPTO_1019	3
PSPTO_1020	16
PSPTO_1021	1
PSPTO_1022	19
PSPTO_1023	9
PSPTO_1024	12
PSPTO_1025	12
PSPTO_1026	19
PSPTO_1027	13
PSPTO_1028	15
PSPTO_1029	17
PSPTO_1030	38
PSPTO_1031	14
PSPTO_1032	7
PSPTO_1033	11
PSPTO_1034	14
PSPTO_1035	15
PSPTO_1036	4
PSPTO_1037	6
PSPTO_1038	9
PSPTO_1039	53
PSPTO_1040	22
PSPTO_1041	23
PSPTO_1042	12
PSPTO_1043	7
PSPTO_1044	1
PSPTO_1045	8
PSPTO_1046	4
PSPTO_1047	10
PSPTO_1048	11
PSPTO_1049	11
PSPTO_1050	3
PSPTO_1051	9
PSPTO_1052	9
PSPTO_1053	6
PSPTO_1054	13
PSPTO_1055	11
PSPTO_1056	22
PSPTO_1057	6
PSPTO_1058	2
PSPTO_1059	68
PSPTO_1060	0
PSPTO_1061	18
PSPTO_1062	27
PSPTO_1064	7
PSPTO_1065	21
PSPTO_1066	158
PSPTO_1067	33
PSPTO_1068	30
PSPTO_1069	2
PSPTO_1070	22
PSPTO_1071	11
PSPTO_1072	25
PSPTO_1073	18
PSPTO_1074	96
PSPTO_1075	15
PSPTO_1076	9
PSPTO_1077	8
PSPTO_1078	12
PSPTO_1079	39
PSPTO_1080	12
PSPTO_1081	18
PSPTO_1082	4
PSPTO_1083	9
PSPTO_1084	15
PSPTO_1085	8
PSPTO_1086	18
PSPTO_1087	25
PSPTO_1088	15
PSPTO_1089	48
PSPTO_1090	12
PSPTO_1091	6
PSPTO_1092	2
PSPTO_1093	39
PSPTO_1094	16
PSPTO_1095	12
PSPTO_1096	12
PSPTO_1097	46
PSPTO_1098	13
PSPTO_1099	2
PSPTO_1100	37
PSPTO_1101	7
PSPTO_1102	7
PSPTO_1103	11
PSPTO_1104	24
PSPTO_1105	20
PSPTO_1106	12
PSPTO_1107	20
PSPTO_1108	17
PSPTO_1109	14
PSPTO_1110	32
PSPTO_1111	21
PSPTO_1112	7
PSPTO_1114	3
PSPTO_1115	9
PSPTO_1116	12
PSPTO_1117	9
PSPTO_1118	6
PSPTO_1119	12
PSPTO_1120	4
PSPTO_1121	22
PSPTO_1122	22
PSPTO_1123	38
PSPTO_1124	4
PSPTO_1125	7
PSPTO_1126	55
PSPTO_1127	30
PSPTO_1128	20
PSPTO_1129	24
PSPTO_1130	11
PSPTO_1131	4
PSPTO_1132	12
PSPTO_1133	5
PSPTO_1134	8
PSPTO_1135	21
PSPTO_1136	46
PSPTO_1137	2
PSPTO_1138	23
PSPTO_1139	0
PSPTO_1140	14
PSPTO_1141	3
PSPTO_1142	9
PSPTO_1143	14
PSPTO_1144	23
PSPTO_1145	7
PSPTO_1146	8
PSPTO_1147	5
PSPTO_1148	27
PSPTO_1149	24
PSPTO_1150	8
PSPTO_1151	36
PSPTO_1152	13
PSPTO_1153	5
PSPTO_1154	10
PSPTO_1155	6
PSPTO_1156	10
PSPTO_1157	9
PSPTO_1158	9
PSPTO_1159	26
PSPTO_1160	31
PSPTO_1161	4
PSPTO_1162	8
PSPTO_1163	13
PSPTO_1164	57
PSPTO_1165	21
PSPTO_1166	14
PSPTO_1167	19
PSPTO_1168	10
PSPTO_1169	28
PSPTO_1170	2
PSPTO_1171	10
PSPTO_1172	13
PSPTO_1173	6
PSPTO_1174	16
PSPTO_1175	10
PSPTO_1176	2
PSPTO_1177	7
PSPTO_1178	15
PSPTO_1179	4
PSPTO_1180	7
PSPTO_1181	7
PSPTO_1182	9
PSPTO_1183	12
PSPTO_1184	41
PSPTO_1185	33
PSPTO_1186	5
PSPTO_1187	18
PSPTO_1188	18
PSPTO_1189	15
PSPTO_1190	5
PSPTO_1191	23
PSPTO_1192	9
PSPTO_1193	17
PSPTO_1194	19
PSPTO_1195	25
PSPTO_1196	22
PSPTO_1197	4
PSPTO_1198	1
PSPTO_1199	0
PSPTO_1200	15
PSPTO_1201	6
PSPTO_1202	44
PSPTO_1203	9
PSPTO_1204	28
PSPTO_1205	82
PSPTO_1206	20
PSPTO_1207	19
PSPTO_1208	17
PSPTO_1209	9
PSPTO_1210	8
PSPTO_1211	19
PSPTO_1212	8
PSPTO_1213	13
PSPTO_1214	5
PSPTO_1215	18
PSPTO_1216	18
PSPTO_1217	24
PSPTO_1218	32
PSPTO_1219	0
PSPTO_1220	7
PSPTO_1221	17
PSPTO_1222	2
PSPTO_1223	12
PSPTO_1224	10
PSPTO_1225	29
PSPTO_1226	1
PSPTO_1227	17
PSPTO_1228	5
PSPTO_1229	14
PSPTO_1230	2
PSPTO_1231	47
PSPTO_1232	21
PSPTO_1233	10
PSPTO_1234	9
PSPTO_1235	14
PSPTO_1236	8
PSPTO_1237	15
PSPTO_1238	14
PSPTO_1239	20
PSPTO_1240	21
PSPTO_1241	6
PSPTO_1242	10
PSPTO_1243	20
PSPTO_1244	4
PSPTO_1245	12
PSPTO_1246	131
PSPTO_1247	8
PSPTO_1248	6
PSPTO_1249	11
PSPTO_1250	8
PSPTO_1251	4
PSPTO_1252	12
PSPTO_1253	21
PSPTO_1254	12
PSPTO_1255	68
PSPTO_1256	14
PSPTO_1257	20
PSPTO_1258	10
PSPTO_1259	8
PSPTO_1260	18
PSPTO_1261	11
PSPTO_1262	5
PSPTO_1263	13
PSPTO_1264	2
PSPTO_1265	4
PSPTO_1266	28
PSPTO_1267	7
PSPTO_1268	61
PSPTO_1269	7
PSPTO_1270	9
PSPTO_1271	42
PSPTO_1272	11
PSPTO_1273	27
PSPTO_1274	84
PSPTO_1275	27
PSPTO_1276	89
PSPTO_1277	5
PSPTO_1278	67
PSPTO_1279	51
PSPTO_1280	16
PSPTO_1281	18
PSPTO_1282	5
PSPTO_1283	12
PSPTO_1284	28
PSPTO_1285	24
PSPTO_1286	5
PSPTO_1287	68
PSPTO_1288	35
PSPTO_1289	32
PSPTO_1290	21
PSPTO_1291	18
PSPTO_1292	24
PSPTO_1293	8
PSPTO_1294	6
PSPTO_1295	18
PSPTO_1296	44
PSPTO_1297	0
PSPTO_1298	13
PSPTO_1299	9
PSPTO_1300	26
PSPTO_1301	25
PSPTO_1302	21
PSPTO_1303	4
PSPTO_1304	6
PSPTO_1305	20
PSPTO_1306	11
PSPTO_1307	11
PSPTO_1308	42
PSPTO_1309	11
PSPTO_1310	18
PSPTO_1311	36
PSPTO_1312	13
PSPTO_1313	9
PSPTO_1314	10
PSPTO_1315	17
PSPTO_1316	17
PSPTO_1317	6
PSPTO_1318	8
PSPTO_1319	5
PSPTO_1320	44
PSPTO_1321	1
PSPTO_1322	17
PSPTO_1323	109
PSPTO_1324	19
PSPTO_1325	39
PSPTO_1326	128
PSPTO_1327	23
PSPTO_1328	16
PSPTO_1329	16
PSPTO_1330	16
PSPTO_1331	15
PSPTO_1332	47
PSPTO_1333	16
PSPTO_1334	143
PSPTO_1335	8
PSPTO_1336	2
PSPTO_1337	19
PSPTO_1338	25
PSPTO_1339	8
PSPTO_1340	46
PSPTO_1341	5
PSPTO_1342	11
PSPTO_1343	19
PSPTO_1344	4
PSPTO_1345	21
PSPTO_1346	14
PSPTO_1347	16
PSPTO_1348	70
PSPTO_1349	52
PSPTO_1350	8
PSPTO_1351	0
PSPTO_1352	4
PSPTO_1353	3
PSPTO_1354	9
PSPTO_1355	15
PSPTO_1356	16
PSPTO_1357	20
PSPTO_1358	13
PSPTO_1359	11
PSPTO_1360	15
PSPTO_1361	18
PSPTO_1362	3
PSPTO_1363	13
PSPTO_1364	8
PSPTO_1365	7
PSPTO_1366	0
PSPTO_1367	8
PSPTO_1368	3
PSPTO_1369	7
PSPTO_1370	9
PSPTO_1371	8
PSPTO_1372	19
PSPTO_1373	5
PSPTO_1374	3
PSPTO_1375	20
PSPTO_1376	3
PSPTO_1377	37
PSPTO_1378	25
PSPTO_1379	12
PSPTO_1380	17
PSPTO_1381	23
PSPTO_1382	20
PSPTO_1383	6
PSPTO_1384	11
PSPTO_1385	10
PSPTO_1386	10
PSPTO_1387	4
PSPTO_1388	4
PSPTO_1389	14
PSPTO_1390	1
PSPTO_1391	15
PSPTO_1392	6
PSPTO_1393	11
PSPTO_1394	3
PSPTO_1395	3
PSPTO_1396	4
PSPTO_1397	7
PSPTO_1398	4
PSPTO_1399	3
PSPTO_1400	22
PSPTO_1401	10
PSPTO_1402	9
PSPTO_1403	10
PSPTO_1404	4
PSPTO_1405	20
PSPTO_1406	21
PSPTO_1407	21
PSPTO_1408	6
PSPTO_1409	14
PSPTO_1410	230
PSPTO_1411	7
PSPTO_1412	12
PSPTO_1413	17
PSPTO_1414	7
PSPTO_1415	21
PSPTO_1416	13
PSPTO_1417	489
PSPTO_1418	13
PSPTO_1419	8
PSPTO_1420	7
PSPTO_1421	11
PSPTO_1422	8
PSPTO_1423	30
PSPTO_1424	16
PSPTO_1425	11
PSPTO_1426	12
PSPTO_1427	33
PSPTO_1428	6
PSPTO_1429	1
PSPTO_1430	18
PSPTO_1431	20
PSPTO_1432	9
PSPTO_1433	20
PSPTO_1434	25
PSPTO_1435	23
PSPTO_1436	17
PSPTO_1437	29
PSPTO_1438	22
PSPTO_1439	19
PSPTO_1440	10
PSPTO_1441	11
PSPTO_1443	23
PSPTO_1444	68
PSPTO_1445	12
PSPTO_1446	19
PSPTO_1447	3
PSPTO_1448	2
PSPTO_1449	33
PSPTO_1450	17
PSPTO_1451	18
PSPTO_1452	2
PSPTO_1453	56
PSPTO_1454	10
PSPTO_1455	13
PSPTO_1456	12
PSPTO_1457	6
PSPTO_1458	12
PSPTO_1459	59
PSPTO_1460	7
PSPTO_1461	8
PSPTO_1462	6
PSPTO_1463	0
PSPTO_1464	9
PSPTO_1465	8
PSPTO_1466	5
PSPTO_1467	5
PSPTO_1468	19
PSPTO_1469	12
PSPTO_1470	14
PSPTO_1471	9
PSPTO_1472	21
PSPTO_1473	12
PSPTO_1474	10
PSPTO_1475	29
PSPTO_1476	14
PSPTO_1477	9
PSPTO_1478	7
PSPTO_1479	12
PSPTO_1480	16
PSPTO_1481	30
PSPTO_1482	44
PSPTO_1483	31
PSPTO_1484	6
PSPTO_1485	27
PSPTO_1486	9
PSPTO_1487	5
PSPTO_1488	22
PSPTO_1489	25
PSPTO_1490	51
PSPTO_1491	64
PSPTO_1492	37
PSPTO_1493	109
PSPTO_1494	42
PSPTO_1495	35
PSPTO_1496	12
PSPTO_1497	71
PSPTO_1498	25
PSPTO_1499	36
PSPTO_1500	12
PSPTO_1501	17
PSPTO_1502	7
PSPTO_1503	32
PSPTO_1504	5
PSPTO_1505	6
PSPTO_1506	260
PSPTO_1507	114
PSPTO_1508	56
PSPTO_1509	12
PSPTO_1510	11
PSPTO_1511	19
PSPTO_1512	14
PSPTO_1513	12
PSPTO_1514	86
PSPTO_1515	16
PSPTO_1516	1
PSPTO_1517	2
PSPTO_1518	9
PSPTO_1519	8
PSPTO_1520	28
PSPTO_1521	7
PSPTO_1522	14
PSPTO_1523	10
PSPTO_1524	25
PSPTO_1525	6
PSPTO_1526	8
PSPTO_1527	17
PSPTO_1528	17
PSPTO_1529	8
PSPTO_1530	5
PSPTO_1531	16
PSPTO_1532	26
PSPTO_1533	6
PSPTO_1534	24
PSPTO_1535	14
PSPTO_1536	11
PSPTO_1537	11
PSPTO_1538	14
PSPTO_1539	15
PSPTO_1540	25
PSPTO_1541	29
PSPTO_1542	37
PSPTO_1543	5
PSPTO_1544	14
PSPTO_1545	6
PSPTO_1546	13
PSPTO_1547	17
PSPTO_1548	7
PSPTO_1549	51
PSPTO_1550	22
PSPTO_1551	29
PSPTO_1552	38
PSPTO_1553	17
PSPTO_1554	50
PSPTO_1555	4
PSPTO_1556	13
PSPTO_1557	6
PSPTO_1558	16
PSPTO_1559	14
PSPTO_1560	3
PSPTO_1561	10
PSPTO_1562	14
PSPTO_1563	10
PSPTO_1564	40
PSPTO_1565	89
PSPTO_1566	0
PSPTO_1567	11
PSPTO_1568	8
PSPTO_1570	1
PSPTO_1571	19
PSPTO_1572	1
PSPTO_1573	3
PSPTO_1574	10
PSPTO_1575	6
PSPTO_1576	0
PSPTO_1577	14
PSPTO_1578	6
PSPTO_1579	13
PSPTO_1580	16
PSPTO_1581	7
PSPTO_1582	9
PSPTO_1583	10
PSPTO_1584	17
PSPTO_1585	5
PSPTO_1586	1
PSPTO_1587	19
PSPTO_1588	6
PSPTO_1589	11
PSPTO_1590	8
PSPTO_1591	5
PSPTO_1592	9
PSPTO_1593	8
PSPTO_1594	7
PSPTO_1595	8
PSPTO_1596	39
PSPTO_1597	37
PSPTO_1598	14
PSPTO_1599	5
PSPTO_1600	55
PSPTO_1601	10
PSPTO_1602	15
PSPTO_1603	1
PSPTO_1604	30
PSPTO_1605	27
PSPTO_1606	21
PSPTO_1607	13
PSPTO_1608	42
PSPTO_1609	18
PSPTO_1610	17
PSPTO_1611	1
PSPTO_1612	13
PSPTO_1613	4
PSPTO_1614	10
PSPTO_1615	12
PSPTO_1616	8
PSPTO_1617	8
PSPTO_1618	10
PSPTO_1619	8
PSPTO_1620	43
PSPTO_1621	81
PSPTO_1622	13
PSPTO_1623	13
PSPTO_1624	60
PSPTO_1625	6
PSPTO_1626	7
PSPTO_1627	13
PSPTO_1628	5
PSPTO_1629	2
PSPTO_1630	4
PSPTO_1631	39
PSPTO_1632	37
PSPTO_1633	35
PSPTO_1634	2
PSPTO_1635	14
PSPTO_1636	9
PSPTO_1637	32
PSPTO_1638	11
PSPTO_1639	27
PSPTO_1640	37
PSPTO_1641	2
PSPTO_1642	5
PSPTO_1643	13
PSPTO_1644	23
PSPTO_1645	10
PSPTO_1646	30
PSPTO_1647	5
PSPTO_1648	27
PSPTO_1649	38
PSPTO_1650	40
PSPTO_1651	4
PSPTO_1652	7
PSPTO_1653	20
PSPTO_1654	11
PSPTO_1655	9
PSPTO_1656	17
PSPTO_1657	22
PSPTO_1658	6
PSPTO_1659	11
PSPTO_1660	31
PSPTO_1661	48
PSPTO_1662	6
PSPTO_1663	0
PSPTO_1664	9
PSPTO_1665	2
PSPTO_1666	6
PSPTO_1667	13
PSPTO_1668	2
PSPTO_1669	12
PSPTO_1670	31
PSPTO_1671	163
PSPTO_1672	8
PSPTO_1673	18
PSPTO_1674	19
PSPTO_1675	11
PSPTO_1676	11
PSPTO_1677	12
PSPTO_1678	5
PSPTO_1679	10
PSPTO_1680	8
PSPTO_1681	3
PSPTO_1682	99
PSPTO_1683	8
PSPTO_1684	14
PSPTO_1685	16
PSPTO_1686	6
PSPTO_1687	4
PSPTO_1688	23
PSPTO_1689	4
PSPTO_1690	4
PSPTO_1691	19
PSPTO_1692	4
PSPTO_1693	17
PSPTO_1694	45
PSPTO_1695	17
PSPTO_1696	11
PSPTO_1697	6
PSPTO_1698	68
PSPTO_1699	5
PSPTO_1700	14
PSPTO_1701	24
PSPTO_1702	38
PSPTO_1703	3
PSPTO_1704	7
PSPTO_1705	9
PSPTO_1706	5
PSPTO_1707	52
PSPTO_1708	9
PSPTO_1709	24
PSPTO_1710	11
PSPTO_1711	17
PSPTO_1712	13
PSPTO_1713	12
PSPTO_1714	9
PSPTO_1715	13
PSPTO_1716	9
PSPTO_1717	11
PSPTO_1718	10
PSPTO_1719	7
PSPTO_1720	32
PSPTO_1721	59
PSPTO_1722	9
PSPTO_1723	3
PSPTO_1724	18
PSPTO_1725	46
PSPTO_1726	3
PSPTO_1727	3
PSPTO_1728	6
PSPTO_1729	8
PSPTO_1730	13
PSPTO_1731	36
PSPTO_1732	15
PSPTO_1733	6
PSPTO_1734	8
PSPTO_1735	6
PSPTO_1736	21
PSPTO_1737	34
PSPTO_1738	22
PSPTO_1739	37
PSPTO_1740	14
PSPTO_1741	18
PSPTO_1742	17
PSPTO_1743	10
PSPTO_1744	17
PSPTO_1745	64
PSPTO_1746	24
PSPTO_1747	29
PSPTO_1748	26
PSPTO_1749	17
PSPTO_1750	233
PSPTO_1751	7
PSPTO_1752	8
PSPTO_1753	17
PSPTO_1754	19
PSPTO_1755	18
PSPTO_1756	69
PSPTO_1757	7
PSPTO_1758	12
PSPTO_1759	6
PSPTO_1760	13
PSPTO_1761	14
PSPTO_1762	8
PSPTO_1763	10
PSPTO_1764	11
PSPTO_1765	9
PSPTO_1766	7
PSPTO_1767	1
PSPTO_1768	13
PSPTO_1769	11
PSPTO_1770	8
PSPTO_1771	3
PSPTO_1772	11
PSPTO_1773	15
PSPTO_1774	0
PSPTO_1775	27
PSPTO_1776	9
PSPTO_1777	15
PSPTO_1778	38
PSPTO_1779	28
PSPTO_1780	16
PSPTO_1781	11
PSPTO_1782	26
PSPTO_1783	15
PSPTO_1784	9
PSPTO_1785	33
PSPTO_1786	6
PSPTO_1787	12
PSPTO_1788	13
PSPTO_1789	21
PSPTO_1790	18
PSPTO_1791	6
PSPTO_1792	7
PSPTO_1793	2
PSPTO_1794	17
PSPTO_1795	7
PSPTO_1796	5
PSPTO_1797	19
PSPTO_1798	4
PSPTO_1799	3
PSPTO_1800	6
PSPTO_1801	19
PSPTO_1802	17
PSPTO_1803	14
PSPTO_1804	0
PSPTO_1805	14
PSPTO_1806	33
PSPTO_1807	13
PSPTO_1808	9
PSPTO_1809	5
PSPTO_1810	17
PSPTO_1811	13
PSPTO_1812	15
PSPTO_1813	8
PSPTO_1814	4
PSPTO_1815	24
PSPTO_1816	2
PSPTO_1817	17
PSPTO_1818	14
PSPTO_1819	19
PSPTO_1820	7
PSPTO_1821	42
PSPTO_1822	77
PSPTO_1823	16
PSPTO_1824	2
PSPTO_1825	127
PSPTO_1826	17
PSPTO_1827	5
PSPTO_1828	5
PSPTO_1829	13
PSPTO_1830	6
PSPTO_1831	12
PSPTO_1832	20
PSPTO_1833	11
PSPTO_1834	19
PSPTO_1835	23
PSPTO_1836	19
PSPTO_1838	4
PSPTO_1839	19
PSPTO_1840	1
PSPTO_1841	18
PSPTO_1842	40
PSPTO_1843	24
PSPTO_1844	39
PSPTO_1845	5
PSPTO_1846	17
PSPTO_1847	143
PSPTO_1848	2
PSPTO_1849	4
PSPTO_1850	51
PSPTO_1851	28
PSPTO_1852	25
PSPTO_1853	2
PSPTO_1854	4
PSPTO_1855	20
PSPTO_1856	10
PSPTO_1857	20
PSPTO_1858	4
PSPTO_1859	7
PSPTO_1860	7
PSPTO_1861	8
PSPTO_1862	14
PSPTO_1863	8
PSPTO_1864	5
PSPTO_1865	10
PSPTO_1866	4
PSPTO_1867	8
PSPTO_1868	16
PSPTO_1869	11
PSPTO_1870	102
PSPTO_1871	18
PSPTO_1872	2
PSPTO_1873	13
PSPTO_1874	20
PSPTO_1875	7
PSPTO_1876	2
PSPTO_1877	8
PSPTO_1878	16
PSPTO_1879	40
PSPTO_1880	15
PSPTO_1881	18
PSPTO_1882	8
PSPTO_1883	13
PSPTO_1884	6
PSPTO_1885	13
PSPTO_1886	27
PSPTO_1887	19
PSPTO_1888	13
PSPTO_1889	16
PSPTO_1890	14
PSPTO_1891	24
PSPTO_1892	17
PSPTO_1893	14
PSPTO_1894	5
PSPTO_1895	5
PSPTO_1896	10
PSPTO_1897	19
PSPTO_1898	10
PSPTO_1899	17
PSPTO_1900	0
PSPTO_1901	9
PSPTO_1902	53
PSPTO_1903	7
PSPTO_1904	38
PSPTO_1905	1
PSPTO_1906	15
PSPTO_1907	14
PSPTO_1908	7
PSPTO_1909	17
PSPTO_1910	13
PSPTO_1911	87
PSPTO_1912	27
PSPTO_1913	84
PSPTO_1914	169
PSPTO_1915	64
PSPTO_1916	149
PSPTO_1917	7
PSPTO_1918	173
PSPTO_1919	81
PSPTO_1920	120
PSPTO_1921	15
PSPTO_1922	27
PSPTO_1923	97
PSPTO_1924	202
PSPTO_1925	215
PSPTO_1926	29
PSPTO_1927	264
PSPTO_1928	116
PSPTO_1929	18
PSPTO_1930	15
PSPTO_1931	11
PSPTO_1932	0
PSPTO_1933	248
PSPTO_1934	209
PSPTO_1935	293
PSPTO_1936	862
PSPTO_1937	26
PSPTO_1938	4
PSPTO_1939	319
PSPTO_1940	554
PSPTO_1941	264
PSPTO_1942	236
PSPTO_1943	169
PSPTO_1944	264
PSPTO_1945	317
PSPTO_1946	83
PSPTO_1947	61
PSPTO_1948	12
PSPTO_1949	2907
PSPTO_1950	142
PSPTO_1951	716
PSPTO_1952	193
PSPTO_1953	195
PSPTO_1954	131
PSPTO_1955	263
PSPTO_1956	167
PSPTO_1957	160
PSPTO_1958	251
PSPTO_1959	158
PSPTO_1960	87
PSPTO_1961	51
PSPTO_1962	8
PSPTO_1963	32
PSPTO_1964	62
PSPTO_1965	10
PSPTO_1966	323
PSPTO_1967	3
PSPTO_1968	53
PSPTO_1969	115
PSPTO_1970	76
PSPTO_1971	60
PSPTO_1972	44
PSPTO_1973	12
PSPTO_1974	12
PSPTO_1975	23
PSPTO_1976	255
PSPTO_1977	342
PSPTO_1978	118
PSPTO_1979	153
PSPTO_1980	111
PSPTO_1981	130
PSPTO_1982	617
PSPTO_1983	78
PSPTO_1984	16
PSPTO_1985	33
PSPTO_1986	66
PSPTO_1987	131
PSPTO_1988	166
PSPTO_1989	81
PSPTO_1990	10
PSPTO_1991	11
PSPTO_1992	21
PSPTO_1993	18
PSPTO_1994	14
PSPTO_1995	3
PSPTO_1996	31
PSPTO_1997	6
PSPTO_1998	14
PSPTO_1999	3
PSPTO_2000	5
PSPTO_2001	12
PSPTO_2002	1
PSPTO_2003	6
PSPTO_2004	8
PSPTO_2005	15
PSPTO_2006	5
PSPTO_2007	13
PSPTO_2008	14
PSPTO_2009	13
PSPTO_2010	17
PSPTO_2011	63
PSPTO_2012	3
PSPTO_2013	4
PSPTO_2014	23
PSPTO_2015	10
PSPTO_2016	44
PSPTO_2017	13
PSPTO_2018	6
PSPTO_2019	21
PSPTO_2020	29
PSPTO_2021	23
PSPTO_2022	3
PSPTO_2023	13
PSPTO_2024	10
PSPTO_2025	6
PSPTO_2026	19
PSPTO_2027	1
PSPTO_2028	14
PSPTO_2029	26
PSPTO_2030	16
PSPTO_2031	4
PSPTO_2032	8
PSPTO_2033	1
PSPTO_2034	2
PSPTO_2035	14
PSPTO_2036	3
PSPTO_2037	7
PSPTO_2038	5
PSPTO_2039	11
PSPTO_2040	22
PSPTO_2041	61
PSPTO_2042	23
PSPTO_2043	24
PSPTO_2044	18
PSPTO_2045	12
PSPTO_2046	7
PSPTO_2047	3
PSPTO_2048	11
PSPTO_2049	4
PSPTO_2050	7
PSPTO_2051	28
PSPTO_2052	7
PSPTO_2053	13
PSPTO_2054	14
PSPTO_2055	8
PSPTO_2056	14
PSPTO_2057	37
PSPTO_2058	6
PSPTO_2059	41
PSPTO_2060	13
PSPTO_2061	35
PSPTO_2062	8
PSPTO_2063	12
PSPTO_2064	7
PSPTO_2065	10
PSPTO_2066	2
PSPTO_2067	0
PSPTO_2068	4
PSPTO_2069	1
PSPTO_2070	12
PSPTO_2071	8
PSPTO_2072	4
PSPTO_2073	11
PSPTO_2074	6
PSPTO_2075	7
PSPTO_2076	2
PSPTO_2077	12
PSPTO_2078	4
PSPTO_2079	1
PSPTO_2080	8
PSPTO_2081	3
PSPTO_2082	10
PSPTO_2083	32
PSPTO_2084	0
PSPTO_2085	2
PSPTO_2086	2
PSPTO_2087	2
PSPTO_2088	2
PSPTO_2089	31
PSPTO_2090	9
PSPTO_2091	6
PSPTO_2092	11
PSPTO_2093	6
PSPTO_2094	5
PSPTO_2095	1
PSPTO_2096	5
PSPTO_2097	5
PSPTO_2098	10
PSPTO_2099	24
PSPTO_2100	8
PSPTO_2101	29
PSPTO_2102	26
PSPTO_2103	23
PSPTO_2104	13
PSPTO_2105	10
PSPTO_2106	43
PSPTO_2107	9
PSPTO_2108	13
PSPTO_2109	10
PSPTO_2110	10
PSPTO_2111	18
PSPTO_2112	11
PSPTO_2113	14
PSPTO_2114	14
PSPTO_2115	9
PSPTO_2116	6
PSPTO_2117	29
PSPTO_2118	31
PSPTO_2119	59
PSPTO_2120	14
PSPTO_2121	5
PSPTO_2122	3
PSPTO_2123	6
PSPTO_2124	33
PSPTO_2125	8
PSPTO_2126	8
PSPTO_2127	17
PSPTO_2128	10
PSPTO_2129	25
PSPTO_2130	11
PSPTO_2131	16
PSPTO_2132	3
PSPTO_2133	26
PSPTO_2134	48
PSPTO_2135	1233
PSPTO_2136	302
PSPTO_2137	59
PSPTO_2138	19
PSPTO_2139	11
PSPTO_2140	10
PSPTO_2141	21
PSPTO_2142	11
PSPTO_2143	7
PSPTO_2144	9
PSPTO_2145	20
PSPTO_2146	66
PSPTO_2147	103
PSPTO_2148	573
PSPTO_2149	470
PSPTO_2150	992
PSPTO_2151	25
PSPTO_2152	162
PSPTO_2153	36
PSPTO_2154	25
PSPTO_2155	27
PSPTO_2156	30
PSPTO_2158	23
PSPTO_2159	20
PSPTO_2160	22
PSPTO_2161	70
PSPTO_2162	7
PSPTO_2163	29
PSPTO_2164	80
PSPTO_2165	21
PSPTO_2166	13
PSPTO_2167	26
PSPTO_2168	3
PSPTO_2169	5
PSPTO_2170	119
PSPTO_2171	112
PSPTO_2172	17
PSPTO_2173	66
PSPTO_2174	36
PSPTO_2175	51
PSPTO_2176	62
PSPTO_2177	12
PSPTO_2178	8
PSPTO_2179	21
PSPTO_2180	15
PSPTO_2181	13
PSPTO_2182	9
PSPTO_2183	17
PSPTO_2184	16
PSPTO_2185	10
PSPTO_2186	37
PSPTO_2187	9
PSPTO_2188	1
PSPTO_2189	14
PSPTO_2190	9
PSPTO_2191	18
PSPTO_2192	2
PSPTO_2193	26
PSPTO_2194	61
PSPTO_2195	19
PSPTO_2196	14
PSPTO_2197	37
PSPTO_2198	50
PSPTO_2199	226
PSPTO_2200	86
PSPTO_2201	117
PSPTO_2202	180
PSPTO_2203	206
PSPTO_2204	10
PSPTO_2205	2
PSPTO_2206	18
PSPTO_2207	90
PSPTO_2208	115
PSPTO_2209	36
PSPTO_2210	111
PSPTO_2211	28
PSPTO_2212	11
PSPTO_2213	14
PSPTO_2214	4
PSPTO_2215	11
PSPTO_2216	10
PSPTO_2217	13
PSPTO_2218	8
PSPTO_2219	1
PSPTO_2220	4
PSPTO_2221	20
PSPTO_2222	13
PSPTO_2223	9
PSPTO_2224	36
PSPTO_2225	28
PSPTO_2226	18
PSPTO_2227	5
PSPTO_2228	11
PSPTO_2229	3
PSPTO_2230	2
PSPTO_2231	34
PSPTO_2232	23
PSPTO_2233	10
PSPTO_2234	9
PSPTO_2235	13
PSPTO_2236	25
PSPTO_2237	33
PSPTO_2238	6
PSPTO_2239	70
PSPTO_2240	6
PSPTO_2241	0
PSPTO_2242	12
PSPTO_2243	19
PSPTO_2244	10
PSPTO_2245	51
PSPTO_2246	13
PSPTO_2247	16
PSPTO_2248	13
PSPTO_2249	17
PSPTO_2250	30
PSPTO_2251	23
PSPTO_2252	18
PSPTO_2253	2
PSPTO_2254	21
PSPTO_2255	11
PSPTO_2256	23
PSPTO_2257	11
PSPTO_2258	10
PSPTO_2259	20
PSPTO_2260	23
PSPTO_2261	9
PSPTO_2262	2
PSPTO_2263	6
PSPTO_2264	4
PSPTO_2265	8
PSPTO_2266	31
PSPTO_2267	12
PSPTO_2268	14
PSPTO_2269	5
PSPTO_2270	10
PSPTO_2271	1
PSPTO_2272	62
PSPTO_2273	4
PSPTO_2274	8
PSPTO_2275	14
PSPTO_2276	16
PSPTO_2277	13
PSPTO_2278	16
PSPTO_2279	41
PSPTO_2280	6
PSPTO_2281	10
PSPTO_2282	11
PSPTO_2283	18
PSPTO_2284	14
PSPTO_2285	3
PSPTO_2286	13
PSPTO_2287	29
PSPTO_2288	28
PSPTO_2289	47
PSPTO_2290	13
PSPTO_2291	6
PSPTO_2292	133
PSPTO_2293	17
PSPTO_2294	11
PSPTO_2295	25
PSPTO_2296	18
PSPTO_2297	38
PSPTO_2298	174
PSPTO_2299	1330
PSPTO_2300	5
PSPTO_2301	21
PSPTO_2302	10
PSPTO_2303	17
PSPTO_2304	10
PSPTO_2305	8
PSPTO_2306	9
PSPTO_2307	9
PSPTO_2308	3
PSPTO_2309	15
PSPTO_2310	52
PSPTO_2311	28
PSPTO_2312	17
PSPTO_2313	8
PSPTO_2314	27
PSPTO_2315	10
PSPTO_2316	9
PSPTO_2317	27
PSPTO_2318	16
PSPTO_2319	4
PSPTO_2320	5
PSPTO_2321	17
PSPTO_2322	8
PSPTO_2323	17
PSPTO_2324	13
PSPTO_2325	0
PSPTO_2326	28
PSPTO_2327	6
PSPTO_2328	19
PSPTO_2329	6
PSPTO_2330	2
PSPTO_2331	24
PSPTO_2332	2
PSPTO_2333	26
PSPTO_2334	26
PSPTO_2335	27
PSPTO_2336	12
PSPTO_2337	10
PSPTO_2338	15
PSPTO_2339	13
PSPTO_2340	10
PSPTO_2341	17
PSPTO_2342	2
PSPTO_2343	1
PSPTO_2344	25
PSPTO_2345	12
PSPTO_2346	39
PSPTO_2347	7
PSPTO_2348	10
PSPTO_2349	5
PSPTO_2350	102
PSPTO_2351	13
PSPTO_2352	5
PSPTO_2353	21
PSPTO_2354	18
PSPTO_2355	17
PSPTO_2356	5
PSPTO_2358	24
PSPTO_2359	14
PSPTO_2360	5
PSPTO_2361	17
PSPTO_2362	35
PSPTO_2363	6
PSPTO_2364	5
PSPTO_2365	4
PSPTO_2366	5
PSPTO_2367	7
PSPTO_2368	23
PSPTO_2369	4
PSPTO_2370	7
PSPTO_2371	8
PSPTO_2372	6
PSPTO_2373	14
PSPTO_2374	10
PSPTO_2375	8
PSPTO_2376	36
PSPTO_2377	25
PSPTO_2378	25
PSPTO_2379	125
PSPTO_2380	84
PSPTO_2381	84
PSPTO_2382	15
PSPTO_2383	43
PSPTO_2384	27
PSPTO_2385	17
PSPTO_2386	7
PSPTO_2387	8
PSPTO_2388	10
PSPTO_2389	6
PSPTO_2390	17
PSPTO_2391	6
PSPTO_2392	3
PSPTO_2394	39
PSPTO_2395	8
PSPTO_2396	8
PSPTO_2397	10
PSPTO_2398	15
PSPTO_2399	10
PSPTO_2400	6
PSPTO_2401	4
PSPTO_2402	7
PSPTO_2403	15
PSPTO_2404	6
PSPTO_2405	17
PSPTO_2406	2
PSPTO_2407	8
PSPTO_2408	7
PSPTO_2409	7
PSPTO_2410	16
PSPTO_2411	8
PSPTO_2412	5
PSPTO_2413	6
PSPTO_2414	5
PSPTO_2415	7
PSPTO_2416	13
PSPTO_2417	8
PSPTO_2418	5
PSPTO_2419	5
PSPTO_2420	4
PSPTO_2421	16
PSPTO_2422	19
PSPTO_2423	2
PSPTO_2424	4
PSPTO_2425	14
PSPTO_2426	13
PSPTO_2427	16
PSPTO_2428	31
PSPTO_2429	16
PSPTO_2430	8
PSPTO_2431	24
PSPTO_2432	19
PSPTO_2433	2
PSPTO_2434	17
PSPTO_2435	9
PSPTO_2436	2
PSPTO_2437	21
PSPTO_2438	39
PSPTO_2439	19
PSPTO_2440	13
PSPTO_2441	293
PSPTO_2442	97
PSPTO_2443	10
PSPTO_2444	2
PSPTO_2445	2
PSPTO_2446	6
PSPTO_2447	7
PSPTO_2448	34
PSPTO_2449	12
PSPTO_2450	49
PSPTO_2451	3
PSPTO_2452	19
PSPTO_2453	10
PSPTO_2454	27
PSPTO_2455	1
PSPTO_2456	1
PSPTO_2457	52
PSPTO_2458	29
PSPTO_2459	6
PSPTO_2460	25
PSPTO_2461	2
PSPTO_2462	2
PSPTO_2463	14
PSPTO_2464	6
PSPTO_2465	20
PSPTO_2466	7
PSPTO_2467	26
PSPTO_2468	3
PSPTO_2469	5
PSPTO_2470	20
PSPTO_2471	11
PSPTO_2472	94
PSPTO_2473	49
PSPTO_2474	11
PSPTO_2475	49
PSPTO_2476	26
PSPTO_2477	1
PSPTO_2478	22
PSPTO_2479	52
PSPTO_2480	78
PSPTO_2481	12
PSPTO_2482	7
PSPTO_2483	5
PSPTO_2484	25
PSPTO_2485	19
PSPTO_2486	9
PSPTO_2487	10
PSPTO_2488	12
PSPTO_2489	27
PSPTO_2490	24
PSPTO_2491	36
PSPTO_2492	16
PSPTO_2493	14
PSPTO_2494	3
PSPTO_2495	7
PSPTO_2496	12
PSPTO_2497	2
PSPTO_2498	0
PSPTO_2499	9
PSPTO_2500	27
PSPTO_2501	21
PSPTO_2502	0
PSPTO_2503	10
PSPTO_2504	4
PSPTO_2505	46
PSPTO_2506	41
PSPTO_2507	6
PSPTO_2508	5
PSPTO_2509	14
PSPTO_2510	19
PSPTO_2511	90
PSPTO_2513	2
PSPTO_2514	8
PSPTO_2515	23
PSPTO_2516	11
PSPTO_2517	24
PSPTO_2518	14
PSPTO_2519	15
PSPTO_2520	20
PSPTO_2521	0
PSPTO_2522	8
PSPTO_2523	5
PSPTO_2524	13
PSPTO_2525	23
PSPTO_2526	42
PSPTO_2527	10
PSPTO_2528	13
PSPTO_2529	1
PSPTO_2530	1
PSPTO_2531	7
PSPTO_2532	19
PSPTO_2533	0
PSPTO_2534	6
PSPTO_2535	45
PSPTO_2536	0
PSPTO_2537	3
PSPTO_2538	16
PSPTO_2539	3
PSPTO_2540	9
PSPTO_2541	16
PSPTO_2542	6
PSPTO_2543	11
PSPTO_2544	13
PSPTO_2545	6
PSPTO_2546	22
PSPTO_2547	8
PSPTO_2548	26
PSPTO_2549	10
PSPTO_2550	1
PSPTO_2551	5
PSPTO_2552	7
PSPTO_2553	12
PSPTO_2554	59
PSPTO_2555	12
PSPTO_2556	3
PSPTO_2557	6
PSPTO_2558	9
PSPTO_2559	4
PSPTO_2560	1
PSPTO_2561	11
PSPTO_2562	3
PSPTO_2563	7
PSPTO_2564	14
PSPTO_2565	11
PSPTO_2566	8
PSPTO_2567	8
PSPTO_2568	28
PSPTO_2569	25
PSPTO_2570	13
PSPTO_2571	19
PSPTO_2572	7
PSPTO_2573	14
PSPTO_2574	14
PSPTO_2575	6
PSPTO_2576	11
PSPTO_2577	8
PSPTO_2578	4
PSPTO_2579	4
PSPTO_2580	16
PSPTO_2581	14
PSPTO_2582	13
PSPTO_2583	12
PSPTO_2584	10
PSPTO_2585	12
PSPTO_2586	13
PSPTO_2587	1
PSPTO_2588	9
PSPTO_2589	8
PSPTO_2590	6
PSPTO_2591	21
PSPTO_2592	32
PSPTO_2593	17
PSPTO_2594	2
PSPTO_2595	93
PSPTO_2596	21
PSPTO_2597	86
PSPTO_2598	45
PSPTO_2599	70
PSPTO_2600	819
PSPTO_2601	46
PSPTO_2602	552
PSPTO_2603	85
PSPTO_2604	111
PSPTO_2605	200
PSPTO_2606	36
PSPTO_2607	24
PSPTO_2608	3
PSPTO_2609	5
PSPTO_2610	5
PSPTO_2611	3
PSPTO_2612	6
PSPTO_2613	7
PSPTO_2614	5
PSPTO_2615	8
PSPTO_2616	255
PSPTO_2617	11
PSPTO_2618	9
PSPTO_2620	9
PSPTO_2621	24
PSPTO_2622	16
PSPTO_2623	7
PSPTO_2624	2
PSPTO_2625	15
PSPTO_2626	13
PSPTO_2627	9
PSPTO_2628	5
PSPTO_2629	8
PSPTO_2630	9
PSPTO_2631	6
PSPTO_2632	42
PSPTO_2633	10
PSPTO_2634	9
PSPTO_2635	15
PSPTO_2636	9
PSPTO_2637	4
PSPTO_2638	10
PSPTO_2639	17
PSPTO_2640	8
PSPTO_2641	3
PSPTO_2642	9
PSPTO_2643	3
PSPTO_2644	8
PSPTO_2645	14
PSPTO_2646	18
PSPTO_2647	15
PSPTO_2648	8
PSPTO_2649	25
PSPTO_2650	4
PSPTO_2651	5
PSPTO_2652	18
PSPTO_2653	35
PSPTO_2654	6
PSPTO_2655	17
PSPTO_2656	24
PSPTO_2657	22
PSPTO_2658	5
PSPTO_2659	13
PSPTO_2660	19
PSPTO_2661	19
PSPTO_2662	11
PSPTO_2663	18
PSPTO_2664	12
PSPTO_2665	13
PSPTO_2666	4
PSPTO_2667	8
PSPTO_2668	16
PSPTO_2669	3
PSPTO_2670	7
PSPTO_2671	19
PSPTO_2672	3
PSPTO_2673	23
PSPTO_2674	6
PSPTO_2675	4
PSPTO_2676	11
PSPTO_2677	10
PSPTO_2678	9
PSPTO_2679	0
PSPTO_2680	26
PSPTO_2681	7
PSPTO_2683	0
PSPTO_2684	371
PSPTO_2685	6
PSPTO_2686	12
PSPTO_2687	24
PSPTO_2688	14
PSPTO_2689	7
PSPTO_2690	1
PSPTO_2691	27
PSPTO_2692	9
PSPTO_2693	10
PSPTO_2694	14
PSPTO_2695	61
PSPTO_2696	22
PSPTO_2697	54
PSPTO_2698	10
PSPTO_2699	20
PSPTO_2700	410
PSPTO_2701	12
PSPTO_2702	25
PSPTO_2703	16
PSPTO_2704	14
PSPTO_2705	7
PSPTO_2706	10
PSPTO_2707	31
PSPTO_2708	6
PSPTO_2709	7
PSPTO_2710	22
PSPTO_2711	20
PSPTO_2712	31
PSPTO_2713	5
PSPTO_2714	9
PSPTO_2715	10
PSPTO_2716	31
PSPTO_2717	31
PSPTO_2718	23
PSPTO_2719	12
PSPTO_2720	12
PSPTO_2721	12
PSPTO_2722	25
PSPTO_2723	6
PSPTO_2724	2
PSPTO_2725	7
PSPTO_2726	8
PSPTO_2727	3
PSPTO_2728	7
PSPTO_2729	11
PSPTO_2730	17
PSPTO_2731	38
PSPTO_2732	46
PSPTO_2733	26
PSPTO_2734	21
PSPTO_2735	28
PSPTO_2736	19
PSPTO_2737	5
PSPTO_2738	16
PSPTO_2739	17
PSPTO_2740	8
PSPTO_2741	6
PSPTO_2742	8
PSPTO_2743	2
PSPTO_2744	6
PSPTO_2745	19
PSPTO_2746	10
PSPTO_2747	1
PSPTO_2748	8
PSPTO_2749	22
PSPTO_2750	43
PSPTO_2751	16
PSPTO_2752	9
PSPTO_2753	13
PSPTO_2754	37
PSPTO_2755	25
PSPTO_2756	24
PSPTO_2757	30
PSPTO_2758	20
PSPTO_2759	25
PSPTO_2760	65
PSPTO_2761	76
PSPTO_2762	61
PSPTO_2763	20
PSPTO_2764	17
PSPTO_2765	12
PSPTO_2766	13
PSPTO_2767	8
PSPTO_2768	0
PSPTO_2769	41
PSPTO_2770	2
PSPTO_2771	7
PSPTO_2772	8
PSPTO_2773	16
PSPTO_2774	12
PSPTO_2775	13
PSPTO_2776	4
PSPTO_2777	6
PSPTO_2778	3
PSPTO_2779	6
PSPTO_2780	5
PSPTO_2781	20
PSPTO_2782	14
PSPTO_2783	14
PSPTO_2784	26
PSPTO_2785	10
PSPTO_2786	10
PSPTO_2787	11
PSPTO_2788	15
PSPTO_2789	2
PSPTO_2790	3
PSPTO_2791	10
PSPTO_2792	6
PSPTO_2793	13
PSPTO_2794	19
PSPTO_2795	28
PSPTO_2796	13
PSPTO_2797	4
PSPTO_2798	1
PSPTO_2799	7
PSPTO_2800	7
PSPTO_2801	8
PSPTO_2802	10
PSPTO_2803	16
PSPTO_2804	8
PSPTO_2805	123
PSPTO_2806	21
PSPTO_2807	9
PSPTO_2808	15
PSPTO_2809	18
PSPTO_2810	6
PSPTO_2811	12
PSPTO_2812	5
PSPTO_2813	11
PSPTO_2814	5
PSPTO_2815	3
PSPTO_2816	6
PSPTO_2817	1
PSPTO_2818	14
PSPTO_2819	10
PSPTO_2820	4
PSPTO_2821	5
PSPTO_2822	6
PSPTO_2823	8
PSPTO_2824	20
PSPTO_2825	4
PSPTO_2826	3
PSPTO_2827	5
PSPTO_2828	38
PSPTO_2829	179
PSPTO_2830	578
PSPTO_2831	39
PSPTO_2832	43
PSPTO_2833	10
PSPTO_2834	9
PSPTO_2835	7
PSPTO_2836	15
PSPTO_2837	7
PSPTO_2838	3
PSPTO_2839	1
PSPTO_2840	24
PSPTO_2841	5
PSPTO_2842	4
PSPTO_2843	11
PSPTO_2844	6
PSPTO_2845	5
PSPTO_2846	16
PSPTO_2847	12
PSPTO_2848	0
PSPTO_2849	0
PSPTO_2850	4
PSPTO_2851	4
PSPTO_2852	11
PSPTO_2853	33
PSPTO_2855	1
PSPTO_2856	22
PSPTO_2857	13
PSPTO_2858	0
PSPTO_2859	16
PSPTO_2860	15
PSPTO_2861	2
PSPTO_2862	11
PSPTO_2863	18
PSPTO_2864	9
PSPTO_2865	3
PSPTO_2866	3
PSPTO_2867	2
PSPTO_2868	24
PSPTO_2869	0
PSPTO_2870	14
PSPTO_2871	30
PSPTO_2872	33
PSPTO_2873	15
PSPTO_2874	34
PSPTO_2875	7
PSPTO_2876	14
PSPTO_2877	15
PSPTO_2878	9
PSPTO_2879	2
PSPTO_2880	13
PSPTO_2881	1
PSPTO_2882	19
PSPTO_2883	35
PSPTO_2885	2
PSPTO_2886	4
PSPTO_2887	19
PSPTO_2888	7
PSPTO_2889	0
PSPTO_2890	2
PSPTO_2891	11
PSPTO_2892	1
PSPTO_2893	10
PSPTO_2894	26
PSPTO_2895	58
PSPTO_2896	42
PSPTO_2897	10
PSPTO_2898	5
PSPTO_2899	12
PSPTO_2900	7
PSPTO_2901	10
PSPTO_2902	16
PSPTO_2903	9
PSPTO_2904	13
PSPTO_2905	8
PSPTO_2906	10
PSPTO_2907	50
PSPTO_2908	35
PSPTO_2909	14
PSPTO_2910	9
PSPTO_2911	11
PSPTO_2912	11
PSPTO_2913	7
PSPTO_2914	3
PSPTO_2915	8
PSPTO_2916	9
PSPTO_2917	7
PSPTO_2918	3
PSPTO_2919	11
PSPTO_2920	9
PSPTO_2921	12
PSPTO_2922	2
PSPTO_2923	15
PSPTO_2924	3
PSPTO_2925	9
PSPTO_2926	14
PSPTO_2927	8
PSPTO_2928	7
PSPTO_2929	7
PSPTO_2930	5
PSPTO_2931	23
PSPTO_2932	16
PSPTO_2933	6
PSPTO_2934	9
PSPTO_2935	10
PSPTO_2936	5
PSPTO_2937	9
PSPTO_2938	3
PSPTO_2939	4
PSPTO_2940	10
PSPTO_2941	20
PSPTO_2942	0
PSPTO_2943	22
PSPTO_2944	9
PSPTO_2945	7
PSPTO_2946	12
PSPTO_2947	12
PSPTO_2948	6
PSPTO_2949	9
PSPTO_2950	19
PSPTO_2951	16
PSPTO_2952	36
PSPTO_2953	2
PSPTO_2954	5
PSPTO_2955	10
PSPTO_2956	15
PSPTO_2957	5
PSPTO_2958	3
PSPTO_2959	18
PSPTO_2960	21
PSPTO_2961	8
PSPTO_2962	9
PSPTO_2963	16
PSPTO_2964	15
PSPTO_2965	3
PSPTO_2966	7
PSPTO_2967	1
PSPTO_2968	10
PSPTO_2969	4
PSPTO_2970	4
PSPTO_2971	21
PSPTO_2972	23
PSPTO_2973	17
PSPTO_2974	9
PSPTO_2975	15
PSPTO_2976	23
PSPTO_2977	13
PSPTO_2978	14
PSPTO_2979	5
PSPTO_2980	10
PSPTO_2981	11
PSPTO_2982	20
PSPTO_2983	2
PSPTO_2984	22
PSPTO_2985	15
PSPTO_2986	5
PSPTO_2987	15
PSPTO_2988	9
PSPTO_2989	13
PSPTO_2990	7
PSPTO_2991	14
PSPTO_2992	12
PSPTO_2993	11
PSPTO_2994	16
PSPTO_2995	16
PSPTO_2996	7
PSPTO_2997	62
PSPTO_2998	9
PSPTO_2999	7
PSPTO_3000	2
PSPTO_3001	11
PSPTO_3002	8
PSPTO_3003	7
PSPTO_3004	7
PSPTO_3005	6
PSPTO_3006	6
PSPTO_3007	11
PSPTO_3008	10
PSPTO_3009	8
PSPTO_3010	16
PSPTO_3011	8
PSPTO_3012	8
PSPTO_3013	11
PSPTO_3014	7
PSPTO_3015	0
PSPTO_3016	6
PSPTO_3017	26
PSPTO_3018	6
PSPTO_3019	11
PSPTO_3020	5
PSPTO_3021	6
PSPTO_3022	10
PSPTO_3023	21
PSPTO_3024	16
PSPTO_3025	10
PSPTO_3026	3
PSPTO_3027	18
PSPTO_3028	17
PSPTO_3029	11
PSPTO_3030	11
PSPTO_3031	16
PSPTO_3032	14
PSPTO_3033	23
PSPTO_3034	3
PSPTO_3035	95
PSPTO_3036	21
PSPTO_3037	9
PSPTO_3038	4
PSPTO_3039	20
PSPTO_3040	13
PSPTO_3041	23
PSPTO_3042	1
PSPTO_3043	12
PSPTO_3044	11
PSPTO_3045	1
PSPTO_3046	13
PSPTO_3047	8
PSPTO_3048	12
PSPTO_3049	8
PSPTO_3050	14
PSPTO_3051	2
PSPTO_3052	16
PSPTO_3053	3
PSPTO_3054	10
PSPTO_3055	2
PSPTO_3056	7
PSPTO_3057	13
PSPTO_3058	15
PSPTO_3059	18
PSPTO_3060	10
PSPTO_3061	4
PSPTO_3062	16
PSPTO_3063	8
PSPTO_3064	13
PSPTO_3065	12
PSPTO_3066	3
PSPTO_3067	2
PSPTO_3068	23
PSPTO_3069	4
PSPTO_3070	2
PSPTO_3071	31
PSPTO_3072	9
PSPTO_3073	4
PSPTO_3074	19
PSPTO_3075	16
PSPTO_3076	6
PSPTO_3077	5
PSPTO_3078	1
PSPTO_3079	11
PSPTO_3080	18
PSPTO_3081	9
PSPTO_3082	6
PSPTO_3083	8
PSPTO_3084	8
PSPTO_3085	1
PSPTO_3086	4
PSPTO_3087	32
PSPTO_3088	8
PSPTO_3089	7
PSPTO_3090	9
PSPTO_3091	21
PSPTO_3092	5
PSPTO_3094	6
PSPTO_3095	5
PSPTO_3096	6
PSPTO_3097	2
PSPTO_3098	10
PSPTO_3099	9
PSPTO_3100	20
PSPTO_3101	12
PSPTO_3102	6
PSPTO_3103	46
PSPTO_3104	3
PSPTO_3105	15
PSPTO_3106	16
PSPTO_3107	25
PSPTO_3108	61
PSPTO_3109	7
PSPTO_3110	5
PSPTO_3111	27
PSPTO_3112	46
PSPTO_3113	91
PSPTO_3114	37
PSPTO_3115	7
PSPTO_3116	6
PSPTO_3117	2
PSPTO_3118	7
PSPTO_3119	36
PSPTO_3120	19
PSPTO_3121	38
PSPTO_3122	53
PSPTO_3123	45
PSPTO_3124	6
PSPTO_3125	107
PSPTO_3126	59
PSPTO_3127	78
PSPTO_3128	100
PSPTO_3129	101
PSPTO_3130	96
PSPTO_3131	20
PSPTO_3132	14
PSPTO_3133	13
PSPTO_3134	16
PSPTO_3135	52
PSPTO_3136	5
PSPTO_3137	14
PSPTO_3138	9
PSPTO_3139	4
PSPTO_3140	10
PSPTO_3141	19
PSPTO_3142	8
PSPTO_3143	2
PSPTO_3144	11
PSPTO_3145	91
PSPTO_3146	19
PSPTO_3147	8
PSPTO_3148	11
PSPTO_3149	50
PSPTO_3150	10
PSPTO_3151	3
PSPTO_3152	9
PSPTO_3153	9
PSPTO_3154	4
PSPTO_3155	327
PSPTO_3156	4
PSPTO_3157	98
PSPTO_3158	26
PSPTO_3159	15
PSPTO_3160	8
PSPTO_3161	15
PSPTO_3162	14
PSPTO_3163	15
PSPTO_3164	31
PSPTO_3165	7
PSPTO_3166	10
PSPTO_3167	10
PSPTO_3168	3
PSPTO_3169	2
PSPTO_3170	24
PSPTO_3171	7
PSPTO_3172	19
PSPTO_3173	5
PSPTO_3174	54
PSPTO_3175	5
PSPTO_3176	105
PSPTO_3177	28
PSPTO_3178	46
PSPTO_3179	65
PSPTO_3180	27
PSPTO_3181	9
PSPTO_3182	8
PSPTO_3183	3
PSPTO_3184	11
PSPTO_3185	16
PSPTO_3186	15
PSPTO_3187	2
PSPTO_3188	13
PSPTO_3189	16
PSPTO_3190	11
PSPTO_3191	10
PSPTO_3192	11
PSPTO_3193	44
PSPTO_3194	16
PSPTO_3195	26
PSPTO_3196	11
PSPTO_3197	19
PSPTO_3198	5
PSPTO_3199	7
PSPTO_3200	13
PSPTO_3201	8
PSPTO_3202	22
PSPTO_3203	3
PSPTO_3204	2
PSPTO_3205	13
PSPTO_3206	17
PSPTO_3207	16
PSPTO_3208	53
PSPTO_3210	39
PSPTO_3211	25
PSPTO_3212	3
PSPTO_3213	15
PSPTO_3214	2
PSPTO_3215	3
PSPTO_3216	24
PSPTO_3217	7
PSPTO_3218	22
PSPTO_3219	3
PSPTO_3220	17
PSPTO_3221	4
PSPTO_3222	8
PSPTO_3223	20
PSPTO_3224	3
PSPTO_3225	12
PSPTO_3226	4
PSPTO_3227	0
PSPTO_3228	4
PSPTO_3229	180
PSPTO_3230	21
PSPTO_3231	9
PSPTO_3232	3
PSPTO_3233	9
PSPTO_3234	12
PSPTO_3235	9
PSPTO_3236	4
PSPTO_3237	229
PSPTO_3238	5
PSPTO_3239	1
PSPTO_3240	6
PSPTO_3241	22
PSPTO_3242	19
PSPTO_3243	10
PSPTO_3244	8
PSPTO_3245	3
PSPTO_3246	3
PSPTO_3247	12
PSPTO_3248	12
PSPTO_3249	13
PSPTO_3250	6
PSPTO_3251	10
PSPTO_3252	13
PSPTO_3253	5
PSPTO_3254	9
PSPTO_3255	9
PSPTO_3256	14
PSPTO_3257	4
PSPTO_3258	6
PSPTO_3259	18
PSPTO_3260	6
PSPTO_3261	7
PSPTO_3262	25
PSPTO_3263	5
PSPTO_3264	16
PSPTO_3265	19
PSPTO_3266	6
PSPTO_3267	13
PSPTO_3268	10
PSPTO_3269	25
PSPTO_3270	74
PSPTO_3271	36
PSPTO_3272	15
PSPTO_3273	9
PSPTO_3274	16
PSPTO_3275	6
PSPTO_3276	1
PSPTO_3277	14
PSPTO_3278	15
PSPTO_3279	11
PSPTO_3280	17
PSPTO_3281	17
PSPTO_3282	24
PSPTO_3283	6
PSPTO_3284	8
PSPTO_3285	7
PSPTO_3286	7
PSPTO_3287	10
PSPTO_3288	3
PSPTO_3289	1
PSPTO_3290	4
PSPTO_3291	24
PSPTO_3292	13
PSPTO_3293	18
PSPTO_3294	43
PSPTO_3295	6
PSPTO_3296	35
PSPTO_3297	16
PSPTO_3298	14
PSPTO_3299	15
PSPTO_3300	11
PSPTO_3301	12
PSPTO_3302	29
PSPTO_3303	4
PSPTO_3304	14
PSPTO_3305	4
PSPTO_3306	9
PSPTO_3307	26
PSPTO_3308	8
PSPTO_3309	2
PSPTO_3310	22
PSPTO_3311	14
PSPTO_3312	12
PSPTO_3313	7
PSPTO_3314	19
PSPTO_3315	8
PSPTO_3316	29
PSPTO_3317	32
PSPTO_3318	10
PSPTO_3319	13
PSPTO_3320	14
PSPTO_3321	6
PSPTO_3322	11
PSPTO_3323	18
PSPTO_3324	1
PSPTO_3325	19
PSPTO_3326	17
PSPTO_3327	14
PSPTO_3328	19
PSPTO_3329	18
PSPTO_3330	22
PSPTO_3331	6
PSPTO_3332	12
PSPTO_3333	61
PSPTO_3334	8
PSPTO_3335	4
PSPTO_3336	8
PSPTO_3337	10
PSPTO_3338	2
PSPTO_3339	2
PSPTO_3340	2
PSPTO_3341	0
PSPTO_3342	12
PSPTO_3343	20
PSPTO_3344	22
PSPTO_3345	21
PSPTO_3346	3
PSPTO_3347	17
PSPTO_3348	9
PSPTO_3349	30
PSPTO_3350	5
PSPTO_3351	19
PSPTO_3352	8
PSPTO_3353	274
PSPTO_3354	20
PSPTO_3355	38
PSPTO_3356	145
PSPTO_3357	3
PSPTO_3358	6
PSPTO_3359	9
PSPTO_3360	13
PSPTO_3361	7
PSPTO_3362	3
PSPTO_3363	14
PSPTO_3364	12
PSPTO_3365	5
PSPTO_3366	55
PSPTO_3367	64
PSPTO_3368	9
PSPTO_3369	36
PSPTO_3370	72
PSPTO_3371	16
PSPTO_3372	6
PSPTO_3373	5
PSPTO_3374	7
PSPTO_3375	36
PSPTO_3376	20
PSPTO_3377	22
PSPTO_3378	16
PSPTO_3379	70
PSPTO_3380	14
PSPTO_3381	8
PSPTO_3382	3
PSPTO_3383	4
PSPTO_3384	4
PSPTO_3385	15
PSPTO_3386	43
PSPTO_3387	74
PSPTO_3388	7
PSPTO_3389	2
PSPTO_3390	5
PSPTO_3391	2
PSPTO_3392	12
PSPTO_3393	31
PSPTO_3394	3
PSPTO_3395	3
PSPTO_3396	5
PSPTO_3397	5
PSPTO_3398	20
PSPTO_3399	2
PSPTO_3400	8
PSPTO_3401	5
PSPTO_3402	1
PSPTO_3403	11
PSPTO_3404	3
PSPTO_3405	5
PSPTO_3406	5
PSPTO_3407	10
PSPTO_3408	2
PSPTO_3409	13
PSPTO_3410	20
PSPTO_3411	1
PSPTO_3412	15
PSPTO_3413	6
PSPTO_3414	2
PSPTO_3415	4
PSPTO_3416	2
PSPTO_3417	4
PSPTO_3418	33
PSPTO_3419	0
PSPTO_3420	4
PSPTO_3421	9
PSPTO_3422	4
PSPTO_3423	1
PSPTO_3424	1
PSPTO_3425	1
PSPTO_3426	1
PSPTO_3427	11
PSPTO_3428	2
PSPTO_3429	1
PSPTO_3430	11
PSPTO_3432	6
PSPTO_3433	9
PSPTO_3435	6
PSPTO_3436	6
PSPTO_3437	37
PSPTO_3438	10
PSPTO_3439	3
PSPTO_3440	17
PSPTO_3441	3
PSPTO_3442	2
PSPTO_3443	12
PSPTO_3444	4
PSPTO_3445	7
PSPTO_3446	9
PSPTO_3447	8
PSPTO_3448	12
PSPTO_3449	8
PSPTO_3450	5
PSPTO_3451	10
PSPTO_3452	5
PSPTO_3453	5
PSPTO_3454	10
PSPTO_3455	13
PSPTO_3456	11
PSPTO_3457	18
PSPTO_3458	9
PSPTO_3459	10
PSPTO_3460	18
PSPTO_3461	15
PSPTO_3462	52
PSPTO_3463	23
PSPTO_3464	39
PSPTO_3465	11
PSPTO_3466	12
PSPTO_3467	6
PSPTO_3468	21
PSPTO_3469	9
PSPTO_3470	6
PSPTO_3471	46
PSPTO_3472	3
PSPTO_3473	18
PSPTO_3474	3
PSPTO_3475	2
PSPTO_3476	6
PSPTO_3477	11
PSPTO_3478	10
PSPTO_3479	22
PSPTO_3480	34
PSPTO_3481	4
PSPTO_3482	9
PSPTO_3483	5
PSPTO_3484	10
PSPTO_3485	47
PSPTO_3486	1
PSPTO_3487	3
PSPTO_3488	27
PSPTO_3489	30
PSPTO_3490	23
PSPTO_3491	14
PSPTO_3492	39
PSPTO_3493	24
PSPTO_3494	31
PSPTO_3495	51
PSPTO_3496	49
PSPTO_3497	124
PSPTO_3498	54
PSPTO_3499	22
PSPTO_3500	67
PSPTO_3501	31
PSPTO_3502	21
PSPTO_3503	23
PSPTO_3504	18
PSPTO_3505	14
PSPTO_3506	11
PSPTO_3507	11
PSPTO_3508	14
PSPTO_3509	2
PSPTO_3510	7
PSPTO_3511	7
PSPTO_3512	40
PSPTO_3513	13
PSPTO_3514	42
PSPTO_3515	7
PSPTO_3516	23
PSPTO_3517	46
PSPTO_3518	2
PSPTO_3519	7
PSPTO_3520	18
PSPTO_3521	27
PSPTO_3522	16
PSPTO_3523	62
PSPTO_3524	208
PSPTO_3525	24
PSPTO_3526	17
PSPTO_3527	67
PSPTO_3528	19
PSPTO_3529	36
PSPTO_3530	84
PSPTO_3531	10
PSPTO_3532	23
PSPTO_3533	22
PSPTO_3534	38
PSPTO_3535	23
PSPTO_3536	16
PSPTO_3537	25
PSPTO_3538	14
PSPTO_3539	29
PSPTO_3540	8
PSPTO_3541	20
PSPTO_3542	10
PSPTO_3543	7
PSPTO_3544	18
PSPTO_3545	21
PSPTO_3546	3
PSPTO_3547	10
PSPTO_3548	37
PSPTO_3549	7
PSPTO_3550	55
PSPTO_3551	82
PSPTO_3552	7
PSPTO_3553	46
PSPTO_3554	11
PSPTO_3555	12
PSPTO_3556	14
PSPTO_3557	10
PSPTO_3558	12
PSPTO_3559	61
PSPTO_3560	32
PSPTO_3561	7
PSPTO_3562	1
PSPTO_3563	10
PSPTO_3564	5
PSPTO_3565	14
PSPTO_3566	19
PSPTO_3567	16
PSPTO_3568	1
PSPTO_3569	59
PSPTO_3570	13
PSPTO_3571	1
PSPTO_3572	19
PSPTO_3573	5
PSPTO_3574	55
PSPTO_3575	4
PSPTO_3576	7
PSPTO_3577	135
PSPTO_3578	10
PSPTO_3579	26
PSPTO_3580	131
PSPTO_3581	7
PSPTO_3582	7
PSPTO_3583	2
PSPTO_3584	29
PSPTO_3585	0
PSPTO_3586	15
PSPTO_3587	3
PSPTO_3588	8
PSPTO_3589	21
PSPTO_3590	7
PSPTO_3591	12
PSPTO_3592	5
PSPTO_3593	18
PSPTO_3594	7
PSPTO_3595	14
PSPTO_3596	22
PSPTO_3597	23
PSPTO_3598	30
PSPTO_3599	27
PSPTO_3600	7
PSPTO_3601	16
PSPTO_3602	58
PSPTO_3603	7
PSPTO_3604	6
PSPTO_3605	76
PSPTO_3606	2
PSPTO_3607	5
PSPTO_3608	10
PSPTO_3609	13
PSPTO_3610	20
PSPTO_3611	0
PSPTO_3612	4
PSPTO_3613	20
PSPTO_3614	1
PSPTO_3615	24
PSPTO_3616	34
PSPTO_3617	7
PSPTO_3618	14
PSPTO_3619	2
PSPTO_3620	16
PSPTO_3621	11
PSPTO_3624	10
PSPTO_3625	17
PSPTO_3626	15
PSPTO_3627	14
PSPTO_3628	3
PSPTO_3629	12
PSPTO_3630	29
PSPTO_3631	8
PSPTO_3632	4
PSPTO_3633	13
PSPTO_3634	8
PSPTO_3635	7
PSPTO_3636	9
PSPTO_3637	4
PSPTO_3638	3
PSPTO_3639	10
PSPTO_3640	17
PSPTO_3641	3
PSPTO_3642	13
PSPTO_3643	12
PSPTO_3644	16
PSPTO_3645	28
PSPTO_3646	37
PSPTO_3647	5
PSPTO_3648	15
PSPTO_3649	14
PSPTO_3650	23
PSPTO_3651	21
PSPTO_3652	5
PSPTO_3653	0
PSPTO_3654	6
PSPTO_3655	21
PSPTO_3656	38
PSPTO_3657	21
PSPTO_3658	47
PSPTO_3659	4
PSPTO_3660	49
PSPTO_3661	55
PSPTO_3662	23
PSPTO_3663	30
PSPTO_3664	6
PSPTO_3665	8
PSPTO_3666	26
PSPTO_3667	9
PSPTO_3668	31
PSPTO_3669	6
PSPTO_3670	18
PSPTO_3671	20
PSPTO_3672	7
PSPTO_3673	1
PSPTO_3674	8
PSPTO_3675	10
PSPTO_3676	1
PSPTO_3677	3
PSPTO_3678	11
PSPTO_3679	16
PSPTO_3680	32
PSPTO_3681	9
PSPTO_3682	18
PSPTO_3683	0
PSPTO_3684	2
PSPTO_3685	15
PSPTO_3686	20
PSPTO_3687	66
PSPTO_3688	11
PSPTO_3689	18
PSPTO_3690	11
PSPTO_3691	27
PSPTO_3692	41
PSPTO_3693	2
PSPTO_3694	12
PSPTO_3695	7
PSPTO_3696	43
PSPTO_3697	0
PSPTO_3698	2
PSPTO_3699	84
PSPTO_3700	47
PSPTO_3701	9
PSPTO_3702	16
PSPTO_3703	24
PSPTO_3704	25
PSPTO_3705	28
PSPTO_3706	19
PSPTO_3707	45
PSPTO_3708	58
PSPTO_3709	15
PSPTO_3710	3
PSPTO_3711	14
PSPTO_3712	6
PSPTO_3713	10
PSPTO_3714	14
PSPTO_3715	17
PSPTO_3716	15
PSPTO_3717	22
PSPTO_3718	6
PSPTO_3719	11
PSPTO_3720	24
PSPTO_3721	22
PSPTO_3722	28
PSPTO_3723	42
PSPTO_3724	195
PSPTO_3725	103
PSPTO_3726	38
PSPTO_3727	26
PSPTO_3728	7
PSPTO_3729	5
PSPTO_3730	25
PSPTO_3731	14
PSPTO_3732	6
PSPTO_3733	17
PSPTO_3734	8
PSPTO_3735	60
PSPTO_3736	16
PSPTO_3737	8
PSPTO_3738	12
PSPTO_3739	17
PSPTO_3740	19
PSPTO_3741	36
PSPTO_3742	24
PSPTO_3743	28
PSPTO_3744	14
PSPTO_3745	10
PSPTO_3746	22
PSPTO_3747	18
PSPTO_3748	20
PSPTO_3749	7
PSPTO_3750	9
PSPTO_3751	4
PSPTO_3752	157
PSPTO_3753	27
PSPTO_3754	13
PSPTO_3755	7
PSPTO_3756	28
PSPTO_3757	69
PSPTO_3758	8
PSPTO_3759	13
PSPTO_3760	14
PSPTO_3761	4
PSPTO_3762	9
PSPTO_3763	10
PSPTO_3764	17
PSPTO_3765	15
PSPTO_3766	30
PSPTO_3767	5
PSPTO_3768	47
PSPTO_3769	7
PSPTO_3770	17
PSPTO_3771	12
PSPTO_3772	17
PSPTO_3773	6
PSPTO_3774	8
PSPTO_3775	1
PSPTO_3776	6
PSPTO_3777	19
PSPTO_3778	17
PSPTO_3779	12
PSPTO_3780	15
PSPTO_3781	10
PSPTO_3782	7
PSPTO_3783	14
PSPTO_3784	13
PSPTO_3785	15
PSPTO_3786	15
PSPTO_3787	12
PSPTO_3788	83
PSPTO_3789	17
PSPTO_3790	7
PSPTO_3791	4
PSPTO_3792	15
PSPTO_3793	27
PSPTO_3794	4
PSPTO_3795	20
PSPTO_3796	15
PSPTO_3797	7
PSPTO_3798	14
PSPTO_3799	7
PSPTO_3800	17
PSPTO_3801	28
PSPTO_3802	15
PSPTO_3803	26
PSPTO_3804	15
PSPTO_3805	13
PSPTO_3806	25
PSPTO_3807	15
PSPTO_3808	10
PSPTO_3809	18
PSPTO_3810	35
PSPTO_3811	33
PSPTO_3812	11
PSPTO_3813	16
PSPTO_3814	20
PSPTO_3815	18
PSPTO_3816	9
PSPTO_3817	6
PSPTO_3818	115
PSPTO_3819	21
PSPTO_3820	17
PSPTO_3821	48
PSPTO_3822	5
PSPTO_3823	10
PSPTO_3824	15
PSPTO_3825	14
PSPTO_3826	10
PSPTO_3827	9
PSPTO_3828	9
PSPTO_3829	14
PSPTO_3830	25
PSPTO_3831	50
PSPTO_3832	24
PSPTO_3833	23
PSPTO_3834	15
PSPTO_3835	1
PSPTO_3836	10
PSPTO_3837	6
PSPTO_3838	17
PSPTO_3839	9
PSPTO_3840	7
PSPTO_3841	49
PSPTO_3842	14
PSPTO_3843	9
PSPTO_3844	2
PSPTO_3845	12
PSPTO_3846	4
PSPTO_3847	9
PSPTO_3848	32
PSPTO_3849	14
PSPTO_3850	6
PSPTO_3851	34
PSPTO_3852	8
PSPTO_3853	6
PSPTO_3854	2
PSPTO_3855	12
PSPTO_3856	20
PSPTO_3857	81
PSPTO_3858	3
PSPTO_3859	8
PSPTO_3860	36
PSPTO_3861	5
PSPTO_3862	26
PSPTO_3863	3
PSPTO_3864	37
PSPTO_3865	4
PSPTO_3866	2
PSPTO_3867	6
PSPTO_3868	3
PSPTO_3869	3
PSPTO_3870	10
PSPTO_3871	12
PSPTO_3872	9
PSPTO_3873	25
PSPTO_3874	12
PSPTO_3875	4
PSPTO_3876	14
PSPTO_3877	15
PSPTO_3878	45
PSPTO_3879	6
PSPTO_3880	4
PSPTO_3881	8
PSPTO_3882	9
PSPTO_3883	9
PSPTO_3884	16
PSPTO_3885	80
PSPTO_3886	11
PSPTO_3887	15
PSPTO_3888	12
PSPTO_3889	12
PSPTO_3890	71
PSPTO_3891	7
PSPTO_3892	13
PSPTO_3893	1
PSPTO_3894	22
PSPTO_3895	0
PSPTO_3896	1
PSPTO_3897	13
PSPTO_3898	7
PSPTO_3899	18
PSPTO_3900	32
PSPTO_3901	21
PSPTO_3902	11
PSPTO_3903	17
PSPTO_3904	1
PSPTO_3905	7
PSPTO_3906	10
PSPTO_3907	7
PSPTO_3908	6
PSPTO_3909	14
PSPTO_3910	8
PSPTO_3911	19
PSPTO_3912	13
PSPTO_3913	23
PSPTO_3914	34
PSPTO_3915	17
PSPTO_3916	6
PSPTO_3917	17
PSPTO_3918	5
PSPTO_3919	11
PSPTO_3920	4
PSPTO_3921	2
PSPTO_3922	15
PSPTO_3923	19
PSPTO_3924	21
PSPTO_3925	46
PSPTO_3926	15
PSPTO_3927	30
PSPTO_3929	4
PSPTO_3930	17
PSPTO_3931	0
PSPTO_3932	6
PSPTO_3933	1
PSPTO_3934	2
PSPTO_3935	1
PSPTO_3936	5
PSPTO_3937	8
PSPTO_3938	8
PSPTO_3939	20
PSPTO_3940	4
PSPTO_3941	11
PSPTO_3942	4
PSPTO_3943	0
PSPTO_3944	8
PSPTO_3945	2
PSPTO_3946	7
PSPTO_3947	2
PSPTO_3948	4
PSPTO_3949	17
PSPTO_3950	19
PSPTO_3951	11
PSPTO_3952	15
PSPTO_3953	14
PSPTO_3954	9
PSPTO_3955	2
PSPTO_3956	13
PSPTO_3957	4
PSPTO_3958	22
PSPTO_3959	18
PSPTO_3960	10
PSPTO_3961	23
PSPTO_3962	2
PSPTO_3963	13
PSPTO_3965	22
PSPTO_3966	2
PSPTO_3968	14
PSPTO_3969	3
PSPTO_3970	54
PSPTO_3971	128
PSPTO_3972	70
PSPTO_3973	38
PSPTO_3974	12
PSPTO_3975	15
PSPTO_3976	8
PSPTO_3977	16
PSPTO_3978	11
PSPTO_3979	7
PSPTO_3980	11
PSPTO_3981	23
PSPTO_3982	5
PSPTO_3983	12
PSPTO_3984	5
PSPTO_3985	1
PSPTO_3986	6
PSPTO_3987	141
PSPTO_3988	21
PSPTO_3989	4
PSPTO_3990	12
PSPTO_3991	45
PSPTO_3992	20
PSPTO_3993	32
PSPTO_3994	10
PSPTO_3995	18
PSPTO_3996	27
PSPTO_3997	4
PSPTO_3998	4
PSPTO_3999	23
PSPTO_4001	7
PSPTO_4002	16
PSPTO_4003	4
PSPTO_4004	10
PSPTO_4005	2
PSPTO_4006	19
PSPTO_4007	5
PSPTO_4008	5
PSPTO_4009	3
PSPTO_4010	22
PSPTO_4011	3
PSPTO_4012	7
PSPTO_4013	5
PSPTO_4014	11
PSPTO_4015	6
PSPTO_4016	0
PSPTO_4017	4
PSPTO_4018	18
PSPTO_4019	11
PSPTO_4020	5
PSPTO_4021	3
PSPTO_4022	5
PSPTO_4023	9
PSPTO_4024	16
PSPTO_4025	7
PSPTO_4026	3
PSPTO_4027	10
PSPTO_4028	1
PSPTO_4029	5
PSPTO_4030	12
PSPTO_4031	9
PSPTO_4032	12
PSPTO_4033	46
PSPTO_4034	20
PSPTO_4035	2
PSPTO_4036	6
PSPTO_4037	3
PSPTO_4038	9
PSPTO_4039	9
PSPTO_4040	10
PSPTO_4041	38
PSPTO_4042	4
PSPTO_4043	5
PSPTO_4044	8
PSPTO_4045	7
PSPTO_4046	44
PSPTO_4047	7
PSPTO_4048	0
PSPTO_4049	4
PSPTO_4050	7
PSPTO_4051	5
PSPTO_4052	6
PSPTO_4053	1
PSPTO_4054	7
PSPTO_4055	2
PSPTO_4056	5
PSPTO_4057	11
PSPTO_4058	43
PSPTO_4059	2
PSPTO_4060	11
PSPTO_4061	11
PSPTO_4062	5
PSPTO_4063	6
PSPTO_4064	21
PSPTO_4065	3
PSPTO_4066	5
PSPTO_4067	6
PSPTO_4068	12
PSPTO_4069	1
PSPTO_4070	3
PSPTO_4071	5
PSPTO_4072	4
PSPTO_4073	25
PSPTO_4074	8
PSPTO_4075	8
PSPTO_4076	10
PSPTO_4077	10
PSPTO_4078	14
PSPTO_4079	42
PSPTO_4080	11
PSPTO_4081	31
PSPTO_4082	8
PSPTO_4083	6
PSPTO_4084	43
PSPTO_4087	6
PSPTO_4088	18
PSPTO_4089	10
PSPTO_4090	11
PSPTO_4091	21
PSPTO_4092	14
PSPTO_4093	34
PSPTO_4094	21
PSPTO_4095	47
PSPTO_4096	12
PSPTO_4097	12
PSPTO_4098	16
PSPTO_4099	3
PSPTO_4100	5
PSPTO_4101	13
PSPTO_4102	2
PSPTO_4103	31
PSPTO_4104	39
PSPTO_4105	21
PSPTO_4106	26
PSPTO_4107	4
PSPTO_4108	45
PSPTO_4109	5
PSPTO_4110	12
PSPTO_4111	6
PSPTO_4112	12
PSPTO_4113	6
PSPTO_4114	12
PSPTO_4115	58
PSPTO_4116	4
PSPTO_4117	26
PSPTO_4118	5
PSPTO_4119	13
PSPTO_4120	26
PSPTO_4121	15
PSPTO_4122	10
PSPTO_4123	11
PSPTO_4124	14
PSPTO_4125	6
PSPTO_4126	8
PSPTO_4127	9
PSPTO_4128	21
PSPTO_4129	16
PSPTO_4130	4
PSPTO_4131	5
PSPTO_4132	10
PSPTO_4133	26
PSPTO_4134	25
PSPTO_4135	22
PSPTO_4136	21
PSPTO_4137	8
PSPTO_4138	0
PSPTO_4139	13
PSPTO_4140	9
PSPTO_4141	41
PSPTO_4142	16
PSPTO_4143	70
PSPTO_4144	13
PSPTO_4145	59
PSPTO_4146	20
PSPTO_4147	23
PSPTO_4148	8
PSPTO_4149	4
PSPTO_4150	2
PSPTO_4151	20
PSPTO_4152	10
PSPTO_4153	6
PSPTO_4154	3
PSPTO_4155	28
PSPTO_4156	109
PSPTO_4157	14
PSPTO_4158	11
PSPTO_4159	18
PSPTO_4160	3
PSPTO_4161	24
PSPTO_4162	29
PSPTO_4163	12
PSPTO_4164	13
PSPTO_4165	16
PSPTO_4166	4
PSPTO_4167	31
PSPTO_4168	130
PSPTO_4169	20
PSPTO_4170	557
PSPTO_4171	9
PSPTO_4172	3
PSPTO_4173	3
PSPTO_4174	10
PSPTO_4175	16
PSPTO_4176	9
PSPTO_4177	6
PSPTO_4178	16
PSPTO_4179	260
PSPTO_4180	14
PSPTO_4181	2
PSPTO_4182	14
PSPTO_4183	18
PSPTO_4184	4
PSPTO_4185	13
PSPTO_4186	8
PSPTO_4187	15
PSPTO_4188	6
PSPTO_4189	12
PSPTO_4190	12
PSPTO_4191	49
PSPTO_4192	11
PSPTO_4193	13
PSPTO_4194	4
PSPTO_4195	5
PSPTO_4196	69
PSPTO_4197	16
PSPTO_4198	10
PSPTO_4199	1
PSPTO_4200	2
PSPTO_4201	9
PSPTO_4202	20
PSPTO_4203	5
PSPTO_4204	14
PSPTO_4205	13
PSPTO_4206	4
PSPTO_4207	19
PSPTO_4208	53
PSPTO_4209	32
PSPTO_4210	96
PSPTO_4211	7
PSPTO_4212	10
PSPTO_4213	13
PSPTO_4214	9
PSPTO_4215	10
PSPTO_4216	12
PSPTO_4217	13
PSPTO_4218	4
PSPTO_4219	15
PSPTO_4220	17
PSPTO_4221	126
PSPTO_4222	289
PSPTO_4223	867
PSPTO_4224	195
PSPTO_4225	23
PSPTO_4226	6
PSPTO_4227	7
PSPTO_4228	11
PSPTO_4229	21
PSPTO_4230	20
PSPTO_4231	8
PSPTO_4232	10
PSPTO_4233	0
PSPTO_4234	19
PSPTO_4235	15
PSPTO_4236	29
PSPTO_4237	188
PSPTO_4238	11
PSPTO_4239	11
PSPTO_4240	12
PSPTO_4241	5
PSPTO_4242	3
PSPTO_4243	30
PSPTO_4244	16
PSPTO_4245	29
PSPTO_4246	3
PSPTO_4247	5
PSPTO_4248	10
PSPTO_4249	11
PSPTO_4250	23
PSPTO_4251	16
PSPTO_4252	4
PSPTO_4253	14
PSPTO_4254	29
PSPTO_4255	4
PSPTO_4256	14
PSPTO_4257	0
PSPTO_4258	3
PSPTO_4259	20
PSPTO_4260	3
PSPTO_4261	7
PSPTO_4262	7
PSPTO_4263	7
PSPTO_4264	7
PSPTO_4265	15
PSPTO_4266	7
PSPTO_4267	10
PSPTO_4268	5
PSPTO_4269	8
PSPTO_4270	6
PSPTO_4271	13
PSPTO_4272	24
PSPTO_4273	4
PSPTO_4274	7
PSPTO_4275	10
PSPTO_4276	8
PSPTO_4277	4
PSPTO_4278	6
PSPTO_4279	0
PSPTO_4280	6
PSPTO_4281	7
PSPTO_4282	0
PSPTO_4283	11
PSPTO_4284	6
PSPTO_4285	23
PSPTO_4286	6
PSPTO_4287	8
PSPTO_4288	14
PSPTO_4289	19
PSPTO_4290	18
PSPTO_4291	15
PSPTO_4292	21
PSPTO_4293	56
PSPTO_4294	38
PSPTO_4295	28
PSPTO_4296	4
PSPTO_4297	6
PSPTO_4298	2
PSPTO_4299	4
PSPTO_4300	36
PSPTO_4301	14
PSPTO_4302	6
PSPTO_4303	22
PSPTO_4304	46
PSPTO_4305	50
PSPTO_4306	17
PSPTO_4307	20
PSPTO_4308	4
PSPTO_4309	15
PSPTO_4310	18
PSPTO_4312	4
PSPTO_4313	2
PSPTO_4314	8
PSPTO_4315	28
PSPTO_4316	20
PSPTO_4317	12
PSPTO_4318	9
PSPTO_4319	10
PSPTO_4320	11
PSPTO_4321	21
PSPTO_4322	46
PSPTO_4323	10
PSPTO_4324	61
PSPTO_4325	106
PSPTO_4326	15
PSPTO_4327	7
PSPTO_4328	4
PSPTO_4329	9
PSPTO_4330	5
PSPTO_4331	7
PSPTO_4332	15
PSPTO_4333	8
PSPTO_4334	15
PSPTO_4335	44
PSPTO_4336	43
PSPTO_4337	51
PSPTO_4338	20
PSPTO_4339	24
PSPTO_4340	43
PSPTO_4341	24
PSPTO_4342	30
PSPTO_4343	40
PSPTO_4344	24
PSPTO_4345	2
PSPTO_4346	5
PSPTO_4347	18
PSPTO_4348	10
PSPTO_4349	15
PSPTO_4350	12
PSPTO_4351	2
PSPTO_4352	8
PSPTO_4353	2
PSPTO_4354	5
PSPTO_4355	10
PSPTO_4356	1
PSPTO_4357	17
PSPTO_4358	15
PSPTO_4359	19
PSPTO_4360	12
PSPTO_4361	17
PSPTO_4362	5
PSPTO_4363	15
PSPTO_4364	1
PSPTO_4365	23
PSPTO_4366	34
PSPTO_4367	12
PSPTO_4368	15
PSPTO_4369	12
PSPTO_4370	4
PSPTO_4371	19
PSPTO_4372	4
PSPTO_4373	25
PSPTO_4374	11
PSPTO_4375	8
PSPTO_4376	207
PSPTO_4377	27
PSPTO_4378	3
PSPTO_4379	15
PSPTO_4380	10
PSPTO_4381	20
PSPTO_4382	3
PSPTO_4383	6
PSPTO_4384	1
PSPTO_4385	19
PSPTO_4386	37
PSPTO_4387	25
PSPTO_4388	6
PSPTO_4389	21
PSPTO_4390	4
PSPTO_4392	13
PSPTO_4393	13
PSPTO_4394	19
PSPTO_4395	15
PSPTO_4396	12
PSPTO_4397	22
PSPTO_4398	6
PSPTO_4399	28
PSPTO_4400	53
PSPTO_4401	9
PSPTO_4402	57
PSPTO_4403	139
PSPTO_4404	37
PSPTO_4405	13
PSPTO_4406	21
PSPTO_4407	19
PSPTO_4408	13
PSPTO_4409	24
PSPTO_4410	24
PSPTO_4411	25
PSPTO_4412	25
PSPTO_4413	24
PSPTO_4414	14
PSPTO_4415	2
PSPTO_4416	18
PSPTO_4417	16
PSPTO_4418	17
PSPTO_4419	39
PSPTO_4420	6
PSPTO_4421	9
PSPTO_4422	63
PSPTO_4423	10
PSPTO_4424	4
PSPTO_4425	24
PSPTO_4426	31
PSPTO_4427	7
PSPTO_4428	8
PSPTO_4429	7
PSPTO_4430	7
PSPTO_4431	21
PSPTO_4432	19
PSPTO_4433	9
PSPTO_4434	20
PSPTO_4435	11
PSPTO_4436	5
PSPTO_4437	26
PSPTO_4438	33
PSPTO_4439	11
PSPTO_4440	3
PSPTO_4441	32
PSPTO_4442	5
PSPTO_4443	17
PSPTO_4444	34
PSPTO_4445	15
PSPTO_4446	12
PSPTO_4447	11
PSPTO_4448	11
PSPTO_4449	1
PSPTO_4450	1
PSPTO_4451	15
PSPTO_4452	25
PSPTO_4453	31
PSPTO_4454	81
PSPTO_4455	24
PSPTO_4456	21
PSPTO_4457	2
PSPTO_4458	7
PSPTO_4459	30
PSPTO_4460	21
PSPTO_4461	49
PSPTO_4462	2
PSPTO_4463	36
PSPTO_4464	8
PSPTO_4465	42
PSPTO_4466	18
PSPTO_4467	53
PSPTO_4468	22
PSPTO_4469	10
PSPTO_4470	7
PSPTO_4471	15
PSPTO_4472	27
PSPTO_4473	9
PSPTO_4474	33
PSPTO_4475	20
PSPTO_4476	2
PSPTO_4477	13
PSPTO_4478	8
PSPTO_4479	12
PSPTO_4480	14
PSPTO_4481	9
PSPTO_4482	21
PSPTO_4483	6
PSPTO_4484	16
PSPTO_4485	18
PSPTO_4486	38
PSPTO_4487	44
PSPTO_4488	15
PSPTO_4489	1
PSPTO_4490	72
PSPTO_4491	17
PSPTO_4492	8
PSPTO_4493	7
PSPTO_4494	16
PSPTO_4495	20
PSPTO_4496	12
PSPTO_4497	162
PSPTO_4498	12
PSPTO_4499	5
PSPTO_4500	14
PSPTO_4501	59
PSPTO_4502	29
PSPTO_4503	20
PSPTO_4504	39
PSPTO_4505	430
PSPTO_4506	53
PSPTO_4507	27
PSPTO_4508	25
PSPTO_4509	22
PSPTO_4510	8
PSPTO_4511	11
PSPTO_4512	9
PSPTO_4513	10
PSPTO_4514	22
PSPTO_4515	8
PSPTO_4516	42
PSPTO_4517	4
PSPTO_4518	45
PSPTO_4519	67
PSPTO_4520	14
PSPTO_4521	7
PSPTO_4522	12
PSPTO_4523	6
PSPTO_4524	18
PSPTO_4525	0
PSPTO_4526	24
PSPTO_4527	5
PSPTO_4528	12
PSPTO_4529	31
PSPTO_4530	111
PSPTO_4531	121
PSPTO_4532	23
PSPTO_4533	16
PSPTO_4534	12
PSPTO_4535	9
PSPTO_4536	12
PSPTO_4537	10
PSPTO_4538	10
PSPTO_4539	6
PSPTO_4540	15
PSPTO_4541	64
PSPTO_4542	20
PSPTO_4543	117
PSPTO_4544	23
PSPTO_4545	6
PSPTO_4546	37
PSPTO_4547	22
PSPTO_4548	25
PSPTO_4549	8
PSPTO_4550	21
PSPTO_4551	19
PSPTO_4552	2
PSPTO_4553	7
PSPTO_4554	11
PSPTO_4555	12
PSPTO_4556	9
PSPTO_4557	18
PSPTO_4558	28
PSPTO_4559	14
PSPTO_4560	8
PSPTO_4561	8
PSPTO_4562	7
PSPTO_4563	15
PSPTO_4564	15
PSPTO_4565	5
PSPTO_4566	3
PSPTO_4567	16
PSPTO_4568	13
PSPTO_4569	28
PSPTO_4570	12
PSPTO_4571	12
PSPTO_4572	31
PSPTO_4573	2
PSPTO_4574	15
PSPTO_4575	29
PSPTO_4576	3
PSPTO_4577	14
PSPTO_4578	12
PSPTO_4579	16
PSPTO_4580	27
PSPTO_4581	7
PSPTO_4582	12
PSPTO_4583	4
PSPTO_4584	14
PSPTO_4585	50
PSPTO_4586	429
PSPTO_4587	24
PSPTO_4588	5
PSPTO_4589	6
PSPTO_4590	4
PSPTO_4591	3
PSPTO_4592	3
PSPTO_4593	27
PSPTO_4594	8
PSPTO_4595	8
PSPTO_4596	18
PSPTO_4597	4
PSPTO_4599	4
PSPTO_4600	14
PSPTO_4601	9
PSPTO_4602	25
PSPTO_4603	18
PSPTO_4604	39
PSPTO_4605	29
PSPTO_4606	13
PSPTO_4607	38
PSPTO_4608	4
PSPTO_4609	5
PSPTO_4610	38
PSPTO_4611	34
PSPTO_4612	6
PSPTO_4613	48
PSPTO_4614	8
PSPTO_4615	12
PSPTO_4616	19
PSPTO_4617	0
PSPTO_4618	3
PSPTO_4619	14
PSPTO_4620	6
PSPTO_4621	5
PSPTO_4622	18
PSPTO_4623	1
PSPTO_4624	93
PSPTO_4625	11
PSPTO_4626	4
PSPTO_4627	35
PSPTO_4628	4
PSPTO_4629	8
PSPTO_4630	12
PSPTO_4631	57
PSPTO_4632	71
PSPTO_4633	10
PSPTO_4634	17
PSPTO_4635	6
PSPTO_4636	10
PSPTO_4637	14
PSPTO_4638	32
PSPTO_4639	16
PSPTO_4640	22
PSPTO_4641	51
PSPTO_4642	17
PSPTO_4643	15
PSPTO_4644	5
PSPTO_4645	13
PSPTO_4646	5
PSPTO_4647	19
PSPTO_4648	35
PSPTO_4649	0
PSPTO_4650	33
PSPTO_4651	9
PSPTO_4652	5
PSPTO_4653	16
PSPTO_4654	7
PSPTO_4656	20
PSPTO_4657	14
PSPTO_4658	29
PSPTO_4659	4
PSPTO_4660	21
PSPTO_4661	16
PSPTO_4662	11
PSPTO_4663	14
PSPTO_4664	15
PSPTO_4665	6
PSPTO_4666	6
PSPTO_4667	18
PSPTO_4668	6
PSPTO_4669	12
PSPTO_4670	6
PSPTO_4671	12
PSPTO_4672	3
PSPTO_4673	47
PSPTO_4674	2
PSPTO_4675	7
PSPTO_4676	12
PSPTO_4677	8
PSPTO_4678	0
PSPTO_4679	11
PSPTO_4680	23
PSPTO_4681	4
PSPTO_4682	6
PSPTO_4683	20
PSPTO_4684	7
PSPTO_4685	22
PSPTO_4686	128
PSPTO_4687	108
PSPTO_4688	4
PSPTO_4689	16
PSPTO_4690	6
PSPTO_4691	17
PSPTO_4692	3
PSPTO_4693	18
PSPTO_4694	3
PSPTO_4695	1
PSPTO_4696	15
PSPTO_4697	6
PSPTO_4699	231
PSPTO_4702	13
PSPTO_4703	3
PSPTO_4704	9
PSPTO_4705	19
PSPTO_4706	1
PSPTO_4707	1
PSPTO_4708	5
PSPTO_4709	19
PSPTO_4710	11
PSPTO_4711	7
PSPTO_4712	4
PSPTO_4713	8
PSPTO_4714	8
PSPTO_4716	5
PSPTO_4717	1
PSPTO_4718	33
PSPTO_4719	3
PSPTO_4720	20
PSPTO_4721	2
PSPTO_4722	14
PSPTO_4723	5
PSPTO_4724	2
PSPTO_4725	13
PSPTO_4726	9
PSPTO_4727	17
PSPTO_4729	8
PSPTO_4730	15
PSPTO_4732	5
PSPTO_4733	12
PSPTO_4734	3
PSPTO_4735	132
PSPTO_4737	18
PSPTO_4738	1
PSPTO_4741	10
PSPTO_4742	26
PSPTO_4743	25
PSPTO_4744	27
PSPTO_4745	22
PSPTO_4746	14
PSPTO_4747	3
PSPTO_4748	14
PSPTO_4749	12
PSPTO_4750	3
PSPTO_4751	62
PSPTO_4752	87
PSPTO_4753	9
PSPTO_4754	14
PSPTO_4755	10
PSPTO_4756	3
PSPTO_4757	2
PSPTO_4758	0
PSPTO_4759	5
PSPTO_4760	6
PSPTO_4761	23
PSPTO_4762	21
PSPTO_4763	17
PSPTO_4764	24
PSPTO_4765	3
PSPTO_4766	20
PSPTO_4767	14
PSPTO_4768	10
PSPTO_4769	8
PSPTO_4770	20
PSPTO_4771	17
PSPTO_4772	44
PSPTO_4773	4
PSPTO_4774	13
PSPTO_4775	18
PSPTO_4776	25
PSPTO_4777	9
PSPTO_4778	2
PSPTO_4779	14
PSPTO_4780	22
PSPTO_4781	32
PSPTO_4782	9
PSPTO_4784	20
PSPTO_4785	3
PSPTO_4786	9
PSPTO_4787	9
PSPTO_4788	15
PSPTO_4789	15
PSPTO_4790	15
PSPTO_4791	47
PSPTO_4792	16
PSPTO_4793	5
PSPTO_4794	14
PSPTO_4795	19
PSPTO_4796	55
PSPTO_4797	5
PSPTO_4798	10
PSPTO_4799	9
PSPTO_4800	20
PSPTO_4801	0
PSPTO_4802	7
PSPTO_4803	6
PSPTO_4804	16
PSPTO_4805	53
PSPTO_4806	16
PSPTO_4807	37
PSPTO_4808	30
PSPTO_4809	16
PSPTO_4810	10
PSPTO_4811	2
PSPTO_4812	34
PSPTO_4813	7
PSPTO_4814	12
PSPTO_4815	2
PSPTO_4816	3
PSPTO_4817	37
PSPTO_4818	34
PSPTO_4819	13
PSPTO_4820	3
PSPTO_4821	25
PSPTO_4822	12
PSPTO_4823	13
PSPTO_4824	18
PSPTO_4825	18
PSPTO_4826	6
PSPTO_4827	8
PSPTO_4828	6
PSPTO_4829	15
PSPTO_4830	5
PSPTO_4831	15
PSPTO_4832	35
PSPTO_4833	85
PSPTO_4834	15
PSPTO_4835	5
PSPTO_4836	18
PSPTO_4837	42
PSPTO_4838	1
PSPTO_4839	53
PSPTO_4840	13
PSPTO_4841	12
PSPTO_4842	48
PSPTO_4843	15
PSPTO_4844	15
PSPTO_4845	64
PSPTO_4846	5
PSPTO_4847	30
PSPTO_4848	202
PSPTO_4849	101
PSPTO_4850	38
PSPTO_4851	17
PSPTO_4852	27
PSPTO_4853	41
PSPTO_4854	16
PSPTO_4855	13
PSPTO_4856	13
PSPTO_4857	8
PSPTO_4858	17
PSPTO_4859	9
PSPTO_4860	22
PSPTO_4861	46
PSPTO_4862	12
PSPTO_4863	14
PSPTO_4864	15
PSPTO_4865	8
PSPTO_4866	14
PSPTO_4867	18
PSPTO_4868	27
PSPTO_4869	4
PSPTO_4870	6
PSPTO_4871	8
PSPTO_4872	5
PSPTO_4873	10
PSPTO_4874	27
PSPTO_4875	6
PSPTO_4876	6
PSPTO_4877	22
PSPTO_4878	18
PSPTO_4879	11
PSPTO_4880	4
PSPTO_4881	7
PSPTO_4882	5
PSPTO_4883	14
PSPTO_4884	12
PSPTO_4885	12
PSPTO_4886	21
PSPTO_4887	19
PSPTO_4888	12
PSPTO_4889	7
PSPTO_4890	7
PSPTO_4891	3
PSPTO_4892	9
PSPTO_4893	13
PSPTO_4894	3
PSPTO_4895	25
PSPTO_4896	26
PSPTO_4897	34
PSPTO_4898	9
PSPTO_4899	12
PSPTO_4900	36
PSPTO_4901	5
PSPTO_4902	12
PSPTO_4903	33
PSPTO_4905	8
PSPTO_4906	9
PSPTO_4907	38
PSPTO_4908	13
PSPTO_4909	6
PSPTO_4910	8
PSPTO_4911	7
PSPTO_4912	10
PSPTO_4913	14
PSPTO_4914	11
PSPTO_4915	6
PSPTO_4916	7
PSPTO_4917	15
PSPTO_4918	17
PSPTO_4919	57
PSPTO_4920	13
PSPTO_4921	8
PSPTO_4922	27
PSPTO_4923	16
PSPTO_4924	16
PSPTO_4925	73
PSPTO_4926	56
PSPTO_4927	27
PSPTO_4928	26
PSPTO_4929	14
PSPTO_4930	26
PSPTO_4931	41
PSPTO_4932	27
PSPTO_4933	42
PSPTO_4934	21
PSPTO_4935	101
PSPTO_4936	63
PSPTO_4937	30
PSPTO_4938	16
PSPTO_4939	30
PSPTO_4940	41
PSPTO_4941	58
PSPTO_4942	35
PSPTO_4943	36
PSPTO_4944	25
PSPTO_4945	26
PSPTO_4946	7
PSPTO_4947	31
PSPTO_4948	19
PSPTO_4949	12
PSPTO_4950	11
PSPTO_4951	14
PSPTO_4952	56
PSPTO_4953	81
PSPTO_4954	34
PSPTO_4955	29
PSPTO_4956	22
PSPTO_4957	20
PSPTO_4958	28
PSPTO_4959	21
PSPTO_4960	44
PSPTO_4961	8
PSPTO_4962	14
PSPTO_4963	21
PSPTO_4964	15
PSPTO_4965	23
PSPTO_4966	13
PSPTO_4967	16
PSPTO_4968	6
PSPTO_4969	21
PSPTO_4970	48
PSPTO_4971	12
PSPTO_4972	18
PSPTO_4973	15
PSPTO_4974	20
PSPTO_4975	26
PSPTO_4976	83
PSPTO_4977	20
PSPTO_4978	22
PSPTO_4979	5
PSPTO_4980	23
PSPTO_4981	5
PSPTO_4982	13
PSPTO_4983	17
PSPTO_4984	28
PSPTO_4985	7
PSPTO_4986	14
PSPTO_4987	9
PSPTO_4988	13
PSPTO_4989	12
PSPTO_4990	11
PSPTO_4991	17
PSPTO_4992	22
PSPTO_4993	24
PSPTO_4994	17
PSPTO_4995	4
PSPTO_4996	29
PSPTO_4997	27
PSPTO_4998	8
PSPTO_4999	8
PSPTO_5000	6
PSPTO_5001	11
PSPTO_5002	19
PSPTO_5003	14
PSPTO_5004	47
PSPTO_5005	71
PSPTO_5006	28
PSPTO_5007	9
PSPTO_5008	16
PSPTO_5009	21
PSPTO_5010	23
PSPTO_5011	8
PSPTO_5012	4
PSPTO_5013	5
PSPTO_5014	42
PSPTO_5015	7
PSPTO_5016	19
PSPTO_5017	93
PSPTO_5018	11
PSPTO_5019	13
PSPTO_5020	13
PSPTO_5021	18
PSPTO_5022	46
PSPTO_5023	32
PSPTO_5024	60
PSPTO_5025	4
PSPTO_5026	1
PSPTO_5027	8
PSPTO_5028	14
PSPTO_5029	9
PSPTO_5030	82
PSPTO_5031	17
PSPTO_5032	5
PSPTO_5033	4
PSPTO_5034	9
PSPTO_5035	13
PSPTO_5036	12
PSPTO_5037	15
PSPTO_5038	11
PSPTO_5039	11
PSPTO_5040	16
PSPTO_5041	46
PSPTO_5043	14
PSPTO_5044	9
PSPTO_5045	16
PSPTO_5046	9
PSPTO_5047	14
PSPTO_5048	9
PSPTO_5049	15
PSPTO_5050	12
PSPTO_5051	4
PSPTO_5052	8
PSPTO_5053	4
PSPTO_5054	20
PSPTO_5055	40
PSPTO_5056	17
PSPTO_5057	31
PSPTO_5058	22
PSPTO_5059	1
PSPTO_5060	14
PSPTO_5061	18
PSPTO_5062	12
PSPTO_5063	18
PSPTO_5064	5
PSPTO_5065	5
PSPTO_5066	10
PSPTO_5067	7
PSPTO_5068	88
PSPTO_5069	10
PSPTO_5070	24
PSPTO_5071	29
PSPTO_5072	28
PSPTO_5073	1
PSPTO_5074	19
PSPTO_5075	10
PSPTO_5076	12
PSPTO_5077	11
PSPTO_5078	6
PSPTO_5079	10
PSPTO_5080	18
PSPTO_5081	11
PSPTO_5082	11
PSPTO_5083	8
PSPTO_5084	22
PSPTO_5085	3
PSPTO_5086	13
PSPTO_5087	45
PSPTO_5088	1
PSPTO_5089	8
PSPTO_5090	13
PSPTO_5091	17
PSPTO_5092	8
PSPTO_5093	0
PSPTO_5094	4
PSPTO_5095	7
PSPTO_5096	29
PSPTO_5097	8
PSPTO_5098	12
PSPTO_5099	30
PSPTO_5100	8
PSPTO_5101	4
PSPTO_5102	28
PSPTO_5103	9
PSPTO_5104	8
PSPTO_5105	8
PSPTO_5106	4
PSPTO_5107	15
PSPTO_5108	2
PSPTO_5109	5
PSPTO_5110	16
PSPTO_5111	14
PSPTO_5112	25
PSPTO_5113	31
PSPTO_5114	3
PSPTO_5115	12
PSPTO_5116	12
PSPTO_5117	17
PSPTO_5118	17
PSPTO_5119	38
PSPTO_5120	19
PSPTO_5121	29
PSPTO_5122	2
PSPTO_5123	77
PSPTO_5124	1
PSPTO_5125	55
PSPTO_5126	17
PSPTO_5127	15
PSPTO_5128	91
PSPTO_5129	19
PSPTO_5130	15
PSPTO_5131	12
PSPTO_5132	43
PSPTO_5133	23
PSPTO_5134	19
PSPTO_5135	9
PSPTO_5136	7
PSPTO_5137	26
PSPTO_5138	23
PSPTO_5139	18
PSPTO_5140	37
PSPTO_5141	83
PSPTO_5142	4
PSPTO_5143	23
PSPTO_5144	12
PSPTO_5145	18
PSPTO_5146	7
PSPTO_5147	82
PSPTO_5148	11
PSPTO_5149	7
PSPTO_5150	23
PSPTO_5151	12
PSPTO_5152	14
PSPTO_5153	5
PSPTO_5154	10
PSPTO_5155	3
PSPTO_5156	5
PSPTO_5157	7
PSPTO_5158	10
PSPTO_5159	23
PSPTO_5160	9
PSPTO_5161	122
PSPTO_5162	200
PSPTO_5163	16
PSPTO_5164	29
PSPTO_5165	95
PSPTO_5166	28
PSPTO_5167	19
PSPTO_5168	71
PSPTO_5169	18
PSPTO_5170	49
PSPTO_5171	18
PSPTO_5172	10
PSPTO_5173	9
PSPTO_5174	15
PSPTO_5175	97
PSPTO_5176	34
PSPTO_5177	24
PSPTO_5178	32
PSPTO_5179	19
PSPTO_5180	23
PSPTO_5181	12
PSPTO_5182	10
PSPTO_5183	3
PSPTO_5184	7
PSPTO_5185	16
PSPTO_5186	14
PSPTO_5187	9
PSPTO_5188	7
PSPTO_5189	14
PSPTO_5190	6
PSPTO_5191	40
PSPTO_5192	26
PSPTO_5193	21
PSPTO_5194	6
PSPTO_5195	6
PSPTO_5196	4
PSPTO_5197	9
PSPTO_5198	11
PSPTO_5199	2
PSPTO_5200	40
PSPTO_5201	6
PSPTO_5202	35
PSPTO_5203	32
PSPTO_5204	47
PSPTO_5205	6
PSPTO_5206	26
PSPTO_5207	1
PSPTO_5208	7
PSPTO_5209	41
PSPTO_5210	20
PSPTO_5211	5
PSPTO_5212	22
PSPTO_5213	4
PSPTO_5214	11
PSPTO_5215	19
PSPTO_5216	15
PSPTO_5217	10
PSPTO_5218	7
PSPTO_5219	14
PSPTO_5220	27
PSPTO_5221	33
PSPTO_5222	37
PSPTO_5223	21
PSPTO_5224	14
PSPTO_5225	5
PSPTO_5226	21
PSPTO_5227	10
PSPTO_5228	2
PSPTO_5229	6
PSPTO_5230	43
PSPTO_5231	12
PSPTO_5232	19
PSPTO_5233	4
PSPTO_5234	2
PSPTO_5235	3
PSPTO_5236	0
PSPTO_5237	5
PSPTO_5238	20
PSPTO_5239	16
PSPTO_5240	19
PSPTO_5241	28
PSPTO_5242	13
PSPTO_5243	12
PSPTO_5244	8
PSPTO_5245	11
PSPTO_5246	6
PSPTO_5247	7
PSPTO_5248	8
PSPTO_5249	18
PSPTO_5250	64
PSPTO_5251	18
PSPTO_5252	11
PSPTO_5253	27
PSPTO_5254	7
PSPTO_5255	21
PSPTO_5256	24
PSPTO_5257	29
PSPTO_5258	3
PSPTO_5259	6
PSPTO_5260	21
PSPTO_5261	7
PSPTO_5262	16
PSPTO_5263	26
PSPTO_5264	14
PSPTO_5265	12
PSPTO_5266	16
PSPTO_5267	12
PSPTO_5268	19
PSPTO_5269	43
PSPTO_5270	19
PSPTO_5271	13
PSPTO_5272	16
PSPTO_5273	9
PSPTO_5274	16
PSPTO_5275	10
PSPTO_5276	13
PSPTO_5277	16
PSPTO_5278	21
PSPTO_5279	116
PSPTO_5280	6
PSPTO_5281	3
PSPTO_5282	9
PSPTO_5283	8
PSPTO_5284	63
PSPTO_5285	11
PSPTO_5286	6
PSPTO_5287	7
PSPTO_5288	22
PSPTO_5289	6
PSPTO_5290	12
PSPTO_5291	29
PSPTO_5292	36
PSPTO_5293	20
PSPTO_5294	40
PSPTO_5295	19
PSPTO_5296	10
PSPTO_5297	8
PSPTO_5298	2
PSPTO_5299	28
PSPTO_5300	31
PSPTO_5301	28
PSPTO_5302	7
PSPTO_5303	24
PSPTO_5304	22
PSPTO_5305	4
PSPTO_5306	17
PSPTO_5307	57
PSPTO_5308	23
PSPTO_5309	23
PSPTO_5310	25
PSPTO_5311	9
PSPTO_5312	21
PSPTO_5313	1
PSPTO_5314	10
PSPTO_5315	7
PSPTO_5316	6
PSPTO_5317	25
PSPTO_5318	45
PSPTO_5319	7
PSPTO_5320	9
PSPTO_5321	6
PSPTO_5322	9
PSPTO_5323	4
PSPTO_5324	9
PSPTO_5325	1
PSPTO_5326	2
PSPTO_5327	47
PSPTO_5328	17
PSPTO_5329	38
PSPTO_5330	13
PSPTO_5331	22
PSPTO_5332	15
PSPTO_5333	16
PSPTO_5334	15
PSPTO_5335	10
PSPTO_5336	3
PSPTO_5337	15
PSPTO_5338	7
PSPTO_5339	15
PSPTO_5340	209
PSPTO_5341	30
PSPTO_5342	22
PSPTO_5343	6
PSPTO_5344	7
PSPTO_5345	20
PSPTO_5346	11
PSPTO_5347	5
PSPTO_5348	20
PSPTO_5349	4
PSPTO_5350	0
PSPTO_5351	16
PSPTO_5352	114
PSPTO_5353	8
PSPTO_5354	27
PSPTO_5355	3
PSPTO_5356	26
PSPTO_5357	6
PSPTO_5358	27
PSPTO_5359	13
PSPTO_5360	10
PSPTO_5361	13
PSPTO_5362	9
PSPTO_5363	54
PSPTO_5364	1
PSPTO_5365	25
PSPTO_5367	3
PSPTO_5368	23
PSPTO_5370	7
PSPTO_5371	1
PSPTO_5373	23
PSPTO_5374	10
PSPTO_5375	7
PSPTO_5376	8
PSPTO_5377	17
PSPTO_5378	10
PSPTO_5379	10
PSPTO_5380	21
PSPTO_5381	24
PSPTO_5382	19
PSPTO_5383	5
PSPTO_5384	15
PSPTO_5385	12
PSPTO_5386	5
PSPTO_5387	3
PSPTO_5388	2
PSPTO_5389	6
PSPTO_5390	11
PSPTO_5391	24
PSPTO_5392	20
PSPTO_5393	21
PSPTO_5394	9
PSPTO_5395	33
PSPTO_5396	15
PSPTO_5397	17
PSPTO_5398	33
PSPTO_5399	24
PSPTO_5400	8
PSPTO_5401	11
PSPTO_5402	11
PSPTO_5403	5
PSPTO_5404	28
PSPTO_5405	11
PSPTO_5406	48
PSPTO_5407	216
PSPTO_5408	30
PSPTO_5409	23
PSPTO_5410	11
PSPTO_5411	24
PSPTO_5412	3
PSPTO_5413	63
PSPTO_5414	37
PSPTO_5415	33
PSPTO_5416	20
PSPTO_5417	18
PSPTO_5418	58
PSPTO_5419	17
PSPTO_5420	16
PSPTO_5421	9
PSPTO_5422	25
PSPTO_5423	1
PSPTO_5424	23
PSPTO_5425	42
PSPTO_5426	11
PSPTO_5427	19
PSPTO_5428	24
PSPTO_5430	13
PSPTO_5431	17
PSPTO_5432	135
PSPTO_5433	37
PSPTO_5434	37
PSPTO_5435	148
PSPTO_5436	19
PSPTO_5437	15
PSPTO_5438	96
PSPTO_5439	6
PSPTO_5440	13
PSPTO_5441	11
PSPTO_5442	5
PSPTO_5443	29
PSPTO_5444	3
PSPTO_5445	19
PSPTO_5446	3
PSPTO_5447	4
PSPTO_5448	25
PSPTO_5449	3
PSPTO_5450	6
PSPTO_5451	4
PSPTO_5452	10
PSPTO_5453	28
PSPTO_5454	18
PSPTO_5455	5
PSPTO_5456	13
PSPTO_5457	17
PSPTO_5458	7
PSPTO_5460	25
PSPTO_5461	47
PSPTO_5462	6
PSPTO_5463	18
PSPTO_5464	12
PSPTO_5465	14
PSPTO_5466	118
PSPTO_5467	7
PSPTO_5468	5
PSPTO_5469	25
PSPTO_5470	8
PSPTO_5471	3
PSPTO_5472	12
PSPTO_5473	28
PSPTO_5474	3
PSPTO_5475	10
PSPTO_5476	9
PSPTO_5477	10
PSPTO_5478	6
PSPTO_5479	16
PSPTO_5480	6
PSPTO_5481	58
PSPTO_5482	62
PSPTO_5483	22
PSPTO_5484	26
PSPTO_5485	19
PSPTO_5486	17
PSPTO_5487	11
PSPTO_5488	19
PSPTO_5489	19
PSPTO_5490	20
PSPTO_5491	14
PSPTO_5492	19
PSPTO_5493	20
PSPTO_5494	7
PSPTO_5495	2
PSPTO_5496	0
PSPTO_5497	4
PSPTO_5498	22
PSPTO_5499	12
PSPTO_5500	14
PSPTO_5501	20
PSPTO_5502	13
PSPTO_5503	16
PSPTO_5504	22
PSPTO_5505	14
PSPTO_5506	12
PSPTO_5507	12
PSPTO_5508	4
PSPTO_5509	16
PSPTO_5510	81
PSPTO_5511	59
PSPTO_5512	9
PSPTO_5513	12
PSPTO_5514	1
PSPTO_5515	18
PSPTO_5516	41
PSPTO_5517	33
PSPTO_5518	32
PSPTO_5519	24
PSPTO_5520	4
PSPTO_5521	10
PSPTO_5522	18
PSPTO_5523	17
PSPTO_5524	11
PSPTO_5525	9
PSPTO_5526	17
PSPTO_5527	11
PSPTO_5528	39
PSPTO_5529	67
PSPTO_5530	17
PSPTO_5531	16
PSPTO_5532	29
PSPTO_5533	15
PSPTO_5534	14
PSPTO_5535	33
PSPTO_5536	3
PSPTO_5537	23
PSPTO_5538	15
PSPTO_5539	4
PSPTO_5540	8
PSPTO_5541	8
PSPTO_5542	65
PSPTO_5543	17
PSPTO_5544	3
PSPTO_5545	9
PSPTO_5546	9
PSPTO_5547	24
PSPTO_5548	6
PSPTO_5549	17
PSPTO_5550	17
PSPTO_5551	24
PSPTO_5552	1
PSPTO_5553	29
PSPTO_5554	65
PSPTO_5555	7
PSPTO_5556	9
PSPTO_5557	12
PSPTO_5558	10
PSPTO_5559	14
PSPTO_5560	24
PSPTO_5561	4
PSPTO_5562	4
PSPTO_5563	18
PSPTO_5564	9
PSPTO_5565	16
PSPTO_5566	24
PSPTO_5567	7
PSPTO_5568	5
PSPTO_5569	15
PSPTO_5570	5
PSPTO_5571	25
PSPTO_5572	22
PSPTO_5573	20
PSPTO_5574	20
PSPTO_5575	11
PSPTO_5576	7
PSPTO_5577	1
PSPTO_5578	2
PSPTO_5579	13
PSPTO_5580	21
PSPTO_5581	4
PSPTO_5582	13
PSPTO_5583	6
PSPTO_5584	7
PSPTO_5585	8
PSPTO_5586	9
PSPTO_5587	8
PSPTO_5588	20
PSPTO_5589	12
PSPTO_5590	2
PSPTO_5591	26
PSPTO_5592	12
PSPTO_5593	8
PSPTO_5594	48
PSPTO_5595	35
PSPTO_5596	12
PSPTO_5597	19
PSPTO_5598	29
PSPTO_5599	79
PSPTO_5600	44
PSPTO_5601	92
PSPTO_5602	24
PSPTO_5603	28
PSPTO_5604	24
PSPTO_5605	13
PSPTO_5606	5
PSPTO_5607	10
PSPTO_5608	11
PSPTO_5609	9
PSPTO_5610	41
PSPTO_5611	15
PSPTO_5612	16
PSPTO_5613	6
PSPTO_5614	6
PSPTO_5615	3
PSPTO_5616	1
PSPTO_5617	1
PSPTO_5618	2
PSPTO_5619	3
PSPTO_5620	2
PSPTO_5621	6
PSPTO_5622	15
PSPTO_5623	0
PSPTO_5624	25
PSPTO_5625	12
PSPTO_5626	1
PSPTO_5627	3
PSPTO_5628	5
PSPTO_5629	19
PSPTO_5630	8
PSPTO_5631	16
PSPTO_5632	26
PSPTO_5633	45
PSPTO_5634	4
PSPTO_5635	113
PSPTO_5636	58
PSPTO_5637	5
PSPTO_5638	9
PSPTO_5639	8
PSPTO_5640	12
PSPTO_5641	17
PSPTO_5642	3
PSPTO_5643	1
PSPTO_5644	6
PSPTO_5645	42
PSPTO_5646	14
PSPTO_5647	4
PSPTO_5648	0
PSPTO_5649	9
PSPTO_5650	0
PSPTO_5651	2
PSPTO_5652	14
PSPTO_5653	5
PSPTO_5654	3
PSPTO_5655	0
PSPTO_5656	10
PSPTO_5657	4
PSPTO_5658	1
PSPTO_5659	3
PSPTO_5660	9
PSPTO_5661	7747
PSPTO_5662	2
PSPTO_5663	21673
PSPTO_5664	3
PSPTO_5665	3
PSPTO_5666	135
PSPTO_5667	4
PSPTO_5668	1122
PSPTO_5669	325
PSPTO_5670	20
PSPTO_5671	1
PSPTO_5672	2
PSPTO_5673	4
PSPTO_5674	4
PSPTO_5675	8
PSPTO_A0072	99
PSPTO_A0073	0
PSPTO_B0001	16
PSPTO_B0002	12
PSPTO_B0003	52
PSPTO_B0004	1
PSPTO_B0005	78
PSPTO_B0006	4
PSPTO_B0007	30
PSPTO_B0008	3
PSPTO_B0009	24
PSPTO_B0010	140
PSPTO_B0011	64
PSPTO_B0012	18
PSPTO_B0013	20
PSPTO_B0014	4
PSPTO_B0015	5
PSPTO_B0016	16
PSPTO_B0017	0
PSPTO_B0018	13
PSPTO_B0019	3
PSPTO_B0020	65
PSPTO_B0021	98
PSPTO_B0022	12
PSPTO_B0023	21
PSPTO_B0024	10
PSPTO_B0025	22
PSPTO_B0026	23
PSPTO_B0027	19
PSPTO_B0028	5
PSPTO_B0029	3
PSPTO_B0030	11
PSPTO_B0031	3
PSPTO_B0032	6
PSPTO_B0033	8
PSPTO_B0034	7
PSPTO_B0035	12
PSPTO_B0036	42
PSPTO_B0037	6
PSPTO_B0038	3
PSPTO_B0039	11
PSPTO_B0040	14
PSPTO_B0041	15
PSPTO_B0042	36
PSPTO_B0043	37
PSPTO_B0044	7
PSPTO_B0045	11
PSPTO_B0046	6
PSPTO_B0047	6
PSPTO_B0048	4
PSPTO_B0049	6
PSPTO_B0050	11
PSPTO_B0051	14
PSPTO_B0052	16
PSPTO_B0053	12
PSPTO_B0054	11
PSPTO_B0055	21
PSPTO_B0056	6
PSPTO_B0057	110
PSPTO_B0058	3
PSPTO_B0059	9
PSPTO_B0060	21
PSPTO_B0061	33
PSPTO_B0062	11
PSPTO_B0063	17
PSPTO_B0064	10
PSPTO_B0065	2
PSPTO_B0066	42
PSPTO_B0067	21
PSPTO_B0068	15
PSPTO_B0069	55
PSPTO_B0070	38
PSPTO_B0071	56
PSPTO_B0072	25
PSPTO_B0073	10
PSPTO_B0074	4
PSPTO_B0075	25
PSPTO_B0076	47
PSPTO_B0077	6
PSPTO_r01	410
PSPTO_r02	2836
PSPTO_r03	2
PSPTO_r04	396
PSPTO_r05	2842
PSPTO_r06	3
PSPTO_r07	424
PSPTO_r08	2851
PSPTO_r09	2
PSPTO_r10	2
PSPTO_r11	2697
PSPTO_r12	429
PSPTO_r13	2
PSPTO_r14	3091
PSPTO_r15	452
PSPTO_t01	8
PSPTO_t02	1
PSPTO_t03	1
PSPTO_t04	4
PSPTO_t05	1
PSPTO_t06	3
PSPTO_t07	4
PSPTO_t08	2
PSPTO_t09	1
PSPTO_t10	3
PSPTO_t11	2
PSPTO_t12	3
PSPTO_t13	2
PSPTO_t14	3
PSPTO_t15	2
PSPTO_t16	1
PSPTO_t17	1
PSPTO_t18	6
PSPTO_t19	3
PSPTO_t20	1
PSPTO_t21	0
PSPTO_t22	1
PSPTO_t23	0
PSPTO_t24	11
PSPTO_t25	4
PSPTO_t26	2
PSPTO_t27	2
PSPTO_t28	2
PSPTO_t29	1
PSPTO_t30	1
PSPTO_t31	3
PSPTO_t32	4
PSPTO_t33	1
PSPTO_t34	1
PSPTO_t35	1
PSPTO_t36	0
PSPTO_t37	3
PSPTO_t38	1
PSPTO_t39	2
PSPTO_t40	0
PSPTO_t41	1
PSPTO_t42	3
PSPTO_t43	2
PSPTO_t44	5
PSPTO_t45	6
PSPTO_t46	3
PSPTO_t47	4
PSPTO_t48	3
PSPTO_t49	3
PSPTO_t50	0
PSPTO_t51	3
PSPTO_t52	0
PSPTO_t53	0
PSPTO_t54	0
PSPTO_t55	6
PSPTO_t56	5
PSPTO_t57	3
PSPTO_t58	0
PSPTO_t59	5
PSPTO_t60	2
PSPTO_t61	1
PSPTO_t62	1
PSPTO_t63	1
__no_feature	82460
__ambiguous	2301
__too_low_aQual	0
__not_aligned	52910
__alignment_not_unique	0
