PSPTOA0001	20
PSPTOA0002	45
PSPTOA0003	15
PSPTOA0004	82
PSPTOA0005	36
PSPTOA0006	43
PSPTOA0007	116
PSPTOA0008	86
PSPTOA0009	97
PSPTOA0010	153
PSPTOA0011	98
PSPTOA0012	185
PSPTOA0013	23
PSPTOA0014	299
PSPTOA0015	72
PSPTOA0016	7
PSPTOA0017	18
PSPTOA0018	49
PSPTOA0019	79
PSPTOA0020	11
PSPTOA0021	27
PSPTOA0022	33
PSPTOA0023	23
PSPTOA0024	38
PSPTOA0025	180
PSPTOA0026	78
PSPTOA0027	19
PSPTOA0028	31
PSPTOA0029	113
PSPTOA0030	44
PSPTOA0031	155
PSPTOA0032	596
PSPTOA0033	20
PSPTOA0034	117
PSPTOA0035	72
PSPTOA0036	88
PSPTOA0037	80
PSPTOA0038	15
PSPTOA0039	68
PSPTOA0040	23
PSPTOA0041	4
PSPTOA0042	12
PSPTOA0043	9
PSPTOA0044	21
PSPTOA0045	41
PSPTOA0046	14
PSPTOA0047	11
PSPTOA0048	23
PSPTOA0049	224
PSPTOA0050	6
PSPTOA0051	31
PSPTOA0052	25
PSPTOA0053	26
PSPTOA0054	7
PSPTOA0055	8
PSPTOA0056	26
PSPTOA0057	95
PSPTOA0058	17
PSPTOA0059	15
PSPTOA0060	69
PSPTOA0061	6
PSPTOA0062	50
PSPTOA0063	19
PSPTOA0064	151
PSPTOA0065	310
PSPTOA0066	60
PSPTOA0067	47
PSPTOA0068	76
PSPTOA0069	2
PSPTOA0070	19
PSPTOA0071	10
PSPTO_0001	71
PSPTO_0002	66
PSPTO_0003	33
PSPTO_0004	181
PSPTO_0005	85
PSPTO_0006	54
PSPTO_0007	19
PSPTO_0008	104
PSPTO_0009	18
PSPTO_0011	54
PSPTO_0012	27
PSPTO_0013	21
PSPTO_0014	19
PSPTO_0015	28
PSPTO_0016	22
PSPTO_0017	41
PSPTO_0018	22
PSPTO_0019	28
PSPTO_0020	6
PSPTO_0021	58
PSPTO_0022	53
PSPTO_0023	26
PSPTO_0024	3
PSPTO_0025	63
PSPTO_0026	27
PSPTO_0027	12
PSPTO_0028	59
PSPTO_0029	23
PSPTO_0030	37
PSPTO_0031	47
PSPTO_0032	25
PSPTO_0033	30
PSPTO_0034	38
PSPTO_0035	60
PSPTO_0036	5
PSPTO_0037	160
PSPTO_0038	61
PSPTO_0039	40
PSPTO_0040	7
PSPTO_0041	10
PSPTO_0042	36
PSPTO_0043	239
PSPTO_0044	18
PSPTO_0045	54
PSPTO_0046	107
PSPTO_0047	59
PSPTO_0048	13
PSPTO_0049	39
PSPTO_0050	71
PSPTO_0051	21
PSPTO_0052	120
PSPTO_0053	47
PSPTO_0054	13
PSPTO_0055	28
PSPTO_0056	20
PSPTO_0057	43
PSPTO_0058	72
PSPTO_0059	32
PSPTO_0060	14
PSPTO_0061	10
PSPTO_0062	32
PSPTO_0063	25
PSPTO_0064	160
PSPTO_0065	43
PSPTO_0066	33
PSPTO_0067	80
PSPTO_0068	47
PSPTO_0069	96
PSPTO_0070	56
PSPTO_0071	66
PSPTO_0072	67
PSPTO_0073	104
PSPTO_0074	68
PSPTO_0075	19
PSPTO_0076	29
PSPTO_0077	82
PSPTO_0078	62
PSPTO_0079	64
PSPTO_0080	39
PSPTO_0081	46
PSPTO_0082	303
PSPTO_0083	340
PSPTO_0084	19
PSPTO_0085	55
PSPTO_0086	8
PSPTO_0087	76
PSPTO_0088	0
PSPTO_0089	37
PSPTO_0090	40
PSPTO_0091	27
PSPTO_0092	118
PSPTO_0093	3
PSPTO_0094	29
PSPTO_0095	76
PSPTO_0096	76
PSPTO_0097	9
PSPTO_0098	68
PSPTO_0099	15
PSPTO_0100	17
PSPTO_0101	320
PSPTO_0102	120
PSPTO_0103	115
PSPTO_0104	2
PSPTO_0105	34
PSPTO_0106	7
PSPTO_0107	82
PSPTO_0108	66
PSPTO_0109	197
PSPTO_0110	253
PSPTO_0111	43
PSPTO_0112	10
PSPTO_0113	24
PSPTO_0114	26
PSPTO_0115	146
PSPTO_0116	45
PSPTO_0117	360
PSPTO_0118	31
PSPTO_0119	81
PSPTO_0120	32
PSPTO_0121	32
PSPTO_0123	13
PSPTO_0124	40
PSPTO_0125	61
PSPTO_0126	109
PSPTO_0127	269
PSPTO_0128	41
PSPTO_0129	60
PSPTO_0130	133
PSPTO_0131	101
PSPTO_0132	9
PSPTO_0133	5
PSPTO_0134	104
PSPTO_0135	45
PSPTO_0136	1409
PSPTO_0137	25
PSPTO_0138	39
PSPTO_0139	14
PSPTO_0140	42
PSPTO_0141	68
PSPTO_0142	2
PSPTO_0143	25
PSPTO_0144	207
PSPTO_0145	20
PSPTO_0146	30
PSPTO_0147	24
PSPTO_0148	89
PSPTO_0149	37
PSPTO_0150	20
PSPTO_0151	27
PSPTO_0152	217
PSPTO_0153	29
PSPTO_0154	249
PSPTO_0155	120
PSPTO_0156	221
PSPTO_0157	17
PSPTO_0158	53
PSPTO_0159	43
PSPTO_0161	82
PSPTO_0162	88
PSPTO_0163	7
PSPTO_0164	11
PSPTO_0165	73
PSPTO_0166	58
PSPTO_0167	98
PSPTO_0168	129
PSPTO_0169	37
PSPTO_0170	37
PSPTO_0171	44
PSPTO_0172	20
PSPTO_0173	66
PSPTO_0174	41
PSPTO_0175	33
PSPTO_0176	48
PSPTO_0177	34
PSPTO_0178	11
PSPTO_0179	28
PSPTO_0180	32
PSPTO_0181	36
PSPTO_0182	34
PSPTO_0183	13
PSPTO_0184	55
PSPTO_0185	98
PSPTO_0186	23
PSPTO_0187	22
PSPTO_0188	39
PSPTO_0189	9
PSPTO_0190	10
PSPTO_0191	3
PSPTO_0192	28
PSPTO_0193	15
PSPTO_0194	25
PSPTO_0196	63
PSPTO_0197	4
PSPTO_0200	30
PSPTO_0201	44
PSPTO_0202	38
PSPTO_0203	49
PSPTO_0205	28
PSPTO_0206	148
PSPTO_0207	17
PSPTO_0208	27
PSPTO_0209	9
PSPTO_0210	13
PSPTO_0211	32
PSPTO_0212	18
PSPTO_0213	16
PSPTO_0214	12
PSPTO_0215	12
PSPTO_0216	8
PSPTO_0217	124
PSPTO_0218	70
PSPTO_0219	313
PSPTO_0220	232
PSPTO_0221	46
PSPTO_0222	16
PSPTO_0223	16
PSPTO_0224	39
PSPTO_0225	69
PSPTO_0226	8
PSPTO_0227	14
PSPTO_0228	9
PSPTO_0229	4
PSPTO_0230	134
PSPTO_0231	115
PSPTO_0232	2
PSPTO_0233	24
PSPTO_0234	112
PSPTO_0235	24
PSPTO_0236	83
PSPTO_0237	14
PSPTO_0238	37
PSPTO_0239	104
PSPTO_0240	67
PSPTO_0241	43
PSPTO_0242	9
PSPTO_0243	22
PSPTO_0244	13
PSPTO_0245	12
PSPTO_0246	6
PSPTO_0247	27
PSPTO_0248	48
PSPTO_0249	66
PSPTO_0250	21
PSPTO_0251	20
PSPTO_0252	54
PSPTO_0253	4
PSPTO_0254	44
PSPTO_0255	48
PSPTO_0256	29
PSPTO_0257	35
PSPTO_0258	22
PSPTO_0259	13
PSPTO_0260	25
PSPTO_0261	25
PSPTO_0262	5
PSPTO_0263	30
PSPTO_0264	25
PSPTO_0265	14
PSPTO_0266	25
PSPTO_0267	20
PSPTO_0268	16
PSPTO_0269	1
PSPTO_0270	13
PSPTO_0271	29
PSPTO_0272	377
PSPTO_0273	4
PSPTO_0274	5
PSPTO_0275	62
PSPTO_0276	18
PSPTO_0277	8
PSPTO_0278	30
PSPTO_0279	17
PSPTO_0280	29
PSPTO_0281	36
PSPTO_0282	19
PSPTO_0283	7
PSPTO_0284	6
PSPTO_0285	30
PSPTO_0286	85
PSPTO_0287	50
PSPTO_0288	0
PSPTO_0289	4
PSPTO_0290	12
PSPTO_0291	11
PSPTO_0292	15
PSPTO_0293	16
PSPTO_0294	8
PSPTO_0295	11
PSPTO_0296	3
PSPTO_0297	36
PSPTO_0298	22
PSPTO_0299	37
PSPTO_0300	390
PSPTO_0301	284
PSPTO_0302	8
PSPTO_0303	72
PSPTO_0304	61
PSPTO_0305	165
PSPTO_0306	37
PSPTO_0307	7
PSPTO_0308	20
PSPTO_0309	9
PSPTO_0310	28
PSPTO_0311	17
PSPTO_0312	28
PSPTO_0313	15
PSPTO_0314	55
PSPTO_0315	44
PSPTO_0316	50
PSPTO_0317	69
PSPTO_0318	258
PSPTO_0319	68
PSPTO_0320	12
PSPTO_0321	27
PSPTO_0322	46
PSPTO_0323	93
PSPTO_0324	85
PSPTO_0325	126
PSPTO_0326	4
PSPTO_0327	47
PSPTO_0328	90
PSPTO_0329	56
PSPTO_0330	60
PSPTO_0331	1
PSPTO_0332	13
PSPTO_0333	74
PSPTO_0334	125
PSPTO_0335	76
PSPTO_0336	10
PSPTO_0337	19
PSPTO_0338	20
PSPTO_0339	79
PSPTO_0340	107
PSPTO_0341	189
PSPTO_0342	1
PSPTO_0343	26
PSPTO_0344	54
PSPTO_0345	17
PSPTO_0346	34
PSPTO_0347	14
PSPTO_0348	15
PSPTO_0349	31
PSPTO_0350	16
PSPTO_0351	48
PSPTO_0352	86
PSPTO_0353	31
PSPTO_0354	1
PSPTO_0355	5
PSPTO_0356	12
PSPTO_0357	7
PSPTO_0358	34
PSPTO_0359	325
PSPTO_0360	43
PSPTO_0361	170
PSPTO_0362	11
PSPTO_0363	15
PSPTO_0364	15
PSPTO_0365	35
PSPTO_0366	29
PSPTO_0367	16
PSPTO_0368	8
PSPTO_0369	15
PSPTO_0370	29
PSPTO_0371	14
PSPTO_0372	74
PSPTO_0373	113
PSPTO_0374	140
PSPTO_0375	22
PSPTO_0376	14
PSPTO_0377	17
PSPTO_0378	41
PSPTO_0379	53
PSPTO_0380	72
PSPTO_0381	12
PSPTO_0382	24
PSPTO_0383	222
PSPTO_0384	24
PSPTO_0385	309
PSPTO_0386	33
PSPTO_0387	181
PSPTO_0388	36
PSPTO_0389	52
PSPTO_0390	218
PSPTO_0391	29
PSPTO_0393	22
PSPTO_0394	8
PSPTO_0395	13
PSPTO_0396	41
PSPTO_0397	50
PSPTO_0398	20
PSPTO_0399	20
PSPTO_0400	21
PSPTO_0401	21
PSPTO_0402	16
PSPTO_0403	9
PSPTO_0404	36
PSPTO_0405	170
PSPTO_0406	433
PSPTO_0407	49
PSPTO_0408	61
PSPTO_0409	63
PSPTO_0410	32
PSPTO_0411	21
PSPTO_0412	45
PSPTO_0413	29
PSPTO_0414	45
PSPTO_0415	18
PSPTO_0416	8
PSPTO_0417	17
PSPTO_0418	26
PSPTO_0419	34
PSPTO_0420	167
PSPTO_0421	42
PSPTO_0422	11
PSPTO_0423	5
PSPTO_0424	19
PSPTO_0425	33
PSPTO_0426	38
PSPTO_0427	142
PSPTO_0428	89
PSPTO_0429	97
PSPTO_0430	1133
PSPTO_0431	14
PSPTO_0432	15
PSPTO_0433	9
PSPTO_0434	22
PSPTO_0435	13
PSPTO_0436	12
PSPTO_0437	5
PSPTO_0438	43
PSPTO_0439	44
PSPTO_0440	17
PSPTO_0441	96
PSPTO_0442	8
PSPTO_0443	152
PSPTO_0444	9
PSPTO_0445	13
PSPTO_0446	10
PSPTO_0447	7
PSPTO_0448	32
PSPTO_0449	10
PSPTO_0450	48
PSPTO_0451	111
PSPTO_0452	30
PSPTO_0453	342
PSPTO_0454	40
PSPTO_0455	99
PSPTO_0456	25
PSPTO_0457	21
PSPTO_0458	29
PSPTO_0459	5
PSPTO_0460	17
PSPTO_0461	10
PSPTO_0462	38
PSPTO_0463	16
PSPTO_0464	27
PSPTO_0465	61
PSPTO_0466	47
PSPTO_0467	6
PSPTO_0468	14
PSPTO_0469	13
PSPTO_0470	25
PSPTO_0471	81
PSPTO_0472	86
PSPTO_0473	36
PSPTO_0474	16
PSPTO_0475	25
PSPTO_0476	15
PSPTO_0477	14
PSPTO_0478	16
PSPTO_0479	4
PSPTO_0480	129
PSPTO_0481	31
PSPTO_0482	17
PSPTO_0483	9
PSPTO_0484	12
PSPTO_0485	7
PSPTO_0486	9
PSPTO_0487	21
PSPTO_0488	7
PSPTO_0489	29
PSPTO_0490	14
PSPTO_0491	25
PSPTO_0492	19
PSPTO_0493	7
PSPTO_0494	153
PSPTO_0495	43
PSPTO_0496	28
PSPTO_0497	19
PSPTO_0498	27
PSPTO_0499	278
PSPTO_0500	106
PSPTO_0501	31
PSPTO_0502	10
PSPTO_0503	5
PSPTO_0505	90
PSPTO_0506	100
PSPTO_0507	126
PSPTO_0508	90
PSPTO_0509	71
PSPTO_0510	24
PSPTO_0511	42
PSPTO_0512	84
PSPTO_0513	110
PSPTO_0514	41
PSPTO_0515	8
PSPTO_0516	36
PSPTO_0517	23
PSPTO_0518	127
PSPTO_0519	22
PSPTO_0520	43
PSPTO_0521	6
PSPTO_0522	45
PSPTO_0523	29
PSPTO_0524	40
PSPTO_0525	7
PSPTO_0526	5
PSPTO_0527	43
PSPTO_0528	52
PSPTO_0529	29
PSPTO_0530	17
PSPTO_0531	27
PSPTO_0532	7
PSPTO_0533	25
PSPTO_0534	46
PSPTO_0535	22
PSPTO_0536	155
PSPTO_0537	660
PSPTO_0538	83
PSPTO_0539	23
PSPTO_0540	22
PSPTO_0541	15
PSPTO_0542	25
PSPTO_0543	25
PSPTO_0544	24
PSPTO_0545	483
PSPTO_0546	411
PSPTO_0547	1504
PSPTO_0548	13
PSPTO_0549	23
PSPTO_0550	20
PSPTO_0551	11
PSPTO_0552	19
PSPTO_0553	76
PSPTO_0554	156
PSPTO_0555	109
PSPTO_0556	88
PSPTO_0557	61
PSPTO_0558	159
PSPTO_0559	44
PSPTO_0560	16
PSPTO_0561	4
PSPTO_0562	20
PSPTO_0563	30
PSPTO_0564	19
PSPTO_0565	12
PSPTO_0566	34
PSPTO_0567	24
PSPTO_0568	106
PSPTO_0569	76
PSPTO_0570	18
PSPTO_0571	16
PSPTO_0572	35
PSPTO_0573	2
PSPTO_0574	7
PSPTO_0575	7
PSPTO_0576	1
PSPTO_0577	47
PSPTO_0578	15
PSPTO_0579	7
PSPTO_0580	63
PSPTO_0581	52
PSPTO_0582	10
PSPTO_0583	43
PSPTO_0584	30
PSPTO_0585	30
PSPTO_0586	41
PSPTO_0587	118
PSPTO_0588	7
PSPTO_0589	30
PSPTO_0591	36
PSPTO_0592	47
PSPTO_0593	65
PSPTO_0594	98
PSPTO_0595	27
PSPTO_0596	74
PSPTO_0597	36
PSPTO_0598	20
PSPTO_0599	78
PSPTO_0600	34
PSPTO_0601	27
PSPTO_0602	31
PSPTO_0603	12
PSPTO_0604	82
PSPTO_0605	59
PSPTO_0606	110
PSPTO_0607	50
PSPTO_0608	1
PSPTO_0609	216
PSPTO_0610	33
PSPTO_0611	39
PSPTO_0612	6
PSPTO_0613	33
PSPTO_0614	89
PSPTO_0615	77
PSPTO_0616	176
PSPTO_0617	101
PSPTO_0618	69
PSPTO_0619	623
PSPTO_0620	1047
PSPTO_0621	99
PSPTO_0622	153
PSPTO_0623	697
PSPTO_0624	718
PSPTO_0625	89
PSPTO_0626	153
PSPTO_0627	162
PSPTO_0628	46
PSPTO_0629	200
PSPTO_0630	74
PSPTO_0631	91
PSPTO_0632	169
PSPTO_0633	105
PSPTO_0634	16
PSPTO_0635	49
PSPTO_0636	149
PSPTO_0637	75
PSPTO_0638	175
PSPTO_0639	117
PSPTO_0640	98
PSPTO_0641	146
PSPTO_0642	63
PSPTO_0643	121
PSPTO_0644	34
PSPTO_0645	89
PSPTO_0646	239
PSPTO_0647	34
PSPTO_0648	86
PSPTO_0649	121
PSPTO_0650	235
PSPTO_0651	428
PSPTO_0652	106
PSPTO_0653	24
PSPTO_0654	239
PSPTO_0655	68
PSPTO_0656	85
PSPTO_0657	16
PSPTO_0658	58
PSPTO_0659	33
PSPTO_0660	12
PSPTO_0661	18
PSPTO_0662	12
PSPTO_0663	4
PSPTO_0664	14
PSPTO_0665	17
PSPTO_0666	39
PSPTO_0667	32
PSPTO_0668	13
PSPTO_0669	4
PSPTO_0670	40
PSPTO_0671	11
PSPTO_0672	2
PSPTO_0673	6
PSPTO_0674	6
PSPTO_0675	46
PSPTO_0676	231
PSPTO_0677	35
PSPTO_0678	32
PSPTO_0679	16
PSPTO_0680	20
PSPTO_0681	18
PSPTO_0682	9
PSPTO_0683	42
PSPTO_0684	27
PSPTO_0685	10
PSPTO_0686	41
PSPTO_0687	13
PSPTO_0688	15
PSPTO_0689	8
PSPTO_0690	37
PSPTO_0691	32
PSPTO_0692	46
PSPTO_0693	15
PSPTO_0694	20
PSPTO_0695	18
PSPTO_0696	31
PSPTO_0697	13
PSPTO_0698	102
PSPTO_0699	20
PSPTO_0700	9
PSPTO_0701	36
PSPTO_0702	22
PSPTO_0703	61
PSPTO_0704	27
PSPTO_0705	28
PSPTO_0706	22
PSPTO_0707	6
PSPTO_0708	6
PSPTO_0709	7
PSPTO_0710	11
PSPTO_0711	31
PSPTO_0712	5
PSPTO_0713	24
PSPTO_0714	47
PSPTO_0715	16
PSPTO_0716	10
PSPTO_0717	7
PSPTO_0718	11
PSPTO_0719	14
PSPTO_0720	6
PSPTO_0721	4
PSPTO_0722	75
PSPTO_0723	12
PSPTO_0724	16
PSPTO_0725	17
PSPTO_0726	19
PSPTO_0727	35
PSPTO_0728	169
PSPTO_0729	80
PSPTO_0730	27
PSPTO_0731	4
PSPTO_0732	90
PSPTO_0733	71
PSPTO_0734	26
PSPTO_0735	14
PSPTO_0736	31
PSPTO_0737	72
PSPTO_0738	62
PSPTO_0739	79
PSPTO_0740	46
PSPTO_0741	16
PSPTO_0742	85
PSPTO_0743	174
PSPTO_0744	153
PSPTO_0745	9
PSPTO_0746	44
PSPTO_0747	8
PSPTO_0748	116
PSPTO_0749	15
PSPTO_0750	81
PSPTO_0751	19
PSPTO_0752	4
PSPTO_0753	37
PSPTO_0754	17
PSPTO_0755	20
PSPTO_0756	37
PSPTO_0757	33
PSPTO_0758	16
PSPTO_0759	49
PSPTO_0760	5
PSPTO_0761	11
PSPTO_0762	23
PSPTO_0763	12
PSPTO_0764	25
PSPTO_0765	18
PSPTO_0766	69
PSPTO_0767	24
PSPTO_0768	26
PSPTO_0769	58
PSPTO_0770	7
PSPTO_0771	18
PSPTO_0772	22
PSPTO_0773	17
PSPTO_0774	50
PSPTO_0775	53
PSPTO_0776	43
PSPTO_0777	59
PSPTO_0778	32
PSPTO_0779	21
PSPTO_0780	45
PSPTO_0781	20
PSPTO_0782	25
PSPTO_0783	31
PSPTO_0784	28
PSPTO_0785	23
PSPTO_0786	15
PSPTO_0787	26
PSPTO_0788	20
PSPTO_0789	15
PSPTO_0790	13
PSPTO_0791	27
PSPTO_0792	7
PSPTO_0793	29
PSPTO_0794	26
PSPTO_0795	21
PSPTO_0796	59
PSPTO_0797	48
PSPTO_0798	56
PSPTO_0799	76
PSPTO_0800	81
PSPTO_0801	46
PSPTO_0802	45
PSPTO_0803	7
PSPTO_0804	34
PSPTO_0805	54
PSPTO_0806	132
PSPTO_0807	17
PSPTO_0808	24
PSPTO_0809	42
PSPTO_0810	19
PSPTO_0811	32
PSPTO_0812	37
PSPTO_0813	41
PSPTO_0814	34
PSPTO_0815	215
PSPTO_0816	25
PSPTO_0817	65
PSPTO_0818	4
PSPTO_0819	17
PSPTO_0820	38
PSPTO_0821	13
PSPTO_0822	10
PSPTO_0823	35
PSPTO_0824	16
PSPTO_0825	7
PSPTO_0826	62
PSPTO_0827	26
PSPTO_0828	8
PSPTO_0829	309
PSPTO_0830	54
PSPTO_0831	58
PSPTO_0832	19
PSPTO_0833	27
PSPTO_0834	55
PSPTO_0835	23
PSPTO_0836	20
PSPTO_0837	37
PSPTO_0838	52
PSPTO_0840	50
PSPTO_0841	15
PSPTO_0842	12
PSPTO_0844	42
PSPTO_0846	55
PSPTO_0847	8
PSPTO_0848	24
PSPTO_0849	19
PSPTO_0850	4
PSPTO_0851	19
PSPTO_0852	33
PSPTO_0853	63
PSPTO_0854	28
PSPTO_0855	29
PSPTO_0856	27
PSPTO_0857	15
PSPTO_0858	5
PSPTO_0859	73
PSPTO_0860	10
PSPTO_0861	13
PSPTO_0862	19
PSPTO_0863	16
PSPTO_0864	17
PSPTO_0865	22
PSPTO_0866	9
PSPTO_0867	8
PSPTO_0868	3
PSPTO_0869	3
PSPTO_0871	37
PSPTO_0873	27
PSPTO_0874	41
PSPTO_0875	54
PSPTO_0876	113
PSPTO_0877	39
PSPTO_0878	13
PSPTO_0879	28
PSPTO_0880	18
PSPTO_0881	35
PSPTO_0882	36
PSPTO_0883	171
PSPTO_0884	16
PSPTO_0885	23
PSPTO_0886	14
PSPTO_0887	8
PSPTO_0888	10
PSPTO_0889	26
PSPTO_0890	20
PSPTO_0891	27
PSPTO_0892	69
PSPTO_0893	10
PSPTO_0894	26
PSPTO_0895	24
PSPTO_0896	14
PSPTO_0897	23
PSPTO_0898	76
PSPTO_0899	2
PSPTO_0900	5
PSPTO_0901	15
PSPTO_0902	47
PSPTO_0903	39
PSPTO_0904	45
PSPTO_0905	71
PSPTO_0906	14
PSPTO_0907	21
PSPTO_0908	18
PSPTO_0909	6
PSPTO_0910	13
PSPTO_0911	22
PSPTO_0912	41
PSPTO_0913	46
PSPTO_0914	12
PSPTO_0915	16
PSPTO_0916	34
PSPTO_0917	127
PSPTO_0918	4
PSPTO_0919	25
PSPTO_0920	34
PSPTO_0921	10
PSPTO_0922	11
PSPTO_0923	29
PSPTO_0924	28
PSPTO_0925	59
PSPTO_0926	91
PSPTO_0927	2188
PSPTO_0928	15
PSPTO_0929	108
PSPTO_0930	20
PSPTO_0931	11
PSPTO_0932	31
PSPTO_0933	44
PSPTO_0934	37
PSPTO_0935	15
PSPTO_0936	32
PSPTO_0937	35
PSPTO_0938	48
PSPTO_0939	77
PSPTO_0940	141
PSPTO_0941	185
PSPTO_0942	105
PSPTO_0943	264
PSPTO_0944	241
PSPTO_0945	304
PSPTO_0946	38
PSPTO_0947	45
PSPTO_0948	35
PSPTO_0949	532
PSPTO_0950	33
PSPTO_0951	61
PSPTO_0952	18
PSPTO_0953	21
PSPTO_0954	168
PSPTO_0955	43
PSPTO_0956	67
PSPTO_0957	18
PSPTO_0958	10
PSPTO_0959	272
PSPTO_0960	26
PSPTO_0961	27
PSPTO_0962	12
PSPTO_0963	40
PSPTO_0964	174
PSPTO_0965	26
PSPTO_0966	1
PSPTO_0967	14
PSPTO_0968	28
PSPTO_0969	66
PSPTO_0970	30
PSPTO_0971	30
PSPTO_0972	10
PSPTO_0973	14
PSPTO_0974	4
PSPTO_0975	239
PSPTO_0976	106
PSPTO_0977	45
PSPTO_0978	41
PSPTO_0979	13
PSPTO_0980	11
PSPTO_0981	100
PSPTO_0982	21
PSPTO_0983	62
PSPTO_0984	37
PSPTO_0985	129
PSPTO_0986	60
PSPTO_0987	15
PSPTO_0988	40
PSPTO_0989	4
PSPTO_0990	13
PSPTO_0991	27
PSPTO_0992	7
PSPTO_0993	35
PSPTO_0994	245
PSPTO_0995	16
PSPTO_0996	22
PSPTO_0997	20
PSPTO_0998	25
PSPTO_0999	52
PSPTO_1000	126
PSPTO_1001	69
PSPTO_1002	81
PSPTO_1003	31
PSPTO_1004	32
PSPTO_1005	133
PSPTO_1006	17
PSPTO_1007	31
PSPTO_1008	192
PSPTO_1009	15
PSPTO_1010	11
PSPTO_1011	5
PSPTO_1012	1
PSPTO_1013	13
PSPTO_1014	23
PSPTO_1015	48
PSPTO_1016	117
PSPTO_1017	5
PSPTO_1018	7
PSPTO_1019	4
PSPTO_1020	57
PSPTO_1021	4
PSPTO_1022	36
PSPTO_1023	7
PSPTO_1024	8
PSPTO_1025	40
PSPTO_1026	46
PSPTO_1027	43
PSPTO_1028	42
PSPTO_1029	22
PSPTO_1030	46
PSPTO_1031	15
PSPTO_1032	8
PSPTO_1033	25
PSPTO_1034	9
PSPTO_1035	31
PSPTO_1036	10
PSPTO_1037	13
PSPTO_1038	20
PSPTO_1039	237
PSPTO_1040	101
PSPTO_1041	59
PSPTO_1042	19
PSPTO_1043	31
PSPTO_1044	8
PSPTO_1045	12
PSPTO_1046	4
PSPTO_1047	7
PSPTO_1048	12
PSPTO_1049	17
PSPTO_1050	2
PSPTO_1051	25
PSPTO_1052	21
PSPTO_1053	6
PSPTO_1054	21
PSPTO_1055	11
PSPTO_1056	39
PSPTO_1057	12
PSPTO_1058	13
PSPTO_1059	182
PSPTO_1060	7
PSPTO_1061	43
PSPTO_1062	66
PSPTO_1064	26
PSPTO_1065	71
PSPTO_1066	550
PSPTO_1067	109
PSPTO_1068	57
PSPTO_1069	7
PSPTO_1070	81
PSPTO_1071	47
PSPTO_1072	99
PSPTO_1073	65
PSPTO_1074	267
PSPTO_1075	45
PSPTO_1076	27
PSPTO_1077	27
PSPTO_1078	51
PSPTO_1079	182
PSPTO_1080	75
PSPTO_1081	101
PSPTO_1082	5
PSPTO_1083	33
PSPTO_1084	36
PSPTO_1085	21
PSPTO_1086	38
PSPTO_1087	78
PSPTO_1088	36
PSPTO_1089	131
PSPTO_1090	37
PSPTO_1091	10
PSPTO_1092	5
PSPTO_1093	72
PSPTO_1094	30
PSPTO_1095	32
PSPTO_1096	14
PSPTO_1097	132
PSPTO_1098	53
PSPTO_1099	7
PSPTO_1100	149
PSPTO_1101	21
PSPTO_1102	18
PSPTO_1103	53
PSPTO_1104	79
PSPTO_1105	68
PSPTO_1106	15
PSPTO_1107	112
PSPTO_1108	34
PSPTO_1109	82
PSPTO_1110	109
PSPTO_1111	61
PSPTO_1112	22
PSPTO_1114	2
PSPTO_1115	22
PSPTO_1116	28
PSPTO_1117	9
PSPTO_1118	37
PSPTO_1119	35
PSPTO_1120	6
PSPTO_1121	64
PSPTO_1122	62
PSPTO_1123	82
PSPTO_1124	26
PSPTO_1125	37
PSPTO_1126	238
PSPTO_1127	103
PSPTO_1128	85
PSPTO_1129	49
PSPTO_1130	22
PSPTO_1131	21
PSPTO_1132	28
PSPTO_1133	10
PSPTO_1134	34
PSPTO_1135	38
PSPTO_1136	219
PSPTO_1137	9
PSPTO_1138	81
PSPTO_1139	3
PSPTO_1140	37
PSPTO_1141	9
PSPTO_1142	6
PSPTO_1143	16
PSPTO_1144	49
PSPTO_1145	13
PSPTO_1146	20
PSPTO_1147	19
PSPTO_1148	77
PSPTO_1149	78
PSPTO_1150	32
PSPTO_1151	105
PSPTO_1152	54
PSPTO_1153	11
PSPTO_1154	14
PSPTO_1155	3
PSPTO_1156	14
PSPTO_1157	22
PSPTO_1158	17
PSPTO_1159	97
PSPTO_1160	56
PSPTO_1161	2
PSPTO_1162	17
PSPTO_1163	44
PSPTO_1164	320
PSPTO_1165	92
PSPTO_1166	56
PSPTO_1167	33
PSPTO_1168	20
PSPTO_1169	66
PSPTO_1170	10
PSPTO_1171	75
PSPTO_1172	35
PSPTO_1173	29
PSPTO_1174	10
PSPTO_1175	39
PSPTO_1176	2
PSPTO_1177	13
PSPTO_1178	74
PSPTO_1179	27
PSPTO_1180	32
PSPTO_1181	36
PSPTO_1182	45
PSPTO_1183	42
PSPTO_1184	142
PSPTO_1185	145
PSPTO_1186	19
PSPTO_1187	29
PSPTO_1188	48
PSPTO_1189	49
PSPTO_1190	8
PSPTO_1191	50
PSPTO_1192	12
PSPTO_1193	21
PSPTO_1194	31
PSPTO_1195	24
PSPTO_1196	38
PSPTO_1197	23
PSPTO_1198	7
PSPTO_1199	2
PSPTO_1200	39
PSPTO_1201	9
PSPTO_1202	127
PSPTO_1203	32
PSPTO_1204	54
PSPTO_1205	288
PSPTO_1206	92
PSPTO_1207	89
PSPTO_1208	39
PSPTO_1209	24
PSPTO_1210	19
PSPTO_1211	41
PSPTO_1212	20
PSPTO_1213	29
PSPTO_1214	10
PSPTO_1215	52
PSPTO_1216	65
PSPTO_1217	18
PSPTO_1218	33
PSPTO_1219	2
PSPTO_1220	11
PSPTO_1221	45
PSPTO_1222	2
PSPTO_1223	27
PSPTO_1224	13
PSPTO_1225	46
PSPTO_1226	7
PSPTO_1227	58
PSPTO_1228	47
PSPTO_1229	54
PSPTO_1230	3
PSPTO_1231	117
PSPTO_1232	60
PSPTO_1233	17
PSPTO_1234	12
PSPTO_1235	17
PSPTO_1236	18
PSPTO_1237	23
PSPTO_1238	25
PSPTO_1239	16
PSPTO_1240	15
PSPTO_1241	20
PSPTO_1242	28
PSPTO_1243	56
PSPTO_1244	15
PSPTO_1245	9
PSPTO_1246	477
PSPTO_1247	19
PSPTO_1248	14
PSPTO_1249	26
PSPTO_1250	14
PSPTO_1251	6
PSPTO_1252	7
PSPTO_1253	65
PSPTO_1254	40
PSPTO_1255	220
PSPTO_1256	54
PSPTO_1257	43
PSPTO_1258	46
PSPTO_1259	11
PSPTO_1260	35
PSPTO_1261	16
PSPTO_1262	8
PSPTO_1263	23
PSPTO_1264	15
PSPTO_1265	28
PSPTO_1266	188
PSPTO_1267	13
PSPTO_1268	204
PSPTO_1269	13
PSPTO_1270	5
PSPTO_1271	116
PSPTO_1272	23
PSPTO_1273	53
PSPTO_1274	428
PSPTO_1275	127
PSPTO_1276	363
PSPTO_1277	19
PSPTO_1278	193
PSPTO_1279	194
PSPTO_1280	51
PSPTO_1281	87
PSPTO_1282	19
PSPTO_1283	32
PSPTO_1284	104
PSPTO_1285	36
PSPTO_1286	24
PSPTO_1287	250
PSPTO_1288	138
PSPTO_1289	100
PSPTO_1290	79
PSPTO_1291	28
PSPTO_1292	104
PSPTO_1293	37
PSPTO_1294	13
PSPTO_1295	48
PSPTO_1296	159
PSPTO_1297	2
PSPTO_1298	31
PSPTO_1299	22
PSPTO_1300	149
PSPTO_1301	106
PSPTO_1302	114
PSPTO_1303	10
PSPTO_1304	32
PSPTO_1305	36
PSPTO_1306	17
PSPTO_1307	6
PSPTO_1308	53
PSPTO_1309	30
PSPTO_1310	52
PSPTO_1311	108
PSPTO_1312	20
PSPTO_1313	18
PSPTO_1314	11
PSPTO_1315	50
PSPTO_1316	28
PSPTO_1317	11
PSPTO_1318	12
PSPTO_1319	2
PSPTO_1320	368
PSPTO_1321	2
PSPTO_1322	73
PSPTO_1323	545
PSPTO_1324	36
PSPTO_1325	205
PSPTO_1326	570
PSPTO_1327	72
PSPTO_1328	62
PSPTO_1329	134
PSPTO_1330	31
PSPTO_1331	24
PSPTO_1332	189
PSPTO_1333	35
PSPTO_1334	634
PSPTO_1335	24
PSPTO_1336	8
PSPTO_1337	22
PSPTO_1338	94
PSPTO_1339	28
PSPTO_1340	130
PSPTO_1341	13
PSPTO_1342	26
PSPTO_1343	57
PSPTO_1344	12
PSPTO_1345	89
PSPTO_1346	27
PSPTO_1347	43
PSPTO_1348	235
PSPTO_1349	75
PSPTO_1350	24
PSPTO_1351	6
PSPTO_1352	8
PSPTO_1353	2
PSPTO_1354	5
PSPTO_1355	14
PSPTO_1356	25
PSPTO_1357	20
PSPTO_1358	21
PSPTO_1359	29
PSPTO_1360	51
PSPTO_1361	49
PSPTO_1362	7
PSPTO_1363	38
PSPTO_1364	7
PSPTO_1365	66
PSPTO_1366	5
PSPTO_1367	32
PSPTO_1368	30
PSPTO_1369	17
PSPTO_1370	12
PSPTO_1371	5
PSPTO_1372	16
PSPTO_1373	18
PSPTO_1374	9
PSPTO_1375	36
PSPTO_1376	10
PSPTO_1377	66
PSPTO_1378	32
PSPTO_1379	61
PSPTO_1380	54
PSPTO_1381	11
PSPTO_1382	35
PSPTO_1383	4
PSPTO_1384	15
PSPTO_1385	11
PSPTO_1386	7
PSPTO_1387	1
PSPTO_1388	3
PSPTO_1389	25
PSPTO_1390	6
PSPTO_1391	47
PSPTO_1392	12
PSPTO_1393	5
PSPTO_1394	2
PSPTO_1395	8
PSPTO_1396	8
PSPTO_1397	8
PSPTO_1398	6
PSPTO_1399	5
PSPTO_1400	12
PSPTO_1401	15
PSPTO_1402	14
PSPTO_1403	11
PSPTO_1404	4
PSPTO_1405	31
PSPTO_1406	33
PSPTO_1407	27
PSPTO_1408	6
PSPTO_1409	47
PSPTO_1410	758
PSPTO_1411	22
PSPTO_1412	23
PSPTO_1413	37
PSPTO_1414	27
PSPTO_1415	54
PSPTO_1416	28
PSPTO_1417	1907
PSPTO_1418	27
PSPTO_1419	36
PSPTO_1420	18
PSPTO_1421	14
PSPTO_1422	26
PSPTO_1423	77
PSPTO_1424	35
PSPTO_1425	46
PSPTO_1426	59
PSPTO_1427	84
PSPTO_1428	32
PSPTO_1429	16
PSPTO_1430	52
PSPTO_1431	108
PSPTO_1432	33
PSPTO_1433	45
PSPTO_1434	89
PSPTO_1435	49
PSPTO_1436	72
PSPTO_1437	111
PSPTO_1438	81
PSPTO_1439	26
PSPTO_1440	33
PSPTO_1441	35
PSPTO_1443	70
PSPTO_1444	284
PSPTO_1445	9
PSPTO_1446	22
PSPTO_1447	4
PSPTO_1448	9
PSPTO_1449	168
PSPTO_1450	66
PSPTO_1451	87
PSPTO_1452	4
PSPTO_1453	143
PSPTO_1454	44
PSPTO_1455	50
PSPTO_1456	26
PSPTO_1457	11
PSPTO_1458	38
PSPTO_1459	144
PSPTO_1460	21
PSPTO_1461	14
PSPTO_1462	11
PSPTO_1463	0
PSPTO_1464	29
PSPTO_1465	29
PSPTO_1466	13
PSPTO_1467	10
PSPTO_1468	58
PSPTO_1469	26
PSPTO_1470	17
PSPTO_1471	13
PSPTO_1472	50
PSPTO_1473	54
PSPTO_1474	67
PSPTO_1475	120
PSPTO_1476	51
PSPTO_1477	40
PSPTO_1478	10
PSPTO_1479	34
PSPTO_1480	68
PSPTO_1481	75
PSPTO_1482	100
PSPTO_1483	58
PSPTO_1484	13
PSPTO_1485	124
PSPTO_1486	19
PSPTO_1487	22
PSPTO_1488	54
PSPTO_1489	87
PSPTO_1490	129
PSPTO_1491	246
PSPTO_1492	64
PSPTO_1493	475
PSPTO_1494	106
PSPTO_1495	143
PSPTO_1496	51
PSPTO_1497	213
PSPTO_1498	57
PSPTO_1499	103
PSPTO_1500	52
PSPTO_1501	47
PSPTO_1502	11
PSPTO_1503	131
PSPTO_1504	28
PSPTO_1505	5
PSPTO_1506	941
PSPTO_1507	463
PSPTO_1508	136
PSPTO_1509	66
PSPTO_1510	19
PSPTO_1511	117
PSPTO_1512	32
PSPTO_1513	24
PSPTO_1514	453
PSPTO_1515	20
PSPTO_1516	3
PSPTO_1517	3
PSPTO_1518	24
PSPTO_1519	15
PSPTO_1520	60
PSPTO_1521	21
PSPTO_1522	11
PSPTO_1523	25
PSPTO_1524	67
PSPTO_1525	26
PSPTO_1526	8
PSPTO_1527	8
PSPTO_1528	42
PSPTO_1529	20
PSPTO_1530	5
PSPTO_1531	26
PSPTO_1532	67
PSPTO_1533	29
PSPTO_1534	191
PSPTO_1535	82
PSPTO_1536	57
PSPTO_1537	58
PSPTO_1538	40
PSPTO_1539	23
PSPTO_1540	42
PSPTO_1541	142
PSPTO_1542	184
PSPTO_1543	40
PSPTO_1544	42
PSPTO_1545	50
PSPTO_1546	38
PSPTO_1547	58
PSPTO_1548	31
PSPTO_1549	147
PSPTO_1550	187
PSPTO_1551	60
PSPTO_1552	151
PSPTO_1553	48
PSPTO_1554	229
PSPTO_1555	15
PSPTO_1556	11
PSPTO_1557	18
PSPTO_1558	61
PSPTO_1559	35
PSPTO_1560	6
PSPTO_1561	8
PSPTO_1562	23
PSPTO_1563	26
PSPTO_1564	185
PSPTO_1565	340
PSPTO_1566	0
PSPTO_1567	28
PSPTO_1568	33
PSPTO_1570	3
PSPTO_1571	63
PSPTO_1572	15
PSPTO_1573	7
PSPTO_1574	15
PSPTO_1575	5
PSPTO_1576	2
PSPTO_1577	50
PSPTO_1578	18
PSPTO_1579	17
PSPTO_1580	28
PSPTO_1581	29
PSPTO_1582	20
PSPTO_1583	26
PSPTO_1584	29
PSPTO_1585	14
PSPTO_1586	15
PSPTO_1587	70
PSPTO_1588	48
PSPTO_1589	13
PSPTO_1590	17
PSPTO_1591	4
PSPTO_1592	25
PSPTO_1593	47
PSPTO_1594	21
PSPTO_1595	40
PSPTO_1596	136
PSPTO_1597	112
PSPTO_1598	56
PSPTO_1599	7
PSPTO_1600	150
PSPTO_1601	36
PSPTO_1602	42
PSPTO_1603	12
PSPTO_1604	142
PSPTO_1605	112
PSPTO_1606	47
PSPTO_1607	34
PSPTO_1608	282
PSPTO_1609	80
PSPTO_1610	44
PSPTO_1611	6
PSPTO_1612	25
PSPTO_1613	22
PSPTO_1614	4
PSPTO_1615	30
PSPTO_1616	18
PSPTO_1617	18
PSPTO_1618	20
PSPTO_1619	39
PSPTO_1620	210
PSPTO_1621	367
PSPTO_1622	45
PSPTO_1623	86
PSPTO_1624	339
PSPTO_1625	16
PSPTO_1626	11
PSPTO_1627	18
PSPTO_1628	11
PSPTO_1629	0
PSPTO_1630	12
PSPTO_1631	60
PSPTO_1632	109
PSPTO_1633	178
PSPTO_1634	18
PSPTO_1635	46
PSPTO_1636	23
PSPTO_1637	40
PSPTO_1638	23
PSPTO_1639	53
PSPTO_1640	158
PSPTO_1641	0
PSPTO_1642	13
PSPTO_1643	37
PSPTO_1644	49
PSPTO_1645	16
PSPTO_1646	80
PSPTO_1647	8
PSPTO_1648	47
PSPTO_1649	37
PSPTO_1650	20
PSPTO_1651	4
PSPTO_1652	12
PSPTO_1653	41
PSPTO_1654	45
PSPTO_1655	11
PSPTO_1656	72
PSPTO_1657	68
PSPTO_1658	14
PSPTO_1659	19
PSPTO_1660	108
PSPTO_1661	257
PSPTO_1662	3
PSPTO_1663	11
PSPTO_1664	4
PSPTO_1665	5
PSPTO_1666	13
PSPTO_1667	20
PSPTO_1668	5
PSPTO_1669	16
PSPTO_1670	46
PSPTO_1671	885
PSPTO_1672	12
PSPTO_1673	26
PSPTO_1674	23
PSPTO_1675	8
PSPTO_1676	19
PSPTO_1677	31
PSPTO_1678	12
PSPTO_1679	19
PSPTO_1680	22
PSPTO_1681	9
PSPTO_1682	473
PSPTO_1683	10
PSPTO_1684	33
PSPTO_1685	45
PSPTO_1686	20
PSPTO_1687	4
PSPTO_1688	47
PSPTO_1689	9
PSPTO_1690	7
PSPTO_1691	42
PSPTO_1692	15
PSPTO_1693	49
PSPTO_1694	116
PSPTO_1695	43
PSPTO_1696	39
PSPTO_1697	26
PSPTO_1698	251
PSPTO_1699	21
PSPTO_1700	47
PSPTO_1701	74
PSPTO_1702	94
PSPTO_1703	22
PSPTO_1704	8
PSPTO_1705	20
PSPTO_1706	15
PSPTO_1707	95
PSPTO_1708	16
PSPTO_1709	26
PSPTO_1710	11
PSPTO_1711	27
PSPTO_1712	21
PSPTO_1713	28
PSPTO_1714	12
PSPTO_1715	26
PSPTO_1716	7
PSPTO_1717	19
PSPTO_1718	51
PSPTO_1719	27
PSPTO_1720	133
PSPTO_1721	276
PSPTO_1722	20
PSPTO_1723	1
PSPTO_1724	39
PSPTO_1725	182
PSPTO_1726	10
PSPTO_1727	5
PSPTO_1728	30
PSPTO_1729	30
PSPTO_1730	38
PSPTO_1731	154
PSPTO_1732	65
PSPTO_1733	20
PSPTO_1734	45
PSPTO_1735	14
PSPTO_1736	59
PSPTO_1737	71
PSPTO_1738	74
PSPTO_1739	164
PSPTO_1740	28
PSPTO_1741	60
PSPTO_1742	77
PSPTO_1743	34
PSPTO_1744	45
PSPTO_1745	225
PSPTO_1746	71
PSPTO_1747	77
PSPTO_1748	89
PSPTO_1749	54
PSPTO_1750	1091
PSPTO_1751	74
PSPTO_1752	25
PSPTO_1753	34
PSPTO_1754	54
PSPTO_1755	42
PSPTO_1756	266
PSPTO_1757	16
PSPTO_1758	89
PSPTO_1759	7
PSPTO_1760	28
PSPTO_1761	71
PSPTO_1762	19
PSPTO_1763	27
PSPTO_1764	35
PSPTO_1765	66
PSPTO_1766	4
PSPTO_1767	1
PSPTO_1768	35
PSPTO_1769	33
PSPTO_1770	16
PSPTO_1771	8
PSPTO_1772	16
PSPTO_1773	27
PSPTO_1774	5
PSPTO_1775	63
PSPTO_1776	12
PSPTO_1777	26
PSPTO_1778	120
PSPTO_1779	115
PSPTO_1780	51
PSPTO_1781	42
PSPTO_1782	65
PSPTO_1783	39
PSPTO_1784	16
PSPTO_1785	151
PSPTO_1786	11
PSPTO_1787	17
PSPTO_1788	24
PSPTO_1789	45
PSPTO_1790	7
PSPTO_1791	12
PSPTO_1792	17
PSPTO_1793	7
PSPTO_1794	23
PSPTO_1795	6
PSPTO_1796	11
PSPTO_1797	16
PSPTO_1798	9
PSPTO_1799	11
PSPTO_1800	30
PSPTO_1801	35
PSPTO_1802	64
PSPTO_1803	42
PSPTO_1804	1
PSPTO_1805	127
PSPTO_1806	124
PSPTO_1807	48
PSPTO_1808	34
PSPTO_1809	23
PSPTO_1810	42
PSPTO_1811	30
PSPTO_1812	31
PSPTO_1813	22
PSPTO_1814	31
PSPTO_1815	98
PSPTO_1816	2
PSPTO_1817	23
PSPTO_1818	16
PSPTO_1819	31
PSPTO_1820	15
PSPTO_1821	183
PSPTO_1822	509
PSPTO_1823	37
PSPTO_1824	7
PSPTO_1825	606
PSPTO_1826	41
PSPTO_1827	7
PSPTO_1828	9
PSPTO_1829	16
PSPTO_1830	13
PSPTO_1831	18
PSPTO_1832	57
PSPTO_1833	19
PSPTO_1834	39
PSPTO_1835	31
PSPTO_1836	39
PSPTO_1838	24
PSPTO_1839	68
PSPTO_1840	15
PSPTO_1841	50
PSPTO_1842	136
PSPTO_1843	73
PSPTO_1844	90
PSPTO_1845	8
PSPTO_1846	41
PSPTO_1847	586
PSPTO_1848	7
PSPTO_1849	15
PSPTO_1850	102
PSPTO_1851	78
PSPTO_1852	65
PSPTO_1853	7
PSPTO_1854	7
PSPTO_1855	54
PSPTO_1856	37
PSPTO_1857	57
PSPTO_1858	17
PSPTO_1859	41
PSPTO_1860	25
PSPTO_1861	19
PSPTO_1862	21
PSPTO_1863	11
PSPTO_1864	8
PSPTO_1865	7
PSPTO_1866	20
PSPTO_1867	19
PSPTO_1868	27
PSPTO_1869	17
PSPTO_1870	443
PSPTO_1871	40
PSPTO_1872	2
PSPTO_1873	31
PSPTO_1874	45
PSPTO_1875	30
PSPTO_1876	4
PSPTO_1877	12
PSPTO_1878	27
PSPTO_1879	130
PSPTO_1880	18
PSPTO_1881	41
PSPTO_1882	30
PSPTO_1883	32
PSPTO_1884	21
PSPTO_1885	17
PSPTO_1886	68
PSPTO_1887	29
PSPTO_1888	15
PSPTO_1889	18
PSPTO_1890	22
PSPTO_1891	45
PSPTO_1892	41
PSPTO_1893	19
PSPTO_1894	8
PSPTO_1895	12
PSPTO_1896	24
PSPTO_1897	22
PSPTO_1898	7
PSPTO_1899	40
PSPTO_1900	5
PSPTO_1901	19
PSPTO_1902	152
PSPTO_1903	12
PSPTO_1904	105
PSPTO_1905	7
PSPTO_1906	20
PSPTO_1907	9
PSPTO_1908	20
PSPTO_1909	75
PSPTO_1910	110
PSPTO_1911	332
PSPTO_1912	106
PSPTO_1913	269
PSPTO_1914	700
PSPTO_1915	406
PSPTO_1916	738
PSPTO_1917	57
PSPTO_1918	670
PSPTO_1919	226
PSPTO_1920	461
PSPTO_1921	31
PSPTO_1922	119
PSPTO_1923	449
PSPTO_1924	962
PSPTO_1925	1067
PSPTO_1926	158
PSPTO_1927	1061
PSPTO_1928	475
PSPTO_1929	44
PSPTO_1930	31
PSPTO_1931	42
PSPTO_1932	2
PSPTO_1933	942
PSPTO_1934	876
PSPTO_1935	1246
PSPTO_1936	3748
PSPTO_1937	41
PSPTO_1938	3
PSPTO_1939	1854
PSPTO_1940	2587
PSPTO_1941	1373
PSPTO_1942	1169
PSPTO_1943	966
PSPTO_1944	1509
PSPTO_1945	1181
PSPTO_1946	358
PSPTO_1947	196
PSPTO_1948	102
PSPTO_1949	10521
PSPTO_1950	552
PSPTO_1951	2841
PSPTO_1952	896
PSPTO_1953	766
PSPTO_1954	658
PSPTO_1955	1296
PSPTO_1956	823
PSPTO_1957	657
PSPTO_1958	1274
PSPTO_1959	736
PSPTO_1960	406
PSPTO_1961	256
PSPTO_1962	43
PSPTO_1963	77
PSPTO_1964	170
PSPTO_1965	31
PSPTO_1966	1651
PSPTO_1967	6
PSPTO_1968	287
PSPTO_1969	616
PSPTO_1970	360
PSPTO_1971	179
PSPTO_1972	177
PSPTO_1973	43
PSPTO_1974	53
PSPTO_1975	92
PSPTO_1976	1316
PSPTO_1977	1916
PSPTO_1978	903
PSPTO_1979	696
PSPTO_1980	315
PSPTO_1981	597
PSPTO_1982	3061
PSPTO_1983	353
PSPTO_1984	72
PSPTO_1985	111
PSPTO_1986	343
PSPTO_1987	582
PSPTO_1988	623
PSPTO_1989	337
PSPTO_1990	36
PSPTO_1991	19
PSPTO_1992	94
PSPTO_1993	15
PSPTO_1994	20
PSPTO_1995	2
PSPTO_1996	29
PSPTO_1997	11
PSPTO_1998	20
PSPTO_1999	25
PSPTO_2000	8
PSPTO_2001	11
PSPTO_2002	5
PSPTO_2003	7
PSPTO_2004	22
PSPTO_2005	13
PSPTO_2006	15
PSPTO_2007	35
PSPTO_2008	48
PSPTO_2009	42
PSPTO_2010	56
PSPTO_2011	123
PSPTO_2012	10
PSPTO_2013	10
PSPTO_2014	101
PSPTO_2015	18
PSPTO_2016	115
PSPTO_2017	27
PSPTO_2018	14
PSPTO_2019	41
PSPTO_2020	170
PSPTO_2021	45
PSPTO_2022	17
PSPTO_2023	30
PSPTO_2024	29
PSPTO_2025	21
PSPTO_2026	41
PSPTO_2027	4
PSPTO_2028	16
PSPTO_2029	68
PSPTO_2030	43
PSPTO_2031	9
PSPTO_2032	34
PSPTO_2033	14
PSPTO_2034	11
PSPTO_2035	33
PSPTO_2036	11
PSPTO_2037	16
PSPTO_2038	21
PSPTO_2039	61
PSPTO_2040	43
PSPTO_2041	252
PSPTO_2042	66
PSPTO_2043	53
PSPTO_2044	25
PSPTO_2045	21
PSPTO_2046	10
PSPTO_2047	15
PSPTO_2048	55
PSPTO_2049	5
PSPTO_2050	11
PSPTO_2051	106
PSPTO_2052	13
PSPTO_2053	27
PSPTO_2054	85
PSPTO_2055	36
PSPTO_2056	33
PSPTO_2057	94
PSPTO_2058	21
PSPTO_2059	89
PSPTO_2060	49
PSPTO_2061	116
PSPTO_2062	20
PSPTO_2063	46
PSPTO_2064	98
PSPTO_2065	37
PSPTO_2066	12
PSPTO_2067	2
PSPTO_2068	13
PSPTO_2069	5
PSPTO_2070	23
PSPTO_2071	46
PSPTO_2072	14
PSPTO_2073	20
PSPTO_2074	6
PSPTO_2075	14
PSPTO_2076	5
PSPTO_2077	26
PSPTO_2078	11
PSPTO_2079	6
PSPTO_2080	8
PSPTO_2081	3
PSPTO_2082	22
PSPTO_2083	73
PSPTO_2084	8
PSPTO_2085	19
PSPTO_2086	2
PSPTO_2087	9
PSPTO_2088	5
PSPTO_2089	66
PSPTO_2090	27
PSPTO_2091	16
PSPTO_2092	29
PSPTO_2093	8
PSPTO_2094	3
PSPTO_2095	3
PSPTO_2096	25
PSPTO_2097	8
PSPTO_2098	19
PSPTO_2099	59
PSPTO_2100	9
PSPTO_2101	43
PSPTO_2102	77
PSPTO_2103	52
PSPTO_2104	51
PSPTO_2105	28
PSPTO_2106	140
PSPTO_2107	23
PSPTO_2108	30
PSPTO_2109	35
PSPTO_2110	47
PSPTO_2111	40
PSPTO_2112	40
PSPTO_2113	48
PSPTO_2114	8
PSPTO_2115	60
PSPTO_2116	25
PSPTO_2117	77
PSPTO_2118	148
PSPTO_2119	337
PSPTO_2120	40
PSPTO_2121	22
PSPTO_2122	5
PSPTO_2123	24
PSPTO_2124	119
PSPTO_2125	15
PSPTO_2126	23
PSPTO_2127	39
PSPTO_2128	10
PSPTO_2129	42
PSPTO_2130	18
PSPTO_2131	34
PSPTO_2132	5
PSPTO_2133	82
PSPTO_2134	326
PSPTO_2135	7843
PSPTO_2136	2089
PSPTO_2137	407
PSPTO_2138	42
PSPTO_2139	18
PSPTO_2140	42
PSPTO_2141	34
PSPTO_2142	40
PSPTO_2143	19
PSPTO_2144	37
PSPTO_2145	80
PSPTO_2146	437
PSPTO_2147	745
PSPTO_2148	3466
PSPTO_2149	2831
PSPTO_2150	5716
PSPTO_2151	47
PSPTO_2152	1179
PSPTO_2153	167
PSPTO_2154	99
PSPTO_2155	142
PSPTO_2156	143
PSPTO_2158	92
PSPTO_2159	124
PSPTO_2160	92
PSPTO_2161	634
PSPTO_2162	31
PSPTO_2163	109
PSPTO_2164	237
PSPTO_2165	39
PSPTO_2166	69
PSPTO_2167	80
PSPTO_2168	15
PSPTO_2169	18
PSPTO_2170	646
PSPTO_2171	405
PSPTO_2172	37
PSPTO_2173	265
PSPTO_2174	137
PSPTO_2175	312
PSPTO_2176	291
PSPTO_2177	33
PSPTO_2178	10
PSPTO_2179	62
PSPTO_2180	44
PSPTO_2181	57
PSPTO_2182	26
PSPTO_2183	37
PSPTO_2184	30
PSPTO_2185	55
PSPTO_2186	94
PSPTO_2187	21
PSPTO_2188	8
PSPTO_2189	14
PSPTO_2190	34
PSPTO_2191	86
PSPTO_2192	15
PSPTO_2193	76
PSPTO_2194	363
PSPTO_2195	100
PSPTO_2196	54
PSPTO_2197	270
PSPTO_2198	276
PSPTO_2199	880
PSPTO_2200	414
PSPTO_2201	527
PSPTO_2202	814
PSPTO_2203	862
PSPTO_2204	29
PSPTO_2205	13
PSPTO_2206	33
PSPTO_2207	458
PSPTO_2208	614
PSPTO_2209	125
PSPTO_2210	588
PSPTO_2211	208
PSPTO_2212	39
PSPTO_2213	75
PSPTO_2214	29
PSPTO_2215	32
PSPTO_2216	35
PSPTO_2217	23
PSPTO_2218	21
PSPTO_2219	8
PSPTO_2220	20
PSPTO_2221	31
PSPTO_2222	9
PSPTO_2223	25
PSPTO_2224	76
PSPTO_2225	65
PSPTO_2226	25
PSPTO_2227	13
PSPTO_2228	16
PSPTO_2229	3
PSPTO_2230	3
PSPTO_2231	86
PSPTO_2232	57
PSPTO_2233	28
PSPTO_2234	36
PSPTO_2235	23
PSPTO_2236	41
PSPTO_2237	79
PSPTO_2238	12
PSPTO_2239	178
PSPTO_2240	5
PSPTO_2241	0
PSPTO_2242	19
PSPTO_2243	21
PSPTO_2244	7
PSPTO_2245	117
PSPTO_2246	25
PSPTO_2247	74
PSPTO_2248	35
PSPTO_2249	20
PSPTO_2250	41
PSPTO_2251	82
PSPTO_2252	48
PSPTO_2253	11
PSPTO_2254	28
PSPTO_2255	16
PSPTO_2256	65
PSPTO_2257	26
PSPTO_2258	54
PSPTO_2259	63
PSPTO_2260	53
PSPTO_2261	44
PSPTO_2262	15
PSPTO_2263	21
PSPTO_2264	11
PSPTO_2265	17
PSPTO_2266	57
PSPTO_2267	10
PSPTO_2268	54
PSPTO_2269	13
PSPTO_2270	43
PSPTO_2271	2
PSPTO_2272	298
PSPTO_2273	3
PSPTO_2274	63
PSPTO_2275	37
PSPTO_2276	25
PSPTO_2277	28
PSPTO_2278	23
PSPTO_2279	132
PSPTO_2280	29
PSPTO_2281	23
PSPTO_2282	18
PSPTO_2283	30
PSPTO_2284	39
PSPTO_2285	6
PSPTO_2286	26
PSPTO_2287	46
PSPTO_2288	55
PSPTO_2289	54
PSPTO_2290	28
PSPTO_2291	33
PSPTO_2292	701
PSPTO_2293	33
PSPTO_2294	33
PSPTO_2295	77
PSPTO_2296	26
PSPTO_2297	152
PSPTO_2298	579
PSPTO_2299	5602
PSPTO_2300	16
PSPTO_2301	32
PSPTO_2302	14
PSPTO_2303	19
PSPTO_2304	17
PSPTO_2305	28
PSPTO_2306	6
PSPTO_2307	16
PSPTO_2308	12
PSPTO_2309	33
PSPTO_2310	209
PSPTO_2311	59
PSPTO_2312	40
PSPTO_2313	39
PSPTO_2314	72
PSPTO_2315	27
PSPTO_2316	9
PSPTO_2317	55
PSPTO_2318	37
PSPTO_2319	4
PSPTO_2320	12
PSPTO_2321	17
PSPTO_2322	18
PSPTO_2323	37
PSPTO_2324	45
PSPTO_2325	1
PSPTO_2326	52
PSPTO_2327	8
PSPTO_2328	51
PSPTO_2329	9
PSPTO_2330	2
PSPTO_2331	84
PSPTO_2332	7
PSPTO_2333	90
PSPTO_2334	94
PSPTO_2335	73
PSPTO_2336	27
PSPTO_2337	41
PSPTO_2338	14
PSPTO_2339	11
PSPTO_2340	46
PSPTO_2341	55
PSPTO_2342	8
PSPTO_2343	11
PSPTO_2344	29
PSPTO_2345	30
PSPTO_2346	92
PSPTO_2347	23
PSPTO_2348	11
PSPTO_2349	14
PSPTO_2350	576
PSPTO_2351	21
PSPTO_2352	15
PSPTO_2353	52
PSPTO_2354	54
PSPTO_2355	34
PSPTO_2356	56
PSPTO_2358	119
PSPTO_2359	39
PSPTO_2360	11
PSPTO_2361	56
PSPTO_2362	260
PSPTO_2363	9
PSPTO_2364	22
PSPTO_2365	4
PSPTO_2366	11
PSPTO_2367	16
PSPTO_2368	25
PSPTO_2369	13
PSPTO_2370	7
PSPTO_2371	11
PSPTO_2372	18
PSPTO_2373	67
PSPTO_2374	21
PSPTO_2375	30
PSPTO_2376	215
PSPTO_2377	130
PSPTO_2378	126
PSPTO_2379	577
PSPTO_2380	290
PSPTO_2381	344
PSPTO_2382	41
PSPTO_2383	99
PSPTO_2384	137
PSPTO_2385	85
PSPTO_2386	23
PSPTO_2387	21
PSPTO_2388	9
PSPTO_2389	11
PSPTO_2390	25
PSPTO_2391	31
PSPTO_2392	10
PSPTO_2394	62
PSPTO_2395	31
PSPTO_2396	15
PSPTO_2397	13
PSPTO_2398	13
PSPTO_2399	14
PSPTO_2400	26
PSPTO_2401	16
PSPTO_2402	17
PSPTO_2403	26
PSPTO_2404	14
PSPTO_2405	35
PSPTO_2406	7
PSPTO_2407	15
PSPTO_2408	21
PSPTO_2409	2
PSPTO_2410	13
PSPTO_2411	4
PSPTO_2412	17
PSPTO_2413	4
PSPTO_2414	8
PSPTO_2415	12
PSPTO_2416	23
PSPTO_2417	11
PSPTO_2418	13
PSPTO_2419	6
PSPTO_2420	2
PSPTO_2421	20
PSPTO_2422	63
PSPTO_2423	10
PSPTO_2424	6
PSPTO_2425	18
PSPTO_2426	42
PSPTO_2427	39
PSPTO_2428	63
PSPTO_2429	46
PSPTO_2430	39
PSPTO_2431	34
PSPTO_2432	45
PSPTO_2433	1
PSPTO_2434	26
PSPTO_2435	52
PSPTO_2436	6
PSPTO_2437	50
PSPTO_2438	82
PSPTO_2439	45
PSPTO_2440	37
PSPTO_2441	1507
PSPTO_2442	413
PSPTO_2443	56
PSPTO_2444	4
PSPTO_2445	13
PSPTO_2446	18
PSPTO_2447	22
PSPTO_2448	109
PSPTO_2449	47
PSPTO_2450	201
PSPTO_2451	19
PSPTO_2452	113
PSPTO_2453	72
PSPTO_2454	93
PSPTO_2455	1
PSPTO_2456	3
PSPTO_2457	122
PSPTO_2458	43
PSPTO_2459	9
PSPTO_2460	37
PSPTO_2461	4
PSPTO_2462	7
PSPTO_2463	26
PSPTO_2464	15
PSPTO_2465	60
PSPTO_2466	8
PSPTO_2467	87
PSPTO_2468	5
PSPTO_2469	10
PSPTO_2470	57
PSPTO_2471	35
PSPTO_2472	606
PSPTO_2473	298
PSPTO_2474	20
PSPTO_2475	167
PSPTO_2476	77
PSPTO_2477	7
PSPTO_2478	16
PSPTO_2479	161
PSPTO_2480	270
PSPTO_2481	9
PSPTO_2482	9
PSPTO_2483	15
PSPTO_2484	45
PSPTO_2485	74
PSPTO_2486	8
PSPTO_2487	8
PSPTO_2488	32
PSPTO_2489	81
PSPTO_2490	56
PSPTO_2491	134
PSPTO_2492	23
PSPTO_2493	61
PSPTO_2494	13
PSPTO_2495	4
PSPTO_2496	24
PSPTO_2497	7
PSPTO_2498	3
PSPTO_2499	19
PSPTO_2500	69
PSPTO_2501	116
PSPTO_2502	16
PSPTO_2503	46
PSPTO_2504	10
PSPTO_2505	122
PSPTO_2506	127
PSPTO_2507	38
PSPTO_2508	7
PSPTO_2509	21
PSPTO_2510	29
PSPTO_2511	343
PSPTO_2513	1
PSPTO_2514	53
PSPTO_2515	89
PSPTO_2516	73
PSPTO_2517	35
PSPTO_2518	27
PSPTO_2519	18
PSPTO_2520	16
PSPTO_2521	0
PSPTO_2522	18
PSPTO_2523	10
PSPTO_2524	9
PSPTO_2525	35
PSPTO_2526	52
PSPTO_2527	26
PSPTO_2528	41
PSPTO_2529	5
PSPTO_2530	2
PSPTO_2531	24
PSPTO_2532	75
PSPTO_2533	18
PSPTO_2534	19
PSPTO_2535	82
PSPTO_2536	0
PSPTO_2537	6
PSPTO_2538	24
PSPTO_2539	3
PSPTO_2540	20
PSPTO_2541	45
PSPTO_2542	20
PSPTO_2543	10
PSPTO_2544	36
PSPTO_2545	7
PSPTO_2546	42
PSPTO_2547	17
PSPTO_2548	53
PSPTO_2549	19
PSPTO_2550	9
PSPTO_2551	6
PSPTO_2552	20
PSPTO_2553	19
PSPTO_2554	116
PSPTO_2555	8
PSPTO_2556	4
PSPTO_2557	14
PSPTO_2558	18
PSPTO_2559	7
PSPTO_2560	17
PSPTO_2561	30
PSPTO_2562	12
PSPTO_2563	12
PSPTO_2564	10
PSPTO_2565	28
PSPTO_2566	27
PSPTO_2567	8
PSPTO_2568	30
PSPTO_2569	55
PSPTO_2570	40
PSPTO_2571	10
PSPTO_2572	4
PSPTO_2573	11
PSPTO_2574	8
PSPTO_2575	12
PSPTO_2576	7
PSPTO_2577	24
PSPTO_2578	15
PSPTO_2579	13
PSPTO_2580	33
PSPTO_2581	30
PSPTO_2582	40
PSPTO_2583	9
PSPTO_2584	19
PSPTO_2585	10
PSPTO_2586	15
PSPTO_2587	1
PSPTO_2588	31
PSPTO_2589	47
PSPTO_2590	37
PSPTO_2591	81
PSPTO_2592	47
PSPTO_2593	42
PSPTO_2594	6
PSPTO_2595	167
PSPTO_2596	55
PSPTO_2597	188
PSPTO_2598	84
PSPTO_2599	142
PSPTO_2600	1491
PSPTO_2601	104
PSPTO_2602	1158
PSPTO_2603	305
PSPTO_2604	455
PSPTO_2605	866
PSPTO_2606	88
PSPTO_2607	23
PSPTO_2608	10
PSPTO_2609	22
PSPTO_2610	13
PSPTO_2611	13
PSPTO_2612	15
PSPTO_2613	41
PSPTO_2614	16
PSPTO_2615	37
PSPTO_2616	1290
PSPTO_2617	18
PSPTO_2618	22
PSPTO_2620	24
PSPTO_2621	45
PSPTO_2622	31
PSPTO_2623	45
PSPTO_2624	4
PSPTO_2625	17
PSPTO_2626	4
PSPTO_2627	13
PSPTO_2628	11
PSPTO_2629	13
PSPTO_2630	10
PSPTO_2631	10
PSPTO_2632	93
PSPTO_2633	14
PSPTO_2634	18
PSPTO_2635	23
PSPTO_2636	18
PSPTO_2637	21
PSPTO_2638	47
PSPTO_2639	37
PSPTO_2640	25
PSPTO_2641	1
PSPTO_2642	16
PSPTO_2643	6
PSPTO_2644	6
PSPTO_2645	13
PSPTO_2646	60
PSPTO_2647	51
PSPTO_2648	32
PSPTO_2649	72
PSPTO_2650	6
PSPTO_2651	11
PSPTO_2652	44
PSPTO_2653	118
PSPTO_2654	20
PSPTO_2655	31
PSPTO_2656	52
PSPTO_2657	36
PSPTO_2658	12
PSPTO_2659	64
PSPTO_2660	28
PSPTO_2661	28
PSPTO_2662	21
PSPTO_2663	27
PSPTO_2664	18
PSPTO_2665	14
PSPTO_2666	19
PSPTO_2667	45
PSPTO_2668	28
PSPTO_2669	20
PSPTO_2670	15
PSPTO_2671	52
PSPTO_2672	6
PSPTO_2673	22
PSPTO_2674	22
PSPTO_2675	15
PSPTO_2676	19
PSPTO_2677	15
PSPTO_2678	14
PSPTO_2679	1
PSPTO_2680	83
PSPTO_2681	20
PSPTO_2683	13
PSPTO_2684	2376
PSPTO_2685	15
PSPTO_2686	18
PSPTO_2687	63
PSPTO_2688	31
PSPTO_2689	28
PSPTO_2690	4
PSPTO_2691	159
PSPTO_2692	30
PSPTO_2693	23
PSPTO_2694	54
PSPTO_2695	241
PSPTO_2696	63
PSPTO_2697	199
PSPTO_2698	13
PSPTO_2699	48
PSPTO_2700	1737
PSPTO_2701	49
PSPTO_2702	20
PSPTO_2703	41
PSPTO_2704	26
PSPTO_2705	18
PSPTO_2706	17
PSPTO_2707	60
PSPTO_2708	25
PSPTO_2709	12
PSPTO_2710	70
PSPTO_2711	81
PSPTO_2712	76
PSPTO_2713	17
PSPTO_2714	32
PSPTO_2715	22
PSPTO_2716	165
PSPTO_2717	72
PSPTO_2718	108
PSPTO_2719	31
PSPTO_2720	60
PSPTO_2721	8
PSPTO_2722	13
PSPTO_2723	6
PSPTO_2724	10
PSPTO_2725	15
PSPTO_2726	10
PSPTO_2727	0
PSPTO_2728	39
PSPTO_2729	24
PSPTO_2730	34
PSPTO_2731	92
PSPTO_2732	239
PSPTO_2733	59
PSPTO_2734	50
PSPTO_2735	121
PSPTO_2736	28
PSPTO_2737	9
PSPTO_2738	9
PSPTO_2739	27
PSPTO_2740	32
PSPTO_2741	20
PSPTO_2742	14
PSPTO_2743	6
PSPTO_2744	28
PSPTO_2745	63
PSPTO_2746	9
PSPTO_2747	28
PSPTO_2748	68
PSPTO_2749	56
PSPTO_2750	71
PSPTO_2751	44
PSPTO_2752	61
PSPTO_2753	31
PSPTO_2754	62
PSPTO_2755	84
PSPTO_2756	33
PSPTO_2757	59
PSPTO_2758	56
PSPTO_2759	63
PSPTO_2760	233
PSPTO_2761	222
PSPTO_2762	229
PSPTO_2763	35
PSPTO_2764	23
PSPTO_2765	29
PSPTO_2766	53
PSPTO_2767	26
PSPTO_2768	2
PSPTO_2769	286
PSPTO_2770	4
PSPTO_2771	15
PSPTO_2772	21
PSPTO_2773	70
PSPTO_2774	37
PSPTO_2775	103
PSPTO_2776	31
PSPTO_2777	24
PSPTO_2778	23
PSPTO_2779	17
PSPTO_2780	33
PSPTO_2781	24
PSPTO_2782	36
PSPTO_2783	41
PSPTO_2784	101
PSPTO_2785	29
PSPTO_2786	26
PSPTO_2787	19
PSPTO_2788	33
PSPTO_2789	1
PSPTO_2790	20
PSPTO_2791	23
PSPTO_2792	7
PSPTO_2793	9
PSPTO_2794	11
PSPTO_2795	53
PSPTO_2796	43
PSPTO_2797	7
PSPTO_2798	5
PSPTO_2799	7
PSPTO_2800	18
PSPTO_2801	17
PSPTO_2802	11
PSPTO_2803	14
PSPTO_2804	11
PSPTO_2805	480
PSPTO_2806	48
PSPTO_2807	46
PSPTO_2808	16
PSPTO_2809	31
PSPTO_2810	9
PSPTO_2811	21
PSPTO_2812	13
PSPTO_2813	17
PSPTO_2814	8
PSPTO_2815	3
PSPTO_2816	4
PSPTO_2817	1
PSPTO_2818	17
PSPTO_2819	14
PSPTO_2820	16
PSPTO_2821	8
PSPTO_2822	5
PSPTO_2823	12
PSPTO_2824	16
PSPTO_2825	13
PSPTO_2826	4
PSPTO_2827	0
PSPTO_2828	140
PSPTO_2829	401
PSPTO_2830	1359
PSPTO_2831	81
PSPTO_2832	107
PSPTO_2833	44
PSPTO_2834	19
PSPTO_2835	13
PSPTO_2836	39
PSPTO_2837	9
PSPTO_2838	3
PSPTO_2839	3
PSPTO_2840	54
PSPTO_2841	16
PSPTO_2842	8
PSPTO_2843	27
PSPTO_2844	21
PSPTO_2845	5
PSPTO_2846	28
PSPTO_2847	21
PSPTO_2848	1
PSPTO_2849	13
PSPTO_2850	12
PSPTO_2851	20
PSPTO_2852	17
PSPTO_2853	75
PSPTO_2855	3
PSPTO_2856	71
PSPTO_2857	30
PSPTO_2858	0
PSPTO_2859	66
PSPTO_2860	42
PSPTO_2861	4
PSPTO_2862	13
PSPTO_2863	54
PSPTO_2864	29
PSPTO_2865	9
PSPTO_2866	5
PSPTO_2867	7
PSPTO_2868	102
PSPTO_2869	3
PSPTO_2870	28
PSPTO_2871	56
PSPTO_2872	64
PSPTO_2873	14
PSPTO_2874	64
PSPTO_2875	10
PSPTO_2876	13
PSPTO_2877	12
PSPTO_2878	15
PSPTO_2879	7
PSPTO_2880	13
PSPTO_2881	8
PSPTO_2882	46
PSPTO_2883	163
PSPTO_2885	7
PSPTO_2886	11
PSPTO_2887	55
PSPTO_2888	15
PSPTO_2889	0
PSPTO_2890	1
PSPTO_2891	26
PSPTO_2892	2
PSPTO_2893	31
PSPTO_2894	50
PSPTO_2895	202
PSPTO_2896	157
PSPTO_2897	23
PSPTO_2898	19
PSPTO_2899	13
PSPTO_2900	39
PSPTO_2901	11
PSPTO_2902	20
PSPTO_2903	5
PSPTO_2904	29
PSPTO_2905	18
PSPTO_2906	27
PSPTO_2907	263
PSPTO_2908	114
PSPTO_2909	28
PSPTO_2910	19
PSPTO_2911	8
PSPTO_2912	12
PSPTO_2913	13
PSPTO_2914	12
PSPTO_2915	1
PSPTO_2916	9
PSPTO_2917	12
PSPTO_2918	0
PSPTO_2919	10
PSPTO_2920	7
PSPTO_2921	17
PSPTO_2922	6
PSPTO_2923	24
PSPTO_2924	2
PSPTO_2925	5
PSPTO_2926	24
PSPTO_2927	12
PSPTO_2928	10
PSPTO_2929	25
PSPTO_2930	11
PSPTO_2931	68
PSPTO_2932	27
PSPTO_2933	18
PSPTO_2934	18
PSPTO_2935	26
PSPTO_2936	13
PSPTO_2937	8
PSPTO_2938	9
PSPTO_2939	14
PSPTO_2940	12
PSPTO_2941	41
PSPTO_2942	1
PSPTO_2943	45
PSPTO_2944	16
PSPTO_2945	6
PSPTO_2946	42
PSPTO_2947	27
PSPTO_2948	9
PSPTO_2949	21
PSPTO_2950	16
PSPTO_2951	52
PSPTO_2952	237
PSPTO_2953	1
PSPTO_2954	9
PSPTO_2955	23
PSPTO_2956	20
PSPTO_2957	6
PSPTO_2958	3
PSPTO_2959	23
PSPTO_2960	21
PSPTO_2961	8
PSPTO_2962	5
PSPTO_2963	14
PSPTO_2964	22
PSPTO_2965	2
PSPTO_2966	16
PSPTO_2967	2
PSPTO_2968	24
PSPTO_2969	16
PSPTO_2970	3
PSPTO_2971	41
PSPTO_2972	44
PSPTO_2973	29
PSPTO_2974	12
PSPTO_2975	22
PSPTO_2976	39
PSPTO_2977	41
PSPTO_2978	37
PSPTO_2979	15
PSPTO_2980	33
PSPTO_2981	44
PSPTO_2982	52
PSPTO_2983	1
PSPTO_2984	44
PSPTO_2985	20
PSPTO_2986	13
PSPTO_2987	25
PSPTO_2988	13
PSPTO_2989	30
PSPTO_2990	9
PSPTO_2991	24
PSPTO_2992	16
PSPTO_2993	37
PSPTO_2994	15
PSPTO_2995	43
PSPTO_2996	12
PSPTO_2997	107
PSPTO_2998	29
PSPTO_2999	14
PSPTO_3000	15
PSPTO_3001	24
PSPTO_3002	15
PSPTO_3003	9
PSPTO_3004	16
PSPTO_3005	19
PSPTO_3006	16
PSPTO_3007	32
PSPTO_3008	20
PSPTO_3009	5
PSPTO_3010	6
PSPTO_3011	9
PSPTO_3012	14
PSPTO_3013	20
PSPTO_3014	17
PSPTO_3015	8
PSPTO_3016	14
PSPTO_3017	61
PSPTO_3018	7
PSPTO_3019	17
PSPTO_3020	14
PSPTO_3021	13
PSPTO_3022	30
PSPTO_3023	51
PSPTO_3024	33
PSPTO_3025	30
PSPTO_3026	10
PSPTO_3027	26
PSPTO_3028	85
PSPTO_3029	28
PSPTO_3030	14
PSPTO_3031	24
PSPTO_3032	14
PSPTO_3033	70
PSPTO_3034	4
PSPTO_3035	446
PSPTO_3036	44
PSPTO_3037	13
PSPTO_3038	15
PSPTO_3039	61
PSPTO_3040	22
PSPTO_3041	35
PSPTO_3042	12
PSPTO_3043	34
PSPTO_3044	21
PSPTO_3045	4
PSPTO_3046	55
PSPTO_3047	15
PSPTO_3048	11
PSPTO_3049	11
PSPTO_3050	46
PSPTO_3051	4
PSPTO_3052	32
PSPTO_3053	6
PSPTO_3054	19
PSPTO_3055	8
PSPTO_3056	13
PSPTO_3057	17
PSPTO_3058	31
PSPTO_3059	36
PSPTO_3060	34
PSPTO_3061	9
PSPTO_3062	33
PSPTO_3063	7
PSPTO_3064	25
PSPTO_3065	23
PSPTO_3066	8
PSPTO_3067	2
PSPTO_3068	60
PSPTO_3069	17
PSPTO_3070	16
PSPTO_3071	46
PSPTO_3072	3
PSPTO_3073	6
PSPTO_3074	68
PSPTO_3075	23
PSPTO_3076	13
PSPTO_3077	15
PSPTO_3078	8
PSPTO_3079	25
PSPTO_3080	24
PSPTO_3081	9
PSPTO_3082	9
PSPTO_3083	13
PSPTO_3084	19
PSPTO_3085	9
PSPTO_3086	6
PSPTO_3087	58
PSPTO_3088	15
PSPTO_3089	13
PSPTO_3090	14
PSPTO_3091	14
PSPTO_3092	15
PSPTO_3094	4
PSPTO_3095	15
PSPTO_3096	19
PSPTO_3097	3
PSPTO_3098	42
PSPTO_3099	19
PSPTO_3100	36
PSPTO_3101	12
PSPTO_3102	32
PSPTO_3103	132
PSPTO_3104	2
PSPTO_3105	89
PSPTO_3106	92
PSPTO_3107	64
PSPTO_3108	198
PSPTO_3109	25
PSPTO_3110	12
PSPTO_3111	58
PSPTO_3112	110
PSPTO_3113	617
PSPTO_3114	145
PSPTO_3115	31
PSPTO_3116	18
PSPTO_3117	15
PSPTO_3118	21
PSPTO_3119	158
PSPTO_3120	110
PSPTO_3121	277
PSPTO_3122	262
PSPTO_3123	175
PSPTO_3124	28
PSPTO_3125	301
PSPTO_3126	168
PSPTO_3127	196
PSPTO_3128	236
PSPTO_3129	302
PSPTO_3130	256
PSPTO_3131	32
PSPTO_3132	37
PSPTO_3133	15
PSPTO_3134	14
PSPTO_3135	209
PSPTO_3136	14
PSPTO_3137	29
PSPTO_3138	20
PSPTO_3139	0
PSPTO_3140	6
PSPTO_3141	32
PSPTO_3142	15
PSPTO_3143	18
PSPTO_3144	26
PSPTO_3145	657
PSPTO_3146	83
PSPTO_3147	7
PSPTO_3148	26
PSPTO_3149	81
PSPTO_3150	37
PSPTO_3151	26
PSPTO_3152	39
PSPTO_3153	18
PSPTO_3154	9
PSPTO_3155	1267
PSPTO_3156	7
PSPTO_3157	399
PSPTO_3158	85
PSPTO_3159	37
PSPTO_3160	5
PSPTO_3161	17
PSPTO_3162	31
PSPTO_3163	17
PSPTO_3164	37
PSPTO_3165	30
PSPTO_3166	18
PSPTO_3167	12
PSPTO_3168	0
PSPTO_3169	2
PSPTO_3170	26
PSPTO_3171	14
PSPTO_3172	54
PSPTO_3173	25
PSPTO_3174	199
PSPTO_3175	17
PSPTO_3176	278
PSPTO_3177	105
PSPTO_3178	152
PSPTO_3179	352
PSPTO_3180	112
PSPTO_3181	13
PSPTO_3182	19
PSPTO_3183	8
PSPTO_3184	17
PSPTO_3185	28
PSPTO_3186	35
PSPTO_3187	4
PSPTO_3188	35
PSPTO_3189	19
PSPTO_3190	67
PSPTO_3191	15
PSPTO_3192	25
PSPTO_3193	218
PSPTO_3194	49
PSPTO_3195	95
PSPTO_3196	33
PSPTO_3197	43
PSPTO_3198	11
PSPTO_3199	31
PSPTO_3200	23
PSPTO_3201	19
PSPTO_3202	32
PSPTO_3203	5
PSPTO_3204	17
PSPTO_3205	34
PSPTO_3206	30
PSPTO_3207	19
PSPTO_3208	122
PSPTO_3210	67
PSPTO_3211	70
PSPTO_3212	4
PSPTO_3213	66
PSPTO_3214	16
PSPTO_3215	5
PSPTO_3216	47
PSPTO_3217	14
PSPTO_3218	60
PSPTO_3219	4
PSPTO_3220	14
PSPTO_3221	3
PSPTO_3222	30
PSPTO_3223	47
PSPTO_3224	20
PSPTO_3225	13
PSPTO_3226	11
PSPTO_3227	3
PSPTO_3228	8
PSPTO_3229	388
PSPTO_3230	57
PSPTO_3231	16
PSPTO_3232	10
PSPTO_3233	28
PSPTO_3234	29
PSPTO_3235	17
PSPTO_3236	18
PSPTO_3237	1069
PSPTO_3238	16
PSPTO_3239	5
PSPTO_3240	14
PSPTO_3241	24
PSPTO_3242	34
PSPTO_3243	6
PSPTO_3244	9
PSPTO_3245	6
PSPTO_3246	5
PSPTO_3247	20
PSPTO_3248	9
PSPTO_3249	11
PSPTO_3250	12
PSPTO_3251	14
PSPTO_3252	9
PSPTO_3253	5
PSPTO_3254	38
PSPTO_3255	5
PSPTO_3256	21
PSPTO_3257	22
PSPTO_3258	21
PSPTO_3259	41
PSPTO_3260	6
PSPTO_3261	24
PSPTO_3262	29
PSPTO_3263	12
PSPTO_3264	59
PSPTO_3265	43
PSPTO_3266	10
PSPTO_3267	15
PSPTO_3268	18
PSPTO_3269	46
PSPTO_3270	182
PSPTO_3271	86
PSPTO_3272	55
PSPTO_3273	29
PSPTO_3274	82
PSPTO_3275	13
PSPTO_3276	1
PSPTO_3277	30
PSPTO_3278	50
PSPTO_3279	10
PSPTO_3280	48
PSPTO_3281	21
PSPTO_3282	61
PSPTO_3283	17
PSPTO_3284	9
PSPTO_3285	15
PSPTO_3286	13
PSPTO_3287	26
PSPTO_3288	2
PSPTO_3289	6
PSPTO_3290	13
PSPTO_3291	32
PSPTO_3292	33
PSPTO_3293	68
PSPTO_3294	96
PSPTO_3295	16
PSPTO_3296	121
PSPTO_3297	75
PSPTO_3298	20
PSPTO_3299	59
PSPTO_3300	23
PSPTO_3301	15
PSPTO_3302	43
PSPTO_3303	0
PSPTO_3304	26
PSPTO_3305	5
PSPTO_3306	26
PSPTO_3307	96
PSPTO_3308	13
PSPTO_3309	5
PSPTO_3310	34
PSPTO_3311	42
PSPTO_3312	25
PSPTO_3313	26
PSPTO_3314	60
PSPTO_3315	53
PSPTO_3316	72
PSPTO_3317	102
PSPTO_3318	27
PSPTO_3319	57
PSPTO_3320	28
PSPTO_3321	14
PSPTO_3322	15
PSPTO_3323	60
PSPTO_3324	0
PSPTO_3325	92
PSPTO_3326	52
PSPTO_3327	10
PSPTO_3328	42
PSPTO_3329	35
PSPTO_3330	54
PSPTO_3331	16
PSPTO_3332	32
PSPTO_3333	342
PSPTO_3334	38
PSPTO_3335	13
PSPTO_3336	18
PSPTO_3337	35
PSPTO_3338	6
PSPTO_3339	15
PSPTO_3340	13
PSPTO_3341	10
PSPTO_3342	27
PSPTO_3343	72
PSPTO_3344	84
PSPTO_3345	85
PSPTO_3346	10
PSPTO_3347	43
PSPTO_3348	44
PSPTO_3349	113
PSPTO_3350	9
PSPTO_3351	51
PSPTO_3352	19
PSPTO_3353	987
PSPTO_3354	94
PSPTO_3355	102
PSPTO_3356	754
PSPTO_3357	6
PSPTO_3358	16
PSPTO_3359	11
PSPTO_3360	14
PSPTO_3361	8
PSPTO_3362	14
PSPTO_3363	56
PSPTO_3364	35
PSPTO_3365	35
PSPTO_3366	210
PSPTO_3367	198
PSPTO_3368	37
PSPTO_3369	160
PSPTO_3370	179
PSPTO_3371	34
PSPTO_3372	34
PSPTO_3373	16
PSPTO_3374	5
PSPTO_3375	49
PSPTO_3376	61
PSPTO_3377	44
PSPTO_3378	83
PSPTO_3379	258
PSPTO_3380	42
PSPTO_3381	24
PSPTO_3382	5
PSPTO_3383	2
PSPTO_3384	19
PSPTO_3385	20
PSPTO_3386	87
PSPTO_3387	261
PSPTO_3388	24
PSPTO_3389	5
PSPTO_3390	17
PSPTO_3391	4
PSPTO_3392	26
PSPTO_3393	81
PSPTO_3394	6
PSPTO_3395	8
PSPTO_3396	7
PSPTO_3397	14
PSPTO_3398	46
PSPTO_3399	7
PSPTO_3400	21
PSPTO_3401	5
PSPTO_3402	2
PSPTO_3403	18
PSPTO_3404	10
PSPTO_3405	10
PSPTO_3406	2
PSPTO_3407	12
PSPTO_3408	5
PSPTO_3409	27
PSPTO_3410	19
PSPTO_3411	1
PSPTO_3412	43
PSPTO_3413	9
PSPTO_3414	4
PSPTO_3415	6
PSPTO_3416	1
PSPTO_3417	11
PSPTO_3418	56
PSPTO_3419	5
PSPTO_3420	4
PSPTO_3421	38
PSPTO_3422	3
PSPTO_3423	2
PSPTO_3424	1
PSPTO_3425	1
PSPTO_3426	7
PSPTO_3427	24
PSPTO_3428	5
PSPTO_3429	5
PSPTO_3430	11
PSPTO_3432	16
PSPTO_3433	24
PSPTO_3435	10
PSPTO_3436	34
PSPTO_3437	100
PSPTO_3438	16
PSPTO_3439	17
PSPTO_3440	15
PSPTO_3441	3
PSPTO_3442	0
PSPTO_3443	22
PSPTO_3444	1
PSPTO_3445	9
PSPTO_3446	5
PSPTO_3447	8
PSPTO_3448	3
PSPTO_3449	9
PSPTO_3450	6
PSPTO_3451	16
PSPTO_3452	31
PSPTO_3453	9
PSPTO_3454	15
PSPTO_3455	42
PSPTO_3456	38
PSPTO_3457	20
PSPTO_3458	5
PSPTO_3459	17
PSPTO_3460	34
PSPTO_3461	62
PSPTO_3462	208
PSPTO_3463	67
PSPTO_3464	65
PSPTO_3465	23
PSPTO_3466	18
PSPTO_3467	12
PSPTO_3468	44
PSPTO_3469	18
PSPTO_3470	26
PSPTO_3471	70
PSPTO_3472	7
PSPTO_3473	42
PSPTO_3474	13
PSPTO_3475	11
PSPTO_3476	7
PSPTO_3477	17
PSPTO_3478	35
PSPTO_3479	30
PSPTO_3480	93
PSPTO_3481	12
PSPTO_3482	30
PSPTO_3483	16
PSPTO_3484	28
PSPTO_3485	101
PSPTO_3486	1
PSPTO_3487	33
PSPTO_3488	32
PSPTO_3489	25
PSPTO_3490	8
PSPTO_3491	33
PSPTO_3492	60
PSPTO_3493	21
PSPTO_3494	27
PSPTO_3495	24
PSPTO_3496	23
PSPTO_3497	45
PSPTO_3498	17
PSPTO_3499	8
PSPTO_3500	34
PSPTO_3501	50
PSPTO_3502	77
PSPTO_3503	123
PSPTO_3504	88
PSPTO_3505	61
PSPTO_3506	23
PSPTO_3507	35
PSPTO_3508	41
PSPTO_3509	4
PSPTO_3510	29
PSPTO_3511	36
PSPTO_3512	186
PSPTO_3513	42
PSPTO_3514	134
PSPTO_3515	20
PSPTO_3516	74
PSPTO_3517	169
PSPTO_3518	6
PSPTO_3519	13
PSPTO_3520	71
PSPTO_3521	75
PSPTO_3522	62
PSPTO_3523	202
PSPTO_3524	948
PSPTO_3525	128
PSPTO_3526	45
PSPTO_3527	453
PSPTO_3528	72
PSPTO_3529	148
PSPTO_3530	244
PSPTO_3531	50
PSPTO_3532	88
PSPTO_3533	36
PSPTO_3534	53
PSPTO_3535	31
PSPTO_3536	24
PSPTO_3537	40
PSPTO_3538	24
PSPTO_3539	50
PSPTO_3540	17
PSPTO_3541	43
PSPTO_3542	11
PSPTO_3543	13
PSPTO_3544	20
PSPTO_3545	65
PSPTO_3546	2
PSPTO_3547	38
PSPTO_3548	119
PSPTO_3549	13
PSPTO_3550	240
PSPTO_3551	321
PSPTO_3552	8
PSPTO_3553	204
PSPTO_3554	79
PSPTO_3555	24
PSPTO_3556	7
PSPTO_3557	11
PSPTO_3558	39
PSPTO_3559	214
PSPTO_3560	78
PSPTO_3561	23
PSPTO_3562	0
PSPTO_3563	21
PSPTO_3564	28
PSPTO_3565	52
PSPTO_3566	67
PSPTO_3567	33
PSPTO_3568	1
PSPTO_3569	156
PSPTO_3570	45
PSPTO_3571	6
PSPTO_3572	43
PSPTO_3573	10
PSPTO_3574	262
PSPTO_3575	39
PSPTO_3576	14
PSPTO_3577	552
PSPTO_3578	9
PSPTO_3579	70
PSPTO_3580	715
PSPTO_3581	21
PSPTO_3582	33
PSPTO_3583	4
PSPTO_3584	40
PSPTO_3585	9
PSPTO_3586	17
PSPTO_3587	3
PSPTO_3588	19
PSPTO_3589	63
PSPTO_3590	25
PSPTO_3591	16
PSPTO_3592	19
PSPTO_3593	40
PSPTO_3594	9
PSPTO_3595	24
PSPTO_3596	85
PSPTO_3597	82
PSPTO_3598	78
PSPTO_3599	96
PSPTO_3600	16
PSPTO_3601	37
PSPTO_3602	100
PSPTO_3603	9
PSPTO_3604	14
PSPTO_3605	423
PSPTO_3606	4
PSPTO_3607	13
PSPTO_3608	20
PSPTO_3609	27
PSPTO_3610	28
PSPTO_3611	1
PSPTO_3612	13
PSPTO_3613	64
PSPTO_3614	6
PSPTO_3615	37
PSPTO_3616	59
PSPTO_3617	6
PSPTO_3618	45
PSPTO_3619	6
PSPTO_3620	20
PSPTO_3621	38
PSPTO_3624	17
PSPTO_3625	54
PSPTO_3626	75
PSPTO_3627	16
PSPTO_3628	7
PSPTO_3629	7
PSPTO_3630	75
PSPTO_3631	8
PSPTO_3632	2
PSPTO_3633	24
PSPTO_3634	11
PSPTO_3635	8
PSPTO_3636	41
PSPTO_3637	15
PSPTO_3638	17
PSPTO_3639	13
PSPTO_3640	278
PSPTO_3641	51
PSPTO_3642	129
PSPTO_3643	17
PSPTO_3644	43
PSPTO_3645	125
PSPTO_3646	64
PSPTO_3647	10
PSPTO_3648	23
PSPTO_3649	34
PSPTO_3650	42
PSPTO_3651	76
PSPTO_3652	9
PSPTO_3653	2
PSPTO_3654	15
PSPTO_3655	38
PSPTO_3656	65
PSPTO_3657	87
PSPTO_3658	88
PSPTO_3659	11
PSPTO_3660	154
PSPTO_3661	182
PSPTO_3662	53
PSPTO_3663	77
PSPTO_3664	23
PSPTO_3665	22
PSPTO_3666	77
PSPTO_3667	36
PSPTO_3668	93
PSPTO_3669	20
PSPTO_3670	36
PSPTO_3671	46
PSPTO_3672	44
PSPTO_3673	4
PSPTO_3674	11
PSPTO_3675	11
PSPTO_3676	2
PSPTO_3677	23
PSPTO_3678	18
PSPTO_3679	6
PSPTO_3680	51
PSPTO_3681	12
PSPTO_3682	22
PSPTO_3683	5
PSPTO_3684	8
PSPTO_3685	29
PSPTO_3686	18
PSPTO_3687	122
PSPTO_3688	27
PSPTO_3689	66
PSPTO_3690	19
PSPTO_3691	48
PSPTO_3692	213
PSPTO_3693	12
PSPTO_3694	25
PSPTO_3695	27
PSPTO_3696	128
PSPTO_3697	5
PSPTO_3698	5
PSPTO_3699	374
PSPTO_3700	213
PSPTO_3701	13
PSPTO_3702	12
PSPTO_3703	63
PSPTO_3704	72
PSPTO_3705	62
PSPTO_3706	47
PSPTO_3707	133
PSPTO_3708	254
PSPTO_3709	105
PSPTO_3710	16
PSPTO_3711	31
PSPTO_3712	16
PSPTO_3713	33
PSPTO_3714	20
PSPTO_3715	21
PSPTO_3716	23
PSPTO_3717	35
PSPTO_3718	22
PSPTO_3719	28
PSPTO_3720	114
PSPTO_3721	195
PSPTO_3722	138
PSPTO_3723	161
PSPTO_3724	869
PSPTO_3725	526
PSPTO_3726	129
PSPTO_3727	110
PSPTO_3728	4
PSPTO_3729	15
PSPTO_3730	41
PSPTO_3731	57
PSPTO_3732	14
PSPTO_3733	28
PSPTO_3734	30
PSPTO_3735	124
PSPTO_3736	15
PSPTO_3737	18
PSPTO_3738	23
PSPTO_3739	32
PSPTO_3740	17
PSPTO_3741	102
PSPTO_3742	54
PSPTO_3743	59
PSPTO_3744	85
PSPTO_3745	30
PSPTO_3746	78
PSPTO_3747	48
PSPTO_3748	27
PSPTO_3749	11
PSPTO_3750	9
PSPTO_3751	7
PSPTO_3752	715
PSPTO_3753	81
PSPTO_3754	38
PSPTO_3755	9
PSPTO_3756	48
PSPTO_3757	197
PSPTO_3758	22
PSPTO_3759	10
PSPTO_3760	9
PSPTO_3761	2
PSPTO_3762	12
PSPTO_3763	20
PSPTO_3764	23
PSPTO_3765	9
PSPTO_3766	39
PSPTO_3767	16
PSPTO_3768	225
PSPTO_3769	3
PSPTO_3770	39
PSPTO_3771	16
PSPTO_3772	17
PSPTO_3773	8
PSPTO_3774	20
PSPTO_3775	3
PSPTO_3776	21
PSPTO_3777	38
PSPTO_3778	39
PSPTO_3779	28
PSPTO_3780	45
PSPTO_3781	28
PSPTO_3782	19
PSPTO_3783	48
PSPTO_3784	31
PSPTO_3785	23
PSPTO_3786	44
PSPTO_3787	33
PSPTO_3788	369
PSPTO_3789	24
PSPTO_3790	14
PSPTO_3791	16
PSPTO_3792	27
PSPTO_3793	36
PSPTO_3794	10
PSPTO_3795	26
PSPTO_3796	38
PSPTO_3797	21
PSPTO_3798	18
PSPTO_3799	28
PSPTO_3800	82
PSPTO_3801	36
PSPTO_3802	19
PSPTO_3803	46
PSPTO_3804	10
PSPTO_3805	20
PSPTO_3806	39
PSPTO_3807	23
PSPTO_3808	29
PSPTO_3809	50
PSPTO_3810	125
PSPTO_3811	161
PSPTO_3812	34
PSPTO_3813	97
PSPTO_3814	68
PSPTO_3815	124
PSPTO_3816	16
PSPTO_3817	19
PSPTO_3818	477
PSPTO_3819	104
PSPTO_3820	94
PSPTO_3821	196
PSPTO_3822	26
PSPTO_3823	25
PSPTO_3824	35
PSPTO_3825	35
PSPTO_3826	29
PSPTO_3827	20
PSPTO_3828	26
PSPTO_3829	15
PSPTO_3830	126
PSPTO_3831	219
PSPTO_3832	127
PSPTO_3833	88
PSPTO_3834	41
PSPTO_3835	23
PSPTO_3836	64
PSPTO_3837	12
PSPTO_3838	42
PSPTO_3839	18
PSPTO_3840	18
PSPTO_3841	100
PSPTO_3842	35
PSPTO_3843	39
PSPTO_3844	12
PSPTO_3845	19
PSPTO_3846	10
PSPTO_3847	34
PSPTO_3848	76
PSPTO_3849	22
PSPTO_3850	8
PSPTO_3851	63
PSPTO_3852	25
PSPTO_3853	19
PSPTO_3854	21
PSPTO_3855	27
PSPTO_3856	37
PSPTO_3857	373
PSPTO_3858	15
PSPTO_3859	16
PSPTO_3860	118
PSPTO_3861	8
PSPTO_3862	72
PSPTO_3863	12
PSPTO_3864	163
PSPTO_3865	14
PSPTO_3866	3
PSPTO_3867	9
PSPTO_3868	10
PSPTO_3869	5
PSPTO_3870	29
PSPTO_3871	24
PSPTO_3872	29
PSPTO_3873	159
PSPTO_3874	65
PSPTO_3875	14
PSPTO_3876	56
PSPTO_3877	46
PSPTO_3878	92
PSPTO_3879	21
PSPTO_3880	8
PSPTO_3881	13
PSPTO_3882	17
PSPTO_3883	43
PSPTO_3884	69
PSPTO_3885	400
PSPTO_3886	23
PSPTO_3887	30
PSPTO_3888	50
PSPTO_3889	55
PSPTO_3890	420
PSPTO_3891	33
PSPTO_3892	24
PSPTO_3893	21
PSPTO_3894	36
PSPTO_3895	3
PSPTO_3896	1
PSPTO_3897	22
PSPTO_3898	17
PSPTO_3899	60
PSPTO_3900	79
PSPTO_3901	54
PSPTO_3902	50
PSPTO_3903	72
PSPTO_3904	8
PSPTO_3905	24
PSPTO_3906	31
PSPTO_3907	10
PSPTO_3908	37
PSPTO_3909	21
PSPTO_3910	23
PSPTO_3911	41
PSPTO_3912	75
PSPTO_3913	69
PSPTO_3914	88
PSPTO_3915	36
PSPTO_3916	5
PSPTO_3917	81
PSPTO_3918	7
PSPTO_3919	37
PSPTO_3920	21
PSPTO_3921	8
PSPTO_3922	23
PSPTO_3923	35
PSPTO_3924	70
PSPTO_3925	113
PSPTO_3926	31
PSPTO_3927	92
PSPTO_3929	11
PSPTO_3930	58
PSPTO_3931	5
PSPTO_3932	7
PSPTO_3933	6
PSPTO_3934	4
PSPTO_3935	9
PSPTO_3936	13
PSPTO_3937	18
PSPTO_3938	21
PSPTO_3939	15
PSPTO_3940	6
PSPTO_3941	10
PSPTO_3942	5
PSPTO_3943	0
PSPTO_3944	13
PSPTO_3945	4
PSPTO_3946	13
PSPTO_3947	2
PSPTO_3948	8
PSPTO_3949	72
PSPTO_3950	48
PSPTO_3951	23
PSPTO_3952	69
PSPTO_3953	76
PSPTO_3954	15
PSPTO_3955	19
PSPTO_3956	40
PSPTO_3957	11
PSPTO_3958	59
PSPTO_3959	71
PSPTO_3960	17
PSPTO_3961	21
PSPTO_3962	2
PSPTO_3963	50
PSPTO_3965	49
PSPTO_3966	7
PSPTO_3968	20
PSPTO_3969	17
PSPTO_3970	254
PSPTO_3971	659
PSPTO_3972	411
PSPTO_3973	202
PSPTO_3974	38
PSPTO_3975	68
PSPTO_3976	28
PSPTO_3977	61
PSPTO_3978	19
PSPTO_3979	25
PSPTO_3980	33
PSPTO_3981	101
PSPTO_3982	22
PSPTO_3983	62
PSPTO_3984	11
PSPTO_3985	19
PSPTO_3986	17
PSPTO_3987	614
PSPTO_3988	103
PSPTO_3989	15
PSPTO_3990	29
PSPTO_3991	102
PSPTO_3992	55
PSPTO_3993	95
PSPTO_3994	24
PSPTO_3995	72
PSPTO_3996	55
PSPTO_3997	6
PSPTO_3998	2
PSPTO_3999	51
PSPTO_4001	19
PSPTO_4002	29
PSPTO_4003	5
PSPTO_4004	16
PSPTO_4005	4
PSPTO_4006	29
PSPTO_4007	6
PSPTO_4008	7
PSPTO_4009	3
PSPTO_4010	78
PSPTO_4011	10
PSPTO_4012	13
PSPTO_4013	15
PSPTO_4014	9
PSPTO_4015	4
PSPTO_4016	3
PSPTO_4017	17
PSPTO_4018	52
PSPTO_4019	31
PSPTO_4020	14
PSPTO_4021	29
PSPTO_4022	8
PSPTO_4023	7
PSPTO_4024	45
PSPTO_4025	10
PSPTO_4026	3
PSPTO_4027	21
PSPTO_4028	2
PSPTO_4029	21
PSPTO_4030	77
PSPTO_4031	66
PSPTO_4032	26
PSPTO_4033	187
PSPTO_4034	58
PSPTO_4035	22
PSPTO_4036	10
PSPTO_4037	7
PSPTO_4038	19
PSPTO_4039	21
PSPTO_4040	29
PSPTO_4041	59
PSPTO_4042	5
PSPTO_4043	5
PSPTO_4044	9
PSPTO_4045	17
PSPTO_4046	83
PSPTO_4047	21
PSPTO_4048	4
PSPTO_4049	7
PSPTO_4050	3
PSPTO_4051	9
PSPTO_4052	11
PSPTO_4053	1
PSPTO_4054	13
PSPTO_4055	1
PSPTO_4056	4
PSPTO_4057	30
PSPTO_4058	89
PSPTO_4059	29
PSPTO_4060	33
PSPTO_4061	9
PSPTO_4062	21
PSPTO_4063	24
PSPTO_4064	18
PSPTO_4065	7
PSPTO_4066	9
PSPTO_4067	18
PSPTO_4068	35
PSPTO_4069	11
PSPTO_4070	8
PSPTO_4071	22
PSPTO_4072	4
PSPTO_4073	23
PSPTO_4074	23
PSPTO_4075	16
PSPTO_4076	38
PSPTO_4077	12
PSPTO_4078	12
PSPTO_4079	100
PSPTO_4080	19
PSPTO_4081	88
PSPTO_4082	21
PSPTO_4083	9
PSPTO_4084	77
PSPTO_4087	12
PSPTO_4088	36
PSPTO_4089	22
PSPTO_4090	43
PSPTO_4091	56
PSPTO_4092	41
PSPTO_4093	108
PSPTO_4094	39
PSPTO_4095	94
PSPTO_4096	10
PSPTO_4097	31
PSPTO_4098	72
PSPTO_4099	4
PSPTO_4100	22
PSPTO_4101	19
PSPTO_4102	1
PSPTO_4103	118
PSPTO_4104	72
PSPTO_4105	45
PSPTO_4106	55
PSPTO_4107	10
PSPTO_4108	196
PSPTO_4109	11
PSPTO_4110	40
PSPTO_4111	10
PSPTO_4112	26
PSPTO_4113	14
PSPTO_4114	24
PSPTO_4115	315
PSPTO_4116	9
PSPTO_4117	53
PSPTO_4118	7
PSPTO_4119	32
PSPTO_4120	36
PSPTO_4121	20
PSPTO_4122	19
PSPTO_4123	26
PSPTO_4124	38
PSPTO_4125	14
PSPTO_4126	8
PSPTO_4127	24
PSPTO_4128	36
PSPTO_4129	56
PSPTO_4130	15
PSPTO_4131	8
PSPTO_4132	24
PSPTO_4133	66
PSPTO_4134	75
PSPTO_4135	103
PSPTO_4136	61
PSPTO_4137	13
PSPTO_4138	2
PSPTO_4139	14
PSPTO_4140	14
PSPTO_4141	82
PSPTO_4142	26
PSPTO_4143	394
PSPTO_4144	37
PSPTO_4145	282
PSPTO_4146	54
PSPTO_4147	69
PSPTO_4148	19
PSPTO_4149	12
PSPTO_4150	8
PSPTO_4151	33
PSPTO_4152	45
PSPTO_4153	1
PSPTO_4154	2
PSPTO_4155	136
PSPTO_4156	558
PSPTO_4157	50
PSPTO_4158	22
PSPTO_4159	70
PSPTO_4160	18
PSPTO_4161	70
PSPTO_4162	59
PSPTO_4163	52
PSPTO_4164	32
PSPTO_4165	30
PSPTO_4166	26
PSPTO_4167	150
PSPTO_4168	501
PSPTO_4169	71
PSPTO_4170	2762
PSPTO_4171	16
PSPTO_4172	10
PSPTO_4173	5
PSPTO_4174	17
PSPTO_4175	20
PSPTO_4176	28
PSPTO_4177	23
PSPTO_4178	29
PSPTO_4179	470
PSPTO_4180	24
PSPTO_4181	9
PSPTO_4182	27
PSPTO_4183	74
PSPTO_4184	8
PSPTO_4185	9
PSPTO_4186	18
PSPTO_4187	26
PSPTO_4188	10
PSPTO_4189	14
PSPTO_4190	27
PSPTO_4191	90
PSPTO_4192	20
PSPTO_4193	24
PSPTO_4194	10
PSPTO_4195	15
PSPTO_4196	520
PSPTO_4197	18
PSPTO_4198	15
PSPTO_4199	8
PSPTO_4200	7
PSPTO_4201	23
PSPTO_4202	32
PSPTO_4203	27
PSPTO_4204	21
PSPTO_4205	29
PSPTO_4206	26
PSPTO_4207	52
PSPTO_4208	183
PSPTO_4209	158
PSPTO_4210	358
PSPTO_4211	9
PSPTO_4212	13
PSPTO_4213	25
PSPTO_4214	23
PSPTO_4215	17
PSPTO_4216	57
PSPTO_4217	33
PSPTO_4218	13
PSPTO_4219	52
PSPTO_4220	91
PSPTO_4221	475
PSPTO_4222	1196
PSPTO_4223	3705
PSPTO_4224	854
PSPTO_4225	69
PSPTO_4226	8
PSPTO_4227	11
PSPTO_4228	55
PSPTO_4229	67
PSPTO_4230	48
PSPTO_4231	9
PSPTO_4232	23
PSPTO_4233	4
PSPTO_4234	23
PSPTO_4235	15
PSPTO_4236	136
PSPTO_4237	730
PSPTO_4238	37
PSPTO_4239	22
PSPTO_4240	10
PSPTO_4241	4
PSPTO_4242	8
PSPTO_4243	34
PSPTO_4244	22
PSPTO_4245	29
PSPTO_4246	0
PSPTO_4247	4
PSPTO_4248	7
PSPTO_4249	37
PSPTO_4250	59
PSPTO_4251	57
PSPTO_4252	9
PSPTO_4253	58
PSPTO_4254	114
PSPTO_4255	5
PSPTO_4256	32
PSPTO_4257	13
PSPTO_4258	18
PSPTO_4259	89
PSPTO_4260	14
PSPTO_4261	27
PSPTO_4262	13
PSPTO_4263	27
PSPTO_4264	21
PSPTO_4265	79
PSPTO_4266	22
PSPTO_4267	65
PSPTO_4268	17
PSPTO_4269	27
PSPTO_4270	20
PSPTO_4271	45
PSPTO_4272	120
PSPTO_4273	13
PSPTO_4274	37
PSPTO_4275	27
PSPTO_4276	62
PSPTO_4277	28
PSPTO_4278	38
PSPTO_4279	4
PSPTO_4280	27
PSPTO_4281	18
PSPTO_4282	12
PSPTO_4283	19
PSPTO_4284	33
PSPTO_4285	61
PSPTO_4286	63
PSPTO_4287	57
PSPTO_4288	56
PSPTO_4289	72
PSPTO_4290	119
PSPTO_4291	37
PSPTO_4292	35
PSPTO_4293	425
PSPTO_4294	207
PSPTO_4295	140
PSPTO_4296	28
PSPTO_4297	115
PSPTO_4298	44
PSPTO_4299	18
PSPTO_4300	170
PSPTO_4301	52
PSPTO_4302	28
PSPTO_4303	117
PSPTO_4304	308
PSPTO_4305	272
PSPTO_4306	62
PSPTO_4307	57
PSPTO_4308	29
PSPTO_4309	42
PSPTO_4310	74
PSPTO_4312	45
PSPTO_4313	27
PSPTO_4314	65
PSPTO_4315	341
PSPTO_4316	82
PSPTO_4317	49
PSPTO_4318	29
PSPTO_4319	32
PSPTO_4320	25
PSPTO_4321	168
PSPTO_4322	358
PSPTO_4323	92
PSPTO_4324	422
PSPTO_4325	677
PSPTO_4326	56
PSPTO_4327	27
PSPTO_4328	15
PSPTO_4329	57
PSPTO_4330	6
PSPTO_4331	27
PSPTO_4332	61
PSPTO_4333	47
PSPTO_4334	46
PSPTO_4335	245
PSPTO_4336	296
PSPTO_4337	405
PSPTO_4338	87
PSPTO_4339	133
PSPTO_4340	258
PSPTO_4341	79
PSPTO_4342	107
PSPTO_4343	103
PSPTO_4344	89
PSPTO_4345	7
PSPTO_4346	26
PSPTO_4347	40
PSPTO_4348	54
PSPTO_4349	91
PSPTO_4350	61
PSPTO_4351	8
PSPTO_4352	35
PSPTO_4353	15
PSPTO_4354	17
PSPTO_4355	21
PSPTO_4356	5
PSPTO_4357	35
PSPTO_4358	33
PSPTO_4359	202
PSPTO_4360	109
PSPTO_4361	62
PSPTO_4362	8
PSPTO_4363	147
PSPTO_4364	1
PSPTO_4365	132
PSPTO_4366	400
PSPTO_4367	74
PSPTO_4368	82
PSPTO_4369	96
PSPTO_4370	52
PSPTO_4371	111
PSPTO_4372	26
PSPTO_4373	85
PSPTO_4374	81
PSPTO_4375	25
PSPTO_4376	1854
PSPTO_4377	230
PSPTO_4378	7
PSPTO_4379	84
PSPTO_4380	39
PSPTO_4381	234
PSPTO_4382	28
PSPTO_4383	45
PSPTO_4384	10
PSPTO_4385	71
PSPTO_4386	189
PSPTO_4387	138
PSPTO_4388	7
PSPTO_4389	51
PSPTO_4390	6
PSPTO_4392	57
PSPTO_4393	38
PSPTO_4394	14
PSPTO_4395	29
PSPTO_4396	40
PSPTO_4397	33
PSPTO_4398	22
PSPTO_4399	55
PSPTO_4400	278
PSPTO_4401	20
PSPTO_4402	221
PSPTO_4403	416
PSPTO_4404	109
PSPTO_4405	49
PSPTO_4406	43
PSPTO_4407	71
PSPTO_4408	40
PSPTO_4409	42
PSPTO_4410	55
PSPTO_4411	44
PSPTO_4412	64
PSPTO_4413	64
PSPTO_4414	51
PSPTO_4415	5
PSPTO_4416	47
PSPTO_4417	54
PSPTO_4418	41
PSPTO_4419	113
PSPTO_4420	9
PSPTO_4421	20
PSPTO_4422	286
PSPTO_4423	49
PSPTO_4424	23
PSPTO_4425	106
PSPTO_4426	132
PSPTO_4427	21
PSPTO_4428	23
PSPTO_4429	26
PSPTO_4430	16
PSPTO_4431	83
PSPTO_4432	52
PSPTO_4433	22
PSPTO_4434	28
PSPTO_4435	34
PSPTO_4436	16
PSPTO_4437	56
PSPTO_4438	72
PSPTO_4439	41
PSPTO_4440	1
PSPTO_4441	103
PSPTO_4442	18
PSPTO_4443	66
PSPTO_4444	168
PSPTO_4445	57
PSPTO_4446	28
PSPTO_4447	70
PSPTO_4448	32
PSPTO_4449	16
PSPTO_4450	17
PSPTO_4451	54
PSPTO_4452	79
PSPTO_4453	103
PSPTO_4454	286
PSPTO_4455	111
PSPTO_4456	33
PSPTO_4457	12
PSPTO_4458	27
PSPTO_4459	206
PSPTO_4460	126
PSPTO_4461	247
PSPTO_4462	27
PSPTO_4463	104
PSPTO_4464	19
PSPTO_4465	134
PSPTO_4466	50
PSPTO_4467	84
PSPTO_4468	42
PSPTO_4469	11
PSPTO_4470	7
PSPTO_4471	30
PSPTO_4472	108
PSPTO_4473	33
PSPTO_4474	66
PSPTO_4475	67
PSPTO_4476	6
PSPTO_4477	15
PSPTO_4478	16
PSPTO_4479	26
PSPTO_4480	34
PSPTO_4481	12
PSPTO_4482	57
PSPTO_4483	12
PSPTO_4484	79
PSPTO_4485	18
PSPTO_4486	126
PSPTO_4487	247
PSPTO_4488	40
PSPTO_4489	11
PSPTO_4490	229
PSPTO_4491	96
PSPTO_4492	19
PSPTO_4493	30
PSPTO_4494	58
PSPTO_4495	68
PSPTO_4496	35
PSPTO_4497	756
PSPTO_4498	58
PSPTO_4499	24
PSPTO_4500	39
PSPTO_4501	282
PSPTO_4502	140
PSPTO_4503	68
PSPTO_4504	96
PSPTO_4505	1835
PSPTO_4506	170
PSPTO_4507	120
PSPTO_4508	86
PSPTO_4509	73
PSPTO_4510	10
PSPTO_4511	26
PSPTO_4512	18
PSPTO_4513	18
PSPTO_4514	44
PSPTO_4515	14
PSPTO_4516	145
PSPTO_4517	8
PSPTO_4518	85
PSPTO_4519	131
PSPTO_4520	35
PSPTO_4521	7
PSPTO_4522	24
PSPTO_4523	16
PSPTO_4524	26
PSPTO_4525	0
PSPTO_4526	17
PSPTO_4527	7
PSPTO_4528	60
PSPTO_4529	86
PSPTO_4530	283
PSPTO_4531	459
PSPTO_4532	33
PSPTO_4533	26
PSPTO_4534	45
PSPTO_4535	12
PSPTO_4536	15
PSPTO_4537	20
PSPTO_4538	26
PSPTO_4539	36
PSPTO_4540	19
PSPTO_4541	244
PSPTO_4542	71
PSPTO_4543	475
PSPTO_4544	65
PSPTO_4545	33
PSPTO_4546	88
PSPTO_4547	60
PSPTO_4548	26
PSPTO_4549	9
PSPTO_4550	50
PSPTO_4551	32
PSPTO_4552	1
PSPTO_4553	35
PSPTO_4554	20
PSPTO_4555	34
PSPTO_4556	13
PSPTO_4557	40
PSPTO_4558	100
PSPTO_4559	31
PSPTO_4560	29
PSPTO_4561	39
PSPTO_4562	20
PSPTO_4563	14
PSPTO_4564	27
PSPTO_4565	7
PSPTO_4566	6
PSPTO_4567	56
PSPTO_4568	15
PSPTO_4569	61
PSPTO_4570	22
PSPTO_4571	39
PSPTO_4572	132
PSPTO_4573	21
PSPTO_4574	64
PSPTO_4575	48
PSPTO_4576	15
PSPTO_4577	32
PSPTO_4578	22
PSPTO_4579	34
PSPTO_4580	110
PSPTO_4581	23
PSPTO_4582	39
PSPTO_4583	19
PSPTO_4584	27
PSPTO_4585	98
PSPTO_4586	1295
PSPTO_4587	83
PSPTO_4588	5
PSPTO_4589	21
PSPTO_4590	25
PSPTO_4591	4
PSPTO_4592	13
PSPTO_4593	59
PSPTO_4594	16
PSPTO_4595	20
PSPTO_4596	40
PSPTO_4597	2
PSPTO_4599	15
PSPTO_4600	21
PSPTO_4601	13
PSPTO_4602	111
PSPTO_4603	31
PSPTO_4604	76
PSPTO_4605	79
PSPTO_4606	20
PSPTO_4607	125
PSPTO_4608	26
PSPTO_4609	17
PSPTO_4610	97
PSPTO_4611	69
PSPTO_4612	30
PSPTO_4613	131
PSPTO_4614	31
PSPTO_4615	16
PSPTO_4616	61
PSPTO_4617	3
PSPTO_4618	13
PSPTO_4619	30
PSPTO_4620	28
PSPTO_4621	16
PSPTO_4622	29
PSPTO_4623	7
PSPTO_4624	350
PSPTO_4625	20
PSPTO_4626	16
PSPTO_4627	118
PSPTO_4628	21
PSPTO_4629	23
PSPTO_4630	12
PSPTO_4631	111
PSPTO_4632	493
PSPTO_4633	29
PSPTO_4634	30
PSPTO_4635	9
PSPTO_4636	14
PSPTO_4637	25
PSPTO_4638	107
PSPTO_4639	64
PSPTO_4640	52
PSPTO_4641	150
PSPTO_4642	63
PSPTO_4643	58
PSPTO_4644	6
PSPTO_4645	25
PSPTO_4646	12
PSPTO_4647	38
PSPTO_4648	64
PSPTO_4649	7
PSPTO_4650	47
PSPTO_4651	13
PSPTO_4652	6
PSPTO_4653	35
PSPTO_4654	18
PSPTO_4656	34
PSPTO_4657	73
PSPTO_4658	93
PSPTO_4659	15
PSPTO_4660	29
PSPTO_4661	40
PSPTO_4662	13
PSPTO_4663	26
PSPTO_4664	27
PSPTO_4665	29
PSPTO_4666	24
PSPTO_4667	84
PSPTO_4668	9
PSPTO_4669	17
PSPTO_4670	18
PSPTO_4671	22
PSPTO_4672	3
PSPTO_4673	110
PSPTO_4674	10
PSPTO_4675	25
PSPTO_4676	29
PSPTO_4677	17
PSPTO_4678	5
PSPTO_4679	25
PSPTO_4680	42
PSPTO_4681	6
PSPTO_4682	8
PSPTO_4683	30
PSPTO_4684	9
PSPTO_4685	47
PSPTO_4686	151
PSPTO_4687	179
PSPTO_4688	7
PSPTO_4689	18
PSPTO_4690	9
PSPTO_4691	72
PSPTO_4692	4
PSPTO_4693	65
PSPTO_4694	6
PSPTO_4695	10
PSPTO_4696	41
PSPTO_4697	11
PSPTO_4699	503
PSPTO_4702	32
PSPTO_4703	8
PSPTO_4704	15
PSPTO_4705	22
PSPTO_4706	7
PSPTO_4707	7
PSPTO_4708	18
PSPTO_4709	38
PSPTO_4710	37
PSPTO_4711	16
PSPTO_4712	17
PSPTO_4713	10
PSPTO_4714	15
PSPTO_4716	14
PSPTO_4717	11
PSPTO_4718	94
PSPTO_4719	9
PSPTO_4720	52
PSPTO_4721	7
PSPTO_4722	24
PSPTO_4723	27
PSPTO_4724	2
PSPTO_4725	53
PSPTO_4726	35
PSPTO_4727	60
PSPTO_4729	17
PSPTO_4730	26
PSPTO_4732	21
PSPTO_4733	18
PSPTO_4734	12
PSPTO_4735	525
PSPTO_4737	40
PSPTO_4738	5
PSPTO_4741	11
PSPTO_4742	63
PSPTO_4743	57
PSPTO_4744	45
PSPTO_4745	50
PSPTO_4746	37
PSPTO_4747	12
PSPTO_4748	40
PSPTO_4749	29
PSPTO_4750	13
PSPTO_4751	231
PSPTO_4752	331
PSPTO_4753	42
PSPTO_4754	27
PSPTO_4755	30
PSPTO_4756	18
PSPTO_4757	1
PSPTO_4758	0
PSPTO_4759	15
PSPTO_4760	24
PSPTO_4761	108
PSPTO_4762	55
PSPTO_4763	45
PSPTO_4764	54
PSPTO_4765	12
PSPTO_4766	43
PSPTO_4767	14
PSPTO_4768	12
PSPTO_4769	20
PSPTO_4770	40
PSPTO_4771	38
PSPTO_4772	124
PSPTO_4773	9
PSPTO_4774	30
PSPTO_4775	33
PSPTO_4776	51
PSPTO_4777	8
PSPTO_4778	4
PSPTO_4779	28
PSPTO_4780	83
PSPTO_4781	96
PSPTO_4782	49
PSPTO_4784	52
PSPTO_4785	0
PSPTO_4786	19
PSPTO_4787	26
PSPTO_4788	54
PSPTO_4789	60
PSPTO_4790	56
PSPTO_4791	188
PSPTO_4792	26
PSPTO_4793	22
PSPTO_4794	11
PSPTO_4795	53
PSPTO_4796	146
PSPTO_4797	9
PSPTO_4798	15
PSPTO_4799	12
PSPTO_4800	33
PSPTO_4801	2
PSPTO_4802	34
PSPTO_4803	15
PSPTO_4804	51
PSPTO_4805	228
PSPTO_4806	70
PSPTO_4807	105
PSPTO_4808	44
PSPTO_4809	29
PSPTO_4810	23
PSPTO_4811	4
PSPTO_4812	82
PSPTO_4813	25
PSPTO_4814	27
PSPTO_4815	1
PSPTO_4816	14
PSPTO_4817	112
PSPTO_4818	187
PSPTO_4819	32
PSPTO_4820	8
PSPTO_4821	82
PSPTO_4822	52
PSPTO_4823	34
PSPTO_4824	29
PSPTO_4825	21
PSPTO_4826	29
PSPTO_4827	15
PSPTO_4828	25
PSPTO_4829	52
PSPTO_4830	7
PSPTO_4831	29
PSPTO_4832	58
PSPTO_4833	118
PSPTO_4834	26
PSPTO_4835	12
PSPTO_4836	44
PSPTO_4837	134
PSPTO_4838	2
PSPTO_4839	306
PSPTO_4840	113
PSPTO_4841	34
PSPTO_4842	175
PSPTO_4843	102
PSPTO_4844	35
PSPTO_4845	78
PSPTO_4846	12
PSPTO_4847	38
PSPTO_4848	166
PSPTO_4849	64
PSPTO_4850	44
PSPTO_4851	30
PSPTO_4852	32
PSPTO_4853	57
PSPTO_4854	20
PSPTO_4855	26
PSPTO_4856	23
PSPTO_4857	3
PSPTO_4858	30
PSPTO_4859	26
PSPTO_4860	104
PSPTO_4861	260
PSPTO_4862	13
PSPTO_4863	25
PSPTO_4864	20
PSPTO_4865	9
PSPTO_4866	33
PSPTO_4867	44
PSPTO_4868	34
PSPTO_4869	4
PSPTO_4870	14
PSPTO_4871	6
PSPTO_4872	12
PSPTO_4873	10
PSPTO_4874	24
PSPTO_4875	18
PSPTO_4876	7
PSPTO_4877	28
PSPTO_4878	37
PSPTO_4879	32
PSPTO_4880	15
PSPTO_4881	21
PSPTO_4882	17
PSPTO_4883	61
PSPTO_4884	32
PSPTO_4885	67
PSPTO_4886	23
PSPTO_4887	9
PSPTO_4888	10
PSPTO_4889	15
PSPTO_4890	15
PSPTO_4891	14
PSPTO_4892	23
PSPTO_4893	25
PSPTO_4894	19
PSPTO_4895	43
PSPTO_4896	91
PSPTO_4897	136
PSPTO_4898	28
PSPTO_4899	38
PSPTO_4900	80
PSPTO_4901	12
PSPTO_4902	32
PSPTO_4903	165
PSPTO_4905	28
PSPTO_4906	28
PSPTO_4907	80
PSPTO_4908	22
PSPTO_4909	8
PSPTO_4910	17
PSPTO_4911	21
PSPTO_4912	42
PSPTO_4913	39
PSPTO_4914	33
PSPTO_4915	14
PSPTO_4916	17
PSPTO_4917	34
PSPTO_4918	18
PSPTO_4919	225
PSPTO_4920	20
PSPTO_4921	30
PSPTO_4922	80
PSPTO_4923	110
PSPTO_4924	42
PSPTO_4925	191
PSPTO_4926	117
PSPTO_4927	44
PSPTO_4928	93
PSPTO_4929	41
PSPTO_4930	104
PSPTO_4931	153
PSPTO_4932	96
PSPTO_4933	119
PSPTO_4934	71
PSPTO_4935	330
PSPTO_4936	170
PSPTO_4937	113
PSPTO_4938	54
PSPTO_4939	145
PSPTO_4940	152
PSPTO_4941	315
PSPTO_4942	142
PSPTO_4943	140
PSPTO_4944	62
PSPTO_4945	52
PSPTO_4946	27
PSPTO_4947	53
PSPTO_4948	34
PSPTO_4949	19
PSPTO_4950	32
PSPTO_4951	27
PSPTO_4952	288
PSPTO_4953	364
PSPTO_4954	129
PSPTO_4955	123
PSPTO_4956	98
PSPTO_4957	37
PSPTO_4958	43
PSPTO_4959	112
PSPTO_4960	99
PSPTO_4961	25
PSPTO_4962	34
PSPTO_4963	95
PSPTO_4964	39
PSPTO_4965	58
PSPTO_4966	39
PSPTO_4967	26
PSPTO_4968	8
PSPTO_4969	52
PSPTO_4970	119
PSPTO_4971	56
PSPTO_4972	31
PSPTO_4973	67
PSPTO_4974	104
PSPTO_4975	84
PSPTO_4976	413
PSPTO_4977	30
PSPTO_4978	59
PSPTO_4979	13
PSPTO_4980	74
PSPTO_4981	38
PSPTO_4982	38
PSPTO_4983	56
PSPTO_4984	54
PSPTO_4985	22
PSPTO_4986	31
PSPTO_4987	28
PSPTO_4988	26
PSPTO_4989	10
PSPTO_4990	23
PSPTO_4991	41
PSPTO_4992	35
PSPTO_4993	18
PSPTO_4994	62
PSPTO_4995	5
PSPTO_4996	40
PSPTO_4997	52
PSPTO_4998	24
PSPTO_4999	7
PSPTO_5000	16
PSPTO_5001	22
PSPTO_5002	24
PSPTO_5003	39
PSPTO_5004	76
PSPTO_5005	284
PSPTO_5006	161
PSPTO_5007	22
PSPTO_5008	11
PSPTO_5009	41
PSPTO_5010	73
PSPTO_5011	22
PSPTO_5012	12
PSPTO_5013	10
PSPTO_5014	88
PSPTO_5015	33
PSPTO_5016	37
PSPTO_5017	215
PSPTO_5018	23
PSPTO_5019	24
PSPTO_5020	52
PSPTO_5021	53
PSPTO_5022	70
PSPTO_5023	51
PSPTO_5024	260
PSPTO_5025	20
PSPTO_5026	10
PSPTO_5027	27
PSPTO_5028	59
PSPTO_5029	22
PSPTO_5030	201
PSPTO_5031	46
PSPTO_5032	21
PSPTO_5033	24
PSPTO_5034	17
PSPTO_5035	38
PSPTO_5036	26
PSPTO_5037	60
PSPTO_5038	30
PSPTO_5039	46
PSPTO_5040	71
PSPTO_5041	107
PSPTO_5043	35
PSPTO_5044	9
PSPTO_5045	46
PSPTO_5046	27
PSPTO_5047	45
PSPTO_5048	30
PSPTO_5049	23
PSPTO_5050	15
PSPTO_5051	20
PSPTO_5052	21
PSPTO_5053	12
PSPTO_5054	29
PSPTO_5055	86
PSPTO_5056	23
PSPTO_5057	97
PSPTO_5058	109
PSPTO_5059	11
PSPTO_5060	12
PSPTO_5061	18
PSPTO_5062	7
PSPTO_5063	30
PSPTO_5064	10
PSPTO_5065	13
PSPTO_5066	26
PSPTO_5067	19
PSPTO_5068	235
PSPTO_5069	38
PSPTO_5070	78
PSPTO_5071	195
PSPTO_5072	85
PSPTO_5073	9
PSPTO_5074	55
PSPTO_5075	20
PSPTO_5076	16
PSPTO_5077	31
PSPTO_5078	11
PSPTO_5079	23
PSPTO_5080	24
PSPTO_5081	24
PSPTO_5082	22
PSPTO_5083	38
PSPTO_5084	61
PSPTO_5085	12
PSPTO_5086	54
PSPTO_5087	225
PSPTO_5088	2
PSPTO_5089	9
PSPTO_5090	47
PSPTO_5091	67
PSPTO_5092	32
PSPTO_5093	16
PSPTO_5094	18
PSPTO_5095	24
PSPTO_5096	45
PSPTO_5097	25
PSPTO_5098	13
PSPTO_5099	42
PSPTO_5100	11
PSPTO_5101	15
PSPTO_5102	36
PSPTO_5103	3
PSPTO_5104	15
PSPTO_5105	10
PSPTO_5106	5
PSPTO_5107	27
PSPTO_5108	9
PSPTO_5109	11
PSPTO_5110	32
PSPTO_5111	33
PSPTO_5112	92
PSPTO_5113	91
PSPTO_5114	16
PSPTO_5115	37
PSPTO_5116	8
PSPTO_5117	20
PSPTO_5118	36
PSPTO_5119	111
PSPTO_5120	27
PSPTO_5121	64
PSPTO_5122	2
PSPTO_5123	222
PSPTO_5124	1
PSPTO_5125	244
PSPTO_5126	61
PSPTO_5127	56
PSPTO_5128	323
PSPTO_5129	79
PSPTO_5130	70
PSPTO_5131	77
PSPTO_5132	179
PSPTO_5133	54
PSPTO_5134	84
PSPTO_5135	20
PSPTO_5136	52
PSPTO_5137	35
PSPTO_5138	39
PSPTO_5139	27
PSPTO_5140	129
PSPTO_5141	339
PSPTO_5142	22
PSPTO_5143	49
PSPTO_5144	15
PSPTO_5145	25
PSPTO_5146	12
PSPTO_5147	263
PSPTO_5148	45
PSPTO_5149	17
PSPTO_5150	89
PSPTO_5151	25
PSPTO_5152	58
PSPTO_5153	32
PSPTO_5154	33
PSPTO_5155	29
PSPTO_5156	21
PSPTO_5157	35
PSPTO_5158	24
PSPTO_5159	95
PSPTO_5160	18
PSPTO_5161	537
PSPTO_5162	897
PSPTO_5163	43
PSPTO_5164	91
PSPTO_5165	481
PSPTO_5166	40
PSPTO_5167	49
PSPTO_5168	347
PSPTO_5169	124
PSPTO_5170	258
PSPTO_5171	51
PSPTO_5172	20
PSPTO_5173	16
PSPTO_5174	24
PSPTO_5175	177
PSPTO_5176	41
PSPTO_5177	41
PSPTO_5178	110
PSPTO_5179	30
PSPTO_5180	119
PSPTO_5181	37
PSPTO_5182	39
PSPTO_5183	4
PSPTO_5184	6
PSPTO_5185	9
PSPTO_5186	35
PSPTO_5187	13
PSPTO_5188	12
PSPTO_5189	14
PSPTO_5190	11
PSPTO_5191	154
PSPTO_5192	39
PSPTO_5193	40
PSPTO_5194	20
PSPTO_5195	9
PSPTO_5196	7
PSPTO_5197	12
PSPTO_5198	12
PSPTO_5199	2
PSPTO_5200	20
PSPTO_5201	16
PSPTO_5202	102
PSPTO_5203	90
PSPTO_5204	115
PSPTO_5205	7
PSPTO_5206	29
PSPTO_5207	13
PSPTO_5208	10
PSPTO_5209	89
PSPTO_5210	41
PSPTO_5211	15
PSPTO_5212	56
PSPTO_5213	4
PSPTO_5214	2
PSPTO_5215	68
PSPTO_5216	36
PSPTO_5217	7
PSPTO_5218	10
PSPTO_5219	21
PSPTO_5220	70
PSPTO_5221	81
PSPTO_5222	63
PSPTO_5223	44
PSPTO_5224	14
PSPTO_5225	17
PSPTO_5226	117
PSPTO_5227	19
PSPTO_5228	3
PSPTO_5229	14
PSPTO_5230	184
PSPTO_5231	16
PSPTO_5232	57
PSPTO_5233	8
PSPTO_5234	17
PSPTO_5235	13
PSPTO_5236	0
PSPTO_5237	4
PSPTO_5238	62
PSPTO_5239	33
PSPTO_5240	41
PSPTO_5241	81
PSPTO_5242	67
PSPTO_5243	66
PSPTO_5244	12
PSPTO_5245	23
PSPTO_5246	18
PSPTO_5247	8
PSPTO_5248	17
PSPTO_5249	79
PSPTO_5250	240
PSPTO_5251	94
PSPTO_5252	23
PSPTO_5253	101
PSPTO_5254	25
PSPTO_5255	52
PSPTO_5256	33
PSPTO_5257	117
PSPTO_5258	9
PSPTO_5259	17
PSPTO_5260	65
PSPTO_5261	6
PSPTO_5262	13
PSPTO_5263	46
PSPTO_5264	53
PSPTO_5265	24
PSPTO_5266	15
PSPTO_5267	15
PSPTO_5268	40
PSPTO_5269	102
PSPTO_5270	32
PSPTO_5271	45
PSPTO_5272	32
PSPTO_5273	19
PSPTO_5274	36
PSPTO_5275	39
PSPTO_5276	19
PSPTO_5277	28
PSPTO_5278	27
PSPTO_5279	345
PSPTO_5280	8
PSPTO_5281	12
PSPTO_5282	33
PSPTO_5283	41
PSPTO_5284	197
PSPTO_5285	54
PSPTO_5286	16
PSPTO_5287	19
PSPTO_5288	28
PSPTO_5289	4
PSPTO_5290	25
PSPTO_5291	73
PSPTO_5292	108
PSPTO_5293	102
PSPTO_5294	220
PSPTO_5295	66
PSPTO_5296	36
PSPTO_5297	23
PSPTO_5298	9
PSPTO_5299	72
PSPTO_5300	64
PSPTO_5301	41
PSPTO_5302	21
PSPTO_5303	66
PSPTO_5304	53
PSPTO_5305	4
PSPTO_5306	42
PSPTO_5307	203
PSPTO_5308	101
PSPTO_5309	68
PSPTO_5310	93
PSPTO_5311	20
PSPTO_5312	55
PSPTO_5313	1
PSPTO_5314	6
PSPTO_5315	9
PSPTO_5316	12
PSPTO_5317	56
PSPTO_5318	129
PSPTO_5319	3
PSPTO_5320	9
PSPTO_5321	7
PSPTO_5322	28
PSPTO_5323	8
PSPTO_5324	36
PSPTO_5325	9
PSPTO_5326	6
PSPTO_5327	202
PSPTO_5328	74
PSPTO_5329	159
PSPTO_5330	16
PSPTO_5331	88
PSPTO_5332	21
PSPTO_5333	19
PSPTO_5334	31
PSPTO_5335	15
PSPTO_5336	6
PSPTO_5337	24
PSPTO_5338	20
PSPTO_5339	44
PSPTO_5340	863
PSPTO_5341	46
PSPTO_5342	30
PSPTO_5343	17
PSPTO_5344	31
PSPTO_5345	57
PSPTO_5346	14
PSPTO_5347	8
PSPTO_5348	53
PSPTO_5349	2
PSPTO_5350	4
PSPTO_5351	55
PSPTO_5352	462
PSPTO_5353	25
PSPTO_5354	74
PSPTO_5355	24
PSPTO_5356	102
PSPTO_5357	32
PSPTO_5358	125
PSPTO_5359	5
PSPTO_5360	8
PSPTO_5361	16
PSPTO_5362	18
PSPTO_5363	176
PSPTO_5364	0
PSPTO_5365	55
PSPTO_5367	4
PSPTO_5368	58
PSPTO_5370	16
PSPTO_5371	6
PSPTO_5373	61
PSPTO_5374	6
PSPTO_5375	18
PSPTO_5376	11
PSPTO_5377	56
PSPTO_5378	18
PSPTO_5379	13
PSPTO_5380	33
PSPTO_5381	30
PSPTO_5382	61
PSPTO_5383	26
PSPTO_5384	35
PSPTO_5385	32
PSPTO_5386	10
PSPTO_5387	12
PSPTO_5388	3
PSPTO_5389	11
PSPTO_5390	13
PSPTO_5391	48
PSPTO_5392	43
PSPTO_5393	42
PSPTO_5394	29
PSPTO_5395	59
PSPTO_5396	33
PSPTO_5397	60
PSPTO_5398	29
PSPTO_5399	31
PSPTO_5400	19
PSPTO_5401	34
PSPTO_5402	17
PSPTO_5403	11
PSPTO_5404	78
PSPTO_5405	47
PSPTO_5406	165
PSPTO_5407	706
PSPTO_5408	205
PSPTO_5409	58
PSPTO_5410	31
PSPTO_5411	63
PSPTO_5412	5
PSPTO_5413	189
PSPTO_5414	68
PSPTO_5415	84
PSPTO_5416	53
PSPTO_5417	57
PSPTO_5418	147
PSPTO_5419	30
PSPTO_5420	52
PSPTO_5421	12
PSPTO_5422	70
PSPTO_5423	7
PSPTO_5424	65
PSPTO_5425	99
PSPTO_5426	32
PSPTO_5427	39
PSPTO_5428	50
PSPTO_5430	36
PSPTO_5431	34
PSPTO_5432	330
PSPTO_5433	115
PSPTO_5434	95
PSPTO_5435	286
PSPTO_5436	24
PSPTO_5437	45
PSPTO_5438	186
PSPTO_5439	28
PSPTO_5440	48
PSPTO_5441	31
PSPTO_5442	11
PSPTO_5443	58
PSPTO_5444	8
PSPTO_5445	61
PSPTO_5446	17
PSPTO_5447	22
PSPTO_5448	48
PSPTO_5449	14
PSPTO_5450	5
PSPTO_5451	68
PSPTO_5452	21
PSPTO_5453	59
PSPTO_5454	32
PSPTO_5455	10
PSPTO_5456	13
PSPTO_5457	60
PSPTO_5458	15
PSPTO_5460	76
PSPTO_5461	163
PSPTO_5462	5
PSPTO_5463	21
PSPTO_5464	27
PSPTO_5465	30
PSPTO_5466	407
PSPTO_5467	22
PSPTO_5468	7
PSPTO_5469	89
PSPTO_5470	8
PSPTO_5471	3
PSPTO_5472	25
PSPTO_5473	66
PSPTO_5474	15
PSPTO_5475	7
PSPTO_5476	16
PSPTO_5477	24
PSPTO_5478	16
PSPTO_5479	35
PSPTO_5480	31
PSPTO_5481	155
PSPTO_5482	275
PSPTO_5483	65
PSPTO_5484	40
PSPTO_5485	46
PSPTO_5486	34
PSPTO_5487	27
PSPTO_5488	40
PSPTO_5489	31
PSPTO_5490	64
PSPTO_5491	30
PSPTO_5492	55
PSPTO_5493	36
PSPTO_5494	14
PSPTO_5495	6
PSPTO_5496	1
PSPTO_5497	4
PSPTO_5498	71
PSPTO_5499	24
PSPTO_5500	11
PSPTO_5501	28
PSPTO_5502	64
PSPTO_5503	37
PSPTO_5504	33
PSPTO_5505	33
PSPTO_5506	24
PSPTO_5507	34
PSPTO_5508	9
PSPTO_5509	48
PSPTO_5510	255
PSPTO_5511	201
PSPTO_5512	25
PSPTO_5513	14
PSPTO_5514	9
PSPTO_5515	30
PSPTO_5516	85
PSPTO_5517	92
PSPTO_5518	132
PSPTO_5519	68
PSPTO_5520	18
PSPTO_5521	42
PSPTO_5522	53
PSPTO_5523	41
PSPTO_5524	7
PSPTO_5525	20
PSPTO_5526	19
PSPTO_5527	18
PSPTO_5528	158
PSPTO_5529	281
PSPTO_5530	16
PSPTO_5531	28
PSPTO_5532	34
PSPTO_5533	21
PSPTO_5534	9
PSPTO_5535	55
PSPTO_5536	4
PSPTO_5537	41
PSPTO_5538	26
PSPTO_5539	8
PSPTO_5540	5
PSPTO_5541	17
PSPTO_5542	305
PSPTO_5543	61
PSPTO_5544	5
PSPTO_5545	10
PSPTO_5546	18
PSPTO_5547	43
PSPTO_5548	13
PSPTO_5549	31
PSPTO_5550	31
PSPTO_5551	19
PSPTO_5552	4
PSPTO_5553	97
PSPTO_5554	213
PSPTO_5555	18
PSPTO_5556	41
PSPTO_5557	43
PSPTO_5558	28
PSPTO_5559	11
PSPTO_5560	31
PSPTO_5561	6
PSPTO_5562	12
PSPTO_5563	32
PSPTO_5564	61
PSPTO_5565	13
PSPTO_5566	42
PSPTO_5567	14
PSPTO_5568	6
PSPTO_5569	32
PSPTO_5570	7
PSPTO_5571	82
PSPTO_5572	59
PSPTO_5573	47
PSPTO_5574	38
PSPTO_5575	20
PSPTO_5576	6
PSPTO_5577	6
PSPTO_5578	13
PSPTO_5579	24
PSPTO_5580	45
PSPTO_5581	7
PSPTO_5582	40
PSPTO_5583	17
PSPTO_5584	21
PSPTO_5585	15
PSPTO_5586	19
PSPTO_5587	4
PSPTO_5588	30
PSPTO_5589	32
PSPTO_5590	5
PSPTO_5591	62
PSPTO_5592	27
PSPTO_5593	24
PSPTO_5594	134
PSPTO_5595	74
PSPTO_5596	33
PSPTO_5597	79
PSPTO_5598	82
PSPTO_5599	291
PSPTO_5600	119
PSPTO_5601	271
PSPTO_5602	103
PSPTO_5603	112
PSPTO_5604	70
PSPTO_5605	81
PSPTO_5606	19
PSPTO_5607	25
PSPTO_5608	42
PSPTO_5609	30
PSPTO_5610	117
PSPTO_5611	33
PSPTO_5612	53
PSPTO_5613	12
PSPTO_5614	33
PSPTO_5615	21
PSPTO_5616	0
PSPTO_5617	19
PSPTO_5618	7
PSPTO_5619	3
PSPTO_5620	5
PSPTO_5621	11
PSPTO_5622	11
PSPTO_5623	0
PSPTO_5624	190
PSPTO_5625	54
PSPTO_5626	4
PSPTO_5627	9
PSPTO_5628	10
PSPTO_5629	60
PSPTO_5630	22
PSPTO_5631	31
PSPTO_5632	52
PSPTO_5633	115
PSPTO_5634	30
PSPTO_5635	556
PSPTO_5636	274
PSPTO_5637	4
PSPTO_5638	69
PSPTO_5639	12
PSPTO_5640	28
PSPTO_5641	17
PSPTO_5642	5
PSPTO_5643	1
PSPTO_5644	51
PSPTO_5645	92
PSPTO_5646	43
PSPTO_5647	22
PSPTO_5648	5
PSPTO_5649	139
PSPTO_5650	11
PSPTO_5651	40
PSPTO_5652	26
PSPTO_5653	11
PSPTO_5654	2
PSPTO_5655	10
PSPTO_5656	29
PSPTO_5657	56
PSPTO_5658	1
PSPTO_5659	8
PSPTO_5660	8
PSPTO_5661	42259
PSPTO_5662	12
PSPTO_5663	98599
PSPTO_5664	4
PSPTO_5665	6
PSPTO_5666	590
PSPTO_5667	17
PSPTO_5668	6339
PSPTO_5669	1939
PSPTO_5670	90
PSPTO_5671	2
PSPTO_5672	7
PSPTO_5673	6
PSPTO_5674	3
PSPTO_5675	13
PSPTO_A0072	240
PSPTO_A0073	1
PSPTO_B0001	21
PSPTO_B0002	19
PSPTO_B0003	105
PSPTO_B0004	4
PSPTO_B0005	164
PSPTO_B0006	4
PSPTO_B0007	105
PSPTO_B0008	7
PSPTO_B0009	34
PSPTO_B0010	569
PSPTO_B0011	162
PSPTO_B0012	54
PSPTO_B0013	17
PSPTO_B0014	21
PSPTO_B0015	16
PSPTO_B0016	26
PSPTO_B0017	6
PSPTO_B0018	54
PSPTO_B0019	14
PSPTO_B0020	140
PSPTO_B0021	387
PSPTO_B0022	12
PSPTO_B0023	55
PSPTO_B0024	10
PSPTO_B0025	30
PSPTO_B0026	82
PSPTO_B0027	85
PSPTO_B0028	15
PSPTO_B0029	7
PSPTO_B0030	44
PSPTO_B0031	3
PSPTO_B0032	43
PSPTO_B0033	5
PSPTO_B0034	31
PSPTO_B0035	31
PSPTO_B0036	101
PSPTO_B0037	21
PSPTO_B0038	14
PSPTO_B0039	16
PSPTO_B0040	32
PSPTO_B0041	20
PSPTO_B0042	88
PSPTO_B0043	59
PSPTO_B0044	22
PSPTO_B0045	43
PSPTO_B0046	27
PSPTO_B0047	3
PSPTO_B0048	8
PSPTO_B0049	11
PSPTO_B0050	5
PSPTO_B0051	22
PSPTO_B0052	40
PSPTO_B0053	42
PSPTO_B0054	8
PSPTO_B0055	43
PSPTO_B0056	10
PSPTO_B0057	255
PSPTO_B0058	5
PSPTO_B0059	19
PSPTO_B0060	13
PSPTO_B0061	44
PSPTO_B0062	10
PSPTO_B0063	5
PSPTO_B0064	25
PSPTO_B0065	0
PSPTO_B0066	57
PSPTO_B0067	33
PSPTO_B0068	28
PSPTO_B0069	95
PSPTO_B0070	107
PSPTO_B0071	190
PSPTO_B0072	49
PSPTO_B0073	14
PSPTO_B0074	7
PSPTO_B0075	20
PSPTO_B0076	62
PSPTO_B0077	6
PSPTO_r01	128
PSPTO_r02	358
PSPTO_r03	3
PSPTO_r04	136
PSPTO_r05	327
PSPTO_r06	3
PSPTO_r07	124
PSPTO_r08	338
PSPTO_r09	1
PSPTO_r10	2
PSPTO_r11	344
PSPTO_r12	132
PSPTO_r13	2
PSPTO_r14	376
PSPTO_r15	146
PSPTO_t01	16
PSPTO_t02	2
PSPTO_t03	10
PSPTO_t04	4
PSPTO_t05	40
PSPTO_t06	8
PSPTO_t07	11
PSPTO_t08	14
PSPTO_t09	7
PSPTO_t10	6
PSPTO_t11	25
PSPTO_t12	11
PSPTO_t13	6
PSPTO_t14	8
PSPTO_t15	8
PSPTO_t16	4
PSPTO_t17	3
PSPTO_t18	29
PSPTO_t19	12
PSPTO_t20	0
PSPTO_t21	3
PSPTO_t22	9
PSPTO_t23	0
PSPTO_t24	49
PSPTO_t25	15
PSPTO_t26	13
PSPTO_t27	8
PSPTO_t28	4
PSPTO_t29	6
PSPTO_t30	5
PSPTO_t31	2
PSPTO_t32	4
PSPTO_t33	15
PSPTO_t34	2
PSPTO_t35	1
PSPTO_t36	6
PSPTO_t37	7
PSPTO_t38	3
PSPTO_t39	2
PSPTO_t40	2
PSPTO_t41	4
PSPTO_t42	10
PSPTO_t43	2
PSPTO_t44	7
PSPTO_t45	15
PSPTO_t46	12
PSPTO_t47	16
PSPTO_t48	12
PSPTO_t49	2
PSPTO_t50	3
PSPTO_t51	10
PSPTO_t52	6
PSPTO_t53	3
PSPTO_t54	0
PSPTO_t55	33
PSPTO_t56	6
PSPTO_t57	12
PSPTO_t58	3
PSPTO_t59	2
PSPTO_t60	2
PSPTO_t61	0
PSPTO_t62	5
PSPTO_t63	7
__no_feature	144737
__ambiguous	8063
__too_low_aQual	0
__not_aligned	40508
__alignment_not_unique	0
