aaeA	3
aaeB	7
aaeR	32
aaeX	0
aas	115
aat	26
abgA	0
abgB	0
abgR	0
abgT	0
abrB	7
accA	455
accB	450
accC	1061
accD	882
aceA	32096
aceB	15184
aceE	1876
aceF	1129
aceK	3995
ackA	236
acnA	1152
acnB	17477
acpP	2229
acpS	16
acpT	24
acrA	206
acrB	846
acrD	23
acrE	1
acrF	13
acrR	20
acs	4640
actP	2726
ada	15
add	424
ade	43
adhE	686
adhP	38
adiA	16
adiC	5
adiY	2
adk	603
aegA	13
aer	137
aes	12
afuB	0
afuC	2
agaA	34
agaB	2
agaC	0
agaD	0
agaI	2
agaR	105
agaS	12
agaV	46
agaW	19
agp	662
ahpC	4329
ahpF	422
aidB	17
ais	1
alaS	1577
alaT	10
alaU	3
alaV	8
alaW	5
alaX	5
aldA	16669
aldB	182
alkA	35
alkB	4
allA	10
allB	23
allC	6
allD	2
allR	127
alpA	1
alr	83
alsA	5
alsB	16
alsC	3
alsE	6
alsK	8
alx	17
amiA	58
amiB	57
amiC	131
amn	271
ampC	14
ampD	53
ampE	76
ampG	85
ampH	62
amtB	19
amyA	158
ansA	56
ansB	30
ansP	16
apaG	40
apaH	58
aphA	714
appA	22
appB	8
appC	7
appY	1
apt	73
aqpZ	6
araA	37
araB	9
araC	177
araD	5
araE	14
araF	72
araG	19
araH	20
araJ	15
arcA	830
arcB	445
argA	17
argB	10
argC	3
argD	22
argE	114
argF	12
argG	98
argH	49
argI	7
argK	3
argO	5
argP	109
argQ	36
argR	179
argS	248
argT	689
argU	9
argV	60
argW	0
argX	12
argY	142
argZ	75
arnT	4
aroA	40
aroB	275
aroC	207
aroD	31
aroE	66
aroF	55
aroG	281
aroH	35
aroK	219
aroL	68
aroM	10
aroP	33
arpA	2
arpB	1
arsB	5
arsC	10
arsR	3
artI	148
artJ	14
artM	35
artP	44
artQ	49
ascB	27
ascF	17
ascG	36
asd	959
aslA	8
aslB	13
asmA	270
asnA	145
asnB	177
asnC	20
asnS	588
asnT	110
asnU	18
asnV	1
asnW	0
aspA	3638
aspC	1035
aspS	694
aspT	0
aspU	0
aspV	16
asr	9
astA	510
astB	555
astC	863
astD	732
astE	280
atoA	0
atoB	1
atoC	55
atoD	0
atoE	0
atoS	95
atpA	4721
atpB	783
atpC	1569
atpD	5257
atpE	741
atpF	890
atpG	2183
atpH	687
atpI	293
avtA	172
azoR	29
bacA	54
baeR	26
baeS	4
barA	105
basR	29
basS	24
bax	583
bcp	121
bcr	71
bcsA	10
bcsB	18
bcsC	34
bcsE	121
bcsF	0
bcsG	64
bcsZ	9
bdm	0
betA	192
betB	303
betI	136
betT	197
bfd	17
bfr	86
bglA	205
bglB	0
bglF	2
bglG	4
bglH	0
bglJ	3
bglX	277
bioA	3
bioB	8
bioC	1
bioD	4
bioF	2
bioH	47
bipA	415
birA	53
bisC	111
blc	16
blr	17
bolA	181
borD	8
brnQ	55
btuB	278
btuC	26
btuD	30
btuE	39
btuF	17
btuR	57
cadA	1
cadB	0
cadC	9
caiA	22
caiB	9
caiC	6
caiD	1
caiE	3
caiF	25
caiT	1
can	196
carA	201
carB	1197
cbl	7
cbpA	68
cbpM	23
cbrA	3
cbrC	10
cca	164
cchA	13
cchB	1
ccmA	13
ccmB	9
ccmC	12
ccmD	0
ccmE	7
ccmF	32
ccmG	11
ccmH	25
cdaR	166
cdd	128
cdh	21
cdsA	256
cedA	3
cfa	171
chaA	26
chaB	3
chaC	13
chbA	30
chbB	169
chbC	142
chbF	57
chbG	49
chbR	41
cheA	154
cheB	35
cheR	27
cheW	65
cheY	42
cheZ	52
chiA	25
chpA	25
chpB	37
chpR	52
chpS	16
cirA	33
citA	8
citB	4
citC	0
citD	0
citE	0
citF	0
citG	0
citT	3
citX	0
clcA	73
clcB	4
cld	367
clpA	3196
clpB	677
clpP	468
clpS	58
clpX	863
cls	117
cmk	185
cmr	26
cmtA	2
cmtB	0
coaA	153
coaD	21
coaE	41
cobB	131
cobC	8
cobS	19
cobT	45
cobU	16
codA	130
codB	42
cof	34
copA	122
corA	145
cpdA	377
cpdB	252
cpsB	2
cpsG	3
cpxA	181
cpxP	208
cpxR	188
crcA	3
crcB	11
creA	40
creB	41
creC	29
creD	2
crl	456
crp	1282
crr	1005
csdA	99
csgA	6
csgB	0
csgC	7
csgD	10
csgE	6
csgF	2
csgG	17
csiE	180
csiR	90
cspA	515
cspB	82
cspC	1759
cspD	2058
cspE	2345
cspF	9
cspG	18
cspH	1
cspI	5
csrA	464
csrB	7019
csrC	920
cstA	6905
cueO	67
cueR	44
cusA	6
cusB	1
cusC	0
cusF	0
cusR	26
cusS	15
cutA	25
cutC	80
cvpA	60
cvrA	66
cyaA	367
cyaY	37
cybB	57
cybC	19
cycA	866
cydA	2104
cydB	935
cydC	137
cydD	97
cynR	12
cynS	0
cynT	1
cynX	3
cyoA	2363
cyoB	4791
cyoC	796
cyoD	488
cyoE	2813
cysA	50
cysB	152
cysC	16
cysD	15
cysE	375
cysG	73
cysH	36
cysI	54
cysJ	29
cysK	641
cysM	86
cysN	51
cysP	44
cysQ	60
cysS	143
cysT	12
cysU	9
cysW	13
cysZ	30
cytR	153
dacA	191
dacB	57
dacC	90
dacD	20
dadA	2284
dadX	1556
dam	73
damX	326
dapA	665
dapB	121
dapD	397
dapE	100
dapF	153
dbpA	0
dcd	257
dcm	81
dcp	305
dcrB	503
dctA	443
dcuA	168
dcuB	3
dcuC	5
dcuD	1
dcuR	49
dcuS	80
ddg	74
ddlA	188
ddlB	195
ddpA	62
ddpB	17
ddpC	24
ddpD	17
ddpF	12
ddpX	14
deaD	199
dedA	67
dedD	148
def	207
degP	422
degQ	141
degS	54
deoA	135
deoB	368
deoC	223
deoD	439
deoR	51
der	209
dfp	160
dgkA	24
dgoA	4
dgoD	15
dgoK	19
dgoR	53
dgoT	4
dgsA	117
dgt	90
dhaH	146
dhaK	229
dhaL	80
dhaR	31
dicA	85
dicB	0
dicC	0
dicF	1
dinB	16
dinD	120
dinF	48
dinG	134
dinI	18
dinJ	41
dipZ	76
djlA	39
djlB	1
djlC	6
dkgA	90
dkgB	40
dksA	1040
dld	1006
dmsA	16
dmsB	3
dmsC	6
dmsD	34
dnaA	282
dnaB	177
dnaC	37
dnaE	367
dnaG	274
dnaJ	247
dnaK	1509
dnaN	151
dnaQ	55
dnaT	33
dnaX	221
dos	20
dppA	5331
dppB	466
dppC	403
dppD	550
dppF	593
dps	451
dsbA	167
dsbB	84
dsbC	69
dsbG	20
dsdA	75
dsdC	46
dsdX	14
dsrA	3
dsrB	32
dtd	89
dusB	155
dusC	12
dut	89
dxr	58
dxs	645
eaeH	0
eamA	56
ebgA	110
ebgC	13
ebgR	41
ecnA	3
ecnB	22
eco	355
ecpD	0
eda	158
edd	48
efp	378
ego	187
elaA	29
elaB	87
elaC	30
elaD	4
elbA	0
elbB	191
emrA	46
emrB	35
emrD	50
emrE	5
emrK	1
emrY	0
emtA	32
endA	4
eno	1742
entA	9
entB	15
entC	10
entD	2
entE	5
entF	35
envC	99
envR	0
envY	5
envZ	194
epd	312
eptA	3
eptB	402
era	143
erfK	35
essD	1
essQ	0
etp	1
eutA	2
eutB	36
eutC	37
eutE	5
eutG	5
eutH	4
eutI	5
eutJ	1
eutL	15
eutP	6
eutQ	8
eutT	7
evgA	55
evgS	89
exbB	37
exbD	32
exo	95
exoX	54
exuR	142
exuT	45
fabA	440
fabB	1312
fabD	535
fabF	878
fabG	1105
fabH	426
fabI	801
fabR	179
fabZ	183
fadA	1202
fadB	2506
fadD	1036
fadE	573
fadH	438
fadL	930
fadR	276
fbaA	2984
fbaB	126
fbp	463
fcl	0
fdhD	34
fdhE	354
fdhF	21
fdnG	8
fdnH	1
fdnI	1
fdoG	5149
fdoH	962
fdoI	512
fdrA	0
fdx	35
feaB	41
feaR	172
fecA	491
fecB	113
fecC	46
fecD	37
fecE	49
fecI	5
fecR	7
feoA	10
feoB	95
fepA	21
fepB	17
fepC	6
fepD	8
fepE	1
fepG	11
fes	9
ffh	551
ffs	4
fhiA	1
fhlA	13
fhuA	139
fhuB	31
fhuC	20
fhuD	16
fhuE	18
fhuF	43
fic	7
fieF	137
fimA	2282
fimB	25
fimC	43
fimD	66
fimE	1
fimF	13
fimG	9
fimH	36
fimI	95
fimZ	2
fis	43
fiu	11
fixA	8
fixB	5
fixC	6
fixX	0
fklB	453
fkpA	490
fkpB	81
fldA	186
fldB	106
flgA	752
flgB	881
flgC	624
flgD	1736
flgE	4165
flgF	1882
flgG	1995
flgH	630
flgI	630
flgJ	379
flgK	698
flgL	634
flgM	177
flgN	191
flhA	638
flhB	295
flhC	79
flhD	74
flhE	89
fliA	920
fliC	2838
fliD	398
fliE	277
fliF	1286
fliG	745
fliH	440
fliI	588
fliJ	124
fliK	487
fliL	622
fliM	744
fliN	302
fliO	94
fliP	162
fliQ	37
fliR	55
fliS	71
fliT	71
fliY	717
fliZ	382
flk	54
flu	622
flxA	23
fmt	256
fnr	0
focA	52
focB	4
folA	72
folB	13
folC	138
folD	100
folE	152
folK	7
folM	16
folP	72
folX	52
fpr	299
frc	5
frdA	346
frdB	109
frdC	44
frdD	59
fre	419
frlA	2
frlB	13
frlC	3
frlD	8
frlR	34
frmA	174
frmB	53
frmR	36
frr	416
frsA	99
fruA	106
fruB	51
fruK	32
fruR	1006
frvA	1
frvB	2
frvR	3
frvX	5
frwB	11
frwC	21
frwD	4
fsaA	7
fsaB	16
fsr	41
ftn	166
ftsA	307
ftsB	67
ftsE	92
ftsH	1668
ftsI	223
ftsK	801
ftsL	21
ftsN	96
ftsQ	117
ftsW	126
ftsX	153
ftsY	211
ftsZ	976
fucA	50
fucI	79
fucK	42
fucO	198
fucP	34
fucR	173
fucU	19
fumA	2226
fumB	7
fumC	824
fur	387
fusA	7466
fxsA	29
gabD	428
gabP	164
gabT	580
gadA	0
gadB	6
gadC	11
gadE	1
gadW	6
gadX	3
gadY	0
galE	433
galF	583
galK	229
galM	252
galP	8
galR	92
galS	99
galT	167
galU	275
gapA	4940
gapC	163
garD	49
garK	51
garL	34
garP	54
garR	146
gatA	793
gatB	489
gatC	5527
gatD	1308
gatR	118
gatY	2736
gatZ	3776
gcd	46
gcl	9
gcvA	20
gcvB	3823
gcvH	1736
gcvP	5728
gcvR	62
gcvT	2655
gdhA	331
ggt	39
gidA	223
gidB	17
glcB	790
glcC	505
glcD	110
glcE	59
glcF	74
glcG	88
gldA	78
glf	228
glgA	601
glgB	773
glgC	759
glgP	933
glgS	395
glgX	456
glk	274
glmM	977
glmS	1464
glmU	750
glnA	1847
glnB	87
glnD	120
glnE	203
glnG	107
glnH	3690
glnK	1
glnL	64
glnP	360
glnQ	608
glnS	599
glnU	5
glnV	4
glnW	3
glnX	2
gloA	206
gloB	55
glpA	3
glpB	1
glpC	5
glpD	60
glpE	19
glpF	221
glpG	49
glpK	730
glpQ	50
glpR	60
glpT	52
glpX	64
gltA	9866
gltB	410
gltD	175
gltF	6
gltI	859
gltJ	70
gltK	63
gltL	136
gltP	149
gltS	40
gltT	364
gltU	51
gltV	40
gltW	331
gltX	440
glvB	0
glvC	2
glvG	3
glxK	3
glxR	3
glyA	3760
glyQ	424
glyS	1052
glyT	27
glyU	10
glyV	57
glyW	104
glyX	3
glyY	5
gmd	0
gmhB	71
gmk	108
gmr	18
gnd	1629
gnsA	4
gnsB	32
gntK	15
gntP	19
gntR	128
gntT	56
gntU	10
gntX	51
gntY	148
gor	263
gph	132
gpmA	1170
gpmI	127
gpp	284
gpsA	853
gpt	67
greA	90
greB	28
groL	3808
groS	411
grpE	267
grxA	12
grxB	326
grxC	145
gshA	412
gshB	178
gsk	97
gspA	1
gspC	0
gspD	1
gspE	1
gspF	1
gspG	0
gspH	0
gspI	0
gspJ	0
gspK	2
gspL	0
gspM	2
gspO	4
gss	117
gst	221
guaA	651
guaB	257
guaC	288
guaD	11
gudD	83
gudP	301
gudX	71
gutM	3
gutQ	50
gyrA	1278
gyrB	785
hcaB	8
hcaC	3
hcaD	18
hcaE	53
hcaF	11
hcaR	384
hcaT	103
hchA	53
hcp	1
hcr	3
hda	54
hdeA	46
hdeB	9
hdeD	2
hdfR	73
hdhA	120
helD	158
hemA	161
hemB	173
hemC	288
hemD	101
hemE	171
hemF	30
hemG	35
hemH	39
hemL	403
hemN	139
hemX	267
hemY	321
hepA	72
hflC	510
hflD	55
hflK	648
hflX	453
hfq	416
hha	37
hinT	71
hipA	33
hipB	11
hisA	60
hisB	74
hisC	53
hisD	74
hisF	74
hisG	40
hisH	35
hisI	67
hisJ	389
hisL	33
hisM	45
hisP	91
hisQ	98
hisR	16
hisS	537
hlpA	677
hlyE	0
hmp	300
hns	2520
hofB	14
hofC	8
hofQ	9
hokA	0
hokB	5
hokC	0
hokD	29
hokE	0
holA	68
holB	52
holC	47
holD	17
holE	25
hpt	161
hrpA	191
hrpB	83
hscA	265
hscB	30
hscC	33
hsdM	122
hsdR	917
hsdS	48
hslJ	6
hslO	60
hslR	13
hslU	323
hslV	53
hsrA	26
htgA	0
htpG	507
htpX	338
htrC	5
htrE	0
htrG	138
htrL	66
hupA	3240
hupB	4959
hyaA	0
hyaB	0
hyaC	3
hyaD	0
hyaE	1
hyaF	0
hybA	22
hybB	13
hybC	54
hybD	22
hybE	7
hybF	2
hybG	5
hybO	45
hycA	0
hycB	0
hycC	1
hycD	1
hycE	4
hycF	0
hycG	2
hycH	1
hycI	29
hydN	4
hyfA	0
hyfB	1
hyfC	0
hyfD	1
hyfE	0
hyfF	5
hyfG	3
hyfH	1
hyfI	0
hyfJ	0
hyfR	3
hyi	2
hypA	0
hypB	9
hypC	2
hypD	7
hypE	14
hypF	24
hyuA	20
iaaA	96
iadA	52
iap	13
ibpA	18
ibpB	4
icd	10848
icdC	2
iclR	225
idi	13
idnD	9
idnK	20
idnO	7
idnR	8
idnT	11
ihfA	418
ihfB	453
ileS	1281
ileT	6
ileU	2
ileV	4
ileX	0
ileY	0
ilvA	62
ilvB	111
ilvC	70
ilvD	104
ilvE	94
ilvG	62
ilvH	15
ilvI	57
ilvL	41
ilvM	0
ilvN	7
ilvY	45
imp	771
inaA	23
infA	136
infB	1892
infC	1819
insA	159
insB	66
insC	100
insD	95
insE	37
insF	38
insG	63
insH	1880
insI	32
insJ	3
insK	1
insL	139
insM	3
insN	6
insO	18
intA	66
intB	24
intD	76
intE	3
intF	27
intG	0
intQ	0
intR	0
intS	20
iscA	221
iscR	172
iscS	656
iscU	230
ispA	259
ispB	305
ispD	37
ispE	334
ispF	30
ispG	366
ispH	166
ispU	351
isrA	0
isrB	0
isrC	1
ivbL	137
ivy	134
katE	53
katG	3650
kbaY	4
kbaZ	79
kbl	2066
kch	17
kdgK	93
kdgR	191
kdgT	22
kdpA	2
kdpB	6
kdpC	3
kdpD	37
kdpE	13
kdpF	0
kdsA	244
kdsB	94
kdsC	61
kdsD	100
kdtA	81
kduD	44
kduI	40
kefA	143
kefB	46
kefC	45
kefF	3
kefG	35
kgtP	2182
kil	0
kptA	28
ksgA	106
lacA	25
lacI	86
lacY	31
lacZ	153
lamB	3185
lar	0
ldcA	24
ldcC	40
ldhA	51
ldrA	2
ldrB	6
ldrC	7
ldrD	22
lepA	603
lepB	250
leuA	21
leuB	19
leuC	39
leuD	26
leuL	3
leuO	5
leuP	6
leuQ	3
leuS	777
leuT	14
leuU	1
leuV	5
leuW	1
leuX	1
leuZ	24
lexA	371
lgt	124
lhr	124
ligA	162
ligB	37
ligT	10
lipA	223
lipB	22
lit	26
livF	3
livG	4
livH	9
livJ	43
livK	13
livM	13
lldD	90
lldP	128
lldR	32
lnt	117
lolA	139
lolB	64
lolC	98
lolD	80
lolE	114
lomR	1
lon	1018
lpcA	322
lpd	3367
lplA	77
lpp	19476
lpxA	241
lpxB	158
lpxC	1721
lpxD	469
lpxH	25
lpxK	61
lpxL	124
lpxM	73
lrhA	46
lrp	656
lspA	99
lsrB	243
lsrC	114
lsrD	59
lsrF	212
lsrG	77
ltaE	141
luxS	228
lysA	23
lysC	32
lysP	101
lysQ	7
lysR	28
lysS	691
lysT	155
lysU	340
lysV	5
lysW	44
lysY	16
lysZ	46
lyxK	15
maa	43
macA	45
macB	74
maeB	1547
mak	73
malE	3928
malF	413
malG	317
malI	37
malK	726
malM	665
malP	401
malQ	320
malS	49
malT	1369
malX	50
malY	89
malZ	38
manA	226
manX	258
manY	159
manZ	196
maoC	88
map	174
marA	13
marB	2
marC	19
marR	7
mazG	99
mbhA	1
mcrA	6
mcrB	40
mcrC	10
mdaB	64
mdh	9457
mdlA	50
mdlB	46
mdoB	291
mdoC	4
mdoD	349
mdoG	321
mdoH	354
mdtA	15
mdtB	24
mdtC	20
mdtD	7
mdtE	3
mdtF	13
mdtG	13
mdtH	11
mdtI	6
mdtJ	8
mdtK	96
mdtL	4
melA	1485
melB	530
melR	101
menA	49
menB	138
menC	116
menD	73
menE	58
menF	64
mepA	55
metA	6
metB	42
metC	72
metE	168
metF	6
metG	495
metH	675
metI	32
metJ	65
metK	86
metL	127
metN	12
metQ	224
metR	7
metT	2
metU	2
metV	7
metW	37
metY	79
metZ	10
mfd	279
mglA	654
mglB	5503
mglC	615
mgsA	843
mgtA	78
mhpA	6
mhpB	3
mhpC	7
mhpD	8
mhpE	9
mhpF	5
mhpR	99
mhpT	14
miaA	488
miaB	144
micC	0
micF	0
minC	207
minD	425
minE	114
mioC	136
mipA	478
mlrA	4
mltA	52
mltB	38
mltC	24
mltD	799
mmuM	86
mmuP	5
mngA	3
mngB	15
mngR	13
mntH	57
mntR	51
moaA	216
moaB	131
moaC	64
moaD	8
moaE	63
mobA	23
mobB	8
modA	94
modB	44
modC	69
modE	45
modF	72
moeA	94
moeB	54
mog	216
mokB	30
mokC	3
molR	4
motA	52
motB	44
mpaA	80
mpl	272
mppA	520
mprA	74
mqo	90
mraW	111
mraY	112
mraZ	110
mrcA	96
mrcB	190
mrdA	84
mrdB	61
mreB	421
mreC	122
mreD	23
mrp	357
mrr	97
msbA	234
mscL	85
mscS	23
msrA	118
msyB	32
mtgA	72
mtlA	1180
mtlD	395
mtlR	61
mtr	31
mukB	1136
mukE	91
mukF	140
murA	304
murB	92
murC	258
murD	180
murE	237
murF	192
murG	173
murI	64
murP	30
mutH	20
mutL	118
mutM	18
mutS	325
mutT	31
mutY	41
mviM	154
mviN	53
nac	4
nadA	34
nadB	9
nadC	76
nadD	31
nadE	150
nadR	164
nagA	195
nagB	220
nagC	143
nagD	156
nagE	2288
nagZ	105
nanA	97
nanE	33
nanK	35
nanR	159
nanT	107
napA	139
napB	7
napC	18
napD	2
napF	10
napG	17
napH	12
narG	13
narH	13
narI	1
narJ	2
narK	4
narL	90
narP	50
narQ	44
narU	5
narV	8
narW	1
narX	59
narY	6
narZ	22
ndh	195
ndk	292
nei	29
nemA	408
nfi	63
nfnB	157
nfo	62
nfrA	23
nfrB	9
nfsA	36
nhaA	59
nhaB	141
nhaR	14
nhoA	13
nikA	1
nikB	0
nikC	0
nikD	2
nikE	2
nikR	3
ninE	0
nirB	3
nirC	0
nirD	0
nlpA	42
nlpB	582
nlpC	55
nlpD	994
nlpE	37
nlpI	1114
nmpC	1907
nohA	2
nohB	2
norR	43
norV	5
norW	0
npr	27
nrdA	727
nrdB	261
nrdD	53
nrdE	16
nrdF	14
nrdG	6
nrdH	2
nrdI	2
nrfA	10
nrfB	1
nrfC	2
nrfD	5
nrfE	5
nrfF	0
nrfG	0
nth	20
nudB	85
nudC	40
nudD	0
nudE	50
nudF	36
nudG	5
nudH	352
nuoA	785
nuoB	988
nuoC	2684
nuoE	567
nuoF	1938
nuoG	4799
nuoH	1301
nuoI	506
nuoJ	442
nuoK	86
nuoL	2304
nuoM	2551
nuoN	2088
nupC	108
nupG	208
nusA	681
nusB	81
nusG	267
obgE	128
ogrK	6
ogt	0
ompA	8352
ompC	18772
ompF	25564
ompG	0
ompL	0
ompN	0
ompR	309
ompT	669
ompW	21
ompX	384
oppA	4460
oppB	399
oppC	584
oppD	780
oppF	1123
oriC	0
orn	67
osmB	12
osmC	181
osmE	206
osmY	40
otsA	17
otsB	12
oxc	4
oxyR	433
oxyS	0
paaA	17
paaB	2
paaC	14
paaD	11
paaE	22
paaF	18
paaG	14
paaH	74
paaI	17
paaJ	397
paaK	902
paaX	224
paaY	216
pabA	7
pabB	16
pabC	46
pal	585
panB	194
panC	287
panD	121
panE	48
panF	20
parC	369
parE	338
pbl	0
pbpC	32
pbpG	50
pck	6309
pcm	134
pcnB	243
pdhR	192
pdxA	117
pdxB	181
pdxH	78
pdxJ	96
pdxK	76
pdxY	65
pepA	613
pepB	563
pepD	1212
pepE	42
pepN	1643
pepP	492
pepQ	458
pepT	92
perR	4
pfkA	388
pfkB	44
pflA	92
pflB	2012
pflC	5
pflD	44
pfs	222
pgi	466
pgk	2142
pgm	696
pgpA	118
pgpB	47
pgsA	189
pheA	78
pheL	5
pheM	6
pheP	28
pheS	221
pheT	830
pheU	3
pheV	2
phnA	23
phnB	4
phnC	1
phnD	0
phnE	0
phnF	0
phnG	0
phnH	1
phnI	0
phnJ	0
phnK	1
phnL	1
phnM	1
phnN	0
phnO	1
phnP	6
phoA	249
phoB	13
phoE	1
phoH	324
phoP	124
phoQ	84
phoR	12
phoU	73
php	2
phr	20
pin	0
pinH	0
pinQ	4
pinR	0
pioO	1
pitA	185
pitB	2
pldA	79
pldB	111
plsB	383
plsC	83
plsX	224
pmbA	240
pmrD	178
pncA	42
pncB	148
pnp	3892
pntA	1028
pntB	983
pnuC	33
polA	931
polB	34
potA	94
potB	32
potC	15
potD	367
potE	6
potF	22
potG	6
potH	4
potI	6
poxA	20
poxB	7
ppa	605
ppc	743
ppdA	12
ppdB	24
ppdC	8
ppdD	1
pphA	6
pphB	2
ppiA	75
ppiB	208
ppiC	47
ppiD	737
ppk	227
pppA	10
pps	4223
ppx	163
pqiA	21
pqiB	52
pqqL	7
prc	747
prfA	97
prfB	319
prfC	192
prfH	0
priA	52
priB	216
priC	19
prkB	100
prlC	297
prmA	37
prmB	153
prmC	37
proA	157
proB	142
proC	142
proK	2
proL	5
proM	1
proP	89
proQ	349
proS	703
proV	424
proW	430
proX	1431
proY	46
prpB	3
prpC	0
prpD	2
prpE	4
prpR	39
prsA	805
psd	200
psiF	22
pspA	64
pspB	2
pspC	6
pspD	0
pspE	284
pspF	44
pssA	462
pstA	15
pstB	44
pstC	14
pstS	29
pta	541
pth	33
ptr	150
ptrB	58
ptsA	65
ptsG	135
ptsH	523
ptsI	1480
ptsN	210
ptsP	647
purA	1465
purB	212
purC	354
purD	204
purE	6
purF	159
purH	168
purK	66
purL	590
purM	153
purN	54
purR	136
purT	96
purU	59
putA	84
putP	372
puuA	238
puuB	37
puuC	57
puuD	51
puuE	42
puuP	95
puuR	60
pykA	947
pykF	249
pyrB	509
pyrC	139
pyrD	29
pyrE	7
pyrF	53
pyrG	539
pyrH	227
pyrI	295
pyrL	4
qor	172
qseB	9
qseC	11
queA	31
racC	0
racR	0
radA	185
rarA	1
rarD	19
rbbA	323
rbfA	79
rbn	171
rbsA	243
rbsB	2821
rbsC	218
rbsD	474
rbsK	309
rbsR	66
rcsA	31
rcsB	317
rcsC	164
rcsD	320
rcsF	36
rdgC	74
rdlA	12
rdlB	6
rdlC	5
rdlD	3
recA	1183
recB	185
recC	229
recD	106
recE	0
recF	27
recG	95
recJ	137
recN	76
recO	31
recQ	112
recR	103
recT	0
recX	10
relA	596
relB	22
relE	19
rem	2
renD	1
rep	75
rfaB	83
rfaC	65
rfaD	266
rfaE	245
rfaF	120
rfaG	66
rfaH	29
rfaI	57
rfaJ	56
rfaK	47
rfaL	56
rfaP	32
rfaQ	90
rfaS	42
rfaY	42
rfaZ	45
rfbA	220
rfbB	232
rfbC	84
rfbD	183
rfbX	124
rfe	119
rffA	63
rffC	31
rffD	134
rffE	92
rffG	74
rffH	93
rffM	29
rffT	40
rhaA	3
rhaB	4
rhaD	1
rhaR	4
rhaS	9
rhaT	10
rhlB	496
rhlE	11
rho	841
rhoL	193
rhsA	7
rhsB	9
rhsC	17
rhsD	18
rhsE	3
rhtA	14
rhtB	8
rhtC	43
ribA	90
ribB	267
ribC	93
ribD	146
ribE	127
ribF	195
rihA	717
rihB	3
rihC	257
rimI	7
rimJ	213
rimK	55
rimL	26
rimM	778
rlmB	70
rlpA	157
rlpB	79
rluA	8
rluB	101
rluC	100
rluD	63
rmf	2154
rmuC	284
rna	62
rnb	234
rnc	64
rnd	126
rne	1410
rng	168
rnhA	31
rnhB	50
rnk	97
rnpA	56
rnpB	44705
rnr	520
rnt	48
rob	565
rof	23
rpe	147
rph	79
rpiA	339
rpiB	23
rpiR	57
rplA	1635
rplB	1427
rplC	1565
rplD	946
rplE	1564
rplF	1324
rplI	762
rplJ	1837
rplK	655
rplL	1509
rplM	812
rplN	1501
rplO	1496
rplP	617
rplQ	809
rplR	521
rplS	549
rplT	975
rplU	545
rplV	561
rplW	372
rplX	606
rplY	373
rpmA	375
rpmB	641
rpmC	38
rpmD	73
rpmE	588
rpmF	278
rpmG	88
rpmH	137
rpmI	422
rpmJ	357
rpoA	2836
rpoB	4506
rpoC	6006
rpoD	715
rpoE	346
rpoH	328
rpoN	510
rpoS	1387
rpoZ	103
rprA	0
rpsA	6545
rpsB	1567
rpsC	1161
rpsD	1616
rpsE	1133
rpsF	920
rpsG	1166
rpsH	831
rpsI	688
rpsJ	802
rpsK	801
rpsL	1252
rpsM	981
rpsN	730
rpsO	495
rpsP	366
rpsQ	336
rpsR	165
rpsS	309
rpsT	524
rpsU	524
rraA	478
rrfA	0
rrfB	0
rrfC	0
rrfD	0
rrfE	0
rrfF	0
rrfG	0
rrfH	0
rrlA	83
rrlB	82
rrlC	131
rrlD	68
rrlE	107
rrlG	69
rrlH	110
rrmA	77
rrmJ	374
rrsA	16
rrsB	9
rrsC	10
rrsD	6
rrsE	17
rrsG	18
rrsH	6
rsd	312
rseA	399
rseB	186
rseC	66
rsgA	203
rsmB	172
rsmC	66
rspA	11
rspB	10
rssA	61
rssB	41
rstA	22
rstB	53
rsuA	44
rsxA	34
rsxB	22
rsxC	81
rsxD	25
rsxE	15
rsxG	17
rtcA	15
rtcB	12
rtcR	12
rtn	86
rttR	0
rumA	136
rumB	16
rusA	1
ruvA	63
ruvB	125
ruvC	83
rybA	218
rybB	1
rydB	0
ryeA	636
ryeB	1
ryeC	93
ryeD	45
ryeE	23
ryfA	54
rygA	0
rygB	1
rygC	19
rygD	55
ryhA	17
ryhB	0
ryiA	232
ryjA	0
rzoD	0
rzoR	0
rzpD	0
rzpR	0
sanA	12
sapA	77
sapB	26
sapC	16
sapD	68
sapF	22
sbcB	143
sbcC	96
sbcD	21
sbmA	55
sbmC	185
sbp	17
sdaA	459
sdaB	146
sdaC	313
sdhA	6003
sdhB	2875
sdhC	806
sdhD	277
sdiA	31
secA	971
secB	830
secD	614
secE	281
secF	419
secG	560
secM	107
secY	3119
selA	63
selB	122
selC	3
selD	588
seqA	133
serA	199
serB	105
serC	214
serS	1216
serT	3
serU	1
serV	199
serW	4
serX	1
setA	30
setB	8
setC	1
sfcA	521
sfmA	1
sfmC	0
sfmD	2
sfmF	0
sfmH	0
sfsA	135
sfsB	17
sgbE	14
sgbH	7
sgbU	7
sgcA	0
sgcB	1
sgcC	13
sgcE	4
sgcQ	7
sgcR	9
sgcX	12
sgrR	39
sgrS	42
shiA	86
sieB	0
sixA	204
slp	6
slt	141
slyA	136
slyB	308
slyD	1496
slyX	34
smf	47
smg	254
smpA	168
smpB	119
smtA	78
sodA	2348
sodB	1824
sodC	33
sohA	32
sohB	122
sokB	6
sokC	5
solA	107
soxR	8
soxS	27
speA	1571
speB	310
speC	122
speD	110
speE	107
speF	5
speG	24
spf	21
spoT	316
sppA	164
spr	932
sprT	5
spy	24
sra	184
sraB	9
sraD	0
sraF	8
sraG	0
srlA	39
srlB	16
srlD	90
srlE	70
srlR	26
srmB	121
sroF	188
ssb	483
sseA	1954
sseB	105
ssnA	30
sspA	444
sspB	185
ssrA	96323
ssrS	5661
sstT	700
ssuA	0
ssuB	4
ssuC	0
ssuD	0
ssuE	0
stfE	0
stfQ	0
stfR	0
sthA	1162
stpA	4
sucA	9208
sucB	6929
sucC	8684
sucD	6072
sufA	10
sufB	41
sufC	23
sufD	42
sufE	12
sufI	270
sufS	44
sugE	54
suhB	44
sulA	57
surA	486
surE	148
syd	31
tadA	17
tag	35
talA	29
talB	1927
tam	58
tap	125
tar	133
tas	302
tatA	192
tatB	175
tatC	108
tatD	47
tatE	59
tauA	3
tauB	0
tauC	0
tauD	2
tbpA	25
tdcA	97
tdcB	45
tdcC	46
tdcD	15
tdcE	24
tdcF	2
tdcG	11
tdcR	1
tdh	2298
tdk	18
tehA	34
tehB	29
tesA	50
tesB	39
tfaD	0
tfaE	1
tfaQ	0
tfaR	0
tfaS	6
tff	48
tgt	149
thiC	38
thiD	4
thiE	4
thiF	7
thiG	13
thiH	16
thiI	82
thiL	52
thiM	15
thiP	7
thiQ	8
thiS	1
thrA	173
thrB	163
thrC	291
thrL	11
thrS	2425
thrT	21
thrU	7
thrV	0
thrW	16
thyA	136
tiaE	438
tig	2378
tilS	46
tktA	2813
tktB	81
tldD	274
tmk	14
tnaA	22177
tnaB	902
tnaC	471
tolA	77
tolB	519
tolC	689
tolQ	40
tolR	27
tonB	31
topA	697
topB	417
torA	13
torC	1
torD	2
torI	21
torR	32
torS	15
torT	15
torY	4
torZ	27
tpiA	765
tpr	0
tpx	1263
treA	24
treB	754
treC	398
treF	23
treR	19
trg	114
trkA	107
trkD	75
trkG	0
trkH	84
trmA	74
trmC	68
trmD	931
trmE	95
trmH	41
trmU	166
trpA	132
trpB	162
trpC	89
trpD	11
trpE	7
trpL	1
trpR	57
trpS	306
trpT	0
truA	65
truB	136
truD	233
trxA	639
trxB	212
trxC	44
tsf	1190
tsgA	3
tsr	59
tsx	587
ttdA	3
ttdB	0
ttk	87
tufA	5286
tufB	4783
tus	13
tynA	9
tyrA	61
tyrB	232
tyrP	24
tyrR	247
tyrS	426
tyrT	53
tyrU	121
tyrV	27
ubiA	85
ubiB	310
ubiC	114
ubiD	960
ubiE	330
ubiF	138
ubiG	105
ubiH	214
ubiX	34
ucpA	1005
udk	52
udp	761
ugd	49
ugpA	24
ugpB	165
ugpC	74
ugpE	17
ugpQ	66
uhpA	21
uhpB	21
uhpC	5
uhpT	46
uidA	47
uidB	18
uidC	5
uidR	223
ulaA	17
ulaB	7
ulaC	6
ulaD	13
ulaE	23
ulaF	23
ulaG	12
ulaR	45
umuC	9
umuD	1
ung	60
upp	119
uraA	54
usg	118
ushA	261
uspA	1757
uspE	0
uspF	15
uspG	296
uup	174
uvrA	251
uvrB	143
uvrC	238
uvrD	253
uvrY	166
uxaA	282
uxaB	36
uxaC	491
uxuA	344
uxuB	517
uxuR	84
vacJ	175
valS	1159
valT	24
valU	4
valV	0
valW	2
valX	67
valY	9
valZ	28
visC	158
vsr	10
wbbH	82
wbbI	123
wbbJ	73
wbbK	146
wbbL	131
wcaA	0
wcaB	0
wcaC	1
wcaD	0
wcaE	0
wcaF	0
wcaI	1
wcaJ	0
wcaK	3
wcaL	8
wcaM	11
wrbA	49
wza	1
wzb	0
wzc	3
wzxC	3
wzxE	62
wzyE	35
wzzE	133
xapA	4
xapB	11
xapR	23
xdhA	129
xdhB	9
xdhC	14
xdhD	33
xerC	112
xerD	72
xseA	100
xseB	112
xthA	123
xylA	367
xylB	53
xylE	27
xylF	567
xylG	104
xylH	112
xylR	74
yaaA	52
yaaH	4
yaaI	0
yaaJ	8
yaaU	1
yaaW	3
yaaX	9
yaaY	5
yabI	75
yabP	18
yabQ	4
yacC	38
yacF	47
yacG	23
yacH	3
yacL	169
yadB	31
yadC	3
yadD	27
yadE	15
yadG	65
yadH	74
yadI	28
yadK	0
yadL	1
yadM	0
yadN	0
yadR	87
yadS	17
yaeB	24
yaeF	9
yaeH	766
yaeI	15
yaeJ	7
yaeL	475
yaeP	73
yaeQ	28
yaeR	20
yaeT	2104
yafC	36
yafD	79
yafE	10
yafF	1
yafJ	89
yafK	97
yafL	4
yafM	73
yafN	5
yafO	1
yafP	1
yafQ	11
yafS	49
yafT	0
yafU	0
yafV	56
yafW	0
yafX	0
yafY	4
yafZ	1
yagA	0
yagB	19
yagE	46
yagF	119
yagG	45
yagH	62
yagI	37
yagJ	27
yagK	5
yagL	6
yagM	2
yagN	134
yagP	0
yagQ	0
yagR	6
yagS	1
yagT	1
yagU	32
yagV	8
yagW	9
yagX	4
yagY	1
yagZ	4
yahA	3
yahB	18
yahC	2
yahD	9
yahE	0
yahF	3
yahG	4
yahH	0
yahI	3
yahJ	33
yahK	31
yahL	1
yahM	8
yahN	14
yahO	33
yaiA	30
yaiB	302
yaiC	4
yaiE	179
yaiF	0
yaiI	52
yaiL	36
yaiO	3
yaiP	0
yaiS	0
yaiT	5
yaiU	11
yaiV	0
yaiW	61
yaiX	0
yaiY	4
yaiZ	163
yajB	13
yajC	199
yajD	36
yajG	79
yajI	12
yajL	49
yajO	191
yajQ	272
yajR	74
ybaA	3
ybaB	123
ybaD	72
ybaE	29
ybaJ	127
ybaK	11
ybaL	172
ybaM	10
ybaN	13
ybaO	41
ybaP	31
ybaQ	34
ybaS	1
ybaT	2
ybaV	61
ybaW	9
ybaX	52
ybaY	46
ybaZ	29
ybbA	40
ybbB	16
ybbC	1
ybbD	0
ybbJ	38
ybbK	102
ybbL	24
ybbM	10
ybbN	169
ybbO	61
ybbP	77
ybbS	3
ybbV	0
ybbW	4
ybbY	0
ybcC	0
ybcD	0
ybcF	2
ybcH	1
ybcI	1
ybcJ	6
ybcK	0
ybcL	2
ybcM	7
ybcN	1
ybcO	0
ybcQ	1
ybcS	2
ybcV	0
ybcW	3
ybcY	2
ybdA	18
ybdB	5
ybdD	323
ybdF	22
ybdG	60
ybdH	20
ybdJ	9
ybdK	16
ybdL	6
ybdM	6
ybdN	2
ybdO	0
ybdR	14
ybdZ	0
ybeA	31
ybeB	44
ybeD	44
ybeF	2
ybeH	5
ybeL	270
ybeM	6
ybeQ	4
ybeR	0
ybeT	0
ybeU	0
ybeX	211
ybeY	65
ybeZ	164
ybfA	13
ybfB	0
ybfC	1
ybfD	1
ybfE	12
ybfF	43
ybfG	0
ybfH	0
ybfL	0
ybfM	163
ybfN	7
ybfO	0
ybfP	4
ybfQ	1
ybgA	5
ybgC	39
ybgD	1
ybgE	71
ybgF	217
ybgH	5
ybgI	255
ybgJ	153
ybgK	180
ybgL	61
ybgO	1
ybgP	2
ybgQ	1
ybgS	5
ybgT	4
ybhA	31
ybhB	34
ybhC	141
ybhD	3
ybhE	202
ybhF	79
ybhG	78
ybhH	0
ybhI	0
ybhJ	3
ybhK	75
ybhL	162
ybhM	5
ybhN	1
ybhO	4
ybhP	2
ybhQ	434
ybhR	21
ybhS	19
ybhT	144
ybiA	10
ybiB	172
ybiC	298
ybiH	30
ybiI	3
ybiJ	6
ybiM	2
ybiN	26
ybiO	8
ybiP	13
ybiR	42
ybiS	88
ybiT	185
ybiU	29
ybiV	9
ybiW	5
ybiX	4
ybiY	0
ybjC	7
ybjD	84
ybjE	2
ybjG	11
ybjH	11
ybjI	42
ybjJ	41
ybjK	63
ybjL	51
ybjM	12
ybjN	65
ybjO	5
ybjP	48
ybjQ	75
ybjR	64
ybjS	41
ybjT	88
ybjX	19
ycaC	27
ycaD	12
ycaI	26
ycaJ	112
ycaK	2
ycaL	5
ycaM	176
ycaN	4
ycaO	81
ycaP	5
ycaQ	22
ycaR	22
ycbB	144
ycbC	8
ycbF	1
ycbG	109
ycbJ	102
ycbK	262
ycbL	264
ycbQ	3
ycbR	1
ycbS	4
ycbT	5
ycbU	1
ycbV	1
ycbW	105
ycbX	153
ycbY	157
ycbZ	221
yccA	527
yccC	18
yccE	3
yccF	12
yccJ	28
yccK	31
yccM	3
yccR	83
yccS	36
yccT	3
yccU	105
yccV	92
yccW	89
yccX	16
yccZ	1
ycdB	28
ycdC	21
ycdG	14
ycdH	1
ycdI	0
ycdK	2
ycdL	1
ycdM	5
ycdN	10
ycdO	38
ycdP	3
ycdQ	1
ycdR	1
ycdS	14
ycdT	13
ycdU	0
ycdW	156
ycdX	102
ycdY	78
ycdZ	68
yceA	28
yceB	40
yceD	454
yceF	50
yceG	27
yceH	173
yceI	55
yceJ	2
yceK	7
yceO	0
yceP	165
yceQ	0
ycfD	183
ycfH	36
ycfJ	7
ycfK	0
ycfL	33
ycfM	86
ycfN	30
ycfP	85
ycfQ	52
ycfR	2
ycfS	30
ycfT	0
ycfX	179
ycfZ	1
ycgB	56
ycgE	89
ycgF	78
ycgG	0
ycgH	2
ycgI	0
ycgJ	19
ycgK	32
ycgL	28
ycgM	82
ycgN	18
ycgR	14
ycgV	14
ycgX	1
ycgY	0
ycgZ	2
ychA	53
ychE	25
ychF	149
ychG	6
ychH	1235
ychJ	50
ychM	33
ychN	160
ychP	8
ychQ	3
ychS	1
yciA	16
yciB	36
yciC	50
yciE	1
yciF	0
yciG	0
yciH	12
yciI	132
yciK	78
yciM	98
yciN	89
yciO	44
yciQ	14
yciS	73
yciT	96
yciU	30
yciV	41
yciW	11
yciX	63
ycjD	32
ycjF	38
ycjG	168
ycjM	3
ycjN	7
ycjO	2
ycjP	2
ycjQ	2
ycjR	6
ycjS	4
ycjT	8
ycjU	0
ycjV	0
ycjW	23
ycjX	37
ycjY	4
ycjZ	15
ydaC	0
ydaE	0
ydaF	0
ydaG	0
ydaL	0
ydaM	0
ydaN	0
ydaO	0
ydaQ	0
ydaS	0
ydaT	0
ydaU	0
ydaV	0
ydaW	0
ydaY	0
ydbA	79
ydbC	49
ydbD	5
ydbH	93
ydbJ	161
ydbK	419
ydbL	12
ydcA	20
ydcC	0
ydcD	3
ydcE	23
ydcF	59
ydcH	34
ydcI	769
ydcJ	63
ydcK	11
ydcL	66
ydcM	71
ydcN	13
ydcO	38
ydcP	74
ydcQ	7
ydcR	54
ydcS	50
ydcT	19
ydcU	10
ydcV	16
ydcW	88
ydcX	4
ydcY	60
ydcZ	7
yddA	0
yddB	4
yddE	67
yddG	10
yddH	6
yddJ	0
yddK	0
yddL	0
yddM	28
yddV	15
yddW	50
ydeA	10
ydeE	37
ydeH	31
ydeI	2
ydeJ	2
ydeK	35
ydeM	15
ydeN	274
ydeO	0
ydeP	13
ydeQ	1
ydeR	0
ydeS	0
ydeT	0
ydeU	23
ydeV	407
ydeW	284
ydfA	0
ydfB	0
ydfC	1
ydfD	0
ydfE	4
ydfG	431
ydfH	59
ydfI	2
ydfJ	1
ydfK	5
ydfO	0
ydfP	0
ydfQ	0
ydfR	1
ydfT	7
ydfU	0
ydfV	1
ydfW	1
ydfX	0
ydfZ	4
ydgA	275
ydgC	31
ydgD	65
ydgG	8
ydgH	293
ydgI	11
ydgJ	217
ydgK	23
ydgR	333
ydgT	6
ydhA	15
ydhB	19
ydhC	76
ydhD	160
ydhF	85
ydhH	74
ydhI	10
ydhJ	8
ydhK	20
ydhL	13
ydhM	29
ydhO	101
ydhP	10
ydhQ	245
ydhR	217
ydhS	10
ydhT	5
ydhU	5
ydhV	10
ydhW	6
ydhX	7
ydhY	6
ydhZ	49
ydiA	129
ydiB	2
ydiD	1
ydiE	2
ydiF	1
ydiH	13
ydiI	55
ydiJ	541
ydiK	60
ydiL	0
ydiM	0
ydiN	0
ydiO	5
ydiP	9
ydiQ	0
ydiR	4
ydiS	1
ydiT	0
ydiU	244
ydiV	19
ydiY	21
ydiZ	16
ydjA	347
ydjE	16
ydjF	45
ydjG	14
ydjH	10
ydjI	13
ydjJ	12
ydjK	6
ydjL	10
ydjM	1
ydjN	41
ydjO	0
ydjQ	23
ydjR	14
ydjX	1
ydjY	12
ydjZ	5
yeaA	572
yeaB	15
yeaC	394
yeaD	142
yeaE	104
yeaG	94
yeaH	21
yeaI	0
yeaJ	33
yeaK	36
yeaL	6
yeaM	15
yeaN	10
yeaO	30
yeaP	80
yeaQ	18
yeaR	2
yeaS	16
yeaT	129
yeaU	34
yeaV	0
yeaW	8
yeaX	7
yeaY	80
yeaZ	63
yebA	248
yebB	1
yebC	193
yebE	38
yebF	53
yebG	78
yebK	111
yebN	5
yebO	39
yebQ	6
yebR	96
yebS	31
yebT	82
yebU	48
yebV	16
yebW	14
yebY	34
yebZ	54
yecA	314
yecC	78
yecD	46
yecE	18
yecF	13
yecG	13
yecH	4
yecI	157
yecJ	16
yecM	29
yecN	37
yecO	22
yecP	28
yecR	157
yecS	45
yecT	1
yedA	13
yedD	54
yedE	231
yedF	47
yedI	41
yedJ	35
yedK	8
yedL	6
yedM	8
yedN	3
yedO	181
yedP	6
yedQ	42
yedR	3
yedS	11
yedV	24
yedW	19
yedX	5
yedY	27
yedZ	3
yeeA	53
yeeD	5
yeeE	10
yeeF	66
yeeI	1446
yeeJ	52
yeeL	2
yeeN	107
yeeO	14
yeeP	3
yeeR	41
yeeS	0
yeeT	0
yeeU	1
yeeV	0
yeeW	9
yeeX	292
yeeY	31
yeeZ	146
yefM	26
yegD	14
yegE	221
yegH	43
yegI	16
yegJ	1
yegK	0
yegL	5
yegP	15
yegQ	54
yegR	4
yegS	6
yegT	53
yegU	40
yegV	41
yegW	31
yegX	6
yegZ	2
yehA	0
yehB	5
yehC	0
yehD	0
yehE	2
yehI	10
yehK	1
yehL	0
yehM	4
yehP	2
yehQ	4
yehR	1
yehS	44
yehT	22
yehU	54
yehW	4
yehX	3
yehY	6
yehZ	16
yeiA	32
yeiB	40
yeiC	9
yeiE	223
yeiG	287
yeiH	25
yeiI	24
yeiJ	3
yeiL	3
yeiM	28
yeiN	35
yeiP	50
yeiQ	69
yeiR	11
yeiS	4
yeiT	18
yeiU	9
yeiW	6
yejA	110
yejB	20
yejE	27
yejF	72
yejG	98
yejH	37
yejK	105
yejL	45
yejM	216
yejO	42
yfaA	9
yfaD	6
yfaE	28
yfaH	1
yfaL	53
yfaO	20
yfaP	2
yfaQ	4
yfaS	10
yfaT	0
yfaU	13
yfaV	11
yfaW	27
yfaX	5
yfaY	112
yfaZ	16
yfbB	15
yfbE	7
yfbF	5
yfbG	20
yfbH	3
yfbJ	0
yfbK	4
yfbL	1
yfbM	11
yfbN	1
yfbO	0
yfbP	4
yfbQ	147
yfbR	25
yfbS	102
yfbT	190
yfbU	123
yfbV	138
yfbW	0
yfcA	29
yfcC	1
yfcD	90
yfcE	72
yfcF	28
yfcG	5
yfcH	199
yfcI	8
yfcJ	7
yfcL	39
yfcM	32
yfcN	105
yfcO	39
yfcP	0
yfcQ	1
yfcR	0
yfcS	0
yfcT	0
yfcU	14
yfcV	0
yfcX	882
yfcY	361
yfcZ	76
yfdC	3
yfdE	1
yfdF	1
yfdG	18
yfdH	95
yfdI	77
yfdK	2
yfdL	0
yfdM	0
yfdN	0
yfdO	0
yfdP	0
yfdQ	4
yfdR	0
yfdS	0
yfdT	0
yfdV	2
yfdX	2
yfdY	24
yfdZ	125
yfeA	68
yfeC	170
yfeD	36
yfeG	14
yfeH	131
yfeK	3
yfeN	2
yfeO	17
yfeR	6
yfeS	11
yfeT	12
yfeU	38
yfeW	18
yfeX	206
yfeY	80
yfeZ	13
yffB	39
yffH	40
yffI	26
yfgA	326
yfgB	126
yfgC	149
yfgD	86
yfgF	4
yfgG	55
yfgH	0
yfgI	2
yfgJ	17
yfgL	466
yfgM	185
yfgO	53
yfhA	45
yfhB	35
yfhD	15
yfhG	14
yfhH	17
yfhJ	43
yfhK	59
yfhL	4
yfhM	436
yfhQ	285
yfhR	3
yfiA	5614
yfiB	13
yfiC	20
yfiD	42
yfiE	19
yfiF	215
yfiH	32
yfiK	7
yfiL	1
yfiM	14
yfiN	19
yfiO	383
yfiP	17
yfiQ	1202
yfiR	26
yfjB	57
yfjD	65
yfjF	8
yfjG	53
yfjH	11
yfjI	35
yfjJ	2
yfjK	61
yfjL	46
yfjM	1
yfjN	69
yfjO	23
yfjP	5
yfjQ	1
yfjR	1
yfjS	2
yfjT	5
yfjU	3
yfjV	0
yfjW	26
yfjX	0
yfjY	0
yfjZ	0
ygaC	4
ygaD	85
ygaF	212
ygaH	14
ygaM	21
ygaP	13
ygaQ	0
ygaR	0
ygaT	365
ygaU	63
ygaV	3
ygaW	53
ygaX	6
ygaY	2
ygaZ	87
ygbA	24
ygbE	10
ygbF	7
ygbI	110
ygbJ	1
ygbK	9
ygbL	4
ygbM	5
ygbN	12
ygbT	7
ygcB	19
ygcE	8
ygcF	34
ygcG	0
ygcH	7
ygcI	4
ygcJ	4
ygcK	4
ygcL	5
ygcM	14
ygcN	9
ygcO	1
ygcP	4
ygcQ	3
ygcR	1
ygcS	2
ygcU	0
ygcW	1
ygdB	8
ygdD	6
ygdE	41
ygdH	1288
ygdI	8
ygdK	34
ygdL	70
ygdQ	23
ygdR	131
ygeA	49
ygeD	38
ygeF	0
ygeG	0
ygeH	0
ygeI	0
ygeK	0
ygeL	0
ygeM	0
ygeN	0
ygeO	0
ygeP	1
ygeQ	3
ygeR	129
ygeV	770
ygeW	247
ygeX	78
ygeY	47
ygfA	28
ygfB	204
ygfF	155
ygfG	2
ygfH	10
ygfI	2
ygfJ	42
ygfK	300
ygfM	12
ygfO	4
ygfQ	18
ygfS	2
ygfT	24
ygfU	32
ygfX	95
ygfY	171
ygfZ	629
yggC	15
yggD	18
yggE	84
yggF	2
yggG	579
yggH	47
yggJ	66
yggL	131
yggM	6
yggN	26
yggP	2
yggR	10
yggS	40
yggT	44
yggU	10
yggV	39
yggW	76
yggX	28
yghA	11
yghB	127
yghD	7
yghE	1
yghF	0
yghG	0
yghJ	74
yghK	20
yghO	1
yghQ	4
yghR	2
yghS	0
yghT	0
yghU	180
yghW	0
yghX	2
yghY	7
yghZ	232
ygiA	5
ygiB	205
ygiC	433
ygiE	148
ygiF	50
ygiH	62
ygiL	3
ygiN	312
ygiP	3
ygiQ	114
ygiS	249
ygiT	23
ygiU	20
ygiV	0
ygiW	20
ygiZ	0
ygjD	79
ygjE	1
ygjF	79
ygjG	29
ygjH	27
ygjI	30
ygjJ	4
ygjK	19
ygjM	7
ygjN	1
ygjO	41
ygjP	25
ygjQ	0
ygjR	204
ygjV	4
yhaB	0
yhaC	2
yhaH	29
yhaI	0
yhaJ	123
yhaK	16
yhaL	156
yhaM	34
yhaO	28
yhaV	42
yhbC	148
yhbE	87
yhbG	121
yhbH	210
yhbJ	240
yhbN	82
yhbO	0
yhbP	19
yhbQ	11
yhbS	141
yhbT	254
yhbU	1
yhbV	1
yhbW	48
yhbX	4
yhbY	120
yhcA	1
yhcB	313
yhcC	2
yhcD	7
yhcE	75
yhcF	17
yhcG	12
yhcH	17
yhcM	97
yhcN	8
yhcO	3
yhdA	102
yhdE	39
yhdH	201
yhdJ	4
yhdL	5
yhdN	18
yhdP	210
yhdT	4
yhdU	13
yhdV	1
yhdW	7
yhdX	4
yhdY	4
yhdZ	6
yheL	15
yheM	14
yheN	33
yheO	101
yheS	106
yheT	30
yheU	16
yheV	10
yhfA	121
yhfG	2
yhfK	207
yhfL	1
yhfS	7
yhfT	3
yhfU	0
yhfW	1
yhfX	2
yhfY	11
yhfZ	45
yhgA	10
yhgE	55
yhgF	267
yhgG	5
yhgN	17
yhhA	32
yhhF	21
yhhH	0
yhhI	0
yhhJ	161
yhhK	42
yhhL	9
yhhM	26
yhhN	93
yhhP	16
yhhQ	10
yhhS	34
yhhT	5
yhhW	65
yhhX	171
yhhY	24
yhhZ	0
yhiD	0
yhiF	0
yhiI	258
yhiJ	3
yhiK	0
yhiL	0
yhiM	1
yhiN	31
yhiO	19
yhiP	262
yhiQ	36
yhiR	73
yhiS	0
yhjA	15
yhjB	5
yhjC	11
yhjD	21
yhjE	12
yhjG	42
yhjH	37
yhjJ	161
yhjK	64
yhjQ	5
yhjR	15
yhjV	14
yhjX	6
yhjY	8
yiaA	2
yiaB	1
yiaC	11
yiaD	9
yiaF	183
yiaG	6
yiaH	7
yiaI	11
yiaJ	34
yiaK	17
yiaL	0
yiaM	0
yiaN	5
yiaO	12
yiaT	2
yiaU	16
yiaV	0
yiaW	0
yiaY	0
yibA	10
yibD	4
yibF	47
yibG	0
yibH	7
yibI	1
yibJ	6
yibK	8
yibL	62
yibN	187
yibQ	32
yibT	66
yicC	166
yicE	41
yicG	13
yicH	141
yicI	38
yicJ	7
yicL	33
yicM	6
yicN	19
yicO	4
yicR	251
yicS	2
yidA	62
yidB	12
yidC	671
yidD	10
yidE	67
yidF	16
yidG	2
yidH	7
yidI	6
yidJ	0
yidK	6
yidL	12
yidP	1
yidQ	296
yidR	39
yidX	3
yidZ	8
yieE	69
yieF	188
yieG	68
yieH	11
yieI	2
yieK	1
yieL	3
yieM	46
yieN	56
yieP	87
yifB	17
yifE	126
yifK	130
yifL	103
yifN	4
yifO	3
yigA	98
yigB	62
yigE	2
yigF	1
yigG	0
yigI	17
yigL	59
yigM	9
yigP	147
yigZ	71
yihA	148
yihD	76
yihE	118
yihF	5
yihG	9
yihI	74
yihL	14
yihM	25
yihN	24
yihO	6
yihP	4
yihQ	0
yihR	1
yihS	20
yihT	5
yihU	1
yihV	5
yihW	45
yihX	384
yiiD	217
yiiE	0
yiiF	13
yiiG	1
yiiL	0
yiiM	73
yiiQ	43
yiiR	8
yiiS	27
yiiT	38
yiiU	413
yiiX	4
yijD	175
yijE	25
yijF	0
yijO	16
yijP	83
yjaA	0
yjaB	10
yjaG	70
yjaH	43
yjbA	0
yjbB	83
yjbC	68
yjbD	69
yjbE	4
yjbF	0
yjbG	0
yjbH	12
yjbI	1
yjbJ	25
yjbL	0
yjbM	0
yjbN	98
yjbO	7
yjbQ	104
yjbR	59
yjcB	1
yjcC	7
yjcD	52
yjcE	130
yjcF	3
yjcH	398
yjcO	76
yjcP	1
yjcQ	1
yjcR	0
yjcS	1
yjcZ	47
yjdA	131
yjdC	85
yjdF	8
yjdI	2
yjdJ	1
yjdK	0
yjdL	4
yjdO	0
yjdP	7
yjeB	80
yjeE	16
yjeF	29
yjeH	20
yjeI	509
yjeJ	6
yjeK	68
yjeM	4
yjeN	0
yjeO	0
yjeP	163
yjeS	31
yjeT	5
yjfC	0
yjfF	23
yjfI	0
yjfJ	2
yjfK	2
yjfL	0
yjfM	0
yjfN	225
yjfO	576
yjfP	29
yjfY	1
yjfZ	3
yjgA	131
yjgB	14
yjgD	444
yjgF	1936
yjgH	3
yjgI	7
yjgJ	17
yjgK	26
yjgL	12
yjgM	14
yjgN	1
yjgP	137
yjgQ	117
yjgR	47
yjgW	3
yjgX	55
yjgZ	0
yjhA	14
yjhB	3
yjhC	53
yjhD	2
yjhE	0
yjhF	4
yjhG	48
yjhH	11
yjhI	4
yjhP	31
yjhQ	26
yjhR	2
yjhS	1
yjhT	37
yjhU	173
yjhV	0
yjhW	0
yjhX	26
yjiA	86
yjiC	0
yjiD	1
yjiE	30
yjiG	2
yjiH	1
yjiJ	14
yjiK	4
yjiL	7
yjiM	21
yjiN	13
yjiO	8
yjiP	1
yjiQ	23
yjiR	23
yjiS	0
yjiT	435
yjiV	72
yjiW	4
yjiX	1
yjiY	18
yjiZ	18
yjjA	31
yjjB	3
yjjG	33
yjjI	4
yjjJ	37
yjjK	707
yjjM	94
yjjN	5
yjjP	5
yjjQ	0
yjjU	37
yjjV	29
yjjW	7
yjjX	24
yjjY	1
yjjZ	2
yjtD	27
ykfA	38
ykfB	36
ykfC	14
ykfF	1
ykfG	0
ykfH	0
ykfI	1
ykfJ	0
ykgA	7
ykgB	0
ykgC	14
ykgD	13
ykgE	35
ykgF	69
ykgG	53
ykgH	4
ykgI	0
ykgJ	1
ykgK	0
ykgL	2
ykgM	2
ykgN	42
ykiA	8
ykiB	0
ylaB	31
ylaC	35
ylbA	28
ylbE	5
ylbF	1
ylbG	12
ylbH	1
ylcE	0
ylcG	0
yliA	140
yliB	179
yliC	43
yliD	23
yliE	5
yliF	3
yliG	34
yliH	0
yliI	9
yliJ	259
yliK	4
yliL	3
ymbA	17
ymcA	5
ymcB	1
ymcC	0
ymcD	2
ymcE	1
ymdA	1
ymdB	36
ymdC	49
ymdE	0
ymdF	11
ymfA	1
ymfB	16
ymfC	18
ymfD	14
ymfE	12
ymfG	1
ymfH	0
ymfI	42
ymfJ	1
ymfK	35
ymfL	0
ymfM	1
ymfN	0
ymfO	0
ymfP	1
ymfQ	0
ymfR	0
ymfS	1
ymfT	0
ymgA	0
ymgB	0
ymgC	0
ymgD	3
ymgE	3
ymgF	3
ymgG	4
ymgH	0
ymjA	33
ymjB	0
ymjC	2
ynaA	0
ynaE	0
ynaI	14
ynaJ	0
ynaK	0
ynbA	0
ynbB	0
ynbC	15
ynbD	10
ynbE	0
yncA	28
yncB	75
yncC	3
yncD	40
yncE	158
yncG	2
yncH	0
yncI	2
yncJ	2
yncK	2
yncM	0
yncN	4
yneE	3
yneF	19
yneG	4
yneH	35
yneI	58
yneJ	8
yneK	0
yneL	0
ynfA	14
ynfB	51
ynfC	31
ynfD	33
ynfE	4
ynfF	14
ynfG	5
ynfH	10
ynfK	13
ynfL	13
ynfM	21
ynfN	0
ynfO	0
ynfP	0
ynhG	36
yniA	231
yniB	39
yniC	56
yniD	6
ynjA	6
ynjB	20
ynjC	16
ynjD	7
ynjE	18
ynjF	33
ynjH	11
ynjI	9
yoaA	113
yoaB	138
yoaC	9
yoaD	6
yoaE	194
yoaF	20
yoaG	0
yoaH	31
yoaI	2
yobA	58
yobB	17
yobD	5
yobF	406
yobG	37
yobH	21
yodA	2
yodB	2
yodC	30
yodD	12
yoeA	7
yoeB	18
yoeE	12
yoeF	2
yohC	10
yohD	23
yohF	6
yohG	1
yohH	1
yohJ	2
yohK	2
yohL	17
yohM	2
yohN	18
yohO	8
yojI	37
yojL	14
ypaA	21
ypdA	35
ypdB	23
ypdC	18
ypdD	12
ypdE	2
ypdF	2
ypdG	6
ypdH	3
ypdI	0
ypdJ	0
ypeA	38
ypeB	5
ypeC	15
ypfE	0
ypfG	8
ypfH	65
ypfI	103
ypfJ	85
ypfN	23
yphA	13
yphB	9
yphC	13
yphD	3
yphE	1
yphF	4
yphG	9
yphH	19
ypjA	13
ypjB	0
ypjC	0
ypjD	47
ypjF	0
ypjJ	0
ypjK	0
ypjL	7
ypjM	1
yqaA	47
yqaB	85
yqaC	1
yqaD	0
yqaE	3
yqcA	249
yqcB	27
yqcC	12
yqcD	64
yqcE	3
yqeA	31
yqeB	221
yqeC	127
yqeF	643
yqeG	41
yqeH	1
yqeI	2
yqeJ	0
yqeK	1
yqfA	348
yqfB	31
yqfE	1
yqgA	14
yqgB	55
yqgC	1
yqgD	10
yqgE	116
yqgF	47
yqhA	73
yqhC	18
yqhD	148
yqhG	2
yqhH	1
yqiA	84
yqiB	19
yqiC	94
yqiG	2
yqiH	0
yqiI	2
yqiJ	8
yqiK	13
yqjA	73
yqjB	18
yqjC	57
yqjD	48
yqjE	52
yqjF	2
yqjG	22
yqjH	26
yqjI	23
yqjK	54
yraH	0
yraI	0
yraJ	12
yraK	8
yraL	42
yraM	237
yraN	19
yraO	93
yraP	185
yraQ	29
yraR	20
yrbA	42
yrbB	47
yrbC	129
yrbD	75
yrbE	60
yrbF	102
yrbG	77
yrbK	62
yrbL	230
yrdA	127
yrdB	16
yrdC	40
yrdD	127
yrfA	2
yrfB	3
yrfC	2
yrfD	8
yrfF	342
yrfG	35
yrhA	0
yrhB	0
yrhC	0
ysaB	1
ysdC	0
ysgA	95
ytfA	0
ytfB	172
ytfE	17
ytfF	18
ytfG	23
ytfH	12
ytfI	5
ytfJ	262
ytfK	340
ytfL	58
ytfM	97
ytfN	192
ytfP	58
ytfQ	116
ytfR	47
ytfT	20
ytjA	26
ytjB	16
ytjC	139
yzcX	6
yzfA	3
yzgL	9
zapA	194
zipA	313
zitB	44
zntA	413
zntR	15
znuA	131
znuB	27
znuC	40
zraP	1
zraR	30
zraS	33
zupT	19
zur	107
zwf	351
__no_feature	23634
__ambiguous	120724
__too_low_aQual	0
__not_aligned	0
__alignment_not_unique	0
