aaeA	2
aaeB	6
aaeR	16
aaeX	0
aas	56
aat	14
abgA	0
abgB	0
abgR	0
abgT	0
abrB	5
accA	313
accB	292
accC	652
accD	669
aceA	18199
aceB	10168
aceE	1936
aceF	1007
aceK	1704
ackA	273
acnA	758
acnB	16948
acpP	2457
acpS	11
acpT	8
acrA	167
acrB	364
acrD	6
acrE	0
acrF	15
acrR	16
acs	3615
actP	2061
ada	19
add	269
ade	34
adhE	298
adhP	29
adiA	9
adiC	4
adiY	0
adk	1092
aegA	9
aer	748
aes	8
afuB	0
afuC	3
agaA	19
agaB	0
agaC	1
agaD	0
agaI	1
agaR	72
agaS	14
agaV	24
agaW	9
agp	317
ahpC	4349
ahpF	146
aidB	14
ais	2
alaS	870
alaT	1
alaU	1
alaV	2
alaW	5
alaX	2
aldA	10363
aldB	158
alkA	9
alkB	8
allA	5
allB	8
allC	9
allD	2
allR	65
alpA	0
alr	88
alsA	5
alsB	9
alsC	2
alsE	0
alsK	12
alx	11
amiA	50
amiB	45
amiC	172
amn	192
ampC	20
ampD	20
ampE	26
ampG	65
ampH	41
amtB	10
amyA	155
ansA	33
ansB	13
ansP	14
apaG	25
apaH	42
aphA	261
appA	16
appB	5
appC	5
appY	2
apt	37
aqpZ	4
araA	18
araB	17
araC	246
araD	7
araE	20
araF	47
araG	10
araH	13
araJ	12
arcA	1005
arcB	183
argA	17
argB	9
argC	4
argD	22
argE	36
argF	11
argG	42
argH	19
argI	26
argK	3
argO	6
argP	61
argQ	20
argR	87
argS	247
argT	418
argU	5
argV	33
argW	1
argX	12
argY	105
argZ	31
arnT	3
aroA	16
aroB	149
aroC	193
aroD	32
aroE	35
aroF	28
aroG	109
aroH	32
aroK	111
aroL	14
aroM	2
aroP	25
arpA	4
arpB	0
arsB	12
arsC	9
arsR	9
artI	106
artJ	11
artM	17
artP	45
artQ	21
ascB	16
ascF	11
ascG	36
asd	462
aslA	6
aslB	22
asmA	132
asnA	81
asnB	81
asnC	5
asnS	297
asnT	33
asnU	9
asnV	0
asnW	0
aspA	2974
aspC	1359
aspS	218
aspT	0
aspU	2
aspV	8
asr	3
astA	324
astB	246
astC	880
astD	371
astE	124
atoA	0
atoB	3
atoC	31
atoD	3
atoE	0
atoS	23
atpA	4219
atpB	927
atpC	858
atpD	3357
atpE	795
atpF	1271
atpG	1627
atpH	812
atpI	231
avtA	121
azoR	37
bacA	54
baeR	8
baeS	5
barA	79
basR	10
basS	12
bax	435
bcp	134
bcr	17
bcsA	6
bcsB	9
bcsC	26
bcsE	67
bcsF	0
bcsG	24
bcsZ	3
bdm	1
betA	35
betB	80
betI	52
betT	37
bfd	12
bfr	88
bglA	164
bglB	3
bglF	2
bglG	7
bglH	1
bglJ	0
bglX	161
bioA	12
bioB	4
bioC	3
bioD	5
bioF	2
bioH	26
bipA	484
birA	49
bisC	67
blc	10
blr	14
bolA	85
borD	35
brnQ	43
btuB	166
btuC	24
btuD	29
btuE	39
btuF	22
btuR	28
cadA	5
cadB	1
cadC	2
caiA	11
caiB	7
caiC	9
caiD	2
caiE	1
caiF	62
caiT	0
can	287
carA	2779
carB	5795
cbl	3
cbpA	55
cbpM	12
cbrA	2
cbrC	9
cca	118
cchA	10
cchB	0
ccmA	9
ccmB	5
ccmC	10
ccmD	1
ccmE	10
ccmF	35
ccmG	7
ccmH	19
cdaR	47
cdd	22
cdh	7
cdsA	123
cedA	3
cfa	115
chaA	15
chaB	2
chaC	7
chbA	2
chbB	46
chbC	24
chbF	10
chbG	18
chbR	14
cheA	531
cheB	61
cheR	65
cheW	162
cheY	68
cheZ	102
chiA	14
chpA	11
chpB	25
chpR	23
chpS	11
cirA	34
citA	18
citB	4
citC	0
citD	0
citE	1
citF	1
citG	0
citT	3
citX	0
clcA	29
clcB	9
cld	287
clpA	885
clpB	292
clpP	261
clpS	35
clpX	378
cls	77
cmk	154
cmr	25
cmtA	8
cmtB	1
coaA	128
coaD	18
coaE	16
cobB	97
cobC	7
cobS	8
cobT	28
cobU	12
codA	1196
codB	899
cof	11
copA	60
corA	81
cpdA	168
cpdB	181
cpsB	4
cpsG	2
cpxA	103
cpxP	102
cpxR	134
crcA	4
crcB	5
creA	34
creB	23
creC	11
creD	5
crl	502
crp	1133
crr	683
csdA	54
csgA	3
csgB	0
csgC	5
csgD	6
csgE	1
csgF	0
csgG	10
csiE	194
csiR	40
cspA	28
cspB	3
cspC	1092
cspD	2196
cspE	1101
cspF	6
cspG	3
cspH	0
cspI	0
csrA	232
csrB	8191
csrC	580
cstA	2389
cueO	44
cueR	20
cusA	9
cusB	4
cusC	0
cusF	0
cusR	20
cusS	14
cutA	17
cutC	41
cvpA	187
cvrA	97
cyaA	238
cyaY	32
cybB	34
cybC	7
cycA	525
cydA	545
cydB	287
cydC	65
cydD	51
cynR	10
cynS	2
cynT	3
cynX	6
cyoA	2578
cyoB	3094
cyoC	484
cyoD	235
cyoE	1106
cysA	74
cysB	68
cysC	13
cysD	44
cysE	181
cysG	38
cysH	86
cysI	171
cysJ	137
cysK	1325
cysM	49
cysN	76
cysP	53
cysQ	45
cysS	132
cysT	8
cysU	14
cysW	14
cysZ	41
cytR	127
dacA	151
dacB	40
dacC	75
dacD	7
dadA	2002
dadX	968
dam	26
damX	184
dapA	530
dapB	84
dapD	288
dapE	26
dapF	93
dbpA	0
dcd	121
dcm	88
dcp	179
dcrB	226
dctA	910
dcuA	79
dcuB	3
dcuC	9
dcuD	7
dcuR	50
dcuS	101
ddg	16
ddlA	110
ddlB	79
ddpA	45
ddpB	7
ddpC	11
ddpD	10
ddpF	13
ddpX	6
deaD	60
dedA	40
dedD	89
def	96
degP	260
degQ	118
degS	42
deoA	54
deoB	346
deoC	35
deoD	368
deoR	49
der	97
dfp	141
dgkA	32
dgoA	3
dgoD	4
dgoK	4
dgoR	40
dgoT	2
dgsA	94
dgt	60
dhaH	65
dhaK	114
dhaL	49
dhaR	18
dicA	63
dicB	0
dicC	0
dicF	1
dinB	11
dinD	39
dinF	27
dinG	61
dinI	29
dinJ	43
dipZ	47
djlA	24
djlB	4
djlC	6
dkgA	50
dkgB	51
dksA	574
dld	553
dmsA	7
dmsB	2
dmsC	3
dmsD	20
dnaA	135
dnaB	157
dnaC	14
dnaE	163
dnaG	142
dnaJ	107
dnaK	747
dnaN	101
dnaQ	76
dnaT	11
dnaX	101
dos	18
dppA	2148
dppB	88
dppC	47
dppD	94
dppF	105
dps	353
dsbA	131
dsbB	43
dsbC	36
dsbG	9
dsdA	54
dsdC	67
dsdX	33
dsrA	1
dsrB	18
dtd	43
dusB	194
dusC	3
dut	159
dxr	44
dxs	395
eaeH	2
eamA	33
ebgA	65
ebgC	4
ebgR	26
ecnA	7
ecnB	10
eco	267
ecpD	0
eda	143
edd	30
efp	683
ego	183
elaA	19
elaB	63
elaC	36
elaD	1
elbA	0
elbB	151
emrA	46
emrB	29
emrD	56
emrE	5
emrK	1
emrY	4
emtA	35
endA	3
eno	1533
entA	3
entB	8
entC	14
entD	1
entE	5
entF	18
envC	96
envR	0
envY	1
envZ	135
epd	230
eptA	1
eptB	138
era	142
erfK	22
essD	0
essQ	0
etp	0
eutA	1
eutB	31
eutC	25
eutE	7
eutG	3
eutH	2
eutI	12
eutJ	5
eutL	7
eutP	6
eutQ	5
eutT	8
evgA	23
evgS	32
exbB	58
exbD	28
exo	62
exoX	23
exuR	61
exuT	46
fabA	310
fabB	1096
fabD	331
fabF	705
fabG	696
fabH	239
fabI	1066
fabR	124
fabZ	104
fadA	702
fadB	2301
fadD	1124
fadE	236
fadH	198
fadL	588
fadR	113
fbaA	2011
fbaB	157
fbp	366
fcl	1
fdhD	25
fdhE	242
fdhF	15
fdnG	6
fdnH	2
fdnI	2
fdoG	3057
fdoH	382
fdoI	166
fdrA	2
fdx	45
feaB	43
feaR	250
fecA	280
fecB	69
fecC	27
fecD	13
fecE	33
fecI	11
fecR	7
feoA	7
feoB	50
fepA	20
fepB	16
fepC	9
fepD	1
fepE	2
fepG	1
fes	2
ffh	331
ffs	6
fhiA	5
fhlA	6
fhuA	86
fhuB	15
fhuC	13
fhuD	11
fhuE	8
fhuF	83
fic	4
fieF	77
fimA	1588
fimB	8
fimC	35
fimD	70
fimE	2
fimF	12
fimG	12
fimH	24
fimI	85
fimZ	0
fis	50
fiu	11
fixA	0
fixB	4
fixC	3
fixX	1
fklB	464
fkpA	375
fkpB	46
fldA	324
fldB	88
flgA	501
flgB	707
flgC	423
flgD	1369
flgE	2878
flgF	1210
flgG	1304
flgH	335
flgI	268
flgJ	198
flgK	713
flgL	595
flgM	189
flgN	207
flhA	327
flhB	144
flhC	66
flhD	78
flhE	50
fliA	899
fliC	6408
fliD	737
fliE	326
fliF	611
fliG	375
fliH	198
fliI	288
fliJ	63
fliK	272
fliL	289
fliM	411
fliN	122
fliO	47
fliP	59
fliQ	18
fliR	31
fliS	90
fliT	66
fliY	528
fliZ	415
flk	46
flu	559
flxA	85
fmt	156
fnr	0
focA	20
focB	3
folA	71
folB	9
folC	143
folD	142
folE	257
folK	14
folM	9
folP	86
folX	51
fpr	195
frc	2
frdA	255
frdB	59
frdC	25
frdD	25
fre	300
frlA	1
frlB	13
frlC	2
frlD	7
frlR	31
frmA	150
frmB	43
frmR	33
frr	674
frsA	75
fruA	38
fruB	17
fruK	6
fruR	529
frvA	0
frvB	1
frvR	2
frvX	7
frwB	4
frwC	10
frwD	2
fsaA	4
fsaB	10
fsr	21
ftn	120
ftsA	148
ftsB	67
ftsE	68
ftsH	694
ftsI	71
ftsK	230
ftsL	9
ftsN	87
ftsQ	51
ftsW	40
ftsX	62
ftsY	170
ftsZ	610
fucA	17
fucI	29
fucK	18
fucO	71
fucP	11
fucR	137
fucU	25
fumA	2114
fumB	9
fumC	1313
fur	352
fusA	7562
fxsA	6
gabD	166
gabP	74
gabT	173
gadA	5
gadB	1
gadC	7
gadE	1
gadW	9
gadX	6
gadY	0
galE	89
galF	635
galK	101
galM	100
galP	8
galR	36
galS	82
galT	40
galU	177
gapA	2789
gapC	96
garD	18
garK	6
garL	4
garP	11
garR	12
gatA	279
gatB	196
gatC	1918
gatD	137
gatR	36
gatY	1188
gatZ	1332
gcd	29
gcl	10
gcvA	24
gcvB	1433
gcvH	1074
gcvP	3284
gcvR	36
gcvT	2121
gdhA	168
ggt	37
gidA	131
gidB	13
glcB	366
glcC	643
glcD	73
glcE	33
glcF	39
glcG	41
gldA	55
glf	141
glgA	163
glgB	398
glgC	251
glgP	270
glgS	92
glgX	181
glk	123
glmM	517
glmS	1063
glmU	502
glnA	2186
glnB	80
glnD	213
glnE	89
glnG	113
glnH	4667
glnK	0
glnL	96
glnP	394
glnQ	588
glnS	516
glnU	5
glnV	4
glnW	5
glnX	5
gloA	142
gloB	37
glpA	2
glpB	4
glpC	9
glpD	46
glpE	11
glpF	173
glpG	25
glpK	443
glpQ	38
glpR	52
glpT	37
glpX	58
gltA	3113
gltB	118
gltD	29
gltF	7
gltI	823
gltJ	55
gltK	39
gltL	57
gltP	17
gltS	31
gltT	302
gltU	55
gltV	43
gltW	294
gltX	528
glvB	0
glvC	2
glvG	0
glxK	5
glxR	0
glyA	4597
glyQ	173
glyS	411
glyT	16
glyU	2
glyV	17
glyW	46
glyX	8
glyY	1
gmd	0
gmhB	57
gmk	92
gmr	20
gnd	1607
gnsA	3
gnsB	41
gntK	2
gntP	31
gntR	85
gntT	31
gntU	4
gntX	54
gntY	233
gor	215
gph	80
gpmA	531
gpmI	126
gpp	211
gpsA	550
gpt	147
greA	35
greB	22
groL	1493
groS	223
grpE	302
grxA	8
grxB	333
grxC	168
gshA	244
gshB	123
gsk	72
gspA	3
gspC	1
gspD	7
gspE	1
gspF	1
gspG	0
gspH	0
gspI	0
gspJ	1
gspK	0
gspL	4
gspM	1
gspO	3
gss	85
gst	228
guaA	1934
guaB	1214
guaC	620
guaD	9
gudD	10
gudP	27
gudX	8
gutM	2
gutQ	47
gyrA	1064
gyrB	511
hcaB	5
hcaC	2
hcaD	9
hcaE	34
hcaF	2
hcaR	409
hcaT	38
hchA	86
hcp	0
hcr	2
hda	97
hdeA	20
hdeB	4
hdeD	5
hdfR	31
hdhA	81
helD	91
hemA	95
hemB	190
hemC	181
hemD	51
hemE	132
hemF	46
hemG	29
hemH	49
hemL	317
hemN	176
hemX	155
hemY	142
hepA	26
hflC	241
hflD	85
hflK	362
hflX	244
hfq	349
hha	8
hinT	69
hipA	28
hipB	5
hisA	15
hisB	49
hisC	16
hisD	16
hisF	28
hisG	11
hisH	13
hisI	31
hisJ	232
hisL	4
hisM	12
hisP	32
hisQ	29
hisR	12
hisS	269
hlpA	448
hlyE	2
hmp	328
hns	2044
hofB	17
hofC	7
hofQ	1
hokA	1
hokB	5
hokC	0
hokD	11
hokE	1
holA	35
holB	21
holC	32
holD	13
holE	25
hpt	102
hrpA	137
hrpB	76
hscA	228
hscB	37
hscC	19
hsdM	77
hsdR	631
hsdS	35
hslJ	5
hslO	55
hslR	9
hslU	118
hslV	28
hsrA	13
htgA	1
htpG	204
htpX	228
htrC	0
htrE	2
htrG	88
htrL	32
hupA	2479
hupB	2543
hyaA	0
hyaB	0
hyaC	1
hyaD	4
hyaE	0
hyaF	2
hybA	18
hybB	19
hybC	55
hybD	15
hybE	6
hybF	1
hybG	2
hybO	23
hycA	0
hycB	0
hycC	1
hycD	0
hycE	2
hycF	1
hycG	2
hycH	3
hycI	22
hydN	4
hyfA	3
hyfB	4
hyfC	0
hyfD	4
hyfE	0
hyfF	1
hyfG	2
hyfH	1
hyfI	1
hyfJ	1
hyfR	3
hyi	2
hypA	2
hypB	13
hypC	0
hypD	18
hypE	13
hypF	21
hyuA	0
iaaA	46
iadA	37
iap	14
ibpA	29
ibpB	3
icd	9105
icdC	0
iclR	107
idi	9
idnD	4
idnK	9
idnO	5
idnR	4
idnT	5
ihfA	361
ihfB	303
ileS	788
ileT	9
ileU	9
ileV	4
ileX	0
ileY	2
ilvA	19
ilvB	29
ilvC	26
ilvD	44
ilvE	57
ilvG	43
ilvH	5
ilvI	20
ilvL	15
ilvM	0
ilvN	4
ilvY	33
imp	502
inaA	22
infA	185
infB	1019
infC	1542
insA	83
insB	29
insC	41
insD	53
insE	19
insF	34
insG	59
insH	1608
insI	26
insJ	0
insK	0
insL	92
insM	2
insN	2
insO	5
intA	45
intB	12
intD	38
intE	9
intF	33
intG	0
intQ	3
intR	0
intS	18
iscA	150
iscR	207
iscS	628
iscU	186
ispA	207
ispB	203
ispD	54
ispE	516
ispF	42
ispG	195
ispH	72
ispU	219
isrA	0
isrB	2
isrC	1
ivbL	74
ivy	99
katE	75
katG	1952
kbaY	3
kbaZ	51
kbl	1850
kch	12
kdgK	102
kdgR	188
kdgT	8
kdpA	3
kdpB	3
kdpC	0
kdpD	21
kdpE	8
kdpF	0
kdsA	272
kdsB	111
kdsC	53
kdsD	95
kdtA	63
kduD	28
kduI	21
kefA	53
kefB	19
kefC	28
kefF	6
kefG	18
kgtP	833
kil	0
kptA	3
ksgA	71
lacA	8
lacI	81
lacY	8
lacZ	47
lamB	2463
lar	0
ldcA	21
ldcC	32
ldhA	38
ldrA	5
ldrB	1
ldrC	8
ldrD	21
lepA	407
lepB	148
leuA	23
leuB	16
leuC	15
leuD	9
leuL	0
leuO	8
leuP	9
leuQ	4
leuS	471
leuT	22
leuU	0
leuV	8
leuW	1
leuX	1
leuZ	11
lexA	122
lgt	55
lhr	115
ligA	64
ligB	27
ligT	14
lipA	340
lipB	36
lit	10
livF	2
livG	2
livH	4
livJ	14
livK	7
livM	7
lldD	82
lldP	240
lldR	25
lnt	52
lolA	46
lolB	55
lolC	28
lolD	35
lolE	61
lomR	0
lon	391
lpcA	419
lpd	5797
lplA	65
lpp	9216
lpxA	156
lpxB	92
lpxC	1220
lpxD	343
lpxH	33
lpxK	33
lpxL	50
lpxM	58
lrhA	19
lrp	224
lspA	54
lsrB	248
lsrC	46
lsrD	40
lsrF	196
lsrG	50
ltaE	90
luxS	159
lysA	16
lysC	8
lysP	28
lysQ	6
lysR	20
lysS	467
lysT	147
lysU	202
lysV	0
lysW	46
lysY	38
lysZ	42
lyxK	3
maa	46
macA	18
macB	26
maeB	1139
mak	41
malE	3096
malF	166
malG	110
malI	9
malK	394
malM	302
malP	193
malQ	115
malS	26
malT	671
malX	40
malY	59
malZ	20
manA	143
manX	175
manY	102
manZ	122
maoC	8
map	223
marA	7
marB	3
marC	12
marR	5
mazG	71
mbhA	3
mcrA	5
mcrB	57
mcrC	17
mdaB	89
mdh	6064
mdlA	22
mdlB	21
mdoB	163
mdoC	13
mdoD	226
mdoG	432
mdoH	317
mdtA	7
mdtB	22
mdtC	11
mdtD	6
mdtE	1
mdtF	15
mdtG	9
mdtH	5
mdtI	4
mdtJ	3
mdtK	27
mdtL	7
melA	228
melB	86
melR	38
menA	22
menB	64
menC	40
menD	43
menE	33
menF	64
mepA	57
metA	4
metB	27
metC	25
metE	39
metF	8
metG	264
metH	290
metI	12
metJ	62
metK	182
metL	65
metN	15
metQ	115
metR	7
metT	5
metU	2
metV	5
metW	24
metY	41
metZ	5
mfd	204
mglA	692
mglB	6317
mglC	352
mgsA	457
mgtA	113
mhpA	6
mhpB	2
mhpC	4
mhpD	3
mhpE	7
mhpF	2
mhpR	114
mhpT	5
miaA	292
miaB	128
micC	0
micF	0
minC	132
minD	295
minE	49
mioC	161
mipA	606
mlrA	13
mltA	47
mltB	22
mltC	28
mltD	780
mmuM	34
mmuP	5
mngA	4
mngB	16
mngR	11
mntH	34
mntR	47
moaA	93
moaB	69
moaC	30
moaD	8
moaE	27
mobA	21
mobB	12
modA	133
modB	42
modC	81
modE	29
modF	36
moeA	89
moeB	43
mog	144
mokB	9
mokC	1
molR	7
motA	187
motB	85
mpaA	34
mpl	214
mppA	366
mprA	156
mqo	19
mraW	73
mraY	38
mraZ	56
mrcA	72
mrcB	107
mrdA	47
mrdB	30
mreB	478
mreC	108
mreD	15
mrp	354
mrr	79
msbA	102
mscL	83
mscS	29
msrA	51
msyB	57
mtgA	36
mtlA	705
mtlD	170
mtlR	16
mtr	19
mukB	389
mukE	46
mukF	83
murA	279
murB	110
murC	107
murD	79
murE	112
murF	92
murG	48
murI	66
murP	18
mutH	21
mutL	76
mutM	18
mutS	218
mutT	15
mutY	29
mviM	84
mviN	8
nac	3
nadA	24
nadB	6
nadC	50
nadD	17
nadE	64
nadR	87
nagA	105
nagB	163
nagC	97
nagD	89
nagE	1023
nagZ	61
nanA	41
nanE	14
nanK	7
nanR	78
nanT	39
napA	118
napB	1
napC	18
napD	1
napF	11
napG	18
napH	9
narG	6
narH	8
narI	2
narJ	1
narK	3
narL	84
narP	71
narQ	17
narU	4
narV	0
narW	2
narX	43
narY	4
narZ	7
ndh	39
ndk	1606
nei	19
nemA	252
nfi	42
nfnB	136
nfo	35
nfrA	18
nfrB	10
nfsA	72
nhaA	49
nhaB	80
nhaR	11
nhoA	8
nikA	5
nikB	2
nikC	3
nikD	2
nikE	3
nikR	4
ninE	0
nirB	4
nirC	3
nirD	0
nlpA	24
nlpB	345
nlpC	50
nlpD	989
nlpE	29
nlpI	647
nmpC	2052
nohA	0
nohB	0
norR	36
norV	6
norW	7
npr	6
nrdA	318
nrdB	162
nrdD	30
nrdE	7
nrdF	4
nrdG	4
nrdH	1
nrdI	1
nrfA	10
nrfB	3
nrfC	1
nrfD	6
nrfE	5
nrfF	1
nrfG	1
nth	14
nudB	39
nudC	37
nudD	1
nudE	60
nudF	30
nudG	3
nudH	161
nuoA	384
nuoB	597
nuoC	1041
nuoE	229
nuoF	651
nuoG	1570
nuoH	374
nuoI	160
nuoJ	125
nuoK	34
nuoL	655
nuoM	683
nuoN	546
nupC	110
nupG	172
nusA	429
nusB	144
nusG	210
obgE	40
ogrK	10
ogt	0
ompA	7905
ompC	8979
ompF	17175
ompG	2
ompL	1
ompN	2
ompR	269
ompT	790
ompW	35
ompX	366
oppA	3513
oppB	209
oppC	213
oppD	318
oppF	317
oriC	0
orn	53
osmB	7
osmC	115
osmE	103
osmY	34
otsA	20
otsB	6
oxc	5
oxyR	205
oxyS	0
paaA	5
paaB	0
paaC	4
paaD	2
paaE	6
paaF	7
paaG	2
paaH	14
paaI	1
paaJ	193
paaK	374
paaX	111
paaY	74
pabA	6
pabB	17
pabC	25
pal	606
panB	172
panC	196
panD	67
panE	26
panF	11
parC	281
parE	142
pbl	0
pbpC	17
pbpG	31
pck	6136
pcm	101
pcnB	389
pdhR	177
pdxA	71
pdxB	248
pdxH	127
pdxJ	76
pdxK	63
pdxY	40
pepA	429
pepB	425
pepD	695
pepE	64
pepN	767
pepP	427
pepQ	401
pepT	37
perR	4
pfkA	194
pfkB	20
pflA	66
pflB	1326
pflC	4
pflD	32
pfs	200
pgi	309
pgk	1456
pgm	320
pgpA	35
pgpB	26
pgsA	93
pheA	40
pheL	0
pheM	5
pheP	10
pheS	231
pheT	571
pheU	0
pheV	0
phnA	40
phnB	6
phnC	0
phnD	3
phnE	0
phnF	3
phnG	1
phnH	0
phnI	3
phnJ	1
phnK	2
phnL	1
phnM	1
phnN	2
phnO	1
phnP	5
phoA	94
phoB	18
phoE	1
phoH	651
phoP	88
phoQ	68
phoR	14
phoU	45
php	3
phr	15
pin	3
pinH	0
pinQ	1
pinR	0
pioO	3
pitA	143
pitB	2
pldA	77
pldB	98
plsB	367
plsC	51
plsX	152
pmbA	116
pmrD	76
pncA	27
pncB	153
pnp	2367
pntA	817
pntB	544
pnuC	19
polA	405
polB	32
potA	18
potB	5
potC	5
potD	228
potE	5
potF	12
potG	9
potH	3
potI	4
poxA	5
poxB	23
ppa	1019
ppc	247
ppdA	10
ppdB	9
ppdC	7
ppdD	1
pphA	8
pphB	2
ppiA	77
ppiB	293
ppiC	67
ppiD	260
ppk	135
pppA	6
pps	4272
ppx	105
pqiA	17
pqiB	45
pqqL	9
prc	373
prfA	35
prfB	257
prfC	179
prfH	0
priA	67
priB	157
priC	10
prkB	46
prlC	144
prmA	27
prmB	203
prmC	10
proA	99
proB	97
proC	126
proK	2
proL	0
proM	0
proP	104
proQ	281
proS	761
proV	80
proW	63
proX	387
proY	13
prpB	0
prpC	0
prpD	5
prpE	11
prpR	55
prsA	2343
psd	101
psiF	5
pspA	67
pspB	3
pspC	8
pspD	3
pspE	267
pspF	20
pssA	372
pstA	12
pstB	27
pstC	13
pstS	38
pta	609
pth	49
ptr	89
ptrB	38
ptsA	22
ptsG	88
ptsH	488
ptsI	1184
ptsN	145
ptsP	427
purA	882
purB	471
purC	847
purD	431
purE	53
purF	403
purH	694
purK	132
purL	1410
purM	710
purN	235
purR	132
purT	375
purU	73
putA	22
putP	173
puuA	264
puuB	22
puuC	32
puuD	99
puuE	24
puuP	64
puuR	69
pykA	603
pykF	242
pyrB	8791
pyrC	989
pyrD	308
pyrE	24
pyrF	188
pyrG	834
pyrH	443
pyrI	4999
pyrL	34
qor	57
qseB	3
qseC	8
queA	10
racC	0
racR	0
radA	84
rarA	1
rarD	18
rbbA	276
rbfA	36
rbn	78
rbsA	157
rbsB	1368
rbsC	85
rbsD	267
rbsK	199
rbsR	55
rcsA	16
rcsB	222
rcsC	69
rcsD	160
rcsF	47
rdgC	109
rdlA	5
rdlB	0
rdlC	0
rdlD	0
recA	769
recB	138
recC	129
recD	70
recE	0
recF	17
recG	119
recJ	69
recN	62
recO	18
recQ	146
recR	102
recT	0
recX	3
relA	349
relB	18
relE	24
rem	1
renD	1
rep	46
rfaB	32
rfaC	48
rfaD	280
rfaE	209
rfaF	97
rfaG	29
rfaH	25
rfaI	16
rfaJ	16
rfaK	20
rfaL	47
rfaP	10
rfaQ	42
rfaS	10
rfaY	21
rfaZ	10
rfbA	115
rfbB	156
rfbC	50
rfbD	136
rfbX	42
rfe	60
rffA	46
rffC	8
rffD	53
rffE	43
rffG	43
rffH	30
rffM	11
rffT	21
rhaA	3
rhaB	2
rhaD	0
rhaR	8
rhaS	14
rhaT	8
rhlB	354
rhlE	2
rho	377
rhoL	58
rhsA	4
rhsB	4
rhsC	14
rhsD	18
rhsE	4
rhtA	2
rhtB	4
rhtC	24
ribA	80
ribB	79
ribC	62
ribD	115
ribE	148
ribF	152
rihA	559
rihB	1
rihC	199
rimI	6
rimJ	81
rimK	51
rimL	13
rimM	720
rlmB	36
rlpA	105
rlpB	51
rluA	4
rluB	34
rluC	95
rluD	56
rmf	1810
rmuC	146
rna	28
rnb	292
rnc	72
rnd	161
rne	858
rng	134
rnhA	20
rnhB	24
rnk	63
rnpA	25
rnpB	13875
rnr	253
rnt	31
rob	260
rof	22
rpe	113
rph	117
rpiA	344
rpiB	6
rpiR	32
rplA	1374
rplB	1328
rplC	1169
rplD	683
rplE	1646
rplF	1122
rplI	610
rplJ	1793
rplK	596
rplL	1340
rplM	973
rplN	1348
rplO	844
rplP	574
rplQ	666
rplR	441
rplS	434
rplT	688
rplU	247
rplV	518
rplW	315
rplX	525
rplY	365
rpmA	240
rpmB	687
rpmC	98
rpmD	51
rpmE	394
rpmF	278
rpmG	87
rpmH	131
rpmI	349
rpmJ	183
rpoA	2700
rpoB	3054
rpoC	3049
rpoD	637
rpoE	176
rpoH	196
rpoN	313
rpoS	1139
rpoZ	75
rprA	1
rpsA	4564
rpsB	1828
rpsC	1154
rpsD	1356
rpsE	937
rpsF	814
rpsG	1323
rpsH	604
rpsI	842
rpsJ	616
rpsK	810
rpsL	1493
rpsM	990
rpsN	707
rpsO	595
rpsP	259
rpsQ	195
rpsR	124
rpsS	287
rpsT	359
rpsU	641
rraA	202
rrfA	0
rrfB	0
rrfC	0
rrfD	0
rrfE	0
rrfF	0
rrfG	0
rrfH	2
rrlA	288
rrlB	275
rrlC	324
rrlD	279
rrlE	357
rrlG	255
rrlH	402
rrmA	36
rrmJ	92
rrsA	56
rrsB	41
rrsC	64
rrsD	46
rrsE	68
rrsG	70
rrsH	61
rsd	336
rseA	239
rseB	118
rseC	12
rsgA	110
rsmB	65
rsmC	75
rspA	7
rspB	3
rssA	32
rssB	22
rstA	46
rstB	34
rsuA	18
rsxA	22
rsxB	13
rsxC	75
rsxD	42
rsxE	12
rsxG	15
rtcA	14
rtcB	6
rtcR	6
rtn	92
rttR	0
rumA	70
rumB	9
rusA	0
ruvA	55
ruvB	72
ruvC	25
rybA	42
rybB	0
rydB	2
ryeA	264
ryeB	0
ryeC	35
ryeD	20
ryeE	2
ryfA	12
rygA	0
rygB	0
rygC	13
rygD	51
ryhA	9
ryhB	2
ryiA	92
ryjA	2
rzoD	0
rzoR	0
rzpD	0
rzpR	0
sanA	6
sapA	39
sapB	12
sapC	6
sapD	29
sapF	19
sbcB	92
sbcC	94
sbcD	37
sbmA	9
sbmC	73
sbp	30
sdaA	378
sdaB	53
sdaC	155
sdhA	3124
sdhB	1253
sdhC	1130
sdhD	331
sdiA	24
secA	284
secB	630
secD	323
secE	174
secF	110
secG	415
secM	88
secY	2237
selA	46
selB	102
selC	8
selD	417
seqA	88
serA	152
serB	58
serC	143
serS	476
serT	1
serU	1
serV	105
serW	1
serX	0
setA	18
setB	6
setC	2
sfcA	535
sfmA	0
sfmC	1
sfmD	0
sfmF	1
sfmH	1
sfsA	57
sfsB	6
sgbE	4
sgbH	5
sgbU	8
sgcA	2
sgcB	0
sgcC	7
sgcE	2
sgcQ	7
sgcR	4
sgcX	7
sgrR	33
sgrS	17
shiA	40
sieB	0
sixA	78
slp	5
slt	82
slyA	102
slyB	463
slyD	1190
slyX	73
smf	24
smg	121
smpA	128
smpB	85
smtA	54
sodA	1817
sodB	1419
sodC	14
sohA	25
sohB	90
sokB	0
sokC	1
solA	77
soxR	4
soxS	95
speA	1052
speB	157
speC	110
speD	188
speE	210
speF	3
speG	53
spf	6
spoT	293
sppA	86
spr	684
sprT	6
spy	21
sra	126
sraB	7
sraD	0
sraF	5
sraG	1
srlA	21
srlB	8
srlD	44
srlE	23
srlR	33
srmB	92
sroF	207
ssb	400
sseA	992
sseB	69
ssnA	5
sspA	532
sspB	211
ssrA	41192
ssrS	7053
sstT	447
ssuA	1
ssuB	4
ssuC	1
ssuD	2
ssuE	1
stfE	1
stfQ	1
stfR	0
sthA	3181
stpA	6
sucA	5312
sucB	3398
sucC	4249
sucD	2873
sufA	9
sufB	31
sufC	13
sufD	27
sufE	2
sufI	144
sufS	20
sugE	22
suhB	90
sulA	61
surA	221
surE	117
syd	20
tadA	29
tag	12
talA	16
talB	1698
tam	49
tap	345
tar	741
tas	115
tatA	102
tatB	87
tatC	92
tatD	90
tatE	70
tauA	5
tauB	2
tauC	0
tauD	5
tbpA	31
tdcA	22
tdcB	11
tdcC	34
tdcD	10
tdcE	20
tdcF	0
tdcG	10
tdcR	0
tdh	1868
tdk	16
tehA	23
tehB	29
tesA	17
tesB	39
tfaD	1
tfaE	1
tfaQ	0
tfaR	0
tfaS	1
tff	109
tgt	136
thiC	22
thiD	3
thiE	5
thiF	2
thiG	5
thiH	11
thiI	34
thiL	50
thiM	12
thiP	7
thiQ	6
thiS	0
thrA	88
thrB	50
thrC	106
thrL	5
thrS	1459
thrT	28
thrU	2
thrV	1
thrW	2
thyA	95
tiaE	316
tig	2119
tilS	36
tktA	2530
tktB	56
tldD	97
tmk	11
tnaA	15576
tnaB	852
tnaC	590
tolA	60
tolB	362
tolC	672
tolQ	51
tolR	15
tonB	30
topA	311
topB	241
torA	13
torC	2
torD	1
torI	11
torR	35
torS	13
torT	8
torY	1
torZ	16
tpiA	684
tpr	0
tpx	1155
treA	34
treB	453
treC	206
treF	32
treR	27
trg	434
trkA	57
trkD	41
trkG	0
trkH	60
trmA	93
trmC	84
trmD	911
trmE	80
trmH	40
trmU	170
trpA	36
trpB	64
trpC	20
trpD	4
trpE	3
trpL	0
trpR	41
trpS	188
trpT	1
truA	48
truB	88
truD	181
trxA	457
trxB	424
trxC	50
tsf	1139
tsgA	5
tsr	250
tsx	358
ttdA	0
ttdB	2
ttk	123
tufA	4454
tufB	5976
tus	18
tynA	8
tyrA	33
tyrB	105
tyrP	13
tyrR	115
tyrS	252
tyrT	52
tyrU	130
tyrV	39
ubiA	96
ubiB	169
ubiC	95
ubiD	661
ubiE	243
ubiF	81
ubiG	88
ubiH	151
ubiX	20
ucpA	324
udk	40
udp	241
ugd	18
ugpA	17
ugpB	212
ugpC	46
ugpE	14
ugpQ	57
uhpA	16
uhpB	15
uhpC	9
uhpT	182
uidA	26
uidB	5
uidC	6
uidR	101
ulaA	12
ulaB	2
ulaC	4
ulaD	9
ulaE	4
ulaF	7
ulaG	7
ulaR	40
umuC	3
umuD	2
ung	53
upp	1095
uraA	615
usg	89
ushA	142
uspA	815
uspE	0
uspF	25
uspG	256
uup	124
uvrA	164
uvrB	130
uvrC	124
uvrD	136
uvrY	99
uxaA	199
uxaB	28
uxaC	356
uxuA	378
uxuB	350
uxuR	52
vacJ	181
valS	643
valT	25
valU	8
valV	0
valW	0
valX	70
valY	6
valZ	22
visC	121
vsr	10
wbbH	46
wbbI	64
wbbJ	42
wbbK	79
wbbL	54
wcaA	2
wcaB	0
wcaC	1
wcaD	0
wcaE	0
wcaF	1
wcaI	2
wcaJ	3
wcaK	3
wcaL	9
wcaM	9
wrbA	38
wza	1
wzb	0
wzc	3
wzxC	7
wzxE	18
wzyE	12
wzzE	52
xapA	4
xapB	7
xapR	14
xdhA	22
xdhB	7
xdhC	8
xdhD	15
xerC	75
xerD	41
xseA	71
xseB	83
xthA	170
xylA	28
xylB	19
xylE	7
xylF	107
xylG	29
xylH	28
xylR	23
yaaA	48
yaaH	8
yaaI	0
yaaJ	16
yaaU	2
yaaW	7
yaaX	3
yaaY	2
yabI	47
yabP	11
yabQ	1
yacC	11
yacF	28
yacG	15
yacH	1
yacL	50
yadB	14
yadC	1
yadD	18
yadE	17
yadG	44
yadH	26
yadI	14
yadK	0
yadL	0
yadM	0
yadN	1
yadR	136
yadS	7
yaeB	27
yaeF	5
yaeH	397
yaeI	7
yaeJ	0
yaeL	238
yaeP	29
yaeQ	26
yaeR	15
yaeT	999
yafC	21
yafD	43
yafE	4
yafF	0
yafJ	92
yafK	23
yafL	5
yafM	27
yafN	1
yafO	4
yafP	3
yafQ	15
yafS	24
yafT	3
yafU	1
yafV	17
yafW	0
yafX	0
yafY	1
yafZ	1
yagA	1
yagB	7
yagE	29
yagF	55
yagG	7
yagH	14
yagI	42
yagJ	6
yagK	2
yagL	1
yagM	1
yagN	112
yagP	0
yagQ	3
yagR	3
yagS	1
yagT	0
yagU	29
yagV	3
yagW	7
yagX	3
yagY	0
yagZ	1
yahA	5
yahB	12
yahC	4
yahD	5
yahE	3
yahF	8
yahG	6
yahH	0
yahI	0
yahJ	30
yahK	38
yahL	1
yahM	3
yahN	12
yahO	26
yaiA	7
yaiB	200
yaiC	3
yaiE	76
yaiF	1
yaiI	16
yaiL	32
yaiO	2
yaiP	3
yaiS	0
yaiT	2
yaiU	1
yaiV	0
yaiW	40
yaiX	0
yaiY	2
yaiZ	43
yajB	17
yajC	285
yajD	38
yajG	123
yajI	9
yajL	30
yajO	71
yajQ	249
yajR	42
ybaA	3
ybaB	82
ybaD	55
ybaE	10
ybaJ	17
ybaK	27
ybaL	142
ybaM	4
ybaN	11
ybaO	23
ybaP	17
ybaQ	14
ybaS	3
ybaT	3
ybaV	15
ybaW	7
ybaX	45
ybaY	27
ybaZ	6
ybbA	18
ybbB	25
ybbC	1
ybbD	0
ybbJ	18
ybbK	71
ybbL	9
ybbM	10
ybbN	67
ybbO	26
ybbP	31
ybbS	2
ybbV	0
ybbW	3
ybbY	0
ybcC	0
ybcD	0
ybcF	3
ybcH	4
ybcI	2
ybcJ	11
ybcK	0
ybcL	1
ybcM	8
ybcN	0
ybcO	1
ybcQ	1
ybcS	2
ybcV	0
ybcW	2
ybcY	1
ybdA	13
ybdB	5
ybdD	123
ybdF	5
ybdG	38
ybdH	9
ybdJ	7
ybdK	7
ybdL	12
ybdM	5
ybdN	0
ybdO	3
ybdR	13
ybdZ	1
ybeA	18
ybeB	26
ybeD	21
ybeF	1
ybeH	3
ybeL	68
ybeM	10
ybeQ	5
ybeR	0
ybeT	0
ybeU	2
ybeX	151
ybeY	42
ybeZ	82
ybfA	3
ybfB	0
ybfC	0
ybfD	1
ybfE	7
ybfF	43
ybfG	0
ybfH	0
ybfL	0
ybfM	50
ybfN	6
ybfO	2
ybfP	4
ybfQ	0
ybgA	5
ybgC	23
ybgD	1
ybgE	27
ybgF	218
ybgH	5
ybgI	77
ybgJ	49
ybgK	63
ybgL	29
ybgO	0
ybgP	2
ybgQ	1
ybgS	13
ybgT	1
ybhA	50
ybhB	24
ybhC	91
ybhD	1
ybhE	95
ybhF	40
ybhG	43
ybhH	3
ybhI	1
ybhJ	0
ybhK	57
ybhL	71
ybhM	0
ybhN	4
ybhO	4
ybhP	2
ybhQ	153
ybhR	15
ybhS	12
ybhT	48
ybiA	9
ybiB	83
ybiC	146
ybiH	23
ybiI	3
ybiJ	5
ybiM	2
ybiN	32
ybiO	6
ybiP	14
ybiR	30
ybiS	50
ybiT	88
ybiU	17
ybiV	14
ybiW	7
ybiX	3
ybiY	0
ybjC	15
ybjD	57
ybjE	8
ybjG	34
ybjH	5
ybjI	32
ybjJ	19
ybjK	36
ybjL	27
ybjM	5
ybjN	45
ybjO	6
ybjP	65
ybjQ	23
ybjR	31
ybjS	56
ybjT	29
ybjX	77
ycaC	56
ycaD	11
ycaI	23
ycaJ	39
ycaK	4
ycaL	5
ycaM	52
ycaN	6
ycaO	28
ycaP	7
ycaQ	9
ycaR	20
ycbB	73
ycbC	11
ycbF	5
ycbG	46
ycbJ	32
ycbK	210
ycbL	149
ycbQ	4
ycbR	0
ycbS	5
ycbT	7
ycbU	1
ycbV	1
ycbW	102
ycbX	48
ycbY	137
ycbZ	134
yccA	380
yccC	10
yccE	2
yccF	9
yccJ	27
yccK	23
yccM	4
yccR	40
yccS	16
yccT	2
yccU	61
yccV	45
yccW	87
yccX	11
yccZ	3
ycdB	22
ycdC	17
ycdG	9
ycdH	0
ycdI	0
ycdK	0
ycdL	0
ycdM	2
ycdN	29
ycdO	41
ycdP	1
ycdQ	2
ycdR	3
ycdS	4
ycdT	9
ycdU	2
ycdW	94
ycdX	88
ycdY	52
ycdZ	9
yceA	152
yceB	30
yceD	299
yceF	52
yceG	18
yceH	90
yceI	33
yceJ	1
yceK	6
yceO	0
yceP	61
yceQ	0
ycfD	157
ycfH	25
ycfJ	1
ycfK	2
ycfL	29
ycfM	71
ycfN	31
ycfP	91
ycfQ	89
ycfR	1
ycfS	21
ycfT	1
ycfX	68
ycfZ	0
ycgB	26
ycgE	51
ycgF	18
ycgG	2
ycgH	6
ycgI	2
ycgJ	13
ycgK	22
ycgL	31
ycgM	30
ycgN	5
ycgR	246
ycgV	8
ycgX	1
ycgY	0
ycgZ	3
ychA	53
ychE	10
ychF	242
ychG	3
ychH	203
ychJ	18
ychM	33
ychN	111
ychP	6
ychQ	2
ychS	1
yciA	15
yciB	43
yciC	37
yciE	1
yciF	1
yciG	0
yciH	44
yciI	66
yciK	64
yciM	59
yciN	107
yciO	41
yciQ	6
yciS	31
yciT	54
yciU	24
yciV	31
yciW	16
yciX	73
ycjD	8
ycjF	11
ycjG	63
ycjM	3
ycjN	2
ycjO	4
ycjP	0
ycjQ	7
ycjR	3
ycjS	3
ycjT	5
ycjU	0
ycjV	1
ycjW	23
ycjX	12
ycjY	1
ycjZ	8
ydaC	0
ydaE	0
ydaF	0
ydaG	0
ydaL	0
ydaM	0
ydaN	0
ydaO	0
ydaQ	0
ydaS	0
ydaT	0
ydaU	0
ydaV	0
ydaW	0
ydaY	0
ydbA	64
ydbC	23
ydbD	6
ydbH	42
ydbJ	135
ydbK	432
ydbL	10
ydcA	10
ydcC	2
ydcD	2
ydcE	7
ydcF	32
ydcH	24
ydcI	882
ydcJ	57
ydcK	8
ydcL	47
ydcM	76
ydcN	5
ydcO	22
ydcP	87
ydcQ	26
ydcR	42
ydcS	55
ydcT	15
ydcU	6
ydcV	18
ydcW	137
ydcX	2
ydcY	45
ydcZ	7
yddA	2
yddB	12
yddE	39
yddG	8
yddH	4
yddJ	0
yddK	0
yddL	0
yddM	14
yddV	6
yddW	62
ydeA	7
ydeE	10
ydeH	32
ydeI	1
ydeJ	3
ydeK	25
ydeM	13
ydeN	366
ydeO	2
ydeP	3
ydeQ	1
ydeR	0
ydeS	0
ydeT	2
ydeU	20
ydeV	256
ydeW	222
ydfA	1
ydfB	0
ydfC	0
ydfD	1
ydfE	1
ydfG	247
ydfH	41
ydfI	4
ydfJ	1
ydfK	0
ydfO	0
ydfP	0
ydfQ	1
ydfR	0
ydfT	8
ydfU	0
ydfV	0
ydfW	0
ydfX	1
ydfZ	2
ydgA	129
ydgC	15
ydgD	25
ydgG	6
ydgH	324
ydgI	5
ydgJ	152
ydgK	13
ydgR	218
ydgT	1
ydhA	3
ydhB	16
ydhC	20
ydhD	161
ydhF	40
ydhH	50
ydhI	1
ydhJ	4
ydhK	9
ydhL	5
ydhM	25
ydhO	155
ydhP	9
ydhQ	149
ydhR	137
ydhS	10
ydhT	5
ydhU	3
ydhV	13
ydhW	6
ydhX	3
ydhY	3
ydhZ	18
ydiA	113
ydiB	1
ydiD	3
ydiE	0
ydiF	5
ydiH	8
ydiI	29
ydiJ	288
ydiK	48
ydiL	1
ydiM	0
ydiN	2
ydiO	0
ydiP	16
ydiQ	1
ydiR	4
ydiS	4
ydiT	0
ydiU	191
ydiV	8
ydiY	9
ydiZ	6
ydjA	137
ydjE	6
ydjF	52
ydjG	5
ydjH	3
ydjI	3
ydjJ	4
ydjK	0
ydjL	13
ydjM	1
ydjN	83
ydjO	1
ydjQ	17
ydjR	127
ydjX	0
ydjY	10
ydjZ	7
yeaA	1319
yeaB	13
yeaC	738
yeaD	117
yeaE	31
yeaG	71
yeaH	18
yeaI	1
yeaJ	14
yeaK	28
yeaL	3
yeaM	12
yeaN	4
yeaO	16
yeaP	84
yeaQ	17
yeaR	5
yeaS	7
yeaT	63
yeaU	19
yeaV	3
yeaW	1
yeaX	6
yeaY	40
yeaZ	20
yebA	133
yebB	1
yebC	118
yebE	26
yebF	41
yebG	47
yebK	84
yebN	3
yebO	19
yebQ	3
yebR	49
yebS	14
yebT	44
yebU	15
yebV	6
yebW	7
yebY	13
yebZ	13
yecA	122
yecC	25
yecD	26
yecE	7
yecF	16
yecG	1
yecH	1
yecI	71
yecJ	5
yecM	19
yecN	32
yecO	9
yecP	21
yecR	36
yecS	26
yecT	2
yedA	6
yedD	37
yedE	275
yedF	24
yedI	24
yedJ	15
yedK	10
yedL	1
yedM	10
yedN	2
yedO	94
yedP	11
yedQ	29
yedR	3
yedS	2
yedV	11
yedW	8
yedX	1
yedY	12
yedZ	3
yeeA	43
yeeD	18
yeeE	28
yeeF	81
yeeI	1269
yeeJ	28
yeeL	2
yeeN	87
yeeO	14
yeeP	4
yeeR	22
yeeS	1
yeeT	1
yeeU	0
yeeV	0
yeeW	1
yeeX	149
yeeY	11
yeeZ	67
yefM	20
yegD	6
yegE	98
yegH	25
yegI	17
yegJ	0
yegK	5
yegL	0
yegP	15
yegQ	33
yegR	3
yegS	14
yegT	35
yegU	14
yegV	9
yegW	19
yegX	6
yegZ	1
yehA	2
yehB	3
yehC	0
yehD	0
yehE	5
yehI	16
yehK	1
yehL	2
yehM	0
yehP	3
yehQ	3
yehR	2
yehS	6
yehT	33
yehU	23
yehW	0
yehX	3
yehY	4
yehZ	7
yeiA	9
yeiB	33
yeiC	21
yeiE	53
yeiG	187
yeiH	39
yeiI	14
yeiJ	5
yeiL	11
yeiM	22
yeiN	41
yeiP	73
yeiQ	86
yeiR	8
yeiS	0
yeiT	19
yeiU	5
yeiW	2
yejA	72
yejB	19
yejE	13
yejF	72
yejG	140
yejH	25
yejK	127
yejL	22
yejM	82
yejO	26
yfaA	6
yfaD	16
yfaE	11
yfaH	0
yfaL	26
yfaO	6
yfaP	1
yfaQ	8
yfaS	11
yfaT	0
yfaU	2
yfaV	4
yfaW	10
yfaX	3
yfaY	27
yfaZ	18
yfbB	7
yfbE	4
yfbF	2
yfbG	9
yfbH	3
yfbJ	0
yfbK	5
yfbL	1
yfbM	6
yfbN	2
yfbO	2
yfbP	1
yfbQ	96
yfbR	15
yfbS	50
yfbT	63
yfbU	79
yfbV	74
yfbW	0
yfcA	17
yfcC	3
yfcD	143
yfcE	113
yfcF	15
yfcG	1
yfcH	82
yfcI	8
yfcJ	4
yfcL	26
yfcM	28
yfcN	43
yfcO	12
yfcP	2
yfcQ	0
yfcR	0
yfcS	1
yfcT	2
yfcU	9
yfcV	0
yfcX	280
yfcY	195
yfcZ	87
yfdC	4
yfdE	2
yfdF	2
yfdG	11
yfdH	47
yfdI	33
yfdK	0
yfdL	0
yfdM	0
yfdN	0
yfdO	0
yfdP	2
yfdQ	3
yfdR	0
yfdS	0
yfdT	0
yfdV	0
yfdX	3
yfdY	7
yfdZ	48
yfeA	73
yfeC	42
yfeD	35
yfeG	9
yfeH	57
yfeK	6
yfeN	1
yfeO	2
yfeR	4
yfeS	10
yfeT	10
yfeU	30
yfeW	14
yfeX	96
yfeY	64
yfeZ	6
yffB	12
yffH	35
yffI	15
yfgA	155
yfgB	176
yfgC	93
yfgD	35
yfgF	3
yfgG	36
yfgH	0
yfgI	3
yfgJ	5
yfgL	227
yfgM	98
yfgO	49
yfhA	28
yfhB	26
yfhD	20
yfhG	14
yfhH	25
yfhJ	31
yfhK	27
yfhL	5
yfhM	213
yfhQ	144
yfhR	2
yfiA	1232
yfiB	15
yfiC	16
yfiD	12
yfiE	16
yfiF	87
yfiH	40
yfiK	3
yfiL	1
yfiM	18
yfiN	16
yfiO	255
yfiP	9
yfiQ	869
yfiR	7
yfjB	36
yfjD	18
yfjF	19
yfjG	39
yfjH	8
yfjI	12
yfjJ	1
yfjK	45
yfjL	48
yfjM	3
yfjN	45
yfjO	9
yfjP	3
yfjQ	1
yfjR	0
yfjS	1
yfjT	6
yfjU	0
yfjV	0
yfjW	20
yfjX	0
yfjY	0
yfjZ	1
ygaC	7
ygaD	86
ygaF	115
ygaH	11
ygaM	14
ygaP	8
ygaQ	0
ygaR	0
ygaT	225
ygaU	54
ygaV	1
ygaW	42
ygaX	2
ygaY	0
ygaZ	56
ygbA	8
ygbE	7
ygbF	1
ygbI	81
ygbJ	3
ygbK	21
ygbL	3
ygbM	7
ygbN	4
ygbT	5
ygcB	10
ygcE	6
ygcF	19
ygcG	1
ygcH	5
ygcI	3
ygcJ	5
ygcK	2
ygcL	3
ygcM	21
ygcN	6
ygcO	0
ygcP	5
ygcQ	5
ygcR	0
ygcS	1
ygcU	5
ygcW	0
ygdB	4
ygdD	5
ygdE	36
ygdH	437
ygdI	7
ygdK	20
ygdL	23
ygdQ	10
ygdR	58
ygeA	32
ygeD	18
ygeF	1
ygeG	2
ygeH	0
ygeI	1
ygeK	0
ygeL	0
ygeM	0
ygeN	0
ygeO	0
ygeP	0
ygeQ	2
ygeR	78
ygeV	239
ygeW	12
ygeX	2
ygeY	7
ygfA	21
ygfB	193
ygfF	91
ygfG	5
ygfH	7
ygfI	9
ygfJ	7
ygfK	16
ygfM	1
ygfO	2
ygfQ	16
ygfS	2
ygfT	15
ygfU	9
ygfX	58
ygfY	98
ygfZ	581
yggC	26
yggD	32
yggE	103
yggF	3
yggG	305
yggH	37
yggJ	30
yggL	130
yggM	3
yggN	29
yggP	2
yggR	5
yggS	47
yggT	53
yggU	11
yggV	50
yggW	61
yggX	24
yghA	9
yghB	46
yghD	4
yghE	0
yghF	0
yghG	2
yghJ	84
yghK	13
yghO	1
yghQ	2
yghR	4
yghS	3
yghT	0
yghU	104
yghW	0
yghX	0
yghY	4
yghZ	111
ygiA	2
ygiB	142
ygiC	298
ygiE	46
ygiF	41
ygiH	35
ygiL	1
ygiN	202
ygiP	2
ygiQ	60
ygiS	358
ygiT	12
ygiU	8
ygiV	2
ygiW	29
ygiZ	2
ygjD	82
ygjE	5
ygjF	69
ygjG	33
ygjH	15
ygjI	23
ygjJ	2
ygjK	8
ygjM	7
ygjN	2
ygjO	18
ygjP	11
ygjQ	2
ygjR	69
ygjV	10
yhaB	0
yhaC	1
yhaH	37
yhaI	1
yhaJ	65
yhaK	10
yhaL	35
yhaM	25
yhaO	8
yhaV	22
yhbC	70
yhbE	22
yhbG	104
yhbH	162
yhbJ	117
yhbN	82
yhbO	4
yhbP	12
yhbQ	9
yhbS	79
yhbT	129
yhbU	2
yhbV	1
yhbW	23
yhbX	3
yhbY	162
yhcA	1
yhcB	163
yhcC	2
yhcD	3
yhcE	33
yhcF	4
yhcG	4
yhcH	13
yhcM	47
yhcN	4
yhcO	8
yhdA	49
yhdE	15
yhdH	168
yhdJ	5
yhdL	15
yhdN	13
yhdP	130
yhdT	4
yhdU	18
yhdV	2
yhdW	9
yhdX	3
yhdY	2
yhdZ	6
yheL	6
yheM	11
yheN	24
yheO	69
yheS	84
yheT	32
yheU	7
yheV	4
yhfA	59
yhfG	0
yhfK	99
yhfL	0
yhfS	10
yhfT	5
yhfU	2
yhfW	5
yhfX	3
yhfY	4
yhfZ	15
yhgA	6
yhgE	51
yhgF	195
yhgG	1
yhgN	23
yhhA	13
yhhF	20
yhhH	0
yhhI	1
yhhJ	84
yhhK	24
yhhL	3
yhhM	22
yhhN	62
yhhP	20
yhhQ	13
yhhS	17
yhhT	4
yhhW	19
yhhX	59
yhhY	16
yhhZ	1
yhiD	2
yhiF	0
yhiI	183
yhiJ	2
yhiK	1
yhiL	0
yhiM	4
yhiN	22
yhiO	20
yhiP	80
yhiQ	8
yhiR	54
yhiS	1
yhjA	9
yhjB	8
yhjC	8
yhjD	19
yhjE	16
yhjG	101
yhjH	409
yhjJ	75
yhjK	47
yhjQ	6
yhjR	10
yhjV	3
yhjX	5
yhjY	8
yiaA	2
yiaB	3
yiaC	7
yiaD	6
yiaF	115
yiaG	5
yiaH	6
yiaI	3
yiaJ	42
yiaK	13
yiaL	5
yiaM	0
yiaN	3
yiaO	5
yiaT	5
yiaU	17
yiaV	2
yiaW	0
yiaY	0
yibA	7
yibD	3
yibF	18
yibG	0
yibH	12
yibI	3
yibJ	3
yibK	21
yibL	48
yibN	240
yibQ	26
yibT	42
yicC	154
yicE	57
yicG	7
yicH	67
yicI	14
yicJ	5
yicL	21
yicM	4
yicN	16
yicO	4
yicR	136
yicS	2
yidA	55
yidB	15
yidC	404
yidD	3
yidE	53
yidF	7
yidG	2
yidH	8
yidI	6
yidJ	4
yidK	3
yidL	7
yidP	5
yidQ	182
yidR	37
yidX	7
yidZ	11
yieE	54
yieF	103
yieG	143
yieH	24
yieI	0
yieK	3
yieL	3
yieM	33
yieN	44
yieP	47
yifB	10
yifE	299
yifK	88
yifL	53
yifN	3
yifO	1
yigA	78
yigB	57
yigE	4
yigF	1
yigG	0
yigI	57
yigL	92
yigM	5
yigP	90
yigZ	38
yihA	146
yihD	43
yihE	70
yihF	2
yihG	2
yihI	117
yihL	7
yihM	9
yihN	3
yihO	3
yihP	2
yihQ	2
yihR	0
yihS	7
yihT	5
yihU	1
yihV	9
yihW	50
yihX	172
yiiD	144
yiiE	0
yiiF	10
yiiG	0
yiiL	0
yiiM	59
yiiQ	31
yiiR	6
yiiS	26
yiiT	32
yiiU	227
yiiX	5
yijD	121
yijE	7
yijF	4
yijO	17
yijP	76
yjaA	1
yjaB	11
yjaG	66
yjaH	37
yjbA	1
yjbB	33
yjbC	39
yjbD	31
yjbE	1
yjbF	0
yjbG	0
yjbH	9
yjbI	1
yjbJ	31
yjbL	0
yjbM	1
yjbN	73
yjbO	7
yjbQ	58
yjbR	42
yjcB	0
yjcC	11
yjcD	179
yjcE	42
yjcF	5
yjcH	455
yjcO	69
yjcP	0
yjcQ	1
yjcR	0
yjcS	1
yjcZ	151
yjdA	98
yjdC	51
yjdF	4
yjdI	3
yjdJ	5
yjdK	0
yjdL	5
yjdO	0
yjdP	2
yjeB	20
yjeE	5
yjeF	28
yjeH	4
yjeI	291
yjeJ	1
yjeK	45
yjeM	5
yjeN	0
yjeO	2
yjeP	56
yjeS	25
yjeT	1
yjfC	0
yjfF	16
yjfI	0
yjfJ	2
yjfK	0
yjfL	0
yjfM	1
yjfN	92
yjfO	185
yjfP	14
yjfY	1
yjfZ	2
yjgA	58
yjgB	7
yjgD	279
yjgF	3072
yjgH	10
yjgI	7
yjgJ	11
yjgK	6
yjgL	5
yjgM	11
yjgN	1
yjgP	57
yjgQ	61
yjgR	46
yjgW	1
yjgX	11
yjgZ	0
yjhA	7
yjhB	6
yjhC	16
yjhD	1
yjhE	0
yjhF	2
yjhG	42
yjhH	13
yjhI	11
yjhP	18
yjhQ	18
yjhR	4
yjhS	0
yjhT	13
yjhU	138
yjhV	0
yjhW	0
yjhX	31
yjiA	54
yjiC	0
yjiD	2
yjiE	20
yjiG	1
yjiH	5
yjiJ	13
yjiK	3
yjiL	4
yjiM	10
yjiN	3
yjiO	6
yjiP	0
yjiQ	4
yjiR	15
yjiS	1
yjiT	215
yjiV	25
yjiW	1
yjiX	1
yjiY	14
yjiZ	16
yjjA	26
yjjB	1
yjjG	31
yjjI	6
yjjJ	29
yjjK	801
yjjM	33
yjjN	3
yjjP	7
yjjQ	0
yjjU	21
yjjV	15
yjjW	4
yjjX	19
yjjY	1
yjjZ	0
yjtD	15
ykfA	19
ykfB	76
ykfC	14
ykfF	1
ykfG	0
ykfH	0
ykfI	0
ykfJ	0
ykgA	8
ykgB	1
ykgC	13
ykgD	10
ykgE	35
ykgF	60
ykgG	25
ykgH	1
ykgI	0
ykgJ	2
ykgK	1
ykgL	1
ykgM	2
ykgN	26
ykiA	3
ykiB	0
ylaB	17
ylaC	56
ylbA	8
ylbE	2
ylbF	3
ylbG	5
ylbH	3
ylcE	1
ylcG	0
yliA	83
yliB	120
yliC	30
yliD	12
yliE	4
yliF	2
yliG	51
yliH	4
yliI	12
yliJ	166
yliK	3
yliL	1
ymbA	20
ymcA	5
ymcB	1
ymcC	1
ymcD	3
ymcE	0
ymdA	3
ymdB	15
ymdC	19
ymdE	1
ymdF	14
ymfA	0
ymfB	10
ymfC	28
ymfD	15
ymfE	18
ymfG	1
ymfH	0
ymfI	28
ymfJ	9
ymfK	19
ymfL	1
ymfM	1
ymfN	1
ymfO	1
ymfP	0
ymfQ	2
ymfR	0
ymfS	1
ymfT	2
ymgA	0
ymgB	1
ymgC	0
ymgD	3
ymgE	2
ymgF	0
ymgG	6
ymgH	0
ymjA	10
ymjB	0
ymjC	1
ynaA	0
ynaE	0
ynaI	42
ynaJ	0
ynaK	0
ynbA	0
ynbB	0
ynbC	11
ynbD	5
ynbE	1
yncA	7
yncB	39
yncC	1
yncD	46
yncE	162
yncG	2
yncH	1
yncI	3
yncJ	1
yncK	0
yncM	0
yncN	5
yneE	1
yneF	2
yneG	4
yneH	23
yneI	46
yneJ	10
yneK	2
yneL	1
ynfA	6
ynfB	48
ynfC	16
ynfD	12
ynfE	2
ynfF	7
ynfG	4
ynfH	5
ynfK	20
ynfL	5
ynfM	13
ynfN	0
ynfO	0
ynfP	0
ynhG	28
yniA	65
yniB	24
yniC	71
yniD	0
ynjA	8
ynjB	21
ynjC	6
ynjD	5
ynjE	27
ynjF	14
ynjH	55
ynjI	5
yoaA	87
yoaB	131
yoaC	15
yoaD	5
yoaE	122
yoaF	11
yoaG	0
yoaH	31
yoaI	2
yobA	15
yobB	25
yobD	4
yobF	120
yobG	33
yobH	16
yodA	6
yodB	0
yodC	13
yodD	5
yoeA	2
yoeB	5
yoeE	1
yoeF	1
yohC	4
yohD	12
yohF	5
yohG	2
yohH	0
yohJ	1
yohK	3
yohL	4
yohM	3
yohN	9
yohO	4
yojI	29
yojL	8
ypaA	9
ypdA	8
ypdB	7
ypdC	11
ypdD	8
ypdE	4
ypdF	6
ypdG	4
ypdH	0
ypdI	2
ypdJ	0
ypeA	17
ypeB	4
ypeC	5
ypfE	1
ypfG	6
ypfH	43
ypfI	47
ypfJ	63
ypfN	3
yphA	8
yphB	11
yphC	8
yphD	3
yphE	7
yphF	2
yphG	13
yphH	23
ypjA	25
ypjB	3
ypjC	1
ypjD	25
ypjF	0
ypjJ	0
ypjK	0
ypjL	6
ypjM	0
yqaA	29
yqaB	50
yqaC	0
yqaD	0
yqaE	2
yqcA	75
yqcB	29
yqcC	5
yqcD	71
yqcE	0
yqeA	17
yqeB	23
yqeC	19
yqeF	686
yqeG	37
yqeH	2
yqeI	2
yqeJ	1
yqeK	0
yqfA	119
yqfB	24
yqfE	1
yqgA	3
yqgB	47
yqgC	0
yqgD	9
yqgE	62
yqgF	9
yqhA	123
yqhC	16
yqhD	85
yqhG	1
yqhH	0
yqiA	31
yqiB	20
yqiC	69
yqiG	5
yqiH	2
yqiI	1
yqiJ	2
yqiK	7
yqjA	26
yqjB	12
yqjC	30
yqjD	26
yqjE	33
yqjF	1
yqjG	13
yqjH	22
yqjI	11
yqjK	27
yraH	2
yraI	0
yraJ	11
yraK	4
yraL	41
yraM	170
yraN	6
yraO	70
yraP	94
yraQ	58
yraR	12
yrbA	54
yrbB	39
yrbC	77
yrbD	23
yrbE	39
yrbF	58
yrbG	36
yrbK	52
yrbL	218
yrdA	62
yrdB	7
yrdC	20
yrdD	48
yrfA	0
yrfB	1
yrfC	2
yrfD	5
yrfF	245
yrfG	27
yrhA	0
yrhB	0
yrhC	3
ysaB	3
ysdC	2
ysgA	47
ytfA	0
ytfB	81
ytfE	17
ytfF	9
ytfG	11
ytfH	10
ytfI	3
ytfJ	171
ytfK	123
ytfL	25
ytfM	60
ytfN	80
ytfP	31
ytfQ	119
ytfR	37
ytfT	11
ytjA	17
ytjB	15
ytjC	124
yzcX	2
yzfA	3
yzgL	6
zapA	68
zipA	161
zitB	22
zntA	169
zntR	13
znuA	67
znuB	11
znuC	33
zraP	3
zraR	19
zraS	13
zupT	9
zur	33
zwf	160
__no_feature	329429
__ambiguous	97418
__too_low_aQual	0
__not_aligned	0
__alignment_not_unique	0
