aaeA	4
aaeB	12
aaeR	56
aaeX	0
aas	142
aat	36
abgA	0
abgB	0
abgR	0
abgT	0
abrB	7
accA	606
accB	449
accC	1170
accD	997
aceA	49082
aceB	26572
aceE	3098
aceF	1607
aceK	5211
ackA	429
acnA	1435
acnB	23836
acpP	2305
acpS	30
acpT	24
acrA	377
acrB	1038
acrD	23
acrE	1
acrF	16
acrR	23
acs	7646
actP	4653
ada	18
add	427
ade	109
adhE	718
adhP	42
adiA	18
adiC	6
adiY	1
adk	539
aegA	15
aer	57
aes	8
afuB	0
afuC	4
agaA	43
agaB	0
agaC	0
agaD	1
agaI	0
agaR	133
agaS	32
agaV	89
agaW	37
agp	634
ahpC	8470
ahpF	852
aidB	19
ais	1
alaS	2221
alaT	3
alaU	1
alaV	7
alaW	4
alaX	0
aldA	21381
aldB	180
alkA	29
alkB	8
allA	7
allB	23
allC	19
allD	2
allR	171
alpA	1
alr	84
alsA	6
alsB	19
alsC	4
alsE	11
alsK	6
alx	10
amiA	59
amiB	84
amiC	156
amn	413
ampC	23
ampD	37
ampE	117
ampG	70
ampH	80
amtB	16
amyA	87
ansA	74
ansB	37
ansP	14
apaG	40
apaH	72
aphA	638
appA	21
appB	10
appC	14
appY	0
apt	74
aqpZ	5
araA	81
araB	49
araC	600
araD	20
araE	63
araF	73
araG	18
araH	28
araJ	15
arcA	1646
arcB	453
argA	38
argB	24
argC	15
argD	48
argE	164
argF	37
argG	168
argH	73
argI	10
argK	1
argO	20
argP	162
argQ	15
argR	119
argS	223
argT	812
argU	3
argV	25
argW	0
argX	5
argY	58
argZ	29
arnT	4
aroA	109
aroB	379
aroC	240
aroD	65
aroE	67
aroF	77
aroG	337
aroH	39
aroK	180
aroL	46
aroM	3
aroP	66
arpA	4
arpB	0
arsB	25
arsC	11
arsR	2
artI	233
artJ	24
artM	78
artP	73
artQ	49
ascB	27
ascF	14
ascG	48
asd	1328
aslA	14
aslB	26
asmA	235
asnA	123
asnB	286
asnC	8
asnS	693
asnT	68
asnU	6
asnV	0
asnW	0
aspA	4158
aspC	1410
aspS	854
aspT	6
aspU	0
aspV	6
asr	3
astA	493
astB	498
astC	797
astD	670
astE	238
atoA	1
atoB	5
atoC	36
atoD	0
atoE	1
atoS	50
atpA	9098
atpB	1157
atpC	1817
atpD	7734
atpE	1076
atpF	1470
atpG	3433
atpH	1056
atpI	193
avtA	217
azoR	47
bacA	56
baeR	30
baeS	14
barA	113
basR	20
basS	32
bax	1066
bcp	261
bcr	52
bcsA	14
bcsB	16
bcsC	51
bcsE	136
bcsF	2
bcsG	46
bcsZ	5
bdm	3
betA	233
betB	344
betI	152
betT	122
bfd	24
bfr	98
bglA	378
bglB	3
bglF	1
bglG	4
bglH	2
bglJ	2
bglX	332
bioA	10
bioB	12
bioC	6
bioD	7
bioF	7
bioH	53
bipA	520
birA	65
bisC	117
blc	8
blr	11
bolA	134
borD	25
brnQ	117
btuB	290
btuC	21
btuD	35
btuE	45
btuF	24
btuR	40
cadA	5
cadB	3
cadC	6
caiA	22
caiB	8
caiC	11
caiD	3
caiE	2
caiF	16
caiT	4
can	286
carA	48
carB	437
cbl	14
cbpA	116
cbpM	38
cbrA	3
cbrC	12
cca	201
cchA	13
cchB	0
ccmA	20
ccmB	12
ccmC	18
ccmD	1
ccmE	13
ccmF	56
ccmG	13
ccmH	33
cdaR	155
cdd	60
cdh	24
cdsA	190
cedA	5
cfa	240
chaA	47
chaB	10
chaC	8
chbA	9
chbB	52
chbC	26
chbF	20
chbG	25
chbR	22
cheA	86
cheB	6
cheR	9
cheW	34
cheY	12
cheZ	24
chiA	38
chpA	31
chpB	39
chpR	52
chpS	20
cirA	122
citA	19
citB	7
citC	0
citD	0
citE	1
citF	3
citG	0
citT	2
citX	0
clcA	74
clcB	2
cld	247
clpA	3426
clpB	1653
clpP	580
clpS	54
clpX	1059
cls	169
cmk	126
cmr	18
cmtA	7
cmtB	3
coaA	140
coaD	28
coaE	55
cobB	168
cobC	13
cobS	43
cobT	59
cobU	30
codA	166
codB	56
cof	24
copA	176
corA	139
cpdA	349
cpdB	381
cpsB	5
cpsG	1
cpxA	251
cpxP	214
cpxR	333
crcA	2
crcB	9
creA	67
creB	78
creC	43
creD	8
crl	471
crp	1402
crr	1101
csdA	94
csgA	14
csgB	0
csgC	4
csgD	41
csgE	8
csgF	8
csgG	36
csiE	814
csiR	95
cspA	130
cspB	18
cspC	1227
cspD	3691
cspE	1019
cspF	0
cspG	8
cspH	0
cspI	2
csrA	355
csrB	7262
csrC	424
cstA	7910
cueO	123
cueR	57
cusA	12
cusB	2
cusC	1
cusF	1
cusR	14
cusS	16
cutA	27
cutC	89
cvpA	47
cvrA	48
cyaA	433
cyaY	41
cybB	93
cybC	17
cycA	1079
cydA	2030
cydB	909
cydC	137
cydD	90
cynR	25
cynS	4
cynT	4
cynX	5
cyoA	3132
cyoB	5982
cyoC	952
cyoD	584
cyoE	2540
cysA	174
cysB	187
cysC	25
cysD	163
cysE	449
cysG	106
cysH	170
cysI	391
cysJ	357
cysK	2057
cysM	107
cysN	288
cysP	310
cysQ	111
cysS	193
cysT	5
cysU	69
cysW	57
cysZ	29
cytR	176
dacA	166
dacB	78
dacC	182
dacD	16
dadA	3721
dadX	2050
dam	71
damX	455
dapA	935
dapB	150
dapD	822
dapE	118
dapF	199
dbpA	0
dcd	308
dcm	96
dcp	470
dcrB	344
dctA	657
dcuA	282
dcuB	5
dcuC	1
dcuD	1
dcuR	71
dcuS	96
ddg	25
ddlA	270
ddlB	184
ddpA	72
ddpB	14
ddpC	12
ddpD	15
ddpF	17
ddpX	17
deaD	119
dedA	68
dedD	129
def	144
degP	951
degQ	243
degS	52
deoA	168
deoB	475
deoC	84
deoD	779
deoR	41
der	240
dfp	220
dgkA	40
dgoA	7
dgoD	19
dgoK	28
dgoR	96
dgoT	9
dgsA	205
dgt	147
dhaH	157
dhaK	282
dhaL	116
dhaR	51
dicA	53
dicB	0
dicC	0
dicF	1
dinB	21
dinD	38
dinF	39
dinG	123
dinI	17
dinJ	39
dipZ	138
djlA	40
djlB	2
djlC	10
dkgA	128
dkgB	36
dksA	1700
dld	1038
dmsA	13
dmsB	5
dmsC	8
dmsD	24
dnaA	273
dnaB	219
dnaC	49
dnaE	335
dnaG	249
dnaJ	446
dnaK	4388
dnaN	187
dnaQ	108
dnaT	23
dnaX	232
dos	24
dppA	7370
dppB	607
dppC	422
dppD	597
dppF	671
dps	648
dsbA	235
dsbB	36
dsbC	90
dsbG	20
dsdA	113
dsdC	53
dsdX	45
dsrA	0
dsrB	18
dtd	113
dusB	138
dusC	12
dut	157
dxr	84
dxs	578
eaeH	0
eamA	49
ebgA	120
ebgC	19
ebgR	45
ecnA	6
ecnB	17
eco	411
ecpD	0
eda	250
edd	81
efp	458
ego	201
elaA	55
elaB	75
elaC	47
elaD	8
elbA	0
elbB	326
emrA	63
emrB	49
emrD	27
emrE	2
emrK	0
emrY	1
emtA	43
endA	5
eno	2769
entA	27
entB	43
entC	41
entD	2
entE	50
entF	134
envC	113
envR	0
envY	1
envZ	261
epd	427
eptA	7
eptB	248
era	125
erfK	41
essD	0
essQ	0
etp	4
eutA	3
eutB	133
eutC	63
eutE	8
eutG	5
eutH	8
eutI	16
eutJ	1
eutL	54
eutP	4
eutQ	9
eutT	9
evgA	88
evgS	103
exbB	90
exbD	52
exo	97
exoX	94
exuR	135
exuT	57
fabA	689
fabB	2668
fabD	781
fabF	903
fabG	1357
fabH	478
fabI	1653
fabR	193
fabZ	184
fadA	1395
fadB	2834
fadD	724
fadE	883
fadH	485
fadL	1081
fadR	182
fbaA	4471
fbaB	239
fbp	544
fcl	4
fdhD	46
fdhE	439
fdhF	43
fdnG	8
fdnH	3
fdnI	7
fdoG	3977
fdoH	609
fdoI	279
fdrA	1
fdx	64
feaB	62
feaR	171
fecA	654
fecB	184
fecC	51
fecD	46
fecE	79
fecI	18
fecR	14
feoA	44
feoB	238
fepA	87
fepB	18
fepC	14
fepD	14
fepE	0
fepG	14
fes	19
ffh	506
ffs	5
fhiA	3
fhlA	12
fhuA	379
fhuB	47
fhuC	43
fhuD	19
fhuE	24
fhuF	212
fic	15
fieF	111
fimA	1959
fimB	54
fimC	29
fimD	73
fimE	2
fimF	12
fimG	8
fimH	27
fimI	88
fimZ	0
fis	38
fiu	32
fixA	5
fixB	10
fixC	6
fixX	0
fklB	641
fkpA	512
fkpB	87
fldA	182
fldB	94
flgA	940
flgB	969
flgC	662
flgD	1894
flgE	4310
flgF	1590
flgG	1828
flgH	569
flgI	432
flgJ	251
flgK	368
flgL	354
flgM	170
flgN	143
flhA	434
flhB	220
flhC	64
flhD	66
flhE	45
fliA	1062
fliC	949
fliD	279
fliE	173
fliF	935
fliG	685
fliH	310
fliI	445
fliJ	70
fliK	430
fliL	429
fliM	749
fliN	179
fliO	70
fliP	76
fliQ	33
fliR	29
fliS	44
fliT	51
fliY	805
fliZ	534
flk	39
flu	283
flxA	7
fmt	290
fnr	0
focA	65
focB	5
folA	64
folB	6
folC	157
folD	131
folE	219
folK	11
folM	22
folP	63
folX	88
fpr	280
frc	7
frdA	418
frdB	110
frdC	33
frdD	61
fre	433
frlA	6
frlB	12
frlC	4
frlD	8
frlR	45
frmA	268
frmB	46
frmR	52
frr	721
frsA	140
fruA	84
fruB	31
fruK	28
fruR	1160
frvA	2
frvB	2
frvR	3
frvX	10
frwB	17
frwC	39
frwD	3
fsaA	10
fsaB	23
fsr	51
ftn	140
ftsA	399
ftsB	66
ftsE	148
ftsH	1762
ftsI	208
ftsK	801
ftsL	33
ftsN	151
ftsQ	146
ftsW	124
ftsX	156
ftsY	319
ftsZ	1487
fucA	56
fucI	157
fucK	49
fucO	247
fucP	34
fucR	302
fucU	74
fumA	2937
fumB	13
fumC	503
fur	374
fusA	14606
fxsA	16
gabD	448
gabP	158
gabT	538
gadA	1
gadB	14
gadC	15
gadE	1
gadW	12
gadX	19
gadY	0
galE	278
galF	534
galK	314
galM	479
galP	22
galR	52
galS	122
galT	194
galU	346
gapA	6877
gapC	129
garD	74
garK	42
garL	27
garP	115
garR	59
gatA	719
gatB	472
gatC	5238
gatD	1369
gatR	66
gatY	3095
gatZ	4068
gcd	40
gcl	10
gcvA	46
gcvB	1599
gcvH	2187
gcvP	7857
gcvR	118
gcvT	3699
gdhA	438
ggt	35
gidA	198
gidB	15
glcB	523
glcC	395
glcD	69
glcE	48
glcF	48
glcG	65
gldA	98
glf	275
glgA	778
glgB	1362
glgC	1120
glgP	1054
glgS	297
glgX	625
glk	373
glmM	1197
glmS	2249
glmU	1063
glnA	2457
glnB	64
glnD	160
glnE	359
glnG	153
glnH	4472
glnK	1
glnL	98
glnP	511
glnQ	695
glnS	807
glnU	3
glnV	0
glnW	1
glnX	2
gloA	172
gloB	76
glpA	4
glpB	5
glpC	4
glpD	76
glpE	21
glpF	220
glpG	47
glpK	867
glpQ	46
glpR	81
glpT	46
glpX	56
gltA	17707
gltB	674
gltD	223
gltF	6
gltI	953
gltJ	86
gltK	57
gltL	128
gltP	225
gltS	75
gltT	107
gltU	18
gltV	17
gltW	117
gltX	611
glvB	1
glvC	1
glvG	4
glxK	5
glxR	7
glyA	5071
glyQ	647
glyS	1595
glyT	24
glyU	3
glyV	39
glyW	36
glyX	5
glyY	1
gmd	2
gmhB	71
gmk	101
gmr	26
gnd	2140
gnsA	5
gnsB	52
gntK	14
gntP	35
gntR	138
gntT	39
gntU	5
gntX	90
gntY	329
gor	333
gph	222
gpmA	1897
gpmI	239
gpp	302
gpsA	1260
gpt	36
greA	105
greB	32
groL	10862
groS	1174
grpE	581
grxA	14
grxB	316
grxC	242
gshA	527
gshB	268
gsk	93
gspA	1
gspC	0
gspD	5
gspE	1
gspF	2
gspG	0
gspH	0
gspI	1
gspJ	0
gspK	0
gspL	2
gspM	1
gspO	2
gss	136
gst	274
guaA	799
guaB	242
guaC	389
guaD	25
gudD	38
gudP	107
gudX	20
gutM	3
gutQ	70
gyrA	1444
gyrB	771
hcaB	20
hcaC	5
hcaD	27
hcaE	53
hcaF	8
hcaR	596
hcaT	89
hchA	354
hcp	1
hcr	1
hda	63
hdeA	51
hdeB	12
hdeD	4
hdfR	78
hdhA	353
helD	181
hemA	156
hemB	224
hemC	416
hemD	121
hemE	233
hemF	43
hemG	48
hemH	49
hemL	488
hemN	210
hemX	333
hemY	356
hepA	92
hflC	658
hflD	61
hflK	927
hflX	650
hfq	703
hha	19
hinT	97
hipA	42
hipB	9
hisA	88
hisB	165
hisC	100
hisD	117
hisF	90
hisG	80
hisH	74
hisI	94
hisJ	529
hisL	7
hisM	40
hisP	48
hisQ	85
hisR	6
hisS	600
hlpA	699
hlyE	3
hmp	871
hns	3141
hofB	13
hofC	7
hofQ	8
hokA	0
hokB	3
hokC	0
hokD	29
hokE	2
holA	79
holB	47
holC	76
holD	23
holE	21
hpt	192
hrpA	270
hrpB	89
hscA	305
hscB	39
hscC	26
hsdM	123
hsdR	1398
hsdS	38
hslJ	3
hslO	126
hslR	28
hslU	662
hslV	144
hsrA	20
htgA	1
htpG	1372
htpX	474
htrC	5
htrE	1
htrG	220
htrL	41
hupA	3626
hupB	4363
hyaA	0
hyaB	1
hyaC	1
hyaD	4
hyaE	1
hyaF	3
hybA	25
hybB	23
hybC	125
hybD	25
hybE	17
hybF	2
hybG	8
hybO	57
hycA	0
hycB	0
hycC	3
hycD	2
hycE	10
hycF	2
hycG	1
hycH	6
hycI	28
hydN	3
hyfA	0
hyfB	8
hyfC	0
hyfD	2
hyfE	0
hyfF	4
hyfG	6
hyfH	3
hyfI	7
hyfJ	3
hyfR	5
hyi	3
hypA	4
hypB	24
hypC	1
hypD	27
hypE	23
hypF	19
hyuA	3
iaaA	206
iadA	98
iap	14
ibpA	70
ibpB	3
icd	15601
icdC	0
iclR	185
idi	15
idnD	11
idnK	16
idnO	12
idnR	12
idnT	10
ihfA	322
ihfB	670
ileS	1875
ileT	6
ileU	2
ileV	0
ileX	0
ileY	0
ilvA	88
ilvB	246
ilvC	72
ilvD	170
ilvE	149
ilvG	154
ilvH	11
ilvI	51
ilvL	61
ilvM	0
ilvN	44
ilvY	54
imp	956
inaA	25
infA	49
infB	2377
infC	1961
insA	114
insB	51
insC	58
insD	170
insE	41
insF	45
insG	85
insH	3290
insI	30
insJ	2
insK	1
insL	246
insM	2
insN	9
insO	16
intA	162
intB	28
intD	56
intE	5
intF	86
intG	1
intQ	3
intR	0
intS	25
iscA	209
iscR	196
iscS	952
iscU	237
ispA	280
ispB	357
ispD	60
ispE	248
ispF	59
ispG	388
ispH	179
ispU	277
isrA	0
isrB	0
isrC	0
ivbL	113
ivy	140
katE	53
katG	5543
kbaY	15
kbaZ	121
kbl	2470
kch	24
kdgK	190
kdgR	214
kdgT	20
kdpA	0
kdpB	9
kdpC	2
kdpD	72
kdpE	10
kdpF	0
kdsA	390
kdsB	99
kdsC	75
kdsD	126
kdtA	73
kduD	54
kduI	51
kefA	135
kefB	72
kefC	58
kefF	9
kefG	31
kgtP	2563
kil	0
kptA	9
ksgA	128
lacA	22
lacI	124
lacY	48
lacZ	248
lamB	4932
lar	0
ldcA	42
ldcC	42
ldhA	76
ldrA	2
ldrB	1
ldrC	10
ldrD	28
lepA	719
lepB	203
leuA	26
leuB	27
leuC	49
leuD	32
leuL	3
leuO	9
leuP	4
leuQ	3
leuS	859
leuT	6
leuU	1
leuV	4
leuW	1
leuX	1
leuZ	7
lexA	234
lgt	129
lhr	126
ligA	185
ligB	51
ligT	13
lipA	403
lipB	31
lit	28
livF	12
livG	9
livH	5
livJ	96
livK	28
livM	19
lldD	287
lldP	394
lldR	63
lnt	141
lolA	113
lolB	70
lolC	62
lolD	77
lolE	120
lomR	0
lon	1492
lpcA	533
lpd	6972
lplA	111
lpp	17172
lpxA	355
lpxB	220
lpxC	1674
lpxD	666
lpxH	32
lpxK	58
lpxL	68
lpxM	67
lrhA	39
lrp	939
lspA	137
lsrB	256
lsrC	78
lsrD	59
lsrF	171
lsrG	62
ltaE	196
luxS	318
lysA	81
lysC	61
lysP	83
lysQ	2
lysR	44
lysS	1076
lysT	64
lysU	828
lysV	0
lysW	22
lysY	12
lysZ	17
lyxK	19
maa	30
macA	54
macB	65
maeB	2074
mak	82
malE	5891
malF	612
malG	504
malI	35
malK	1262
malM	1079
malP	755
malQ	436
malS	62
malT	2035
malX	89
malY	95
malZ	46
manA	282
manX	369
manY	259
manZ	279
maoC	19
map	217
marA	15
marB	4
marC	16
marR	11
mazG	96
mbhA	1
mcrA	4
mcrB	62
mcrC	12
mdaB	88
mdh	11650
mdlA	47
mdlB	36
mdoB	405
mdoC	4
mdoD	400
mdoG	433
mdoH	401
mdtA	13
mdtB	20
mdtC	19
mdtD	4
mdtE	1
mdtF	7
mdtG	18
mdtH	8
mdtI	1
mdtJ	3
mdtK	124
mdtL	8
melA	794
melB	290
melR	83
menA	41
menB	223
menC	154
menD	93
menE	60
menF	85
mepA	49
metA	11
metB	60
metC	75
metE	124
metF	5
metG	414
metH	853
metI	36
metJ	73
metK	242
metL	177
metN	31
metQ	304
metR	14
metT	0
metU	0
metV	1
metW	7
metY	19
metZ	4
mfd	431
mglA	1013
mglB	6464
mglC	773
mgsA	843
mgtA	99
mhpA	13
mhpB	5
mhpC	10
mhpD	9
mhpE	15
mhpF	9
mhpR	189
mhpT	5
miaA	783
miaB	187
micC	0
micF	0
minC	214
minD	633
minE	152
mioC	130
mipA	912
mlrA	9
mltA	80
mltB	43
mltC	29
mltD	583
mmuM	74
mmuP	7
mngA	6
mngB	18
mngR	14
mntH	64
mntR	52
moaA	174
moaB	177
moaC	74
moaD	18
moaE	79
mobA	37
mobB	13
modA	147
modB	51
modC	76
modE	65
modF	95
moeA	155
moeB	61
mog	221
mokB	18
mokC	2
molR	6
motA	11
motB	9
mpaA	77
mpl	317
mppA	447
mprA	273
mqo	65
mraW	200
mraY	115
mraZ	150
mrcA	69
mrcB	222
mrdA	60
mrdB	63
mreB	573
mreC	120
mreD	26
mrp	552
mrr	122
msbA	222
mscL	118
mscS	58
msrA	200
msyB	49
mtgA	77
mtlA	1309
mtlD	483
mtlR	53
mtr	78
mukB	1243
mukE	132
mukF	176
murA	487
murB	103
murC	281
murD	235
murE	307
murF	257
murG	173
murI	70
murP	40
mutH	16
mutL	142
mutM	27
mutS	362
mutT	13
mutY	52
mviM	201
mviN	30
nac	5
nadA	41
nadB	11
nadC	83
nadD	36
nadE	242
nadR	178
nagA	211
nagB	218
nagC	202
nagD	215
nagE	2076
nagZ	106
nanA	126
nanE	39
nanK	31
nanR	150
nanT	132
napA	263
napB	12
napC	26
napD	1
napF	10
napG	29
napH	20
narG	23
narH	15
narI	8
narJ	6
narK	13
narL	189
narP	94
narQ	52
narU	4
narV	6
narW	4
narX	99
narY	18
narZ	31
ndh	204
ndk	531
nei	25
nemA	241
nfi	67
nfnB	239
nfo	108
nfrA	36
nfrB	8
nfsA	99
nhaA	61
nhaB	167
nhaR	24
nhoA	18
nikA	4
nikB	0
nikC	3
nikD	2
nikE	2
nikR	9
ninE	0
nirB	4
nirC	3
nirD	1
nlpA	59
nlpB	700
nlpC	84
nlpD	1720
nlpE	42
nlpI	836
nmpC	5381
nohA	0
nohB	1
norR	104
norV	5
norW	2
npr	23
nrdA	825
nrdB	448
nrdD	53
nrdE	50
nrdF	24
nrdG	6
nrdH	6
nrdI	5
nrfA	7
nrfB	4
nrfC	2
nrfD	6
nrfE	5
nrfF	0
nrfG	3
nth	16
nudB	100
nudC	37
nudD	1
nudE	77
nudF	42
nudG	8
nudH	238
nuoA	894
nuoB	1679
nuoC	4021
nuoE	825
nuoF	2650
nuoG	6529
nuoH	1766
nuoI	668
nuoJ	561
nuoK	126
nuoL	3215
nuoM	3046
nuoN	2380
nupC	140
nupG	261
nusA	766
nusB	130
nusG	280
obgE	119
ogrK	17
ogt	0
ompA	9622
ompC	33377
ompF	23786
ompG	1
ompL	0
ompN	4
ompR	554
ompT	1351
ompW	31
ompX	393
oppA	5928
oppB	657
oppC	820
oppD	1030
oppF	1349
oriC	0
orn	69
osmB	17
osmC	252
osmE	240
osmY	85
otsA	43
otsB	6
oxc	8
oxyR	433
oxyS	0
paaA	9
paaB	7
paaC	13
paaD	12
paaE	24
paaF	14
paaG	11
paaH	22
paaI	8
paaJ	124
paaK	342
paaX	117
paaY	129
pabA	10
pabB	21
pabC	37
pal	882
panB	437
panC	471
panD	150
panE	74
panF	23
parC	517
parE	295
pbl	0
pbpC	29
pbpG	52
pck	8254
pcm	152
pcnB	294
pdhR	167
pdxA	121
pdxB	331
pdxH	117
pdxJ	212
pdxK	120
pdxY	61
pepA	1065
pepB	586
pepD	1633
pepE	67
pepN	1996
pepP	865
pepQ	803
pepT	122
perR	1
pfkA	570
pfkB	78
pflA	77
pflB	2901
pflC	13
pflD	73
pfs	307
pgi	685
pgk	4125
pgm	987
pgpA	96
pgpB	39
pgsA	155
pheA	164
pheL	8
pheM	2
pheP	35
pheS	351
pheT	1285
pheU	0
pheV	3
phnA	54
phnB	4
phnC	1
phnD	2
phnE	1
phnF	0
phnG	0
phnH	0
phnI	1
phnJ	1
phnK	0
phnL	1
phnM	2
phnN	2
phnO	3
phnP	1
phoA	197
phoB	18
phoE	1
phoH	165
phoP	190
phoQ	122
phoR	13
phoU	93
php	1
phr	6
pin	1
pinH	0
pinQ	2
pinR	0
pioO	10
pitA	138
pitB	1
pldA	91
pldB	119
plsB	491
plsC	112
plsX	205
pmbA	277
pmrD	87
pncA	37
pncB	143
pnp	3699
pntA	1472
pntB	1187
pnuC	35
polA	966
polB	37
potA	71
potB	25
potC	31
potD	733
potE	7
potF	19
potG	11
potH	2
potI	5
poxA	13
poxB	23
ppa	1062
ppc	1156
ppdA	6
ppdB	15
ppdC	9
ppdD	4
pphA	4
pphB	1
ppiA	102
ppiB	341
ppiC	34
ppiD	775
ppk	335
pppA	13
pps	4771
ppx	164
pqiA	29
pqiB	57
pqqL	10
prc	585
prfA	97
prfB	563
prfC	246
prfH	1
priA	52
priB	341
priC	28
prkB	130
prlC	463
prmA	72
prmB	218
prmC	25
proA	294
proB	255
proC	209
proK	2
proL	3
proM	2
proP	85
proQ	409
proS	876
proV	814
proW	758
proX	2125
proY	46
prpB	2
prpC	2
prpD	5
prpE	5
prpR	34
prsA	1002
psd	251
psiF	13
pspA	84
pspB	1
pspC	6
pspD	2
pspE	215
pspF	40
pssA	478
pstA	22
pstB	63
pstC	21
pstS	47
pta	1003
pth	31
ptr	166
ptrB	38
ptsA	58
ptsG	170
ptsH	885
ptsI	2053
ptsN	244
ptsP	645
purA	3211
purB	352
purC	516
purD	425
purE	22
purF	246
purH	360
purK	92
purL	1205
purM	240
purN	112
purR	222
purT	193
purU	80
putA	41
putP	466
puuA	325
puuB	49
puuC	53
puuD	36
puuE	48
puuP	111
puuR	37
pykA	1528
pykF	339
pyrB	299
pyrC	143
pyrD	19
pyrE	7
pyrF	39
pyrG	496
pyrH	277
pyrI	137
pyrL	5
qor	218
qseB	12
qseC	17
queA	35
racC	0
racR	0
radA	230
rarA	1
rarD	16
rbbA	638
rbfA	95
rbn	230
rbsA	207
rbsB	1911
rbsC	118
rbsD	547
rbsK	320
rbsR	73
rcsA	11
rcsB	406
rcsC	176
rcsD	337
rcsF	47
rdgC	114
rdlA	17
rdlB	2
rdlC	1
rdlD	1
recA	1277
recB	219
recC	282
recD	89
recE	0
recF	22
recG	174
recJ	180
recN	96
recO	27
recQ	119
recR	166
recT	0
recX	11
relA	829
relB	31
relE	36
rem	3
renD	1
rep	89
rfaB	81
rfaC	73
rfaD	400
rfaE	299
rfaF	133
rfaG	92
rfaH	19
rfaI	53
rfaJ	56
rfaK	59
rfaL	48
rfaP	34
rfaQ	110
rfaS	27
rfaY	30
rfaZ	33
rfbA	275
rfbB	326
rfbC	63
rfbD	219
rfbX	109
rfe	134
rffA	86
rffC	30
rffD	123
rffE	95
rffG	79
rffH	81
rffM	26
rffT	36
rhaA	0
rhaB	2
rhaD	1
rhaR	3
rhaS	11
rhaT	14
rhlB	588
rhlE	4
rho	799
rhoL	93
rhsA	7
rhsB	9
rhsC	13
rhsD	21
rhsE	1
rhtA	13
rhtB	13
rhtC	42
ribA	87
ribB	264
ribC	151
ribD	212
ribE	158
ribF	205
rihA	692
rihB	3
rihC	335
rimI	14
rimJ	155
rimK	47
rimL	32
rimM	1113
rlmB	83
rlpA	197
rlpB	119
rluA	13
rluB	54
rluC	98
rluD	75
rmf	1499
rmuC	273
rna	43
rnb	294
rnc	58
rnd	94
rne	1552
rng	264
rnhA	22
rnhB	36
rnk	117
rnpA	33
rnpB	32059
rnr	770
rnt	26
rob	545
rof	31
rpe	228
rph	58
rpiA	523
rpiB	45
rpiR	74
rplA	2738
rplB	3474
rplC	2762
rplD	1698
rplE	2374
rplF	2189
rplI	994
rplJ	3484
rplK	975
rplL	2371
rplM	1440
rplN	2013
rplO	2285
rplP	1626
rplQ	1286
rplR	781
rplS	708
rplT	1305
rplU	521
rplV	1353
rplW	785
rplX	755
rplY	322
rpmA	430
rpmB	689
rpmC	200
rpmD	148
rpmE	649
rpmF	413
rpmG	84
rpmH	142
rpmI	727
rpmJ	451
rpoA	5208
rpoB	6362
rpoC	8558
rpoD	1150
rpoE	365
rpoH	452
rpoN	644
rpoS	2350
rpoZ	119
rprA	0
rpsA	7791
rpsB	2384
rpsC	3162
rpsD	3040
rpsE	1971
rpsF	1284
rpsG	2491
rpsH	1135
rpsI	1408
rpsJ	1675
rpsK	1815
rpsL	2126
rpsM	2014
rpsN	1197
rpsO	559
rpsP	389
rpsQ	609
rpsR	254
rpsS	800
rpsT	252
rpsU	305
rraA	395
rrfA	0
rrfB	0
rrfC	0
rrfD	0
rrfE	0
rrfF	0
rrfG	0
rrfH	0
rrlA	65
rrlB	64
rrlC	100
rrlD	53
rrlE	74
rrlG	52
rrlH	86
rrmA	35
rrmJ	287
rrsA	5
rrsB	4
rrsC	2
rrsD	1
rrsE	2
rrsG	12
rrsH	5
rsd	347
rseA	747
rseB	272
rseC	44
rsgA	284
rsmB	171
rsmC	94
rspA	37
rspB	13
rssA	51
rssB	32
rstA	70
rstB	69
rsuA	65
rsxA	12
rsxB	9
rsxC	78
rsxD	35
rsxE	19
rsxG	13
rtcA	10
rtcB	21
rtcR	17
rtn	65
rttR	0
rumA	120
rumB	17
rusA	0
ruvA	68
ruvB	164
ruvC	84
rybA	83
rybB	1
rydB	0
ryeA	463
ryeB	0
ryeC	62
ryeD	25
ryeE	4
ryfA	20
rygA	0
rygB	2
rygC	17
rygD	53
ryhA	5
ryhB	0
ryiA	130
ryjA	0
rzoD	0
rzoR	0
rzpD	0
rzpR	0
sanA	19
sapA	84
sapB	32
sapC	19
sapD	55
sapF	44
sbcB	186
sbcC	144
sbcD	29
sbmA	38
sbmC	143
sbp	30
sdaA	367
sdaB	359
sdaC	906
sdhA	7679
sdhB	3213
sdhC	1084
sdhD	509
sdiA	55
secA	1130
secB	1535
secD	918
secE	243
secF	465
secG	279
secM	112
secY	4925
selA	90
selB	189
selC	1
selD	752
seqA	187
serA	311
serB	117
serC	402
serS	1374
serT	0
serU	2
serV	102
serW	2
serX	2
setA	21
setB	6
setC	2
sfcA	747
sfmA	1
sfmC	1
sfmD	3
sfmF	1
sfmH	0
sfsA	123
sfsB	9
sgbE	26
sgbH	10
sgbU	26
sgcA	7
sgcB	2
sgcC	22
sgcE	6
sgcQ	5
sgcR	8
sgcX	29
sgrR	67
sgrS	24
shiA	99
sieB	0
sixA	177
slp	5
slt	215
slyA	133
slyB	618
slyD	1499
slyX	22
smf	36
smg	300
smpA	186
smpB	125
smtA	88
sodA	3098
sodB	2541
sodC	41
sohA	35
sohB	103
sokB	2
sokC	2
solA	175
soxR	7
soxS	52
speA	1612
speB	282
speC	132
speD	140
speE	183
speF	1
speG	66
spf	14
spoT	433
sppA	153
spr	1181
sprT	1
spy	61
sra	119
sraB	10
sraD	0
sraF	5
sraG	0
srlA	65
srlB	15
srlD	108
srlE	86
srlR	59
srmB	183
sroF	97
ssb	739
sseA	1595
sseB	87
ssnA	2
sspA	570
sspB	229
ssrA	88340
ssrS	2653
sstT	862
ssuA	0
ssuB	3
ssuC	1
ssuD	5
ssuE	2
stfE	0
stfQ	1
stfR	0
sthA	1643
stpA	13
sucA	10895
sucB	7072
sucC	9669
sucD	6150
sufA	16
sufB	135
sufC	45
sufD	109
sufE	7
sufI	412
sufS	78
sugE	22
suhB	12
sulA	74
surA	608
surE	211
syd	27
tadA	11
tag	46
talA	43
talB	2881
tam	57
tap	51
tar	61
tas	405
tatA	168
tatB	136
tatC	111
tatD	30
tatE	76
tauA	1
tauB	1
tauC	1
tauD	4
tbpA	27
tdcA	32
tdcB	29
tdcC	53
tdcD	11
tdcE	26
tdcF	6
tdcG	9
tdcR	0
tdh	2829
tdk	27
tehA	32
tehB	64
tesA	58
tesB	61
tfaD	0
tfaE	3
tfaQ	0
tfaR	0
tfaS	1
tff	77
tgt	209
thiC	65
thiD	7
thiE	10
thiF	19
thiG	32
thiH	70
thiI	66
thiL	95
thiM	23
thiP	10
thiQ	16
thiS	1
thrA	464
thrB	281
thrC	424
thrL	23
thrS	2697
thrT	42
thrU	0
thrV	0
thrW	3
thyA	174
tiaE	835
tig	2866
tilS	46
tktA	3953
tktB	117
tldD	305
tmk	33
tnaA	36698
tnaB	1197
tnaC	559
tolA	59
tolB	616
tolC	1171
tolQ	23
tolR	11
tonB	68
topA	791
topB	364
torA	12
torC	1
torD	6
torI	7
torR	27
torS	17
torT	8
torY	5
torZ	39
tpiA	1351
tpr	0
tpx	1859
treA	40
treB	999
treC	434
treF	35
treR	33
trg	46
trkA	126
trkD	73
trkG	0
trkH	89
trmA	66
trmC	74
trmD	1343
trmE	110
trmH	65
trmU	170
trpA	136
trpB	174
trpC	67
trpD	18
trpE	12
trpL	1
trpR	66
trpS	411
trpT	0
truA	55
truB	187
truD	285
trxA	771
trxB	420
trxC	56
tsf	1821
tsgA	6
tsr	36
tsx	737
ttdA	1
ttdB	0
ttk	114
tufA	10422
tufB	10155
tus	40
tynA	7
tyrA	75
tyrB	243
tyrP	19
tyrR	247
tyrS	579
tyrT	11
tyrU	76
tyrV	7
ubiA	169
ubiB	280
ubiC	153
ubiD	967
ubiE	337
ubiF	129
ubiG	140
ubiH	285
ubiX	33
ucpA	785
udk	33
udp	701
ugd	18
ugpA	34
ugpB	257
ugpC	128
ugpE	28
ugpQ	86
uhpA	41
uhpB	24
uhpC	11
uhpT	43
uidA	82
uidB	29
uidC	15
uidR	106
ulaA	38
ulaB	14
ulaC	19
ulaD	37
ulaE	29
ulaF	41
ulaG	21
ulaR	44
umuC	7
umuD	2
ung	92
upp	96
uraA	17
usg	128
ushA	310
uspA	2726
uspE	0
uspF	9
uspG	403
uup	176
uvrA	205
uvrB	199
uvrC	240
uvrD	307
uvrY	181
uxaA	485
uxaB	34
uxaC	976
uxuA	688
uxuB	821
uxuR	99
vacJ	221
valS	1565
valT	12
valU	9
valV	0
valW	0
valX	54
valY	1
valZ	16
visC	221
vsr	4
wbbH	75
wbbI	129
wbbJ	115
wbbK	118
wbbL	130
wcaA	0
wcaB	1
wcaC	1
wcaD	1
wcaE	0
wcaF	0
wcaI	3
wcaJ	2
wcaK	8
wcaL	7
wcaM	18
wrbA	83
wza	1
wzb	0
wzc	3
wzxC	2
wzxE	32
wzyE	26
wzzE	108
xapA	6
xapB	17
xapR	19
xdhA	56
xdhB	11
xdhC	7
xdhD	22
xerC	132
xerD	94
xseA	41
xseB	84
xthA	157
xylA	110
xylB	27
xylE	19
xylF	342
xylG	98
xylH	94
xylR	81
yaaA	77
yaaH	4
yaaI	1
yaaJ	8
yaaU	8
yaaW	3
yaaX	4
yaaY	5
yabI	98
yabP	11
yabQ	1
yacC	14
yacF	76
yacG	20
yacH	2
yacL	96
yadB	30
yadC	3
yadD	16
yadE	12
yadG	75
yadH	85
yadI	23
yadK	0
yadL	6
yadM	1
yadN	0
yadR	104
yadS	19
yaeB	22
yaeF	5
yaeH	629
yaeI	7
yaeJ	5
yaeL	373
yaeP	46
yaeQ	36
yaeR	20
yaeT	2254
yafC	60
yafD	152
yafE	10
yafF	0
yafJ	163
yafK	67
yafL	1
yafM	69
yafN	10
yafO	2
yafP	1
yafQ	10
yafS	46
yafT	2
yafU	0
yafV	47
yafW	0
yafX	0
yafY	7
yafZ	2
yagA	0
yagB	30
yagE	121
yagF	200
yagG	27
yagH	60
yagI	59
yagJ	12
yagK	4
yagL	1
yagM	0
yagN	154
yagP	2
yagQ	3
yagR	9
yagS	1
yagT	0
yagU	55
yagV	12
yagW	9
yagX	4
yagY	2
yagZ	8
yahA	14
yahB	29
yahC	1
yahD	14
yahE	1
yahF	4
yahG	7
yahH	0
yahI	2
yahJ	59
yahK	31
yahL	0
yahM	3
yahN	8
yahO	21
yaiA	10
yaiB	326
yaiC	7
yaiE	153
yaiF	2
yaiI	37
yaiL	43
yaiO	3
yaiP	1
yaiS	0
yaiT	6
yaiU	14
yaiV	0
yaiW	44
yaiX	0
yaiY	3
yaiZ	105
yajB	17
yajC	451
yajD	60
yajG	103
yajI	3
yajL	71
yajO	150
yajQ	415
yajR	39
ybaA	1
ybaB	179
ybaD	99
ybaE	53
ybaJ	54
ybaK	12
ybaL	166
ybaM	11
ybaN	22
ybaO	24
ybaP	40
ybaQ	22
ybaS	2
ybaT	4
ybaV	32
ybaW	10
ybaX	78
ybaY	65
ybaZ	35
ybbA	41
ybbB	16
ybbC	0
ybbD	0
ybbJ	47
ybbK	113
ybbL	30
ybbM	28
ybbN	272
ybbO	93
ybbP	68
ybbS	3
ybbV	0
ybbW	0
ybbY	0
ybcC	0
ybcD	0
ybcF	5
ybcH	5
ybcI	2
ybcJ	8
ybcK	3
ybcL	1
ybcM	6
ybcN	0
ybcO	0
ybcQ	0
ybcS	1
ybcV	1
ybcW	3
ybcY	2
ybdA	21
ybdB	19
ybdD	323
ybdF	19
ybdG	80
ybdH	17
ybdJ	3
ybdK	18
ybdL	12
ybdM	2
ybdN	2
ybdO	0
ybdR	16
ybdZ	3
ybeA	37
ybeB	36
ybeD	62
ybeF	0
ybeH	5
ybeL	172
ybeM	6
ybeQ	2
ybeR	0
ybeT	0
ybeU	0
ybeX	340
ybeY	112
ybeZ	261
ybfA	12
ybfB	0
ybfC	0
ybfD	0
ybfE	9
ybfF	59
ybfG	1
ybfH	0
ybfL	0
ybfM	90
ybfN	2
ybfO	1
ybfP	1
ybfQ	0
ybgA	4
ybgC	22
ybgD	2
ybgE	40
ybgF	264
ybgH	7
ybgI	357
ybgJ	223
ybgK	255
ybgL	90
ybgO	1
ybgP	1
ybgQ	2
ybgS	14
ybgT	5
ybhA	50
ybhB	52
ybhC	334
ybhD	5
ybhE	286
ybhF	123
ybhG	106
ybhH	2
ybhI	0
ybhJ	4
ybhK	85
ybhL	163
ybhM	3
ybhN	1
ybhO	6
ybhP	3
ybhQ	324
ybhR	22
ybhS	34
ybhT	52
ybiA	11
ybiB	210
ybiC	371
ybiH	35
ybiI	4
ybiJ	5
ybiM	2
ybiN	25
ybiO	6
ybiP	8
ybiR	29
ybiS	84
ybiT	233
ybiU	44
ybiV	13
ybiW	9
ybiX	2
ybiY	0
ybjC	13
ybjD	122
ybjE	3
ybjG	30
ybjH	12
ybjI	65
ybjJ	41
ybjK	47
ybjL	45
ybjM	10
ybjN	54
ybjO	7
ybjP	109
ybjQ	53
ybjR	84
ybjS	55
ybjT	112
ybjX	40
ycaC	31
ycaD	11
ycaI	24
ycaJ	107
ycaK	5
ycaL	6
ycaM	108
ycaN	14
ycaO	69
ycaP	10
ycaQ	11
ycaR	16
ycbB	156
ycbC	11
ycbF	5
ycbG	74
ycbJ	105
ycbK	401
ycbL	257
ycbQ	2
ycbR	0
ycbS	7
ycbT	8
ycbU	0
ycbV	1
ycbW	130
ycbX	186
ycbY	152
ycbZ	197
yccA	570
yccC	21
yccE	0
yccF	14
yccJ	22
yccK	29
yccM	1
yccR	64
yccS	33
yccT	2
yccU	84
yccV	85
yccW	96
yccX	25
yccZ	5
ycdB	48
ycdC	35
ycdG	10
ycdH	1
ycdI	2
ycdK	0
ycdL	0
ycdM	3
ycdN	29
ycdO	72
ycdP	1
ycdQ	3
ycdR	3
ycdS	12
ycdT	8
ycdU	1
ycdW	256
ycdX	124
ycdY	124
ycdZ	48
yceA	47
yceB	32
yceD	551
yceF	81
yceG	30
yceH	177
yceI	77
yceJ	5
yceK	2
yceO	0
yceP	75
yceQ	0
ycfD	228
ycfH	41
ycfJ	5
ycfK	1
ycfL	72
ycfM	158
ycfN	34
ycfP	145
ycfQ	59
ycfR	2
ycfS	20
ycfT	1
ycfX	157
ycfZ	2
ycgB	40
ycgE	79
ycgF	28
ycgG	0
ycgH	8
ycgI	1
ycgJ	33
ycgK	53
ycgL	44
ycgM	96
ycgN	23
ycgR	12
ycgV	14
ycgX	1
ycgY	0
ycgZ	0
ychA	73
ychE	16
ychF	202
ychG	9
ychH	601
ychJ	20
ychM	28
ychN	120
ychP	7
ychQ	4
ychS	0
yciA	14
yciB	23
yciC	44
yciE	3
yciF	3
yciG	1
yciH	7
yciI	146
yciK	97
yciM	81
yciN	74
yciO	52
yciQ	17
yciS	69
yciT	112
yciU	23
yciV	25
yciW	48
yciX	47
ycjD	16
ycjF	70
ycjG	202
ycjM	7
ycjN	8
ycjO	0
ycjP	2
ycjQ	8
ycjR	3
ycjS	1
ycjT	8
ycjU	1
ycjV	0
ycjW	24
ycjX	69
ycjY	11
ycjZ	13
ydaC	0
ydaE	0
ydaF	0
ydaG	0
ydaL	0
ydaM	0
ydaN	0
ydaO	0
ydaQ	0
ydaS	0
ydaT	0
ydaU	0
ydaV	0
ydaW	0
ydaY	0
ydbA	106
ydbC	44
ydbD	4
ydbH	85
ydbJ	162
ydbK	317
ydbL	6
ydcA	15
ydcC	2
ydcD	1
ydcE	28
ydcF	144
ydcH	19
ydcI	602
ydcJ	58
ydcK	10
ydcL	61
ydcM	86
ydcN	11
ydcO	29
ydcP	101
ydcQ	11
ydcR	70
ydcS	43
ydcT	16
ydcU	8
ydcV	10
ydcW	91
ydcX	2
ydcY	83
ydcZ	11
yddA	2
yddB	20
yddE	71
yddG	13
yddH	7
yddJ	0
yddK	1
yddL	0
yddM	30
yddV	25
yddW	61
ydeA	6
ydeE	40
ydeH	27
ydeI	3
ydeJ	2
ydeK	47
ydeM	7
ydeN	414
ydeO	1
ydeP	17
ydeQ	1
ydeR	0
ydeS	0
ydeT	0
ydeU	19
ydeV	284
ydeW	273
ydfA	0
ydfB	0
ydfC	2
ydfD	0
ydfE	2
ydfG	442
ydfH	44
ydfI	9
ydfJ	1
ydfK	1
ydfO	0
ydfP	0
ydfQ	0
ydfR	2
ydfT	3
ydfU	0
ydfV	0
ydfW	0
ydfX	1
ydfZ	4
ydgA	327
ydgC	17
ydgD	54
ydgG	9
ydgH	456
ydgI	16
ydgJ	233
ydgK	16
ydgR	450
ydgT	7
ydhA	11
ydhB	38
ydhC	38
ydhD	200
ydhF	122
ydhH	105
ydhI	10
ydhJ	10
ydhK	17
ydhL	5
ydhM	20
ydhO	90
ydhP	6
ydhQ	303
ydhR	162
ydhS	10
ydhT	0
ydhU	6
ydhV	12
ydhW	2
ydhX	11
ydhY	2
ydhZ	33
ydiA	204
ydiB	1
ydiD	0
ydiE	3
ydiF	2
ydiH	8
ydiI	92
ydiJ	926
ydiK	91
ydiL	0
ydiM	1
ydiN	1
ydiO	8
ydiP	32
ydiQ	3
ydiR	5
ydiS	4
ydiT	1
ydiU	166
ydiV	6
ydiY	5
ydiZ	20
ydjA	326
ydjE	10
ydjF	38
ydjG	19
ydjH	10
ydjI	5
ydjJ	12
ydjK	11
ydjL	18
ydjM	6
ydjN	137
ydjO	0
ydjQ	15
ydjR	3
ydjX	0
ydjY	14
ydjZ	10
yeaA	733
yeaB	24
yeaC	401
yeaD	166
yeaE	72
yeaG	113
yeaH	12
yeaI	0
yeaJ	47
yeaK	68
yeaL	9
yeaM	19
yeaN	14
yeaO	35
yeaP	91
yeaQ	13
yeaR	13
yeaS	26
yeaT	217
yeaU	62
yeaV	6
yeaW	16
yeaX	13
yeaY	77
yeaZ	53
yebA	300
yebB	0
yebC	405
yebE	47
yebF	56
yebG	52
yebK	158
yebN	3
yebO	24
yebQ	6
yebR	126
yebS	17
yebT	69
yebU	37
yebV	7
yebW	7
yebY	23
yebZ	87
yecA	289
yecC	83
yecD	74
yecE	26
yecF	17
yecG	9
yecH	5
yecI	185
yecJ	8
yecM	33
yecN	29
yecO	33
yecP	49
yecR	79
yecS	75
yecT	0
yedA	7
yedD	79
yedE	785
yedF	117
yedI	37
yedJ	26
yedK	13
yedL	8
yedM	10
yedN	2
yedO	200
yedP	21
yedQ	46
yedR	0
yedS	10
yedV	20
yedW	17
yedX	10
yedY	23
yedZ	3
yeeA	74
yeeD	31
yeeE	61
yeeF	32
yeeI	1564
yeeJ	34
yeeL	2
yeeN	142
yeeO	17
yeeP	9
yeeR	24
yeeS	1
yeeT	0
yeeU	0
yeeV	0
yeeW	3
yeeX	344
yeeY	16
yeeZ	172
yefM	30
yegD	23
yegE	142
yegH	44
yegI	17
yegJ	0
yegK	2
yegL	2
yegP	9
yegQ	77
yegR	1
yegS	10
yegT	73
yegU	77
yegV	37
yegW	33
yegX	7
yegZ	0
yehA	1
yehB	6
yehC	0
yehD	0
yehE	9
yehI	8
yehK	0
yehL	1
yehM	3
yehP	3
yehQ	2
yehR	0
yehS	26
yehT	31
yehU	60
yehW	0
yehX	5
yehY	3
yehZ	8
yeiA	24
yeiB	23
yeiC	37
yeiE	186
yeiG	307
yeiH	34
yeiI	41
yeiJ	4
yeiL	9
yeiM	81
yeiN	162
yeiP	58
yeiQ	67
yeiR	28
yeiS	0
yeiT	38
yeiU	9
yeiW	0
yejA	78
yejB	13
yejE	27
yejF	64
yejG	40
yejH	35
yejK	94
yejL	39
yejM	165
yejO	34
yfaA	5
yfaD	20
yfaE	43
yfaH	0
yfaL	71
yfaO	21
yfaP	3
yfaQ	3
yfaS	17
yfaT	0
yfaU	10
yfaV	5
yfaW	32
yfaX	4
yfaY	127
yfaZ	24
yfbB	19
yfbE	14
yfbF	4
yfbG	20
yfbH	3
yfbJ	1
yfbK	4
yfbL	1
yfbM	15
yfbN	2
yfbO	1
yfbP	4
yfbQ	190
yfbR	33
yfbS	80
yfbT	226
yfbU	258
yfbV	113
yfbW	0
yfcA	29
yfcC	2
yfcD	131
yfcE	141
yfcF	20
yfcG	6
yfcH	199
yfcI	15
yfcJ	9
yfcL	38
yfcM	39
yfcN	60
yfcO	31
yfcP	2
yfcQ	1
yfcR	1
yfcS	0
yfcT	1
yfcU	14
yfcV	0
yfcX	801
yfcY	385
yfcZ	66
yfdC	4
yfdE	3
yfdF	4
yfdG	20
yfdH	106
yfdI	82
yfdK	5
yfdL	0
yfdM	0
yfdN	0
yfdO	0
yfdP	1
yfdQ	4
yfdR	0
yfdS	0
yfdT	0
yfdV	1
yfdX	1
yfdY	22
yfdZ	196
yfeA	76
yfeC	71
yfeD	30
yfeG	40
yfeH	90
yfeK	7
yfeN	4
yfeO	10
yfeR	12
yfeS	6
yfeT	14
yfeU	65
yfeW	42
yfeX	388
yfeY	135
yfeZ	23
yffB	51
yffH	51
yffI	37
yfgA	397
yfgB	168
yfgC	238
yfgD	85
yfgF	3
yfgG	58
yfgH	2
yfgI	2
yfgJ	14
yfgL	600
yfgM	174
yfgO	66
yfhA	49
yfhB	46
yfhD	15
yfhG	20
yfhH	20
yfhJ	32
yfhK	46
yfhL	1
yfhM	423
yfhQ	198
yfhR	1
yfiA	4461
yfiB	16
yfiC	6
yfiD	51
yfiE	22
yfiF	217
yfiH	43
yfiK	8
yfiL	3
yfiM	4
yfiN	9
yfiO	476
yfiP	14
yfiQ	1120
yfiR	9
yfjB	96
yfjD	75
yfjF	17
yfjG	50
yfjH	15
yfjI	20
yfjJ	1
yfjK	99
yfjL	72
yfjM	2
yfjN	84
yfjO	20
yfjP	6
yfjQ	0
yfjR	2
yfjS	1
yfjT	0
yfjU	2
yfjV	1
yfjW	16
yfjX	0
yfjY	0
yfjZ	1
ygaC	8
ygaD	92
ygaF	317
ygaH	27
ygaM	20
ygaP	26
ygaQ	0
ygaR	0
ygaT	500
ygaU	90
ygaV	1
ygaW	20
ygaX	1
ygaY	1
ygaZ	121
ygbA	15
ygbE	27
ygbF	6
ygbI	113
ygbJ	8
ygbK	11
ygbL	5
ygbM	7
ygbN	8
ygbT	14
ygcB	16
ygcE	11
ygcF	26
ygcG	1
ygcH	6
ygcI	8
ygcJ	10
ygcK	1
ygcL	7
ygcM	10
ygcN	19
ygcO	1
ygcP	3
ygcQ	6
ygcR	3
ygcS	0
ygcU	1
ygcW	3
ygdB	5
ygdD	14
ygdE	88
ygdH	1149
ygdI	18
ygdK	26
ygdL	86
ygdQ	31
ygdR	113
ygeA	84
ygeD	48
ygeF	0
ygeG	0
ygeH	0
ygeI	0
ygeK	0
ygeL	0
ygeM	0
ygeN	0
ygeO	0
ygeP	3
ygeQ	1
ygeR	145
ygeV	625
ygeW	25
ygeX	9
ygeY	10
ygfA	16
ygfB	302
ygfF	144
ygfG	2
ygfH	3
ygfI	5
ygfJ	29
ygfK	33
ygfM	3
ygfO	3
ygfQ	38
ygfS	3
ygfT	18
ygfU	8
ygfX	95
ygfY	203
ygfZ	1122
yggC	28
yggD	46
yggE	194
yggF	4
yggG	486
yggH	93
yggJ	52
yggL	268
yggM	2
yggN	66
yggP	7
yggR	20
yggS	36
yggT	67
yggU	8
yggV	49
yggW	97
yggX	26
yghA	8
yghB	63
yghD	6
yghE	2
yghF	2
yghG	3
yghJ	259
yghK	19
yghO	3
yghQ	1
yghR	1
yghS	0
yghT	0
yghU	239
yghW	1
yghX	1
yghY	9
yghZ	260
ygiA	6
ygiB	209
ygiC	536
ygiE	148
ygiF	90
ygiH	63
ygiL	1
ygiN	363
ygiP	3
ygiQ	76
ygiS	482
ygiT	31
ygiU	24
ygiV	4
ygiW	50
ygiZ	0
ygjD	104
ygjE	3
ygjF	109
ygjG	31
ygjH	18
ygjI	51
ygjJ	4
ygjK	29
ygjM	10
ygjN	3
ygjO	20
ygjP	24
ygjQ	0
ygjR	182
ygjV	9
yhaB	0
yhaC	0
yhaH	46
yhaI	0
yhaJ	126
yhaK	17
yhaL	138
yhaM	18
yhaO	7
yhaV	43
yhbC	125
yhbE	51
yhbG	206
yhbH	302
yhbJ	293
yhbN	134
yhbO	3
yhbP	9
yhbQ	14
yhbS	196
yhbT	311
yhbU	0
yhbV	2
yhbW	56
yhbX	7
yhbY	82
yhcA	1
yhcB	326
yhcC	2
yhcD	14
yhcE	31
yhcF	6
yhcG	3
yhcH	27
yhcM	92
yhcN	6
yhcO	2
yhdA	93
yhdE	52
yhdH	293
yhdJ	4
yhdL	10
yhdN	24
yhdP	256
yhdT	4
yhdU	11
yhdV	6
yhdW	20
yhdX	6
yhdY	3
yhdZ	15
yheL	14
yheM	13
yheN	34
yheO	117
yheS	137
yheT	48
yheU	18
yheV	14
yhfA	113
yhfG	4
yhfK	203
yhfL	1
yhfS	6
yhfT	10
yhfU	3
yhfW	4
yhfX	2
yhfY	5
yhfZ	50
yhgA	15
yhgE	49
yhgF	430
yhgG	8
yhgN	24
yhhA	17
yhhF	23
yhhH	0
yhhI	0
yhhJ	236
yhhK	47
yhhL	12
yhhM	38
yhhN	109
yhhP	12
yhhQ	7
yhhS	34
yhhT	11
yhhW	41
yhhX	204
yhhY	21
yhhZ	0
yhiD	2
yhiF	0
yhiI	532
yhiJ	3
yhiK	0
yhiL	0
yhiM	5
yhiN	46
yhiO	25
yhiP	228
yhiQ	42
yhiR	68
yhiS	0
yhjA	9
yhjB	0
yhjC	37
yhjD	50
yhjE	36
yhjG	28
yhjH	17
yhjJ	209
yhjK	50
yhjQ	3
yhjR	13
yhjV	10
yhjX	6
yhjY	10
yiaA	0
yiaB	0
yiaC	6
yiaD	22
yiaF	214
yiaG	6
yiaH	15
yiaI	3
yiaJ	43
yiaK	29
yiaL	3
yiaM	0
yiaN	2
yiaO	21
yiaT	4
yiaU	20
yiaV	1
yiaW	0
yiaY	0
yibA	6
yibD	5
yibF	50
yibG	0
yibH	18
yibI	7
yibJ	8
yibK	8
yibL	53
yibN	200
yibQ	29
yibT	105
yicC	166
yicE	86
yicG	4
yicH	247
yicI	30
yicJ	2
yicL	34
yicM	5
yicN	14
yicO	2
yicR	165
yicS	2
yidA	72
yidB	14
yidC	925
yidD	3
yidE	78
yidF	12
yidG	3
yidH	10
yidI	3
yidJ	13
yidK	3
yidL	12
yidP	1
yidQ	321
yidR	61
yidX	5
yidZ	11
yieE	52
yieF	141
yieG	83
yieH	18
yieI	2
yieK	4
yieL	4
yieM	74
yieN	79
yieP	79
yifB	18
yifE	220
yifK	157
yifL	100
yifN	1
yifO	3
yigA	133
yigB	58
yigE	3
yigF	3
yigG	0
yigI	21
yigL	62
yigM	6
yigP	139
yigZ	91
yihA	145
yihD	110
yihE	142
yihF	2
yihG	8
yihI	84
yihL	11
yihM	34
yihN	27
yihO	2
yihP	4
yihQ	4
yihR	3
yihS	32
yihT	16
yihU	13
yihV	9
yihW	78
yihX	489
yiiD	367
yiiE	0
yiiF	8
yiiG	5
yiiL	0
yiiM	61
yiiQ	55
yiiR	14
yiiS	74
yiiT	129
yiiU	326
yiiX	18
yijD	265
yijE	23
yijF	1
yijO	35
yijP	77
yjaA	0
yjaB	21
yjaG	58
yjaH	88
yjbA	1
yjbB	83
yjbC	93
yjbD	57
yjbE	3
yjbF	1
yjbG	0
yjbH	6
yjbI	2
yjbJ	26
yjbL	0
yjbM	0
yjbN	106
yjbO	3
yjbQ	172
yjbR	68
yjcB	1
yjcC	21
yjcD	71
yjcE	165
yjcF	0
yjcH	947
yjcO	72
yjcP	1
yjcQ	0
yjcR	0
yjcS	1
yjcZ	20
yjdA	149
yjdC	121
yjdF	14
yjdI	2
yjdJ	4
yjdK	0
yjdL	5
yjdO	2
yjdP	31
yjeB	58
yjeE	15
yjeF	67
yjeH	19
yjeI	478
yjeJ	1
yjeK	53
yjeM	9
yjeN	3
yjeO	2
yjeP	173
yjeS	31
yjeT	4
yjfC	2
yjfF	16
yjfI	0
yjfJ	0
yjfK	2
yjfL	0
yjfM	1
yjfN	257
yjfO	475
yjfP	46
yjfY	1
yjfZ	1
yjgA	135
yjgB	19
yjgD	444
yjgF	2378
yjgH	6
yjgI	11
yjgJ	26
yjgK	47
yjgL	7
yjgM	26
yjgN	1
yjgP	165
yjgQ	102
yjgR	64
yjgW	2
yjgX	32
yjgZ	0
yjhA	49
yjhB	21
yjhC	70
yjhD	3
yjhE	0
yjhF	8
yjhG	49
yjhH	26
yjhI	5
yjhP	34
yjhQ	18
yjhR	9
yjhS	11
yjhT	48
yjhU	211
yjhV	1
yjhW	0
yjhX	28
yjiA	149
yjiC	0
yjiD	6
yjiE	34
yjiG	2
yjiH	6
yjiJ	12
yjiK	6
yjiL	14
yjiM	47
yjiN	13
yjiO	11
yjiP	3
yjiQ	14
yjiR	39
yjiS	1
yjiT	650
yjiV	58
yjiW	2
yjiX	2
yjiY	41
yjiZ	29
yjjA	31
yjjB	5
yjjG	35
yjjI	24
yjjJ	82
yjjK	972
yjjM	95
yjjN	5
yjjP	15
yjjQ	0
yjjU	69
yjjV	43
yjjW	2
yjjX	34
yjjY	1
yjjZ	0
yjtD	23
ykfA	49
ykfB	37
ykfC	15
ykfF	0
ykfG	0
ykfH	0
ykfI	0
ykfJ	0
ykgA	8
ykgB	2
ykgC	21
ykgD	10
ykgE	84
ykgF	138
ykgG	52
ykgH	1
ykgI	0
ykgJ	0
ykgK	1
ykgL	2
ykgM	1
ykgN	35
ykiA	6
ykiB	0
ylaB	32
ylaC	82
ylbA	27
ylbE	2
ylbF	4
ylbG	10
ylbH	1
ylcE	1
ylcG	0
yliA	229
yliB	189
yliC	41
yliD	16
yliE	21
yliF	4
yliG	34
yliH	2
yliI	4
yliJ	269
yliK	4
yliL	1
ymbA	29
ymcA	4
ymcB	1
ymcC	1
ymcD	3
ymcE	2
ymdA	1
ymdB	24
ymdC	34
ymdE	1
ymdF	19
ymfA	2
ymfB	10
ymfC	15
ymfD	15
ymfE	20
ymfG	0
ymfH	2
ymfI	35
ymfJ	5
ymfK	55
ymfL	0
ymfM	1
ymfN	1
ymfO	1
ymfP	2
ymfQ	0
ymfR	0
ymfS	2
ymfT	1
ymgA	0
ymgB	1
ymgC	1
ymgD	7
ymgE	1
ymgF	2
ymgG	6
ymgH	0
ymjA	10
ymjB	0
ymjC	1
ynaA	0
ynaE	0
ynaI	29
ynaJ	0
ynaK	0
ynbA	0
ynbB	1
ynbC	7
ynbD	8
ynbE	1
yncA	39
yncB	56
yncC	1
yncD	18
yncE	588
yncG	6
yncH	0
yncI	4
yncJ	4
yncK	1
yncM	0
yncN	2
yneE	0
yneF	14
yneG	3
yneH	28
yneI	90
yneJ	20
yneK	1
yneL	0
ynfA	4
ynfB	47
ynfC	34
ynfD	25
ynfE	2
ynfF	26
ynfG	3
ynfH	6
ynfK	24
ynfL	18
ynfM	13
ynfN	0
ynfO	0
ynfP	0
ynhG	40
yniA	204
yniB	30
yniC	90
yniD	2
ynjA	14
ynjB	29
ynjC	23
ynjD	7
ynjE	45
ynjF	18
ynjH	14
ynjI	1
yoaA	96
yoaB	230
yoaC	13
yoaD	5
yoaE	169
yoaF	15
yoaG	2
yoaH	24
yoaI	0
yobA	60
yobB	51
yobD	5
yobF	307
yobG	26
yobH	6
yodA	7
yodB	4
yodC	23
yodD	10
yoeA	3
yoeB	15
yoeE	8
yoeF	1
yohC	8
yohD	31
yohF	6
yohG	6
yohH	0
yohJ	2
yohK	6
yohL	10
yohM	3
yohN	34
yohO	8
yojI	31
yojL	10
ypaA	15
ypdA	34
ypdB	31
ypdC	17
ypdD	12
ypdE	3
ypdF	7
ypdG	3
ypdH	0
ypdI	1
ypdJ	0
ypeA	69
ypeB	3
ypeC	7
ypfE	2
ypfG	5
ypfH	57
ypfI	62
ypfJ	103
ypfN	15
yphA	12
yphB	13
yphC	21
yphD	3
yphE	15
yphF	9
yphG	14
yphH	31
ypjA	19
ypjB	0
ypjC	0
ypjD	55
ypjF	0
ypjJ	0
ypjK	0
ypjL	8
ypjM	2
yqaA	61
yqaB	70
yqaC	0
yqaD	0
yqaE	3
yqcA	241
yqcB	19
yqcC	7
yqcD	122
yqcE	1
yqeA	29
yqeB	88
yqeC	96
yqeF	1019
yqeG	55
yqeH	3
yqeI	6
yqeJ	1
yqeK	0
yqfA	276
yqfB	45
yqfE	2
yqgA	5
yqgB	50
yqgC	0
yqgD	7
yqgE	106
yqgF	53
yqhA	89
yqhC	36
yqhD	244
yqhG	8
yqhH	2
yqiA	68
yqiB	30
yqiC	88
yqiG	1
yqiH	1
yqiI	1
yqiJ	4
yqiK	10
yqjA	52
yqjB	24
yqjC	63
yqjD	61
yqjE	91
yqjF	1
yqjG	26
yqjH	79
yqjI	53
yqjK	58
yraH	2
yraI	1
yraJ	13
yraK	8
yraL	60
yraM	413
yraN	24
yraO	168
yraP	252
yraQ	26
yraR	24
yrbA	39
yrbB	46
yrbC	222
yrbD	81
yrbE	92
yrbF	129
yrbG	38
yrbK	80
yrbL	691
yrdA	177
yrdB	14
yrdC	42
yrdD	125
yrfA	2
yrfB	4
yrfC	1
yrfD	16
yrfF	309
yrfG	40
yrhA	0
yrhB	0
yrhC	1
ysaB	1
ysdC	0
ysgA	129
ytfA	0
ytfB	157
ytfE	31
ytfF	16
ytfG	62
ytfH	17
ytfI	0
ytfJ	273
ytfK	381
ytfL	50
ytfM	143
ytfN	267
ytfP	55
ytfQ	229
ytfR	74
ytfT	11
ytjA	28
ytjB	39
ytjC	117
yzcX	6
yzfA	0
yzgL	12
zapA	167
zipA	416
zitB	55
zntA	327
zntR	24
znuA	126
znuB	22
znuC	42
zraP	1
zraR	23
zraS	38
zupT	11
zur	39
zwf	571
__no_feature	20352
__ambiguous	143945
__too_low_aQual	0
__not_aligned	0
__alignment_not_unique	0
