aaeA	3
aaeB	13
aaeR	28
aaeX	0
aas	95
aat	22
abgA	0
abgB	0
abgR	0
abgT	0
abrB	6
accA	399
accB	463
accC	1039
accD	801
aceA	31649
aceB	12802
aceE	2123
aceF	1375
aceK	3771
ackA	212
acnA	1172
acnB	16980
acpP	2197
acpS	16
acpT	26
acrA	171
acrB	804
acrD	26
acrE	1
acrF	13
acrR	17
acs	4291
actP	2655
ada	17
add	415
ade	51
adhE	671
adhP	35
adiA	23
adiC	4
adiY	0
adk	605
aegA	11
aer	150
aes	13
afuB	0
afuC	1
agaA	29
agaB	1
agaC	3
agaD	0
agaI	2
agaR	109
agaS	10
agaV	48
agaW	20
agp	809
ahpC	4463
ahpF	424
aidB	19
ais	0
alaS	1433
alaT	2
alaU	6
alaV	8
alaW	5
alaX	4
aldA	14868
aldB	226
alkA	20
alkB	3
allA	6
allB	21
allC	9
allD	3
allR	95
alpA	1
alr	91
alsA	7
alsB	13
alsC	1
alsE	2
alsK	12
alx	15
amiA	44
amiB	50
amiC	113
amn	277
ampC	17
ampD	44
ampE	78
ampG	83
ampH	46
amtB	14
amyA	156
ansA	42
ansB	21
ansP	7
apaG	39
apaH	44
aphA	612
appA	15
appB	9
appC	11
appY	6
apt	67
aqpZ	12
araA	34
araB	15
araC	182
araD	11
araE	30
araF	72
araG	20
araH	24
araJ	18
arcA	786
arcB	473
argA	11
argB	12
argC	3
argD	30
argE	86
argF	17
argG	75
argH	43
argI	4
argK	1
argO	3
argP	112
argQ	18
argR	181
argS	207
argT	565
argU	6
argV	52
argW	0
argX	17
argY	125
argZ	70
arnT	7
aroA	30
aroB	301
aroC	167
aroD	32
aroE	55
aroF	50
aroG	274
aroH	30
aroK	220
aroL	74
aroM	6
aroP	50
arpA	0
arpB	1
arsB	5
arsC	7
arsR	3
artI	138
artJ	19
artM	48
artP	48
artQ	43
ascB	15
ascF	17
ascG	25
asd	772
aslA	10
aslB	20
asmA	219
asnA	107
asnB	163
asnC	8
asnS	561
asnT	85
asnU	22
asnV	1
asnW	3
aspA	4086
aspC	969
aspS	629
aspT	0
aspU	0
aspV	3
asr	5
astA	448
astB	557
astC	741
astD	614
astE	288
atoA	0
atoB	1
atoC	65
atoD	1
atoE	1
atoS	91
atpA	4092
atpB	768
atpC	1385
atpD	4792
atpE	735
atpF	891
atpG	1917
atpH	656
atpI	305
avtA	166
azoR	22
bacA	69
baeR	42
baeS	5
barA	102
basR	36
basS	28
bax	559
bcp	109
bcr	60
bcsA	10
bcsB	16
bcsC	46
bcsE	109
bcsF	2
bcsG	52
bcsZ	4
bdm	2
betA	167
betB	259
betI	95
betT	162
bfd	12
bfr	107
bglA	218
bglB	4
bglF	2
bglG	9
bglH	1
bglJ	1
bglX	216
bioA	6
bioB	1
bioC	1
bioD	3
bioF	2
bioH	37
bipA	361
birA	56
bisC	88
blc	12
blr	19
bolA	194
borD	4
brnQ	53
btuB	235
btuC	43
btuD	21
btuE	34
btuF	13
btuR	46
cadA	5
cadB	0
cadC	9
caiA	25
caiB	6
caiC	8
caiD	3
caiE	4
caiF	32
caiT	1
can	168
carA	457
carB	1920
cbl	9
cbpA	58
cbpM	27
cbrA	5
cbrC	10
cca	168
cchA	14
cchB	1
ccmA	12
ccmB	5
ccmC	15
ccmD	1
ccmE	5
ccmF	30
ccmG	7
ccmH	28
cdaR	146
cdd	110
cdh	18
cdsA	267
cedA	4
cfa	173
chaA	25
chaB	3
chaC	6
chbA	32
chbB	189
chbC	154
chbF	53
chbG	46
chbR	50
cheA	159
cheB	38
cheR	25
cheW	76
cheY	32
cheZ	64
chiA	22
chpA	22
chpB	32
chpR	30
chpS	11
cirA	30
citA	12
citB	1
citC	2
citD	0
citE	0
citF	0
citG	0
citT	7
citX	0
clcA	66
clcB	6
cld	346
clpA	2762
clpB	635
clpP	478
clpS	45
clpX	733
cls	94
cmk	167
cmr	17
cmtA	3
cmtB	1
coaA	155
coaD	23
coaE	30
cobB	164
cobC	11
cobS	14
cobT	38
cobU	25
codA	166
codB	65
cof	20
copA	119
corA	110
cpdA	381
cpdB	218
cpsB	3
cpsG	2
cpxA	179
cpxP	237
cpxR	151
crcA	8
crcB	13
creA	34
creB	32
creC	16
creD	8
crl	356
crp	1319
crr	949
csdA	92
csgA	9
csgB	0
csgC	6
csgD	19
csgE	1
csgF	2
csgG	16
csiE	170
csiR	92
cspA	549
cspB	104
cspC	1690
cspD	1992
cspE	2292
cspF	9
cspG	31
cspH	2
cspI	4
csrA	425
csrB	7807
csrC	879
cstA	6200
cueO	55
cueR	41
cusA	12
cusB	0
cusC	0
cusF	1
cusR	25
cusS	15
cutA	26
cutC	85
cvpA	73
cvrA	83
cyaA	354
cyaY	28
cybB	65
cybC	23
cycA	693
cydA	2470
cydB	1051
cydC	136
cydD	86
cynR	9
cynS	0
cynT	2
cynX	3
cyoA	2188
cyoB	4446
cyoC	789
cyoD	428
cyoE	2436
cysA	33
cysB	157
cysC	4
cysD	15
cysE	318
cysG	51
cysH	27
cysI	39
cysJ	24
cysK	566
cysM	56
cysN	43
cysP	42
cysQ	54
cysS	134
cysT	3
cysU	9
cysW	12
cysZ	28
cytR	127
dacA	169
dacB	52
dacC	81
dacD	14
dadA	1759
dadX	1248
dam	56
damX	333
dapA	673
dapB	93
dapD	364
dapE	77
dapF	136
dbpA	0
dcd	233
dcm	70
dcp	268
dcrB	438
dctA	425
dcuA	206
dcuB	6
dcuC	8
dcuD	1
dcuR	40
dcuS	74
ddg	77
ddlA	141
ddlB	196
ddpA	65
ddpB	12
ddpC	14
ddpD	18
ddpF	12
ddpX	9
deaD	222
dedA	65
dedD	117
def	209
degP	385
degQ	120
degS	54
deoA	178
deoB	350
deoC	240
deoD	443
deoR	32
der	198
dfp	132
dgkA	30
dgoA	6
dgoD	8
dgoK	17
dgoR	33
dgoT	2
dgsA	109
dgt	96
dhaH	124
dhaK	231
dhaL	84
dhaR	27
dicA	89
dicB	0
dicC	0
dicF	2
dinB	23
dinD	137
dinF	42
dinG	147
dinI	26
dinJ	42
dipZ	66
djlA	29
djlB	1
djlC	4
dkgA	86
dkgB	41
dksA	784
dld	1010
dmsA	13
dmsB	5
dmsC	7
dmsD	31
dnaA	251
dnaB	150
dnaC	36
dnaE	363
dnaG	253
dnaJ	188
dnaK	1322
dnaN	121
dnaQ	63
dnaT	27
dnaX	181
dos	23
dppA	4865
dppB	324
dppC	328
dppD	461
dppF	553
dps	516
dsbA	153
dsbB	84
dsbC	62
dsbG	22
dsdA	52
dsdC	32
dsdX	20
dsrA	0
dsrB	42
dtd	76
dusB	157
dusC	11
dut	88
dxr	59
dxs	621
eaeH	1
eamA	52
ebgA	81
ebgC	10
ebgR	47
ecnA	1
ecnB	26
eco	361
ecpD	0
eda	125
edd	53
efp	364
ego	289
elaA	40
elaB	91
elaC	26
elaD	3
elbA	1
elbB	222
emrA	25
emrB	49
emrD	38
emrE	2
emrK	2
emrY	1
emtA	35
endA	5
eno	1864
entA	2
entB	6
entC	5
entD	1
entE	13
entF	25
envC	79
envR	0
envY	3
envZ	172
epd	289
eptA	3
eptB	428
era	139
erfK	40
essD	1
essQ	0
etp	1
eutA	3
eutB	65
eutC	41
eutE	6
eutG	7
eutH	2
eutI	4
eutJ	4
eutL	22
eutP	0
eutQ	3
eutT	5
evgA	51
evgS	101
exbB	36
exbD	19
exo	89
exoX	23
exuR	159
exuT	35
fabA	386
fabB	1011
fabD	492
fabF	842
fabG	1005
fabH	303
fabI	754
fabR	156
fabZ	176
fadA	1185
fadB	2168
fadD	859
fadE	526
fadH	388
fadL	803
fadR	241
fbaA	2781
fbaB	177
fbp	429
fcl	3
fdhD	30
fdhE	360
fdhF	24
fdnG	7
fdnH	1
fdnI	4
fdoG	4687
fdoH	890
fdoI	453
fdrA	0
fdx	51
feaB	57
feaR	172
fecA	351
fecB	81
fecC	37
fecD	37
fecE	45
fecI	4
fecR	2
feoA	5
feoB	78
fepA	12
fepB	6
fepC	3
fepD	5
fepE	0
fepG	8
fes	2
ffh	599
ffs	4
fhiA	1
fhlA	17
fhuA	80
fhuB	20
fhuC	14
fhuD	6
fhuE	13
fhuF	30
fic	7
fieF	113
fimA	2230
fimB	15
fimC	20
fimD	80
fimE	0
fimF	14
fimG	10
fimH	27
fimI	84
fimZ	0
fis	46
fiu	9
fixA	2
fixB	8
fixC	8
fixX	0
fklB	359
fkpA	489
fkpB	61
fldA	202
fldB	107
flgA	673
flgB	823
flgC	539
flgD	1652
flgE	4044
flgF	1802
flgG	2068
flgH	563
flgI	561
flgJ	364
flgK	692
flgL	606
flgM	208
flgN	194
flhA	590
flhB	284
flhC	77
flhD	88
flhE	81
fliA	792
fliC	3193
fliD	306
fliE	219
fliF	1111
fliG	743
fliH	417
fliI	516
fliJ	126
fliK	465
fliL	558
fliM	631
fliN	233
fliO	78
fliP	105
fliQ	18
fliR	52
fliS	68
fliT	50
fliY	635
fliZ	364
flk	56
flu	607
flxA	20
fmt	236
fnr	0
focA	84
focB	7
folA	88
folB	6
folC	164
folD	99
folE	149
folK	9
folM	15
folP	81
folX	45
fpr	281
frc	3
frdA	299
frdB	102
frdC	50
frdD	65
fre	474
frlA	3
frlB	14
frlC	2
frlD	2
frlR	39
frmA	139
frmB	40
frmR	27
frr	437
frsA	100
fruA	114
fruB	100
fruK	32
fruR	1039
frvA	0
frvB	4
frvR	1
frvX	7
frwB	8
frwC	18
frwD	4
fsaA	9
fsaB	21
fsr	41
ftn	194
ftsA	253
ftsB	64
ftsE	80
ftsH	1552
ftsI	153
ftsK	708
ftsL	19
ftsN	89
ftsQ	113
ftsW	125
ftsX	130
ftsY	215
ftsZ	972
fucA	39
fucI	106
fucK	37
fucO	173
fucP	31
fucR	153
fucU	32
fumA	1743
fumB	7
fumC	936
fur	397
fusA	7306
fxsA	31
gabD	385
gabP	164
gabT	570
gadA	3
gadB	7
gadC	15
gadE	2
gadW	5
gadX	5
gadY	0
galE	510
galF	560
galK	239
galM	213
galP	10
galR	90
galS	88
galT	169
galU	246
gapA	4631
gapC	161
garD	43
garK	64
garL	26
garP	44
garR	100
gatA	875
gatB	544
gatC	5592
gatD	1232
gatR	104
gatY	2673
gatZ	3791
gcd	33
gcl	3
gcvA	24
gcvB	3636
gcvH	1510
gcvP	5257
gcvR	64
gcvT	2233
gdhA	289
ggt	39
gidA	185
gidB	13
glcB	627
glcC	422
glcD	86
glcE	57
glcF	74
glcG	77
gldA	80
glf	249
glgA	598
glgB	776
glgC	762
glgP	999
glgS	476
glgX	506
glk	266
glmM	855
glmS	1427
glmU	624
glnA	1692
glnB	92
glnD	119
glnE	208
glnG	100
glnH	3772
glnK	1
glnL	58
glnP	297
glnQ	538
glnS	564
glnU	6
glnV	5
glnW	4
glnX	5
gloA	202
gloB	46
glpA	7
glpB	3
glpC	5
glpD	64
glpE	20
glpF	252
glpG	30
glpK	852
glpQ	71
glpR	41
glpT	52
glpX	60
gltA	8611
gltB	355
gltD	137
gltF	2
gltI	921
gltJ	72
gltK	64
gltL	139
gltP	113
gltS	38
gltT	339
gltU	58
gltV	36
gltW	334
gltX	400
glvB	0
glvC	3
glvG	4
glxK	4
glxR	9
glyA	3407
glyQ	311
glyS	910
glyT	15
glyU	3
glyV	39
glyW	66
glyX	9
glyY	5
gmd	1
gmhB	87
gmk	102
gmr	12
gnd	1443
gnsA	1
gnsB	25
gntK	10
gntP	21
gntR	93
gntT	45
gntU	9
gntX	50
gntY	157
gor	266
gph	119
gpmA	1090
gpmI	129
gpp	275
gpsA	795
gpt	69
greA	89
greB	27
groL	3065
groS	327
grpE	231
grxA	11
grxB	341
grxC	145
gshA	355
gshB	157
gsk	73
gspA	1
gspC	0
gspD	1
gspE	1
gspF	2
gspG	0
gspH	1
gspI	1
gspJ	1
gspK	0
gspL	3
gspM	1
gspO	4
gss	111
gst	220
guaA	681
guaB	270
guaC	256
guaD	10
gudD	81
gudP	229
gudX	47
gutM	4
gutQ	56
gyrA	1182
gyrB	818
hcaB	19
hcaC	1
hcaD	13
hcaE	43
hcaF	4
hcaR	319
hcaT	107
hchA	55
hcp	2
hcr	2
hda	64
hdeA	40
hdeB	11
hdeD	2
hdfR	66
hdhA	114
helD	151
hemA	159
hemB	151
hemC	243
hemD	90
hemE	156
hemF	33
hemG	44
hemH	47
hemL	349
hemN	148
hemX	234
hemY	283
hepA	50
hflC	424
hflD	51
hflK	645
hflX	441
hfq	431
hha	40
hinT	46
hipA	30
hipB	3
hisA	46
hisB	76
hisC	39
hisD	58
hisF	33
hisG	41
hisH	36
hisI	59
hisJ	371
hisL	17
hisM	25
hisP	62
hisQ	77
hisR	3
hisS	485
hlpA	627
hlyE	2
hmp	282
hns	2394
hofB	9
hofC	6
hofQ	7
hokA	0
hokB	1
hokC	0
hokD	19
hokE	3
holA	64
holB	41
holC	38
holD	15
holE	16
hpt	146
hrpA	214
hrpB	66
hscA	235
hscB	25
hscC	30
hsdM	91
hsdR	973
hsdS	37
hslJ	3
hslO	69
hslR	13
hslU	265
hslV	47
hsrA	29
htgA	0
htpG	422
htpX	372
htrC	2
htrE	1
htrG	155
htrL	65
hupA	2975
hupB	4573
hyaA	0
hyaB	1
hyaC	3
hyaD	0
hyaE	0
hyaF	2
hybA	18
hybB	16
hybC	41
hybD	13
hybE	7
hybF	3
hybG	6
hybO	36
hycA	0
hycB	1
hycC	2
hycD	0
hycE	2
hycF	0
hycG	2
hycH	4
hycI	23
hydN	6
hyfA	0
hyfB	2
hyfC	0
hyfD	0
hyfE	0
hyfF	4
hyfG	3
hyfH	1
hyfI	3
hyfJ	1
hyfR	1
hyi	2
hypA	1
hypB	9
hypC	1
hypD	9
hypE	11
hypF	19
hyuA	40
iaaA	104
iadA	51
iap	7
ibpA	30
ibpB	7
icd	9755
icdC	0
iclR	215
idi	20
idnD	5
idnK	12
idnO	5
idnR	7
idnT	17
ihfA	426
ihfB	467
ileS	1194
ileT	2
ileU	5
ileV	5
ileX	0
ileY	0
ilvA	61
ilvB	102
ilvC	64
ilvD	79
ilvE	82
ilvG	49
ilvH	18
ilvI	41
ilvL	31
ilvM	1
ilvN	6
ilvY	43
imp	794
inaA	18
infA	160
infB	1893
infC	1869
insA	156
insB	57
insC	92
insD	117
insE	23
insF	30
insG	54
insH	1745
insI	39
insJ	1
insK	1
insL	112
insM	4
insN	5
insO	27
intA	54
intB	19
intD	56
intE	4
intF	22
intG	1
intQ	0
intR	0
intS	19
iscA	200
iscR	137
iscS	546
iscU	207
ispA	234
ispB	230
ispD	21
ispE	341
ispF	19
ispG	297
ispH	155
ispU	369
isrA	0
isrB	0
isrC	2
ivbL	101
ivy	119
katE	45
katG	4089
kbaY	7
kbaZ	56
kbl	2129
kch	15
kdgK	77
kdgR	187
kdgT	10
kdpA	1
kdpB	6
kdpC	1
kdpD	40
kdpE	6
kdpF	0
kdsA	247
kdsB	94
kdsC	60
kdsD	94
kdtA	72
kduD	42
kduI	31
kefA	127
kefB	52
kefC	41
kefF	12
kefG	25
kgtP	1777
kil	0
kptA	22
ksgA	109
lacA	13
lacI	62
lacY	26
lacZ	111
lamB	4189
lar	0
ldcA	23
ldcC	34
ldhA	60
ldrA	5
ldrB	0
ldrC	9
ldrD	26
lepA	575
lepB	272
leuA	25
leuB	27
leuC	31
leuD	21
leuL	7
leuO	6
leuP	3
leuQ	4
leuS	702
leuT	6
leuU	0
leuV	1
leuW	2
leuX	0
leuZ	16
lexA	359
lgt	125
lhr	133
ligA	137
ligB	39
ligT	10
lipA	240
lipB	30
lit	15
livF	6
livG	4
livH	5
livJ	29
livK	8
livM	10
lldD	97
lldP	157
lldR	39
lnt	95
lolA	107
lolB	50
lolC	72
lolD	68
lolE	117
lomR	0
lon	883
lpcA	290
lpd	3062
lplA	71
lpp	20087
lpxA	199
lpxB	160
lpxC	1766
lpxD	442
lpxH	40
lpxK	76
lpxL	143
lpxM	67
lrhA	57
lrp	519
lspA	93
lsrB	314
lsrC	116
lsrD	66
lsrF	348
lsrG	100
ltaE	130
luxS	172
lysA	18
lysC	25
lysP	94
lysQ	10
lysR	25
lysS	641
lysT	168
lysU	348
lysV	2
lysW	43
lysY	23
lysZ	41
lyxK	12
maa	44
macA	38
macB	54
maeB	1239
mak	54
malE	5121
malF	447
malG	348
malI	29
malK	880
malM	775
malP	392
malQ	322
malS	60
malT	1322
malX	53
malY	72
malZ	34
manA	219
manX	296
manY	150
manZ	247
maoC	23
map	156
marA	7
marB	1
marC	18
marR	12
mazG	110
mbhA	5
mcrA	2
mcrB	42
mcrC	12
mdaB	43
mdh	9144
mdlA	60
mdlB	42
mdoB	247
mdoC	11
mdoD	302
mdoG	343
mdoH	365
mdtA	7
mdtB	26
mdtC	17
mdtD	4
mdtE	2
mdtF	14
mdtG	25
mdtH	10
mdtI	9
mdtJ	4
mdtK	86
mdtL	3
melA	1582
melB	600
melR	139
menA	40
menB	124
menC	83
menD	87
menE	71
menF	52
mepA	39
metA	6
metB	21
metC	48
metE	127
metF	3
metG	445
metH	701
metI	30
metJ	62
metK	91
metL	115
metN	13
metQ	197
metR	10
metT	0
metU	3
metV	8
metW	20
metY	59
metZ	9
mfd	302
mglA	592
mglB	5626
mglC	493
mgsA	777
mgtA	77
mhpA	7
mhpB	2
mhpC	6
mhpD	5
mhpE	5
mhpF	6
mhpR	82
mhpT	6
miaA	444
miaB	123
micC	0
micF	0
minC	160
minD	410
minE	117
mioC	146
mipA	445
mlrA	5
mltA	63
mltB	32
mltC	28
mltD	805
mmuM	78
mmuP	4
mngA	1
mngB	18
mngR	28
mntH	56
mntR	42
moaA	197
moaB	108
moaC	57
moaD	10
moaE	53
mobA	27
mobB	7
modA	99
modB	37
modC	65
modE	56
modF	63
moeA	100
moeB	49
mog	233
mokB	30
mokC	1
molR	4
motA	28
motB	32
mpaA	72
mpl	271
mppA	482
mprA	84
mqo	57
mraW	113
mraY	123
mraZ	100
mrcA	84
mrcB	171
mrdA	77
mrdB	53
mreB	418
mreC	140
mreD	19
mrp	356
mrr	104
msbA	186
mscL	90
mscS	26
msrA	72
msyB	28
mtgA	64
mtlA	1337
mtlD	434
mtlR	56
mtr	24
mukB	1073
mukE	81
mukF	135
murA	291
murB	98
murC	244
murD	196
murE	206
murF	180
murG	187
murI	60
murP	18
mutH	17
mutL	92
mutM	22
mutS	311
mutT	25
mutY	34
mviM	185
mviN	61
nac	3
nadA	39
nadB	15
nadC	85
nadD	25
nadE	116
nadR	146
nagA	173
nagB	215
nagC	166
nagD	125
nagE	2120
nagZ	72
nanA	87
nanE	22
nanK	24
nanR	157
nanT	75
napA	96
napB	10
napC	18
napD	1
napF	15
napG	11
napH	11
narG	20
narH	4
narI	1
narJ	1
narK	7
narL	82
narP	48
narQ	40
narU	5
narV	6
narW	0
narX	46
narY	19
narZ	28
ndh	210
ndk	338
nei	19
nemA	312
nfi	63
nfnB	160
nfo	45
nfrA	20
nfrB	8
nfsA	60
nhaA	54
nhaB	123
nhaR	20
nhoA	11
nikA	2
nikB	1
nikC	0
nikD	0
nikE	2
nikR	3
ninE	0
nirB	3
nirC	2
nirD	0
nlpA	45
nlpB	485
nlpC	44
nlpD	847
nlpE	33
nlpI	1210
nmpC	1778
nohA	0
nohB	2
norR	49
norV	4
norW	4
npr	19
nrdA	636
nrdB	256
nrdD	51
nrdE	8
nrdF	9
nrdG	2
nrdH	2
nrdI	0
nrfA	11
nrfB	2
nrfC	2
nrfD	6
nrfE	5
nrfF	0
nrfG	3
nth	26
nudB	72
nudC	30
nudD	0
nudE	45
nudF	47
nudG	8
nudH	386
nuoA	728
nuoB	876
nuoC	2434
nuoE	530
nuoF	1839
nuoG	4342
nuoH	1141
nuoI	477
nuoJ	358
nuoK	72
nuoL	2041
nuoM	2210
nuoN	1954
nupC	107
nupG	205
nusA	732
nusB	89
nusG	263
obgE	141
ogrK	13
ogt	0
ompA	8040
ompC	18543
ompF	26340
ompG	2
ompL	1
ompN	0
ompR	251
ompT	696
ompW	11
ompX	385
oppA	5381
oppB	370
oppC	519
oppD	768
oppF	1080
oriC	1
orn	49
osmB	6
osmC	163
osmE	186
osmY	42
otsA	32
otsB	20
oxc	6
oxyR	343
oxyS	0
paaA	6
paaB	1
paaC	3
paaD	4
paaE	6
paaF	2
paaG	6
paaH	11
paaI	2
paaJ	204
paaK	398
paaX	161
paaY	113
pabA	5
pabB	7
pabC	45
pal	574
panB	216
panC	271
panD	93
panE	40
panF	29
parC	322
parE	372
pbl	0
pbpC	22
pbpG	38
pck	6617
pcm	138
pcnB	255
pdhR	231
pdxA	99
pdxB	171
pdxH	71
pdxJ	75
pdxK	65
pdxY	37
pepA	497
pepB	513
pepD	1069
pepE	48
pepN	1381
pepP	551
pepQ	446
pepT	81
perR	5
pfkA	370
pfkB	31
pflA	113
pflB	2095
pflC	18
pflD	51
pfs	236
pgi	438
pgk	1886
pgm	586
pgpA	118
pgpB	59
pgsA	218
pheA	80
pheL	8
pheM	5
pheP	39
pheS	152
pheT	797
pheU	1
pheV	0
phnA	39
phnB	1
phnC	1
phnD	0
phnE	0
phnF	0
phnG	1
phnH	1
phnI	3
phnJ	1
phnK	0
phnL	0
phnM	1
phnN	0
phnO	3
phnP	4
phoA	199
phoB	12
phoE	0
phoH	376
phoP	122
phoQ	74
phoR	8
phoU	90
php	2
phr	21
pin	1
pinH	0
pinQ	4
pinR	0
pioO	3
pitA	147
pitB	2
pldA	70
pldB	86
plsB	419
plsC	83
plsX	242
pmbA	206
pmrD	178
pncA	27
pncB	117
pnp	3871
pntA	995
pntB	968
pnuC	24
polA	913
polB	35
potA	80
potB	15
potC	26
potD	317
potE	4
potF	23
potG	6
potH	1
potI	5
poxA	11
poxB	28
ppa	566
ppc	694
ppdA	8
ppdB	18
ppdC	13
ppdD	3
pphA	6
pphB	3
ppiA	82
ppiB	195
ppiC	33
ppiD	632
ppk	213
pppA	5
pps	3975
ppx	160
pqiA	34
pqiB	80
pqqL	7
prc	686
prfA	83
prfB	264
prfC	220
prfH	1
priA	57
priB	210
priC	26
prkB	67
prlC	243
prmA	53
prmB	155
prmC	31
proA	130
proB	107
proC	110
proK	2
proL	1
proM	0
proP	88
proQ	365
proS	618
proV	303
proW	349
proX	1074
proY	41
prpB	2
prpC	1
prpD	3
prpE	5
prpR	38
prsA	957
psd	187
psiF	17
pspA	72
pspB	3
pspC	7
pspD	2
pspE	318
pspF	33
pssA	485
pstA	10
pstB	47
pstC	14
pstS	27
pta	516
pth	33
ptr	164
ptrB	50
ptsA	51
ptsG	141
ptsH	513
ptsI	1316
ptsN	239
ptsP	649
purA	1250
purB	189
purC	319
purD	213
purE	11
purF	145
purH	162
purK	48
purL	570
purM	133
purN	58
purR	123
purT	92
purU	67
putA	51
putP	315
puuA	172
puuB	40
puuC	53
puuD	50
puuE	36
puuP	91
puuR	41
pykA	831
pykF	240
pyrB	1225
pyrC	160
pyrD	32
pyrE	7
pyrF	65
pyrG	538
pyrH	237
pyrI	647
pyrL	6
qor	201
qseB	6
qseC	11
queA	27
racC	0
racR	0
radA	159
rarA	0
rarD	15
rbbA	311
rbfA	105
rbn	150
rbsA	216
rbsB	2867
rbsC	188
rbsD	332
rbsK	234
rbsR	90
rcsA	26
rcsB	300
rcsC	161
rcsD	282
rcsF	38
rdgC	58
rdlA	10
rdlB	3
rdlC	6
rdlD	5
recA	1038
recB	193
recC	214
recD	78
recE	0
recF	24
recG	88
recJ	126
recN	67
recO	26
recQ	121
recR	100
recT	0
recX	7
relA	592
relB	27
relE	26
rem	0
renD	3
rep	71
rfaB	66
rfaC	58
rfaD	288
rfaE	218
rfaF	96
rfaG	77
rfaH	17
rfaI	46
rfaJ	57
rfaK	55
rfaL	61
rfaP	35
rfaQ	84
rfaS	47
rfaY	38
rfaZ	36
rfbA	225
rfbB	249
rfbC	79
rfbD	202
rfbX	111
rfe	107
rffA	78
rffC	14
rffD	96
rffE	69
rffG	97
rffH	103
rffM	21
rffT	30
rhaA	5
rhaB	4
rhaD	1
rhaR	7
rhaS	12
rhaT	3
rhlB	458
rhlE	8
rho	810
rhoL	223
rhsA	9
rhsB	4
rhsC	6
rhsD	9
rhsE	4
rhtA	16
rhtB	1
rhtC	37
ribA	129
ribB	261
ribC	94
ribD	148
ribE	117
ribF	155
rihA	751
rihB	1
rihC	191
rimI	5
rimJ	192
rimK	39
rimL	16
rimM	797
rlmB	62
rlpA	122
rlpB	71
rluA	18
rluB	70
rluC	103
rluD	76
rmf	2781
rmuC	290
rna	69
rnb	230
rnc	84
rnd	130
rne	1400
rng	168
rnhA	39
rnhB	34
rnk	80
rnpA	31
rnpB	43842
rnr	508
rnt	36
rob	586
rof	31
rpe	147
rph	78
rpiA	331
rpiB	17
rpiR	48
rplA	1832
rplB	1616
rplC	1639
rplD	1029
rplE	1600
rplF	1310
rplI	776
rplJ	1659
rplK	653
rplL	1333
rplM	891
rplN	1508
rplO	1317
rplP	645
rplQ	724
rplR	520
rplS	481
rplT	843
rplU	463
rplV	617
rplW	336
rplX	568
rplY	375
rpmA	368
rpmB	578
rpmC	63
rpmD	65
rpmE	575
rpmF	232
rpmG	89
rpmH	137
rpmI	389
rpmJ	319
rpoA	2548
rpoB	4324
rpoC	5657
rpoD	710
rpoE	373
rpoH	280
rpoN	521
rpoS	1348
rpoZ	98
rprA	1
rpsA	5836
rpsB	1595
rpsC	1247
rpsD	1536
rpsE	1073
rpsF	888
rpsG	1083
rpsH	746
rpsI	656
rpsJ	913
rpsK	697
rpsL	1130
rpsM	1003
rpsN	785
rpsO	516
rpsP	353
rpsQ	294
rpsR	145
rpsS	315
rpsT	488
rpsU	510
rraA	467
rrfA	0
rrfB	0
rrfC	0
rrfD	0
rrfE	0
rrfF	0
rrfG	0
rrfH	0
rrlA	29
rrlB	24
rrlC	28
rrlD	21
rrlE	32
rrlG	29
rrlH	27
rrmA	73
rrmJ	352
rrsA	9
rrsB	5
rrsC	10
rrsD	11
rrsE	10
rrsG	11
rrsH	12
rsd	239
rseA	456
rseB	200
rseC	60
rsgA	170
rsmB	157
rsmC	75
rspA	14
rspB	7
rssA	56
rssB	36
rstA	23
rstB	39
rsuA	54
rsxA	23
rsxB	17
rsxC	81
rsxD	25
rsxE	16
rsxG	13
rtcA	16
rtcB	8
rtcR	9
rtn	85
rttR	0
rumA	128
rumB	10
rusA	0
ruvA	79
ruvB	105
ruvC	62
rybA	214
rybB	1
rydB	1
ryeA	639
ryeB	0
ryeC	108
ryeD	38
ryeE	15
ryfA	41
rygA	1
rygB	1
rygC	15
rygD	67
ryhA	15
ryhB	0
ryiA	197
ryjA	1
rzoD	0
rzoR	0
rzpD	0
rzpR	0
sanA	12
sapA	75
sapB	28
sapC	15
sapD	58
sapF	33
sbcB	173
sbcC	114
sbcD	23
sbmA	57
sbmC	191
sbp	14
sdaA	452
sdaB	147
sdaC	321
sdhA	5407
sdhB	2670
sdhC	774
sdhD	267
sdiA	35
secA	907
secB	738
secD	509
secE	280
secF	352
secG	521
secM	131
secY	3075
selA	55
selB	122
selC	1
selD	607
seqA	126
serA	192
serB	94
serC	154
serS	1119
serT	0
serU	0
serV	188
serW	6
serX	0
setA	31
setB	7
setC	2
sfcA	534
sfmA	0
sfmC	0
sfmD	3
sfmF	1
sfmH	0
sfsA	137
sfsB	14
sgbE	14
sgbH	13
sgbU	11
sgcA	4
sgcB	3
sgcC	6
sgcE	3
sgcQ	2
sgcR	4
sgcX	9
sgrR	36
sgrS	31
shiA	76
sieB	0
sixA	216
slp	6
slt	149
slyA	150
slyB	354
slyD	1466
slyX	32
smf	45
smg	309
smpA	203
smpB	142
smtA	84
sodA	2150
sodB	1876
sodC	41
sohA	32
sohB	120
sokB	1
sokC	4
solA	86
soxR	4
soxS	26
speA	1431
speB	250
speC	109
speD	118
speE	130
speF	3
speG	37
spf	11
spoT	311
sppA	139
spr	803
sprT	1
spy	36
sra	192
sraB	8
sraD	1
sraF	5
sraG	0
srlA	72
srlB	13
srlD	86
srlE	76
srlR	30
srmB	104
sroF	155
ssb	480
sseA	2157
sseB	79
ssnA	66
sspA	451
sspB	160
ssrA	98491
ssrS	5912
sstT	572
ssuA	0
ssuB	2
ssuC	1
ssuD	3
ssuE	0
stfE	0
stfQ	1
stfR	0
sthA	1216
stpA	5
sucA	8697
sucB	6538
sucC	8061
sucD	5832
sufA	8
sufB	29
sufC	21
sufD	37
sufE	5
sufI	289
sufS	37
sugE	45
suhB	36
sulA	73
surA	455
surE	138
syd	29
tadA	20
tag	34
talA	24
talB	1798
tam	56
tap	126
tar	132
tas	254
tatA	194
tatB	156
tatC	84
tatD	65
tatE	81
tauA	1
tauB	0
tauC	1
tauD	2
tbpA	23
tdcA	119
tdcB	47
tdcC	66
tdcD	27
tdcE	18
tdcF	5
tdcG	11
tdcR	0
tdh	2546
tdk	23
tehA	35
tehB	32
tesA	37
tesB	39
tfaD	1
tfaE	2
tfaQ	0
tfaR	0
tfaS	1
tff	31
tgt	147
thiC	29
thiD	11
thiE	2
thiF	4
thiG	8
thiH	20
thiI	51
thiL	39
thiM	10
thiP	8
thiQ	8
thiS	0
thrA	128
thrB	146
thrC	238
thrL	20
thrS	2580
thrT	12
thrU	7
thrV	0
thrW	9
thyA	159
tiaE	322
tig	2147
tilS	47
tktA	2676
tktB	99
tldD	232
tmk	40
tnaA	21501
tnaB	947
tnaC	425
tolA	92
tolB	466
tolC	662
tolQ	28
tolR	24
tonB	16
topA	583
topB	359
torA	9
torC	1
torD	2
torI	21
torR	25
torS	12
torT	12
torY	3
torZ	14
tpiA	749
tpr	0
tpx	1275
treA	35
treB	643
treC	381
treF	27
treR	20
trg	115
trkA	114
trkD	64
trkG	0
trkH	69
trmA	81
trmC	57
trmD	887
trmE	78
trmH	38
trmU	175
trpA	123
trpB	103
trpC	56
trpD	12
trpE	6
trpL	0
trpR	43
trpS	241
trpT	0
truA	46
truB	138
truD	211
trxA	576
trxB	191
trxC	41
tsf	1101
tsgA	2
tsr	74
tsx	477
ttdA	2
ttdB	1
ttk	80
tufA	4862
tufB	4228
tus	31
tynA	6
tyrA	57
tyrB	196
tyrP	16
tyrR	216
tyrS	346
tyrT	39
tyrU	90
tyrV	17
ubiA	103
ubiB	282
ubiC	96
ubiD	993
ubiE	310
ubiF	117
ubiG	106
ubiH	203
ubiX	40
ucpA	1019
udk	38
udp	673
ugd	24
ugpA	16
ugpB	150
ugpC	69
ugpE	17
ugpQ	51
uhpA	29
uhpB	10
uhpC	11
uhpT	57
uidA	38
uidB	10
uidC	6
uidR	213
ulaA	16
ulaB	8
ulaC	11
ulaD	19
ulaE	15
ulaF	13
ulaG	10
ulaR	50
umuC	3
umuD	0
ung	70
upp	134
uraA	63
usg	104
ushA	253
uspA	1832
uspE	0
uspF	17
uspG	337
uup	164
uvrA	292
uvrB	162
uvrC	179
uvrD	255
uvrY	137
uxaA	324
uxaB	30
uxaC	470
uxuA	317
uxuB	478
uxuR	85
vacJ	154
valS	1033
valT	26
valU	5
valV	0
valW	0
valX	71
valY	1
valZ	31
visC	201
vsr	8
wbbH	78
wbbI	124
wbbJ	72
wbbK	199
wbbL	148
wcaA	0
wcaB	0
wcaC	1
wcaD	0
wcaE	2
wcaF	0
wcaI	1
wcaJ	2
wcaK	6
wcaL	4
wcaM	10
wrbA	54
wza	1
wzb	0
wzc	4
wzxC	2
wzxE	43
wzyE	33
wzzE	131
xapA	2
xapB	23
xapR	22
xdhA	202
xdhB	26
xdhC	18
xdhD	66
xerC	90
xerD	77
xseA	116
xseB	104
xthA	95
xylA	94
xylB	19
xylE	11
xylF	334
xylG	51
xylH	48
xylR	46
yaaA	52
yaaH	7
yaaI	1
yaaJ	4
yaaU	0
yaaW	5
yaaX	11
yaaY	1
yabI	71
yabP	9
yabQ	0
yacC	34
yacF	41
yacG	25
yacH	2
yacL	163
yadB	23
yadC	2
yadD	30
yadE	13
yadG	56
yadH	56
yadI	27
yadK	3
yadL	0
yadM	1
yadN	0
yadR	73
yadS	14
yaeB	18
yaeF	9
yaeH	783
yaeI	8
yaeJ	6
yaeL	422
yaeP	55
yaeQ	26
yaeR	17
yaeT	2020
yafC	35
yafD	80
yafE	15
yafF	0
yafJ	82
yafK	74
yafL	0
yafM	105
yafN	7
yafO	2
yafP	1
yafQ	17
yafS	57
yafT	3
yafU	0
yafV	55
yafW	0
yafX	0
yafY	5
yafZ	3
yagA	1
yagB	12
yagE	35
yagF	105
yagG	16
yagH	57
yagI	36
yagJ	14
yagK	1
yagL	1
yagM	6
yagN	142
yagP	1
yagQ	3
yagR	2
yagS	1
yagT	1
yagU	30
yagV	6
yagW	9
yagX	5
yagY	0
yagZ	9
yahA	5
yahB	20
yahC	2
yahD	7
yahE	1
yahF	3
yahG	3
yahH	0
yahI	0
yahJ	32
yahK	41
yahL	0
yahM	6
yahN	26
yahO	26
yaiA	23
yaiB	279
yaiC	2
yaiE	117
yaiF	0
yaiI	57
yaiL	39
yaiO	2
yaiP	1
yaiS	0
yaiT	0
yaiU	4
yaiV	0
yaiW	55
yaiX	0
yaiY	6
yaiZ	92
yajB	12
yajC	173
yajD	34
yajG	68
yajI	7
yajL	49
yajO	173
yajQ	245
yajR	76
ybaA	4
ybaB	98
ybaD	86
ybaE	35
ybaJ	133
ybaK	11
ybaL	160
ybaM	4
ybaN	11
ybaO	50
ybaP	30
ybaQ	19
ybaS	1
ybaT	5
ybaV	53
ybaW	10
ybaX	46
ybaY	37
ybaZ	39
ybbA	27
ybbB	17
ybbC	0
ybbD	0
ybbJ	57
ybbK	102
ybbL	16
ybbM	17
ybbN	147
ybbO	44
ybbP	57
ybbS	1
ybbV	0
ybbW	0
ybbY	1
ybcC	1
ybcD	1
ybcF	3
ybcH	6
ybcI	1
ybcJ	8
ybcK	4
ybcL	3
ybcM	11
ybcN	0
ybcO	0
ybcQ	1
ybcS	3
ybcV	0
ybcW	2
ybcY	4
ybdA	13
ybdB	7
ybdD	288
ybdF	21
ybdG	38
ybdH	13
ybdJ	5
ybdK	17
ybdL	10
ybdM	5
ybdN	1
ybdO	2
ybdR	18
ybdZ	1
ybeA	23
ybeB	32
ybeD	35
ybeF	1
ybeH	4
ybeL	295
ybeM	10
ybeQ	7
ybeR	0
ybeT	0
ybeU	0
ybeX	189
ybeY	60
ybeZ	146
ybfA	13
ybfB	0
ybfC	0
ybfD	0
ybfE	15
ybfF	52
ybfG	0
ybfH	1
ybfL	0
ybfM	136
ybfN	4
ybfO	1
ybfP	0
ybfQ	0
ybgA	8
ybgC	30
ybgD	2
ybgE	85
ybgF	229
ybgH	5
ybgI	184
ybgJ	157
ybgK	156
ybgL	60
ybgO	0
ybgP	1
ybgQ	0
ybgS	14
ybgT	9
ybhA	26
ybhB	14
ybhC	82
ybhD	3
ybhE	192
ybhF	75
ybhG	58
ybhH	1
ybhI	1
ybhJ	2
ybhK	61
ybhL	172
ybhM	3
ybhN	3
ybhO	3
ybhP	0
ybhQ	441
ybhR	18
ybhS	24
ybhT	150
ybiA	16
ybiB	160
ybiC	280
ybiH	28
ybiI	4
ybiJ	6
ybiM	4
ybiN	26
ybiO	12
ybiP	11
ybiR	36
ybiS	75
ybiT	185
ybiU	32
ybiV	7
ybiW	5
ybiX	1
ybiY	0
ybjC	9
ybjD	61
ybjE	4
ybjG	19
ybjH	7
ybjI	51
ybjJ	36
ybjK	64
ybjL	54
ybjM	25
ybjN	66
ybjO	4
ybjP	44
ybjQ	55
ybjR	60
ybjS	48
ybjT	72
ybjX	25
ycaC	54
ycaD	12
ycaI	29
ycaJ	104
ycaK	3
ycaL	1
ycaM	174
ycaN	5
ycaO	74
ycaP	10
ycaQ	10
ycaR	29
ycbB	131
ycbC	10
ycbF	5
ycbG	87
ycbJ	102
ycbK	238
ycbL	195
ycbQ	5
ycbR	0
ycbS	6
ycbT	17
ycbU	1
ycbV	2
ycbW	91
ycbX	121
ycbY	182
ycbZ	214
yccA	541
yccC	23
yccE	0
yccF	8
yccJ	12
yccK	33
yccM	0
yccR	91
yccS	27
yccT	2
yccU	109
yccV	67
yccW	82
yccX	21
yccZ	4
ycdB	20
ycdC	20
ycdG	7
ycdH	1
ycdI	1
ycdK	1
ycdL	0
ycdM	0
ycdN	13
ycdO	18
ycdP	1
ycdQ	0
ycdR	3
ycdS	15
ycdT	10
ycdU	0
ycdW	138
ycdX	83
ycdY	51
ycdZ	51
yceA	56
yceB	44
yceD	407
yceF	58
yceG	26
yceH	162
yceI	35
yceJ	2
yceK	1
yceO	0
yceP	189
yceQ	1
ycfD	179
ycfH	28
ycfJ	9
ycfK	0
ycfL	39
ycfM	81
ycfN	19
ycfP	85
ycfQ	60
ycfR	1
ycfS	40
ycfT	0
ycfX	161
ycfZ	0
ycgB	52
ycgE	67
ycgF	70
ycgG	0
ycgH	3
ycgI	0
ycgJ	15
ycgK	22
ycgL	25
ycgM	77
ycgN	12
ycgR	15
ycgV	23
ycgX	1
ycgY	0
ycgZ	0
ychA	75
ychE	21
ychF	149
ychG	9
ychH	1345
ychJ	41
ychM	25
ychN	159
ychP	9
ychQ	6
ychS	0
yciA	12
yciB	50
yciC	52
yciE	1
yciF	0
yciG	0
yciH	9
yciI	118
yciK	82
yciM	88
yciN	92
yciO	39
yciQ	14
yciS	58
yciT	68
yciU	28
yciV	42
yciW	6
yciX	94
ycjD	41
ycjF	25
ycjG	150
ycjM	6
ycjN	3
ycjO	2
ycjP	0
ycjQ	1
ycjR	7
ycjS	5
ycjT	6
ycjU	0
ycjV	2
ycjW	23
ycjX	32
ycjY	3
ycjZ	10
ydaC	0
ydaE	0
ydaF	0
ydaG	0
ydaL	0
ydaM	0
ydaN	0
ydaO	0
ydaQ	0
ydaS	0
ydaT	0
ydaU	0
ydaV	0
ydaW	0
ydaY	0
ydbA	60
ydbC	46
ydbD	1
ydbH	79
ydbJ	127
ydbK	467
ydbL	9
ydcA	26
ydcC	1
ydcD	2
ydcE	23
ydcF	63
ydcH	39
ydcI	689
ydcJ	34
ydcK	7
ydcL	34
ydcM	94
ydcN	5
ydcO	36
ydcP	88
ydcQ	11
ydcR	40
ydcS	66
ydcT	16
ydcU	14
ydcV	10
ydcW	119
ydcX	4
ydcY	54
ydcZ	13
yddA	0
yddB	2
yddE	55
yddG	7
yddH	6
yddJ	0
yddK	0
yddL	0
yddM	37
yddV	16
yddW	32
ydeA	3
ydeE	22
ydeH	20
ydeI	0
ydeJ	0
ydeK	32
ydeM	7
ydeN	339
ydeO	1
ydeP	4
ydeQ	0
ydeR	0
ydeS	0
ydeT	0
ydeU	19
ydeV	517
ydeW	361
ydfA	0
ydfB	0
ydfC	0
ydfD	0
ydfE	1
ydfG	379
ydfH	56
ydfI	9
ydfJ	0
ydfK	0
ydfO	0
ydfP	0
ydfQ	0
ydfR	0
ydfT	5
ydfU	0
ydfV	1
ydfW	0
ydfX	0
ydfZ	3
ydgA	268
ydgC	19
ydgD	56
ydgG	11
ydgH	264
ydgI	9
ydgJ	200
ydgK	31
ydgR	310
ydgT	3
ydhA	8
ydhB	27
ydhC	66
ydhD	139
ydhF	90
ydhH	77
ydhI	5
ydhJ	12
ydhK	17
ydhL	8
ydhM	26
ydhO	77
ydhP	17
ydhQ	226
ydhR	218
ydhS	8
ydhT	10
ydhU	2
ydhV	13
ydhW	7
ydhX	0
ydhY	7
ydhZ	30
ydiA	110
ydiB	0
ydiD	3
ydiE	1
ydiF	0
ydiH	4
ydiI	55
ydiJ	473
ydiK	59
ydiL	3
ydiM	1
ydiN	2
ydiO	2
ydiP	21
ydiQ	2
ydiR	3
ydiS	3
ydiT	0
ydiU	264
ydiV	26
ydiY	16
ydiZ	17
ydjA	294
ydjE	9
ydjF	41
ydjG	10
ydjH	11
ydjI	14
ydjJ	9
ydjK	9
ydjL	11
ydjM	2
ydjN	41
ydjO	0
ydjQ	18
ydjR	13
ydjX	2
ydjY	7
ydjZ	3
yeaA	618
yeaB	12
yeaC	420
yeaD	143
yeaE	71
yeaG	129
yeaH	32
yeaI	1
yeaJ	18
yeaK	31
yeaL	9
yeaM	17
yeaN	9
yeaO	20
yeaP	92
yeaQ	17
yeaR	6
yeaS	16
yeaT	132
yeaU	25
yeaV	5
yeaW	7
yeaX	6
yeaY	117
yeaZ	43
yebA	262
yebB	1
yebC	204
yebE	39
yebF	56
yebG	89
yebK	94
yebN	4
yebO	30
yebQ	4
yebR	99
yebS	36
yebT	73
yebU	25
yebV	15
yebW	9
yebY	30
yebZ	54
yecA	299
yecC	67
yecD	41
yecE	12
yecF	22
yecG	10
yecH	7
yecI	170
yecJ	14
yecM	25
yecN	37
yecO	20
yecP	44
yecR	113
yecS	48
yecT	0
yedA	8
yedD	82
yedE	272
yedF	64
yedI	34
yedJ	27
yedK	10
yedL	5
yedM	6
yedN	4
yedO	135
yedP	13
yedQ	43
yedR	0
yedS	7
yedV	14
yedW	26
yedX	0
yedY	18
yedZ	5
yeeA	63
yeeD	10
yeeE	11
yeeF	58
yeeI	1628
yeeJ	47
yeeL	1
yeeN	63
yeeO	15
yeeP	4
yeeR	35
yeeS	1
yeeT	0
yeeU	0
yeeV	0
yeeW	2
yeeX	342
yeeY	28
yeeZ	151
yefM	16
yegD	13
yegE	178
yegH	27
yegI	13
yegJ	0
yegK	2
yegL	1
yegP	13
yegQ	51
yegR	2
yegS	5
yegT	37
yegU	24
yegV	31
yegW	41
yegX	7
yegZ	1
yehA	0
yehB	0
yehC	0
yehD	1
yehE	8
yehI	8
yehK	1
yehL	2
yehM	3
yehP	3
yehQ	10
yehR	0
yehS	46
yehT	27
yehU	34
yehW	2
yehX	3
yehY	2
yehZ	15
yeiA	41
yeiB	45
yeiC	8
yeiE	203
yeiG	276
yeiH	26
yeiI	37
yeiJ	1
yeiL	6
yeiM	29
yeiN	29
yeiP	49
yeiQ	86
yeiR	16
yeiS	2
yeiT	20
yeiU	6
yeiW	2
yejA	97
yejB	20
yejE	22
yejF	74
yejG	85
yejH	38
yejK	82
yejL	47
yejM	170
yejO	37
yfaA	9
yfaD	12
yfaE	23
yfaH	0
yfaL	38
yfaO	35
yfaP	5
yfaQ	7
yfaS	8
yfaT	1
yfaU	10
yfaV	5
yfaW	25
yfaX	3
yfaY	77
yfaZ	12
yfbB	9
yfbE	4
yfbF	2
yfbG	17
yfbH	5
yfbJ	1
yfbK	3
yfbL	0
yfbM	23
yfbN	1
yfbO	1
yfbP	2
yfbQ	120
yfbR	26
yfbS	133
yfbT	161
yfbU	119
yfbV	175
yfbW	2
yfcA	34
yfcC	0
yfcD	72
yfcE	69
yfcF	19
yfcG	2
yfcH	209
yfcI	11
yfcJ	8
yfcL	37
yfcM	31
yfcN	82
yfcO	37
yfcP	0
yfcQ	0
yfcR	0
yfcS	0
yfcT	0
yfcU	17
yfcV	0
yfcX	830
yfcY	341
yfcZ	54
yfdC	2
yfdE	2
yfdF	3
yfdG	24
yfdH	72
yfdI	57
yfdK	0
yfdL	0
yfdM	0
yfdN	0
yfdO	0
yfdP	1
yfdQ	6
yfdR	1
yfdS	0
yfdT	0
yfdV	2
yfdX	5
yfdY	24
yfdZ	83
yfeA	83
yfeC	167
yfeD	57
yfeG	13
yfeH	116
yfeK	10
yfeN	4
yfeO	10
yfeR	12
yfeS	15
yfeT	11
yfeU	36
yfeW	29
yfeX	197
yfeY	81
yfeZ	8
yffB	28
yffH	46
yffI	21
yfgA	322
yfgB	140
yfgC	141
yfgD	84
yfgF	3
yfgG	63
yfgH	2
yfgI	1
yfgJ	16
yfgL	399
yfgM	147
yfgO	72
yfhA	58
yfhB	48
yfhD	11
yfhG	30
yfhH	22
yfhJ	49
yfhK	54
yfhL	3
yfhM	423
yfhQ	262
yfhR	2
yfiA	6574
yfiB	18
yfiC	29
yfiD	56
yfiE	31
yfiF	187
yfiH	35
yfiK	11
yfiL	2
yfiM	8
yfiN	13
yfiO	317
yfiP	11
yfiQ	1248
yfiR	19
yfjB	79
yfjD	54
yfjF	18
yfjG	62
yfjH	14
yfjI	49
yfjJ	1
yfjK	61
yfjL	54
yfjM	2
yfjN	67
yfjO	17
yfjP	5
yfjQ	2
yfjR	2
yfjS	2
yfjT	3
yfjU	2
yfjV	1
yfjW	26
yfjX	0
yfjY	0
yfjZ	0
ygaC	5
ygaD	82
ygaF	204
ygaH	12
ygaM	29
ygaP	12
ygaQ	0
ygaR	0
ygaT	235
ygaU	72
ygaV	3
ygaW	54
ygaX	3
ygaY	7
ygaZ	91
ygbA	16
ygbE	4
ygbF	6
ygbI	92
ygbJ	4
ygbK	4
ygbL	3
ygbM	5
ygbN	5
ygbT	12
ygcB	21
ygcE	11
ygcF	19
ygcG	2
ygcH	2
ygcI	8
ygcJ	5
ygcK	1
ygcL	0
ygcM	24
ygcN	14
ygcO	0
ygcP	4
ygcQ	1
ygcR	2
ygcS	0
ygcU	3
ygcW	0
ygdB	10
ygdD	8
ygdE	52
ygdH	1386
ygdI	26
ygdK	22
ygdL	49
ygdQ	38
ygdR	119
ygeA	55
ygeD	29
ygeF	0
ygeG	0
ygeH	0
ygeI	0
ygeK	0
ygeL	0
ygeM	1
ygeN	0
ygeO	1
ygeP	1
ygeQ	7
ygeR	102
ygeV	894
ygeW	557
ygeX	158
ygeY	109
ygfA	35
ygfB	207
ygfF	132
ygfG	5
ygfH	2
ygfI	6
ygfJ	44
ygfK	660
ygfM	25
ygfO	3
ygfQ	16
ygfS	7
ygfT	49
ygfU	76
ygfX	113
ygfY	194
ygfZ	658
yggC	17
yggD	27
yggE	69
yggF	2
yggG	703
yggH	36
yggJ	50
yggL	121
yggM	3
yggN	30
yggP	6
yggR	9
yggS	33
yggT	44
yggU	9
yggV	37
yggW	70
yggX	15
yghA	7
yghB	162
yghD	4
yghE	1
yghF	0
yghG	0
yghJ	79
yghK	31
yghO	3
yghQ	1
yghR	0
yghS	0
yghT	0
yghU	200
yghW	0
yghX	0
yghY	5
yghZ	226
ygiA	6
ygiB	246
ygiC	478
ygiE	118
ygiF	52
ygiH	73
ygiL	1
ygiN	325
ygiP	0
ygiQ	129
ygiS	257
ygiT	27
ygiU	21
ygiV	2
ygiW	20
ygiZ	0
ygjD	81
ygjE	2
ygjF	80
ygjG	26
ygjH	22
ygjI	29
ygjJ	6
ygjK	17
ygjM	4
ygjN	2
ygjO	30
ygjP	20
ygjQ	1
ygjR	213
ygjV	5
yhaB	0
yhaC	0
yhaH	35
yhaI	1
yhaJ	111
yhaK	15
yhaL	181
yhaM	27
yhaO	29
yhaV	39
yhbC	138
yhbE	64
yhbG	120
yhbH	205
yhbJ	204
yhbN	100
yhbO	1
yhbP	11
yhbQ	12
yhbS	112
yhbT	226
yhbU	0
yhbV	3
yhbW	46
yhbX	7
yhbY	108
yhcA	0
yhcB	307
yhcC	3
yhcD	4
yhcE	69
yhcF	10
yhcG	15
yhcH	25
yhcM	72
yhcN	7
yhcO	3
yhdA	103
yhdE	28
yhdH	179
yhdJ	5
yhdL	9
yhdN	17
yhdP	225
yhdT	4
yhdU	15
yhdV	1
yhdW	11
yhdX	1
yhdY	1
yhdZ	5
yheL	11
yheM	12
yheN	28
yheO	99
yheS	101
yheT	35
yheU	13
yheV	6
yhfA	112
yhfG	0
yhfK	169
yhfL	1
yhfS	6
yhfT	0
yhfU	1
yhfW	3
yhfX	2
yhfY	10
yhfZ	34
yhgA	10
yhgE	46
yhgF	225
yhgG	5
yhgN	18
yhhA	25
yhhF	24
yhhH	0
yhhI	2
yhhJ	162
yhhK	43
yhhL	8
yhhM	12
yhhN	96
yhhP	18
yhhQ	11
yhhS	21
yhhT	9
yhhW	49
yhhX	191
yhhY	18
yhhZ	0
yhiD	1
yhiF	0
yhiI	238
yhiJ	0
yhiK	0
yhiL	0
yhiM	2
yhiN	27
yhiO	32
yhiP	267
yhiQ	14
yhiR	75
yhiS	0
yhjA	7
yhjB	4
yhjC	13
yhjD	19
yhjE	17
yhjG	25
yhjH	39
yhjJ	133
yhjK	52
yhjQ	3
yhjR	14
yhjV	10
yhjX	5
yhjY	9
yiaA	0
yiaB	0
yiaC	5
yiaD	11
yiaF	166
yiaG	7
yiaH	6
yiaI	8
yiaJ	24
yiaK	15
yiaL	1
yiaM	1
yiaN	4
yiaO	9
yiaT	2
yiaU	18
yiaV	0
yiaW	0
yiaY	1
yibA	6
yibD	5
yibF	33
yibG	1
yibH	9
yibI	6
yibJ	11
yibK	16
yibL	58
yibN	166
yibQ	33
yibT	83
yicC	149
yicE	27
yicG	5
yicH	114
yicI	23
yicJ	1
yicL	24
yicM	4
yicN	25
yicO	1
yicR	254
yicS	1
yidA	77
yidB	6
yidC	599
yidD	8
yidE	82
yidF	10
yidG	2
yidH	5
yidI	11
yidJ	6
yidK	2
yidL	12
yidP	4
yidQ	281
yidR	58
yidX	4
yidZ	13
yieE	86
yieF	148
yieG	74
yieH	16
yieI	2
yieK	7
yieL	2
yieM	37
yieN	50
yieP	90
yifB	18
yifE	113
yifK	106
yifL	113
yifN	2
yifO	3
yigA	68
yigB	53
yigE	2
yigF	2
yigG	0
yigI	9
yigL	69
yigM	12
yigP	173
yigZ	71
yihA	163
yihD	64
yihE	97
yihF	4
yihG	4
yihI	56
yihL	14
yihM	19
yihN	17
yihO	2
yihP	3
yihQ	3
yihR	3
yihS	13
yihT	8
yihU	5
yihV	6
yihW	14
yihX	317
yiiD	214
yiiE	0
yiiF	12
yiiG	1
yiiL	1
yiiM	87
yiiQ	26
yiiR	14
yiiS	14
yiiT	48
yiiU	415
yiiX	15
yijD	166
yijE	16
yijF	0
yijO	16
yijP	97
yjaA	0
yjaB	11
yjaG	57
yjaH	54
yjbA	1
yjbB	75
yjbC	45
yjbD	60
yjbE	3
yjbF	3
yjbG	0
yjbH	9
yjbI	1
yjbJ	43
yjbL	0
yjbM	0
yjbN	96
yjbO	6
yjbQ	87
yjbR	73
yjcB	1
yjcC	13
yjcD	32
yjcE	130
yjcF	5
yjcH	389
yjcO	63
yjcP	1
yjcQ	0
yjcR	0
yjcS	1
yjcZ	37
yjdA	135
yjdC	71
yjdF	13
yjdI	3
yjdJ	6
yjdK	0
yjdL	6
yjdO	1
yjdP	9
yjeB	88
yjeE	10
yjeF	36
yjeH	11
yjeI	435
yjeJ	5
yjeK	64
yjeM	7
yjeN	1
yjeO	1
yjeP	154
yjeS	43
yjeT	5
yjfC	1
yjfF	23
yjfI	0
yjfJ	1
yjfK	2
yjfL	0
yjfM	0
yjfN	280
yjfO	599
yjfP	30
yjfY	2
yjfZ	3
yjgA	123
yjgB	14
yjgD	468
yjgF	2090
yjgH	1
yjgI	7
yjgJ	19
yjgK	27
yjgL	8
yjgM	14
yjgN	0
yjgP	132
yjgQ	124
yjgR	43
yjgW	0
yjgX	55
yjgZ	1
yjhA	17
yjhB	6
yjhC	51
yjhD	2
yjhE	0
yjhF	4
yjhG	38
yjhH	10
yjhI	5
yjhP	48
yjhQ	37
yjhR	4
yjhS	2
yjhT	32
yjhU	164
yjhV	1
yjhW	0
yjhX	42
yjiA	83
yjiC	0
yjiD	3
yjiE	18
yjiG	1
yjiH	0
yjiJ	5
yjiK	4
yjiL	6
yjiM	13
yjiN	7
yjiO	8
yjiP	1
yjiQ	16
yjiR	11
yjiS	0
yjiT	446
yjiV	59
yjiW	3
yjiX	2
yjiY	27
yjiZ	18
yjjA	41
yjjB	2
yjjG	29
yjjI	6
yjjJ	30
yjjK	615
yjjM	81
yjjN	3
yjjP	9
yjjQ	0
yjjU	30
yjjV	20
yjjW	5
yjjX	20
yjjY	2
yjjZ	0
yjtD	25
ykfA	33
ykfB	27
ykfC	18
ykfF	0
ykfG	0
ykfH	0
ykfI	0
ykfJ	0
ykgA	9
ykgB	0
ykgC	7
ykgD	15
ykgE	29
ykgF	69
ykgG	34
ykgH	2
ykgI	0
ykgJ	1
ykgK	0
ykgL	0
ykgM	2
ykgN	36
ykiA	4
ykiB	0
ylaB	34
ylaC	39
ylbA	23
ylbE	2
ylbF	3
ylbG	5
ylbH	3
ylcE	1
ylcG	0
yliA	126
yliB	177
yliC	42
yliD	18
yliE	3
yliF	1
yliG	39
yliH	2
yliI	5
yliJ	209
yliK	2
yliL	0
ymbA	17
ymcA	2
ymcB	0
ymcC	1
ymcD	2
ymcE	1
ymdA	2
ymdB	35
ymdC	36
ymdE	0
ymdF	20
ymfA	1
ymfB	9
ymfC	14
ymfD	12
ymfE	19
ymfG	3
ymfH	0
ymfI	39
ymfJ	6
ymfK	27
ymfL	1
ymfM	0
ymfN	1
ymfO	0
ymfP	0
ymfQ	0
ymfR	0
ymfS	0
ymfT	0
ymgA	0
ymgB	0
ymgC	0
ymgD	5
ymgE	2
ymgF	0
ymgG	4
ymgH	0
ymjA	16
ymjB	0
ymjC	1
ynaA	0
ynaE	0
ynaI	13
ynaJ	0
ynaK	0
ynbA	0
ynbB	0
ynbC	7
ynbD	7
ynbE	1
yncA	35
yncB	73
yncC	3
yncD	26
yncE	110
yncG	3
yncH	0
yncI	1
yncJ	8
yncK	1
yncM	0
yncN	3
yneE	0
yneF	17
yneG	4
yneH	27
yneI	62
yneJ	14
yneK	5
yneL	0
ynfA	4
ynfB	42
ynfC	24
ynfD	32
ynfE	4
ynfF	15
ynfG	2
ynfH	11
ynfK	15
ynfL	8
ynfM	18
ynfN	1
ynfO	0
ynfP	0
ynhG	39
yniA	275
yniB	49
yniC	54
yniD	4
ynjA	7
ynjB	21
ynjC	14
ynjD	11
ynjE	28
ynjF	18
ynjH	7
ynjI	10
yoaA	112
yoaB	107
yoaC	16
yoaD	6
yoaE	175
yoaF	34
yoaG	2
yoaH	27
yoaI	1
yobA	43
yobB	30
yobD	8
yobF	377
yobG	36
yobH	12
yodA	5
yodB	2
yodC	22
yodD	11
yoeA	1
yoeB	13
yoeE	6
yoeF	1
yohC	9
yohD	25
yohF	5
yohG	1
yohH	0
yohJ	2
yohK	5
yohL	13
yohM	2
yohN	12
yohO	14
yojI	32
yojL	14
ypaA	25
ypdA	45
ypdB	21
ypdC	16
ypdD	9
ypdE	2
ypdF	5
ypdG	6
ypdH	1
ypdI	1
ypdJ	0
ypeA	27
ypeB	12
ypeC	10
ypfE	1
ypfG	12
ypfH	64
ypfI	63
ypfJ	94
ypfN	19
yphA	9
yphB	7
yphC	16
yphD	1
yphE	7
yphF	8
yphG	11
yphH	25
ypjA	18
ypjB	0
ypjC	0
ypjD	40
ypjF	0
ypjJ	0
ypjK	0
ypjL	3
ypjM	4
yqaA	58
yqaB	97
yqaC	0
yqaD	0
yqaE	2
yqcA	235
yqcB	25
yqcC	6
yqcD	68
yqcE	1
yqeA	37
yqeB	330
yqeC	150
yqeF	572
yqeG	29
yqeH	0
yqeI	3
yqeJ	1
yqeK	0
yqfA	428
yqfB	22
yqfE	0
yqgA	15
yqgB	72
yqgC	1
yqgD	10
yqgE	97
yqgF	38
yqhA	68
yqhC	13
yqhD	153
yqhG	3
yqhH	0
yqiA	80
yqiB	27
yqiC	101
yqiG	2
yqiH	0
yqiI	1
yqiJ	10
yqiK	10
yqjA	87
yqjB	23
yqjC	42
yqjD	56
yqjE	46
yqjF	1
yqjG	17
yqjH	20
yqjI	31
yqjK	56
yraH	0
yraI	0
yraJ	13
yraK	6
yraL	42
yraM	211
yraN	15
yraO	101
yraP	179
yraQ	41
yraR	23
yrbA	41
yrbB	39
yrbC	124
yrbD	61
yrbE	62
yrbF	110
yrbG	61
yrbK	59
yrbL	205
yrdA	131
yrdB	19
yrdC	40
yrdD	109
yrfA	2
yrfB	3
yrfC	2
yrfD	12
yrfF	272
yrfG	44
yrhA	0
yrhB	0
yrhC	0
ysaB	1
ysdC	0
ysgA	89
ytfA	0
ytfB	188
ytfE	16
ytfF	23
ytfG	17
ytfH	12
ytfI	1
ytfJ	233
ytfK	379
ytfL	58
ytfM	115
ytfN	179
ytfP	32
ytfQ	161
ytfR	48
ytfT	16
ytjA	21
ytjB	12
ytjC	135
yzcX	7
yzfA	2
yzgL	13
zapA	181
zipA	277
zitB	48
zntA	424
zntR	12
znuA	140
znuB	26
znuC	50
zraP	1
zraR	24
zraS	25
zupT	27
zur	112
zwf	322
__no_feature	22243
__ambiguous	120219
__too_low_aQual	0
__not_aligned	0
__alignment_not_unique	0
