aaeA	3
aaeB	6
aaeR	29
aaeX	0
aas	69
aat	44
abgA	0
abgB	0
abgR	0
abgT	0
abrB	2
accA	366
accB	235
accC	559
accD	926
aceA	21399
aceB	11864
aceE	2784
aceF	1532
aceK	2438
ackA	556
acnA	1380
acnB	19852
acpP	2131
acpS	20
acpT	26
acrA	281
acrB	635
acrD	21
acrE	3
acrF	18
acrR	24
acs	3700
actP	2036
ada	27
add	475
ade	41
adhE	747
adhP	146
adiA	15
adiC	2
adiY	1
adk	674
aegA	6
aer	78
aes	5
afuB	1
afuC	3
agaA	16
agaB	0
agaC	1
agaD	0
agaI	1
agaR	115
agaS	5
agaV	16
agaW	6
agp	345
ahpC	5393
ahpF	188
aidB	23
ais	1
alaS	1199
alaT	0
alaU	1
alaV	3
alaW	7
alaX	2
aldA	11092
aldB	510
alkA	15
alkB	2
allA	4
allB	16
allC	11
allD	1
allR	89
alpA	0
alr	63
alsA	3
alsB	6
alsC	0
alsE	2
alsK	11
alx	18
amiA	60
amiB	52
amiC	223
amn	266
ampC	25
ampD	30
ampE	48
ampG	87
ampH	89
amtB	18
amyA	120
ansA	35
ansB	27
ansP	9
apaG	38
apaH	67
aphA	208
appA	13
appB	9
appC	7
appY	2
apt	90
aqpZ	12
araA	25
araB	14
araC	213
araD	3
araE	25
araF	38
araG	10
araH	13
araJ	15
arcA	1116
arcB	243
argA	14
argB	13
argC	3
argD	20
argE	58
argF	18
argG	96
argH	41
argI	4
argK	2
argO	7
argP	79
argQ	25
argR	105
argS	314
argT	496
argU	10
argV	83
argW	1
argX	15
argY	117
argZ	52
arnT	8
aroA	54
aroB	236
aroC	292
aroD	34
aroE	14
aroF	30
aroG	221
aroH	55
aroK	119
aroL	27
aroM	5
aroP	28
arpA	1
arpB	0
arsB	9
arsC	11
arsR	6
artI	112
artJ	16
artM	41
artP	67
artQ	34
ascB	16
ascF	19
ascG	44
asd	562
aslA	16
aslB	14
asmA	189
asnA	19
asnB	81
asnC	7
asnS	365
asnT	19
asnU	10
asnV	0
asnW	0
aspA	2209
aspC	1362
aspS	292
aspT	0
aspU	0
aspV	12
asr	2
astA	367
astB	345
astC	757
astD	449
astE	181
atoA	0
atoB	5
atoC	9
atoD	0
atoE	2
atoS	10
atpA	6099
atpB	889
atpC	1380
atpD	4409
atpE	1428
atpF	1782
atpG	2172
atpH	1236
atpI	421
avtA	121
azoR	32
bacA	52
baeR	24
baeS	11
barA	96
basR	11
basS	18
bax	570
bcp	269
bcr	36
bcsA	9
bcsB	15
bcsC	38
bcsE	69
bcsF	0
bcsG	49
bcsZ	3
bdm	26
betA	115
betB	150
betI	64
betT	67
bfd	47
bfr	85
bglA	196
bglB	1
bglF	0
bglG	4
bglH	4
bglJ	1
bglX	247
bioA	6
bioB	5
bioC	3
bioD	3
bioF	4
bioH	32
bipA	566
birA	57
bisC	81
blc	22
blr	9
bolA	161
borD	60
brnQ	59
btuB	177
btuC	34
btuD	46
btuE	39
btuF	14
btuR	38
cadA	3
cadB	1
cadC	4
caiA	9
caiB	7
caiC	12
caiD	4
caiE	6
caiF	52
caiT	0
can	301
carA	1307
carB	3420
cbl	11
cbpA	71
cbpM	21
cbrA	4
cbrC	16
cca	183
cchA	13
cchB	2
ccmA	14
ccmB	8
ccmC	13
ccmD	0
ccmE	6
ccmF	34
ccmG	9
ccmH	25
cdaR	25
cdd	20
cdh	5
cdsA	125
cedA	3
cfa	179
chaA	30
chaB	2
chaC	24
chbA	8
chbB	19
chbC	8
chbF	5
chbG	10
chbR	1
cheA	32
cheB	1
cheR	5
cheW	12
cheY	6
cheZ	8
chiA	19
chpA	9
chpB	11
chpR	11
chpS	2
cirA	2069
citA	14
citB	4
citC	0
citD	0
citE	0
citF	2
citG	0
citT	1
citX	0
clcA	48
clcB	7
cld	268
clpA	1070
clpB	672
clpP	297
clpS	36
clpX	562
cls	110
cmk	203
cmr	33
cmtA	7
cmtB	4
coaA	64
coaD	29
coaE	35
cobB	97
cobC	12
cobS	12
cobT	35
cobU	21
codA	186
codB	82
cof	8
copA	114
corA	208
cpdA	173
cpdB	151
cpsB	10
cpsG	8
cpxA	195
cpxP	672
cpxR	213
crcA	4
crcB	7
creA	27
creB	25
creC	19
creD	8
crl	789
crp	1473
crr	1073
csdA	89
csgA	8
csgB	0
csgC	0
csgD	12
csgE	0
csgF	1
csgG	12
csiE	472
csiR	57
cspA	57
cspB	8
cspC	638
cspD	2609
cspE	1525
cspF	4
cspG	7
cspH	1
cspI	0
csrA	317
csrB	22155
csrC	1930
cstA	2697
cueO	63
cueR	45
cusA	3
cusB	2
cusC	0
cusF	0
cusR	26
cusS	21
cutA	21
cutC	86
cvpA	38
cvrA	21
cyaA	414
cyaY	55
cybB	52
cybC	12
cycA	647
cydA	823
cydB	480
cydC	167
cydD	82
cynR	19
cynS	4
cynT	5
cynX	2
cyoA	3167
cyoB	4285
cyoC	564
cyoD	253
cyoE	1614
cysA	209
cysB	128
cysC	17
cysD	145
cysE	203
cysG	55
cysH	133
cysI	262
cysJ	221
cysK	1692
cysM	76
cysN	219
cysP	191
cysQ	60
cysS	162
cysT	4
cysU	43
cysW	58
cysZ	72
cytR	107
dacA	220
dacB	52
dacC	174
dacD	17
dadA	2718
dadX	1548
dam	28
damX	265
dapA	655
dapB	66
dapD	378
dapE	53
dapF	95
dbpA	0
dcd	168
dcm	120
dcp	229
dcrB	234
dctA	1514
dcuA	87
dcuB	2
dcuC	6
dcuD	4
dcuR	64
dcuS	103
ddg	25
ddlA	167
ddlB	97
ddpA	111
ddpB	17
ddpC	8
ddpD	18
ddpF	24
ddpX	19
deaD	94
dedA	82
dedD	135
def	155
degP	835
degQ	197
degS	73
deoA	67
deoB	495
deoC	32
deoD	390
deoR	77
der	143
dfp	162
dgkA	43
dgoA	4
dgoD	5
dgoK	13
dgoR	34
dgoT	5
dgsA	107
dgt	81
dhaH	97
dhaK	195
dhaL	80
dhaR	24
dicA	79
dicB	0
dicC	0
dicF	1
dinB	20
dinD	20
dinF	23
dinG	55
dinI	13
dinJ	70
dipZ	88
djlA	26
djlB	1
djlC	9
dkgA	129
dkgB	13
dksA	493
dld	622
dmsA	9
dmsB	2
dmsC	9
dmsD	21
dnaA	222
dnaB	155
dnaC	26
dnaE	231
dnaG	183
dnaJ	262
dnaK	1922
dnaN	102
dnaQ	108
dnaT	17
dnaX	145
dos	19
dppA	3803
dppB	181
dppC	140
dppD	165
dppF	183
dps	614
dsbA	200
dsbB	46
dsbC	41
dsbG	16
dsdA	54
dsdC	25
dsdX	14
dsrA	2
dsrB	15
dtd	34
dusB	199
dusC	3
dut	119
dxr	52
dxs	336
eaeH	1
eamA	45
ebgA	30
ebgC	0
ebgR	26
ecnA	4
ecnB	46
eco	319
ecpD	0
eda	167
edd	49
efp	735
ego	48
elaA	24
elaB	248
elaC	38
elaD	3
elbA	0
elbB	129
emrA	13
emrB	12
emrD	58
emrE	5
emrK	1
emrY	0
emtA	66
endA	1
eno	2330
entA	201
entB	405
entC	558
entD	24
entE	627
entF	684
envC	71
envR	0
envY	1
envZ	116
epd	211
eptA	6
eptB	170
era	186
erfK	45
essD	0
essQ	0
etp	2
eutA	1
eutB	72
eutC	39
eutE	7
eutG	5
eutH	5
eutI	17
eutJ	4
eutL	17
eutP	1
eutQ	12
eutT	12
evgA	30
evgS	57
exbB	411
exbD	170
exo	77
exoX	61
exuR	153
exuT	17
fabA	288
fabB	1261
fabD	366
fabF	826
fabG	694
fabH	234
fabI	1564
fabR	161
fabZ	143
fadA	1009
fadB	2851
fadD	969
fadE	645
fadH	179
fadL	952
fadR	125
fbaA	2026
fbaB	848
fbp	589
fcl	19
fdhD	23
fdhE	383
fdhF	26
fdnG	11
fdnH	2
fdnI	1
fdoG	5483
fdoH	1010
fdoI	487
fdrA	2
fdx	48
feaB	48
feaR	221
fecA	544
fecB	116
fecC	68
fecD	33
fecE	104
fecI	66
fecR	38
feoA	18
feoB	129
fepA	612
fepB	93
fepC	62
fepD	68
fepE	0
fepG	21
fes	114
ffh	426
ffs	0
fhiA	4
fhlA	14
fhuA	445
fhuB	34
fhuC	60
fhuD	26
fhuE	93
fhuF	1021
fic	14
fieF	60
fimA	338
fimB	7
fimC	9
fimD	28
fimE	2
fimF	4
fimG	4
fimH	22
fimI	26
fimZ	0
fis	67
fiu	255
fixA	5
fixB	4
fixC	4
fixX	0
fklB	341
fkpA	443
fkpB	60
fldA	418
fldB	79
flgA	128
flgB	176
flgC	127
flgD	370
flgE	956
flgF	400
flgG	417
flgH	124
flgI	99
flgJ	65
flgK	111
flgL	98
flgM	36
flgN	41
flhA	96
flhB	50
flhC	41
flhD	62
flhE	6
fliA	230
fliC	240
fliD	52
fliE	106
fliF	196
fliG	121
fliH	81
fliI	85
fliJ	17
fliK	98
fliL	101
fliM	127
fliN	15
fliO	11
fliP	18
fliQ	1
fliR	13
fliS	6
fliT	10
fliY	310
fliZ	69
flk	58
flu	838
flxA	5
fmt	201
fnr	0
focA	36
focB	3
folA	98
folB	16
folC	139
folD	119
folE	266
folK	19
folM	16
folP	71
folX	72
fpr	159
frc	2
frdA	224
frdB	62
frdC	19
frdD	21
fre	256
frlA	1
frlB	1
frlC	0
frlD	3
frlR	42
frmA	205
frmB	57
frmR	53
frr	924
frsA	142
fruA	49
fruB	10
fruK	19
fruR	474
frvA	0
frvB	4
frvR	2
frvX	5
frwB	0
frwC	2
frwD	0
fsaA	7
fsaB	4
fsr	19
ftn	46
ftsA	156
ftsB	70
ftsE	73
ftsH	1083
ftsI	129
ftsK	430
ftsL	8
ftsN	164
ftsQ	79
ftsW	43
ftsX	118
ftsY	196
ftsZ	925
fucA	15
fucI	32
fucK	16
fucO	108
fucP	5
fucR	156
fucU	41
fumA	1063
fumB	7
fumC	885
fur	540
fusA	7590
fxsA	18
gabD	402
gabP	95
gabT	530
gadA	9
gadB	14
gadC	18
gadE	1
gadW	22
gadX	17
gadY	0
galE	66
galF	886
galK	49
galM	205
galP	7
galR	49
galS	28
galT	36
galU	263
gapA	3118
gapC	172
garD	18
garK	13
garL	4
garP	15
garR	17
gatA	97
gatB	35
gatC	695
gatD	114
gatR	40
gatY	726
gatZ	715
gcd	30
gcl	7
gcvA	42
gcvB	1397
gcvH	414
gcvP	1386
gcvR	53
gcvT	977
gdhA	235
ggt	153
gidA	181
gidB	17
glcB	186
glcC	358
glcD	38
glcE	14
glcF	26
glcG	17
gldA	34
glf	79
glgA	339
glgB	796
glgC	456
glgP	539
glgS	232
glgX	323
glk	111
glmM	388
glmS	1472
glmU	647
glnA	1436
glnB	82
glnD	221
glnE	137
glnG	51
glnH	3757
glnK	0
glnL	39
glnP	429
glnQ	624
glnS	498
glnU	6
glnV	6
glnW	2
glnX	4
gloA	189
gloB	36
glpA	2
glpB	4
glpC	4
glpD	79
glpE	26
glpF	164
glpG	25
glpK	362
glpQ	37
glpR	53
glpT	14
glpX	37
gltA	4634
gltB	97
gltD	35
gltF	4
gltI	1500
gltJ	68
gltK	29
gltL	100
gltP	38
gltS	59
gltT	54
gltU	10
gltV	15
gltW	52
gltX	636
glvB	2
glvC	0
glvG	2
glxK	8
glxR	2
glyA	3811
glyQ	265
glyS	460
glyT	29
glyU	0
glyV	38
glyW	90
glyX	4
glyY	0
gmd	27
gmhB	55
gmk	101
gmr	60
gnd	1780
gnsA	5
gnsB	33
gntK	11
gntP	16
gntR	124
gntT	13
gntU	6
gntX	63
gntY	303
gor	294
gph	71
gpmA	825
gpmI	99
gpp	175
gpsA	502
gpt	244
greA	76
greB	22
groL	3800
groS	514
grpE	386
grxA	9
grxB	564
grxC	120
gshA	303
gshB	83
gsk	73
gspA	0
gspC	1
gspD	2
gspE	3
gspF	0
gspG	0
gspH	1
gspI	1
gspJ	0
gspK	1
gspL	2
gspM	2
gspO	2
gss	64
gst	597
guaA	1360
guaB	786
guaC	881
guaD	7
gudD	22
gudP	6
gudX	4
gutM	1
gutQ	46
gyrA	931
gyrB	448
hcaB	11
hcaC	1
hcaD	9
hcaE	27
hcaF	1
hcaR	341
hcaT	52
hchA	248
hcp	3
hcr	0
hda	150
hdeA	35
hdeB	5
hdeD	5
hdfR	52
hdhA	250
helD	110
hemA	148
hemB	227
hemC	229
hemD	96
hemE	179
hemF	41
hemG	40
hemH	46
hemL	355
hemN	191
hemX	263
hemY	275
hepA	40
hflC	448
hflD	69
hflK	640
hflX	438
hfq	274
hha	25
hinT	94
hipA	41
hipB	2
hisA	40
hisB	96
hisC	31
hisD	41
hisF	27
hisG	29
hisH	27
hisI	31
hisJ	280
hisL	10
hisM	14
hisP	38
hisQ	46
hisR	11
hisS	394
hlpA	339
hlyE	1
hmp	193
hns	1824
hofB	11
hofC	9
hofQ	8
hokA	0
hokB	0
hokC	0
hokD	46
hokE	0
holA	67
holB	33
holC	38
holD	31
holE	22
hpt	106
hrpA	164
hrpB	111
hscA	300
hscB	67
hscC	20
hsdM	66
hsdR	447
hsdS	16
hslJ	21
hslO	76
hslR	15
hslU	242
hslV	57
hsrA	18
htgA	1
htpG	452
htpX	582
htrC	5
htrE	1
htrG	219
htrL	32
hupA	1534
hupB	1361
hyaA	0
hyaB	1
hyaC	0
hyaD	2
hyaE	0
hyaF	1
hybA	8
hybB	6
hybC	31
hybD	12
hybE	8
hybF	0
hybG	4
hybO	18
hycA	1
hycB	0
hycC	3
hycD	0
hycE	3
hycF	0
hycG	4
hycH	3
hycI	21
hydN	3
hyfA	1
hyfB	2
hyfC	0
hyfD	2
hyfE	0
hyfF	3
hyfG	7
hyfH	0
hyfI	0
hyfJ	1
hyfR	8
hyi	0
hypA	0
hypB	16
hypC	0
hypD	15
hypE	14
hypF	23
hyuA	8
iaaA	91
iadA	47
iap	21
ibpA	64
ibpB	5
icd	11880
icdC	0
iclR	98
idi	22
idnD	1
idnK	6
idnO	2
idnR	14
idnT	5
ihfA	407
ihfB	842
ileS	978
ileT	3
ileU	1
ileV	1
ileX	0
ileY	0
ilvA	29
ilvB	59
ilvC	25
ilvD	58
ilvE	39
ilvG	39
ilvH	4
ilvI	22
ilvL	25
ilvM	0
ilvN	4
ilvY	25
imp	769
inaA	26
infA	195
infB	1075
infC	1421
insA	125
insB	72
insC	54
insD	96
insE	40
insF	40
insG	55
insH	2550
insI	26
insJ	4
insK	2
insL	173
insM	2
insN	5
insO	13
intA	103
intB	32
intD	47
intE	14
intF	77
intG	1
intQ	1
intR	0
intS	18
iscA	188
iscR	404
iscS	949
iscU	198
ispA	202
ispB	270
ispD	45
ispE	532
ispF	64
ispG	234
ispH	102
ispU	277
isrA	0
isrB	1
isrC	2
ivbL	101
ivy	350
katE	213
katG	2472
kbaY	5
kbaZ	42
kbl	1589
kch	11
kdgK	77
kdgR	136
kdgT	12
kdpA	5
kdpB	4
kdpC	3
kdpD	45
kdpE	8
kdpF	0
kdsA	352
kdsB	104
kdsC	83
kdsD	120
kdtA	107
kduD	12
kduI	6
kefA	123
kefB	14
kefC	35
kefF	10
kefG	14
kgtP	807
kil	0
kptA	4
ksgA	134
lacA	2
lacI	67
lacY	0
lacZ	25
lamB	444
lar	0
ldcA	36
ldcC	53
ldhA	62
ldrA	13
ldrB	2
ldrC	16
ldrD	31
lepA	529
lepB	172
leuA	12
leuB	12
leuC	21
leuD	19
leuL	3
leuO	5
leuP	5
leuQ	3
leuS	678
leuT	0
leuU	0
leuV	2
leuW	3
leuX	1
leuZ	12
lexA	139
lgt	80
lhr	129
ligA	107
ligB	15
ligT	31
lipA	321
lipB	46
lit	15
livF	1
livG	2
livH	1
livJ	15
livK	8
livM	6
lldD	101
lldP	174
lldR	17
lnt	85
lolA	67
lolB	83
lolC	66
lolD	35
lolE	89
lomR	0
lon	623
lpcA	487
lpd	5719
lplA	59
lpp	16708
lpxA	259
lpxB	180
lpxC	1592
lpxD	444
lpxH	42
lpxK	67
lpxL	95
lpxM	54
lrhA	19
lrp	305
lspA	59
lsrB	88
lsrC	17
lsrD	12
lsrF	49
lsrG	18
ltaE	159
luxS	320
lysA	43
lysC	7
lysP	41
lysQ	4
lysR	12
lysS	455
lysT	172
lysU	484
lysV	0
lysW	44
lysY	30
lysZ	36
lyxK	5
maa	53
macA	27
macB	34
maeB	1028
mak	46
malE	1536
malF	84
malG	79
malI	11
malK	186
malM	156
malP	146
malQ	119
malS	26
malT	901
malX	24
malY	82
malZ	24
manA	181
manX	338
manY	206
manZ	237
maoC	4
map	350
marA	18
marB	5
marC	13
marR	7
mazG	77
mbhA	1
mcrA	6
mcrB	35
mcrC	7
mdaB	80
mdh	5248
mdlA	46
mdlB	23
mdoB	238
mdoC	10
mdoD	281
mdoG	461
mdoH	365
mdtA	12
mdtB	21
mdtC	12
mdtD	2
mdtE	3
mdtF	16
mdtG	10
mdtH	10
mdtI	6
mdtJ	10
mdtK	65
mdtL	5
melA	79
melB	30
melR	13
menA	29
menB	113
menC	71
menD	62
menE	39
menF	90
mepA	67
metA	11
metB	40
metC	45
metE	32
metF	3
metG	296
metH	282
metI	13
metJ	102
metK	205
metL	76
metN	27
metQ	166
metR	11
metT	4
metU	4
metV	3
metW	10
metY	74
metZ	6
mfd	271
mglA	206
mglB	2048
mglC	110
mgsA	233
mgtA	210
mhpA	6
mhpB	1
mhpC	7
mhpD	6
mhpE	6
mhpF	3
mhpR	58
mhpT	4
miaA	615
miaB	111
micC	0
micF	0
minC	223
minD	445
minE	103
mioC	236
mipA	537
mlrA	17
mltA	100
mltB	43
mltC	40
mltD	1279
mmuM	49
mmuP	0
mngA	0
mngB	21
mngR	28
mntH	112
mntR	50
moaA	215
moaB	131
moaC	73
moaD	16
moaE	96
mobA	18
mobB	9
modA	61
modB	26
modC	44
modE	28
modF	38
moeA	127
moeB	73
mog	130
mokB	8
mokC	3
molR	6
motA	5
motB	3
mpaA	45
mpl	264
mppA	245
mprA	135
mqo	36
mraW	89
mraY	61
mraZ	84
mrcA	68
mrcB	163
mrdA	70
mrdB	33
mreB	710
mreC	122
mreD	20
mrp	356
mrr	97
msbA	165
mscL	139
mscS	86
msrA	101
msyB	210
mtgA	42
mtlA	454
mtlD	155
mtlR	37
mtr	13
mukB	487
mukE	61
mukF	102
murA	307
murB	113
murC	123
murD	121
murE	153
murF	79
murG	93
murI	63
murP	25
mutH	34
mutL	101
mutM	11
mutS	186
mutT	14
mutY	45
mviM	69
mviN	13
nac	7
nadA	14
nadB	1
nadC	60
nadD	41
nadE	112
nadR	65
nagA	94
nagB	131
nagC	117
nagD	140
nagE	556
nagZ	75
nanA	34
nanE	6
nanK	16
nanR	113
nanT	32
napA	95
napB	9
napC	12
napD	1
napF	5
napG	7
napH	7
narG	11
narH	6
narI	4
narJ	3
narK	6
narL	124
narP	48
narQ	26
narU	5
narV	1
narW	1
narX	40
narY	11
narZ	20
ndh	50
ndk	936
nei	20
nemA	288
nfi	55
nfnB	167
nfo	82
nfrA	42
nfrB	7
nfsA	73
nhaA	49
nhaB	65
nhaR	17
nhoA	7
nikA	5
nikB	1
nikC	1
nikD	0
nikE	4
nikR	18
ninE	0
nirB	5
nirC	3
nirD	0
nlpA	41
nlpB	566
nlpC	71
nlpD	860
nlpE	15
nlpI	889
nmpC	2781
nohA	1
nohB	1
norR	33
norV	13
norW	5
npr	10
nrdA	295
nrdB	114
nrdD	26
nrdE	62
nrdF	28
nrdG	3
nrdH	14
nrdI	11
nrfA	11
nrfB	3
nrfC	0
nrfD	5
nrfE	3
nrfF	2
nrfG	2
nth	13
nudB	34
nudC	46
nudD	5
nudE	163
nudF	27
nudG	4
nudH	182
nuoA	411
nuoB	646
nuoC	1438
nuoE	288
nuoF	827
nuoG	1888
nuoH	397
nuoI	187
nuoJ	123
nuoK	19
nuoL	763
nuoM	817
nuoN	699
nupC	217
nupG	76
nusA	401
nusB	165
nusG	206
obgE	67
ogrK	17
ogt	0
ompA	15519
ompC	14939
ompF	10106
ompG	1
ompL	1
ompN	3
ompR	217
ompT	973
ompW	12
ompX	596
oppA	4393
oppB	268
oppC	380
oppD	377
oppF	403
oriC	0
orn	66
osmB	37
osmC	239
osmE	357
osmY	213
otsA	58
otsB	13
oxc	2
oxyR	311
oxyS	0
paaA	6
paaB	0
paaC	7
paaD	1
paaE	8
paaF	1
paaG	2
paaH	8
paaI	1
paaJ	131
paaK	183
paaX	73
paaY	54
pabA	6
pabB	28
pabC	33
pal	607
panB	248
panC	321
panD	162
panE	32
panF	17
parC	307
parE	139
pbl	1
pbpC	21
pbpG	44
pck	7998
pcm	77
pcnB	335
pdhR	180
pdxA	108
pdxB	263
pdxH	144
pdxJ	121
pdxK	64
pdxY	53
pepA	671
pepB	368
pepD	891
pepE	34
pepN	586
pepP	505
pepQ	472
pepT	54
perR	4
pfkA	270
pfkB	100
pflA	92
pflB	1938
pflC	6
pflD	15
pfs	240
pgi	463
pgk	1648
pgm	480
pgpA	52
pgpB	42
pgsA	122
pheA	18
pheL	0
pheM	3
pheP	30
pheS	163
pheT	510
pheU	3
pheV	1
phnA	50
phnB	22
phnC	0
phnD	1
phnE	0
phnF	0
phnG	0
phnH	0
phnI	2
phnJ	2
phnK	0
phnL	0
phnM	1
phnN	0
phnO	3
phnP	6
phoA	120
phoB	17
phoE	1
phoH	1170
phoP	101
phoQ	94
phoR	13
phoU	30
php	1
phr	25
pin	1
pinH	0
pinQ	5
pinR	0
pioO	6
pitA	190
pitB	3
pldA	113
pldB	131
plsB	464
plsC	68
plsX	139
pmbA	149
pmrD	65
pncA	46
pncB	171
pnp	2602
pntA	903
pntB	662
pnuC	19
polA	520
polB	27
potA	40
potB	7
potC	17
potD	340
potE	7
potF	24
potG	11
potH	4
potI	10
poxA	5
poxB	48
ppa	911
ppc	278
ppdA	9
ppdB	2
ppdC	3
ppdD	1
pphA	3
pphB	3
ppiA	162
ppiB	561
ppiC	49
ppiD	423
ppk	184
pppA	11
pps	5828
ppx	145
pqiA	30
pqiB	47
pqqL	24
prc	475
prfA	76
prfB	302
prfC	201
prfH	0
priA	60
priB	129
priC	22
prkB	76
prlC	252
prmA	32
prmB	314
prmC	28
proA	146
proB	114
proC	115
proK	0
proL	1
proM	0
proP	110
proQ	346
proS	746
proV	308
proW	268
proX	926
proY	25
prpB	3
prpC	10
prpD	10
prpE	13
prpR	73
prsA	2179
psd	207
psiF	10
pspA	114
pspB	2
pspC	8
pspD	4
pspE	190
pspF	28
pssA	328
pstA	7
pstB	35
pstC	10
pstS	27
pta	1079
pth	60
ptr	135
ptrB	36
ptsA	5
ptsG	159
ptsH	827
ptsI	1409
ptsN	178
ptsP	414
purA	1042
purB	193
purC	97
purD	48
purE	14
purF	67
purH	55
purK	23
purL	158
purM	73
purN	46
purR	63
purT	10
purU	99
putA	52
putP	142
puuA	129
puuB	12
puuC	8
puuD	42
puuE	14
puuP	48
puuR	27
pykA	649
pykF	395
pyrB	4531
pyrC	460
pyrD	57
pyrE	20
pyrF	215
pyrG	697
pyrH	337
pyrI	2138
pyrL	2
qor	105
qseB	3
qseC	16
queA	23
racC	0
racR	0
radA	54
rarA	2
rarD	11
rbbA	610
rbfA	41
rbn	95
rbsA	72
rbsB	1224
rbsC	64
rbsD	112
rbsK	130
rbsR	61
rcsA	42
rcsB	216
rcsC	123
rcsD	262
rcsF	57
rdgC	121
rdlA	20
rdlB	0
rdlC	0
rdlD	1
recA	750
recB	188
recC	109
recD	100
recE	0
recF	25
recG	146
recJ	97
recN	47
recO	38
recQ	128
recR	99
recT	0
recX	7
relA	341
relB	19
relE	51
rem	2
renD	1
rep	60
rfaB	25
rfaC	55
rfaD	395
rfaE	234
rfaF	171
rfaG	33
rfaH	25
rfaI	15
rfaJ	19
rfaK	13
rfaL	20
rfaP	19
rfaQ	46
rfaS	3
rfaY	12
rfaZ	6
rfbA	131
rfbB	181
rfbC	42
rfbD	127
rfbX	40
rfe	72
rffA	52
rffC	19
rffD	83
rffE	64
rffG	59
rffH	68
rffM	25
rffT	30
rhaA	3
rhaB	0
rhaD	0
rhaR	3
rhaS	17
rhaT	6
rhlB	387
rhlE	6
rho	463
rhoL	73
rhsA	5
rhsB	12
rhsC	11
rhsD	12
rhsE	2
rhtA	9
rhtB	4
rhtC	29
ribA	80
ribB	1516
ribC	109
ribD	170
ribE	186
ribF	218
rihA	486
rihB	2
rihC	107
rimI	21
rimJ	53
rimK	48
rimL	17
rimM	807
rlmB	68
rlpA	155
rlpB	85
rluA	15
rluB	64
rluC	117
rluD	90
rmf	6416
rmuC	89
rna	42
rnb	257
rnc	158
rnd	153
rne	909
rng	143
rnhA	23
rnhB	33
rnk	125
rnpA	27
rnpB	35181
rnr	591
rnt	41
rob	387
rof	35
rpe	107
rph	99
rpiA	459
rpiB	3
rpiR	27
rplA	973
rplB	868
rplC	810
rplD	486
rplE	1299
rplF	685
rplI	267
rplJ	1181
rplK	426
rplL	769
rplM	857
rplN	1176
rplO	772
rplP	337
rplQ	579
rplR	306
rplS	300
rplT	748
rplU	241
rplV	273
rplW	202
rplX	367
rplY	407
rpmA	256
rpmB	701
rpmC	29
rpmD	29
rpmE	287
rpmF	208
rpmG	60
rpmH	129
rpmI	223
rpmJ	156
rpoA	2287
rpoB	3518
rpoC	4154
rpoD	1081
rpoE	313
rpoH	420
rpoN	349
rpoS	1472
rpoZ	78
rprA	0
rpsA	3784
rpsB	1565
rpsC	723
rpsD	1283
rpsE	611
rpsF	542
rpsG	1090
rpsH	439
rpsI	748
rpsJ	467
rpsK	710
rpsL	1116
rpsM	845
rpsN	503
rpsO	586
rpsP	418
rpsQ	142
rpsR	56
rpsS	133
rpsT	769
rpsU	753
rraA	344
rrfA	0
rrfB	0
rrfC	0
rrfD	0
rrfE	0
rrfF	0
rrfG	0
rrfH	0
rrlA	20
rrlB	19
rrlC	35
rrlD	26
rrlE	38
rrlG	17
rrlH	35
rrmA	31
rrmJ	181
rrsA	5
rrsB	6
rrsC	5
rrsD	4
rrsE	15
rrsG	23
rrsH	13
rsd	355
rseA	600
rseB	309
rseC	75
rsgA	124
rsmB	87
rsmC	76
rspA	13
rspB	6
rssA	44
rssB	30
rstA	80
rstB	69
rsuA	63
rsxA	23
rsxB	14
rsxC	60
rsxD	26
rsxE	14
rsxG	21
rtcA	12
rtcB	12
rtcR	6
rtn	126
rttR	0
rumA	65
rumB	14
rusA	0
ruvA	48
ruvB	85
ruvC	23
rybA	222
rybB	0
rydB	4
ryeA	491
ryeB	1
ryeC	10
ryeD	9
ryeE	2
ryfA	25
rygA	0
rygB	1
rygC	11
rygD	19
ryhA	7
ryhB	1
ryiA	358
ryjA	2
rzoD	0
rzoR	0
rzpD	2
rzpR	0
sanA	9
sapA	56
sapB	18
sapC	13
sapD	41
sapF	21
sbcB	115
sbcC	129
sbcD	33
sbmA	17
sbmC	43
sbp	30
sdaA	376
sdaB	54
sdaC	143
sdhA	3806
sdhB	1411
sdhC	1172
sdhD	323
sdiA	32
secA	311
secB	395
secD	375
secE	203
secF	158
secG	216
secM	87
secY	1700
selA	58
selB	128
selC	3
selD	607
seqA	115
serA	141
serB	57
serC	309
serS	562
serT	1
serU	4
serV	263
serW	3
serX	2
setA	24
setB	7
setC	1
sfcA	614
sfmA	1
sfmC	0
sfmD	2
sfmF	0
sfmH	1
sfsA	56
sfsB	7
sgbE	11
sgbH	4
sgbU	8
sgcA	4
sgcB	0
sgcC	8
sgcE	10
sgcQ	6
sgcR	9
sgcX	4
sgrR	29
sgrS	8
shiA	51
sieB	0
sixA	166
slp	11
slt	200
slyA	128
slyB	802
slyD	1041
slyX	105
smf	22
smg	157
smpA	239
smpB	112
smtA	64
sodA	3721
sodB	558
sodC	61
sohA	35
sohB	118
sokB	1
sokC	2
solA	94
soxR	4
soxS	55
speA	662
speB	140
speC	129
speD	119
speE	179
speF	3
speG	67
spf	3
spoT	395
sppA	103
spr	1452
sprT	14
spy	75
sra	300
sraB	0
sraD	0
sraF	24
sraG	0
srlA	10
srlB	2
srlD	17
srlE	22
srlR	37
srmB	124
sroF	795
ssb	326
sseA	1356
sseB	73
ssnA	4
sspA	785
sspB	314
ssrA	127131
ssrS	4429
sstT	840
ssuA	1
ssuB	3
ssuC	0
ssuD	3
ssuE	0
stfE	0
stfQ	0
stfR	0
sthA	2630
stpA	34
sucA	8598
sucB	5411
sucC	5965
sucD	3752
sufA	38
sufB	183
sufC	63
sufD	138
sufE	23
sufI	153
sufS	117
sugE	28
suhB	103
sulA	44
surA	345
surE	96
syd	24
tadA	29
tag	22
talA	56
talB	2914
tam	50
tap	17
tar	22
tas	99
tatA	151
tatB	93
tatC	103
tatD	47
tatE	105
tauA	3
tauB	3
tauC	0
tauD	3
tbpA	228
tdcA	10
tdcB	21
tdcC	44
tdcD	5
tdcE	24
tdcF	2
tdcG	14
tdcR	0
tdh	1589
tdk	21
tehA	21
tehB	41
tesA	44
tesB	62
tfaD	1
tfaE	0
tfaQ	0
tfaR	0
tfaS	5
tff	49
tgt	261
thiC	946
thiD	118
thiE	187
thiF	207
thiG	238
thiH	425
thiI	42
thiL	65
thiM	142
thiP	90
thiQ	27
thiS	4
thrA	156
thrB	84
thrC	141
thrL	7
thrS	1829
thrT	31
thrU	5
thrV	0
thrW	4
thyA	115
tiaE	444
tig	1328
tilS	69
tktA	3624
tktB	216
tldD	146
tmk	28
tnaA	20467
tnaB	1003
tnaC	490
tolA	100
tolB	588
tolC	1066
tolQ	52
tolR	19
tonB	198
topA	317
topB	362
torA	6
torC	1
torD	3
torI	15
torR	25
torS	9
torT	8
torY	3
torZ	38
tpiA	898
tpr	0
tpx	1113
treA	65
treB	219
treC	106
treF	64
treR	23
trg	20
trkA	68
trkD	33
trkG	0
trkH	61
trmA	100
trmC	113
trmD	915
trmE	80
trmH	46
trmU	204
trpA	53
trpB	69
trpC	22
trpD	6
trpE	3
trpL	0
trpR	46
trpS	201
trpT	0
truA	56
truB	77
truD	201
trxA	556
trxB	529
trxC	120
tsf	938
tsgA	2
tsr	14
tsx	294
ttdA	1
ttdB	0
ttk	114
tufA	4853
tufB	7245
tus	22
tynA	4
tyrA	35
tyrB	130
tyrP	24
tyrR	126
tyrS	327
tyrT	54
tyrU	134
tyrV	35
ubiA	90
ubiB	147
ubiC	80
ubiD	489
ubiE	196
ubiF	96
ubiG	106
ubiH	205
ubiX	33
ucpA	213
udk	107
udp	285
ugd	31
ugpA	30
ugpB	199
ugpC	45
ugpE	8
ugpQ	59
uhpA	43
uhpB	22
uhpC	4
uhpT	10
uidA	16
uidB	2
uidC	1
uidR	76
ulaA	7
ulaB	2
ulaC	0
ulaD	6
ulaE	5
ulaF	5
ulaG	5
ulaR	37
umuC	11
umuD	1
ung	61
upp	555
uraA	201
usg	115
ushA	211
uspA	1578
uspE	0
uspF	27
uspG	646
uup	136
uvrA	173
uvrB	198
uvrC	177
uvrD	191
uvrY	143
uxaA	97
uxaB	12
uxaC	207
uxuA	285
uxuB	236
uxuR	60
vacJ	238
valS	849
valT	15
valU	7
valV	0
valW	0
valX	46
valY	3
valZ	27
visC	142
vsr	10
wbbH	12
wbbI	41
wbbJ	30
wbbK	28
wbbL	76
wcaA	6
wcaB	1
wcaC	3
wcaD	2
wcaE	8
wcaF	5
wcaI	7
wcaJ	1
wcaK	4
wcaL	11
wcaM	4
wrbA	130
wza	10
wzb	3
wzc	7
wzxC	3
wzxE	38
wzyE	18
wzzE	98
xapA	2
xapB	8
xapR	19
xdhA	27
xdhB	5
xdhC	3
xdhD	29
xerC	69
xerD	55
xseA	119
xseB	82
xthA	168
xylA	41
xylB	13
xylE	7
xylF	107
xylG	38
xylH	39
xylR	27
yaaA	60
yaaH	9
yaaI	0
yaaJ	12
yaaU	0
yaaW	3
yaaX	6
yaaY	4
yabI	47
yabP	10
yabQ	0
yacC	17
yacF	65
yacG	8
yacH	3
yacL	57
yadB	9
yadC	2
yadD	17
yadE	13
yadG	40
yadH	33
yadI	8
yadK	0
yadL	2
yadM	1
yadN	2
yadR	183
yadS	22
yaeB	24
yaeF	5
yaeH	287
yaeI	8
yaeJ	9
yaeL	275
yaeP	37
yaeQ	21
yaeR	15
yaeT	1046
yafC	24
yafD	75
yafE	6
yafF	0
yafJ	115
yafK	51
yafL	3
yafM	19
yafN	7
yafO	1
yafP	1
yafQ	16
yafS	40
yafT	3
yafU	0
yafV	22
yafW	0
yafX	0
yafY	6
yafZ	1
yagA	1
yagB	10
yagE	24
yagF	29
yagG	19
yagH	21
yagI	52
yagJ	7
yagK	2
yagL	0
yagM	2
yagN	111
yagP	0
yagQ	8
yagR	10
yagS	2
yagT	5
yagU	17
yagV	6
yagW	14
yagX	7
yagY	3
yagZ	16
yahA	6
yahB	15
yahC	1
yahD	5
yahE	0
yahF	6
yahG	6
yahH	1
yahI	2
yahJ	42
yahK	81
yahL	0
yahM	9
yahN	0
yahO	46
yaiA	22
yaiB	221
yaiC	2
yaiE	69
yaiF	2
yaiI	19
yaiL	50
yaiO	3
yaiP	5
yaiS	0
yaiT	4
yaiU	8
yaiV	1
yaiW	34
yaiX	0
yaiY	15
yaiZ	48
yajB	16
yajC	206
yajD	41
yajG	253
yajI	11
yajL	55
yajO	95
yajQ	282
yajR	52
ybaA	15
ybaB	90
ybaD	96
ybaE	13
ybaJ	25
ybaK	15
ybaL	198
ybaM	4
ybaN	46
ybaO	19
ybaP	21
ybaQ	39
ybaS	3
ybaT	3
ybaV	21
ybaW	17
ybaX	50
ybaY	94
ybaZ	19
ybbA	21
ybbB	24
ybbC	1
ybbD	0
ybbJ	65
ybbK	134
ybbL	19
ybbM	12
ybbN	169
ybbO	46
ybbP	52
ybbS	3
ybbV	0
ybbW	0
ybbY	3
ybcC	0
ybcD	0
ybcF	3
ybcH	7
ybcI	4
ybcJ	7
ybcK	0
ybcL	10
ybcM	13
ybcN	1
ybcO	0
ybcQ	1
ybcS	2
ybcV	0
ybcW	0
ybcY	0
ybdA	85
ybdB	164
ybdD	214
ybdF	11
ybdG	85
ybdH	12
ybdJ	8
ybdK	13
ybdL	6
ybdM	4
ybdN	3
ybdO	1
ybdR	18
ybdZ	5
ybeA	32
ybeB	41
ybeD	40
ybeF	3
ybeH	4
ybeL	168
ybeM	9
ybeQ	1
ybeR	0
ybeT	4
ybeU	0
ybeX	230
ybeY	51
ybeZ	191
ybfA	7
ybfB	0
ybfC	0
ybfD	0
ybfE	26
ybfF	60
ybfG	0
ybfH	0
ybfL	0
ybfM	20
ybfN	3
ybfO	2
ybfP	0
ybfQ	0
ybgA	7
ybgC	48
ybgD	1
ybgE	33
ybgF	289
ybgH	6
ybgI	149
ybgJ	85
ybgK	108
ybgL	39
ybgO	1
ybgP	0
ybgQ	1
ybgS	60
ybgT	4
ybhA	57
ybhB	37
ybhC	188
ybhD	4
ybhE	185
ybhF	34
ybhG	49
ybhH	1
ybhI	1
ybhJ	6
ybhK	48
ybhL	98
ybhM	1
ybhN	4
ybhO	9
ybhP	6
ybhQ	205
ybhR	15
ybhS	16
ybhT	51
ybiA	12
ybiB	104
ybiC	150
ybiH	13
ybiI	8
ybiJ	9
ybiM	3
ybiN	27
ybiO	14
ybiP	11
ybiR	32
ybiS	183
ybiT	123
ybiU	56
ybiV	27
ybiW	13
ybiX	26
ybiY	2
ybjC	16
ybjD	106
ybjE	17
ybjG	107
ybjH	12
ybjI	35
ybjJ	25
ybjK	28
ybjL	49
ybjM	11
ybjN	75
ybjO	11
ybjP	138
ybjQ	48
ybjR	50
ybjS	47
ybjT	68
ybjX	200
ycaC	202
ycaD	18
ycaI	13
ycaJ	59
ycaK	7
ycaL	3
ycaM	34
ycaN	7
ycaO	20
ycaP	6
ycaQ	22
ycaR	13
ycbB	91
ycbC	10
ycbF	1
ycbG	42
ycbJ	44
ycbK	356
ycbL	207
ycbQ	5
ycbR	2
ycbS	6
ycbT	7
ycbU	0
ycbV	1
ycbW	128
ycbX	62
ycbY	168
ycbZ	136
yccA	774
yccC	17
yccE	0
yccF	10
yccJ	52
yccK	14
yccM	2
yccR	37
yccS	27
yccT	8
yccU	67
yccV	131
yccW	86
yccX	14
yccZ	6
ycdB	56
ycdC	28
ycdG	6
ycdH	1
ycdI	0
ycdK	0
ycdL	0
ycdM	1
ycdN	61
ycdO	96
ycdP	1
ycdQ	2
ycdR	1
ycdS	7
ycdT	1
ycdU	0
ycdW	137
ycdX	99
ycdY	74
ycdZ	20
yceA	195
yceB	65
yceD	362
yceF	102
yceG	25
yceH	81
yceI	53
yceJ	5
yceK	2
yceO	0
yceP	118
yceQ	0
ycfD	236
ycfH	43
ycfJ	37
ycfK	0
ycfL	64
ycfM	124
ycfN	21
ycfP	78
ycfQ	82
ycfR	5
ycfS	52
ycfT	0
ycfX	107
ycfZ	3
ycgB	61
ycgE	72
ycgF	24
ycgG	2
ycgH	8
ycgI	0
ycgJ	19
ycgK	21
ycgL	38
ycgM	77
ycgN	15
ycgR	7
ycgV	21
ycgX	0
ycgY	0
ycgZ	1
ychA	66
ychE	17
ychF	326
ychG	7
ychH	191
ychJ	47
ychM	18
ychN	169
ychP	7
ychQ	1
ychS	0
yciA	22
yciB	46
yciC	53
yciE	4
yciF	4
yciG	4
yciH	18
yciI	109
yciK	54
yciM	80
yciN	136
yciO	61
yciQ	7
yciS	37
yciT	37
yciU	28
yciV	49
yciW	51
yciX	105
ycjD	8
ycjF	38
ycjG	94
ycjM	3
ycjN	6
ycjO	1
ycjP	0
ycjQ	3
ycjR	10
ycjS	1
ycjT	8
ycjU	1
ycjV	0
ycjW	47
ycjX	39
ycjY	2
ycjZ	10
ydaC	0
ydaE	0
ydaF	0
ydaG	0
ydaL	0
ydaM	0
ydaN	0
ydaO	0
ydaQ	0
ydaS	0
ydaT	0
ydaU	0
ydaV	0
ydaW	0
ydaY	0
ydbA	102
ydbC	20
ydbD	5
ydbH	76
ydbJ	78
ydbK	324
ydbL	6
ydcA	21
ydcC	0
ydcD	0
ydcE	28
ydcF	131
ydcH	64
ydcI	797
ydcJ	112
ydcK	9
ydcL	46
ydcM	92
ydcN	6
ydcO	8
ydcP	80
ydcQ	14
ydcR	59
ydcS	77
ydcT	29
ydcU	17
ydcV	38
ydcW	342
ydcX	1
ydcY	53
ydcZ	5
yddA	3
yddB	14
yddE	44
yddG	8
yddH	4
yddJ	0
yddK	1
yddL	0
yddM	21
yddV	12
yddW	129
ydeA	7
ydeE	26
ydeH	86
ydeI	6
ydeJ	6
ydeK	22
ydeM	1
ydeN	48
ydeO	0
ydeP	16
ydeQ	0
ydeR	1
ydeS	0
ydeT	0
ydeU	14
ydeV	152
ydeW	98
ydfA	0
ydfB	0
ydfC	0
ydfD	0
ydfE	0
ydfG	267
ydfH	85
ydfI	8
ydfJ	5
ydfK	0
ydfO	0
ydfP	0
ydfQ	0
ydfR	1
ydfT	2
ydfU	0
ydfV	0
ydfW	0
ydfX	0
ydfZ	6
ydgA	202
ydgC	16
ydgD	34
ydgG	15
ydgH	302
ydgI	8
ydgJ	215
ydgK	23
ydgR	130
ydgT	3
ydhA	10
ydhB	27
ydhC	12
ydhD	207
ydhF	42
ydhH	59
ydhI	5
ydhJ	13
ydhK	19
ydhL	4
ydhM	22
ydhO	99
ydhP	8
ydhQ	224
ydhR	239
ydhS	14
ydhT	3
ydhU	2
ydhV	4
ydhW	0
ydhX	3
ydhY	1
ydhZ	21
ydiA	138
ydiB	1
ydiD	3
ydiE	18
ydiF	0
ydiH	31
ydiI	20
ydiJ	207
ydiK	80
ydiL	0
ydiM	0
ydiN	3
ydiO	2
ydiP	20
ydiQ	0
ydiR	2
ydiS	3
ydiT	0
ydiU	197
ydiV	10
ydiY	1
ydiZ	17
ydjA	221
ydjE	4
ydjF	22
ydjG	4
ydjH	2
ydjI	1
ydjJ	5
ydjK	1
ydjL	2
ydjM	2
ydjN	106
ydjO	0
ydjQ	15
ydjR	2
ydjX	2
ydjY	1
ydjZ	6
yeaA	581
yeaB	21
yeaC	374
yeaD	104
yeaE	30
yeaG	207
yeaH	42
yeaI	1
yeaJ	23
yeaK	61
yeaL	5
yeaM	11
yeaN	1
yeaO	15
yeaP	131
yeaQ	15
yeaR	4
yeaS	12
yeaT	64
yeaU	28
yeaV	4
yeaW	4
yeaX	3
yeaY	60
yeaZ	28
yebA	153
yebB	1
yebC	86
yebE	81
yebF	66
yebG	24
yebK	63
yebN	2
yebO	42
yebQ	2
yebR	87
yebS	20
yebT	72
yebU	27
yebV	52
yebW	7
yebY	13
yebZ	20
yecA	201
yecC	40
yecD	14
yecE	12
yecF	13
yecG	2
yecH	10
yecI	231
yecJ	21
yecM	28
yecN	28
yecO	34
yecP	33
yecR	7
yecS	22
yecT	1
yedA	1
yedD	75
yedE	55
yedF	11
yedI	16
yedJ	22
yedK	3
yedL	3
yedM	1
yedN	3
yedO	83
yedP	27
yedQ	59
yedR	2
yedS	6
yedV	15
yedW	21
yedX	6
yedY	20
yedZ	7
yeeA	48
yeeD	28
yeeE	43
yeeF	71
yeeI	877
yeeJ	43
yeeL	2
yeeN	72
yeeO	7
yeeP	3
yeeR	23
yeeS	5
yeeT	0
yeeU	1
yeeV	0
yeeW	4
yeeX	203
yeeY	21
yeeZ	105
yefM	21
yegD	8
yegE	81
yegH	32
yegI	5
yegJ	3
yegK	2
yegL	1
yegP	62
yegQ	48
yegR	1
yegS	25
yegT	8
yegU	9
yegV	6
yegW	36
yegX	10
yegZ	0
yehA	0
yehB	4
yehC	0
yehD	1
yehE	15
yehI	8
yehK	0
yehL	2
yehM	5
yehP	0
yehQ	5
yehR	2
yehS	32
yehT	20
yehU	34
yehW	5
yehX	3
yehY	9
yehZ	44
yeiA	6
yeiB	48
yeiC	26
yeiE	68
yeiG	390
yeiH	34
yeiI	25
yeiJ	4
yeiL	4
yeiM	53
yeiN	89
yeiP	72
yeiQ	56
yeiR	17
yeiS	1
yeiT	4
yeiU	8
yeiW	0
yejA	90
yejB	30
yejE	26
yejF	76
yejG	137
yejH	30
yejK	110
yejL	30
yejM	141
yejO	34
yfaA	5
yfaD	18
yfaE	13
yfaH	0
yfaL	33
yfaO	14
yfaP	3
yfaQ	1
yfaS	6
yfaT	0
yfaU	1
yfaV	1
yfaW	9
yfaX	5
yfaY	31
yfaZ	10
yfbB	4
yfbE	14
yfbF	7
yfbG	21
yfbH	9
yfbJ	1
yfbK	4
yfbL	0
yfbM	8
yfbN	1
yfbO	2
yfbP	0
yfbQ	73
yfbR	22
yfbS	22
yfbT	103
yfbU	97
yfbV	79
yfbW	0
yfcA	17
yfcC	2
yfcD	115
yfcE	101
yfcF	17
yfcG	13
yfcH	107
yfcI	12
yfcJ	9
yfcL	23
yfcM	28
yfcN	37
yfcO	40
yfcP	2
yfcQ	0
yfcR	1
yfcS	2
yfcT	3
yfcU	15
yfcV	0
yfcX	338
yfcY	184
yfcZ	105
yfdC	7
yfdE	0
yfdF	1
yfdG	19
yfdH	41
yfdI	14
yfdK	4
yfdL	0
yfdM	0
yfdN	0
yfdO	0
yfdP	0
yfdQ	3
yfdR	0
yfdS	0
yfdT	0
yfdV	2
yfdX	0
yfdY	21
yfdZ	70
yfeA	79
yfeC	26
yfeD	17
yfeG	17
yfeH	123
yfeK	3
yfeN	7
yfeO	9
yfeR	11
yfeS	9
yfeT	8
yfeU	36
yfeW	29
yfeX	187
yfeY	92
yfeZ	15
yffB	10
yffH	45
yffI	24
yfgA	225
yfgB	118
yfgC	144
yfgD	88
yfgF	7
yfgG	76
yfgH	1
yfgI	2
yfgJ	9
yfgL	422
yfgM	134
yfgO	75
yfhA	42
yfhB	29
yfhD	25
yfhG	24
yfhH	17
yfhJ	23
yfhK	51
yfhL	0
yfhM	306
yfhQ	155
yfhR	2
yfiA	948
yfiB	31
yfiC	27
yfiD	15
yfiE	19
yfiF	104
yfiH	41
yfiK	7
yfiL	4
yfiM	5
yfiN	27
yfiO	447
yfiP	13
yfiQ	819
yfiR	13
yfjB	75
yfjD	38
yfjF	16
yfjG	62
yfjH	9
yfjI	5
yfjJ	1
yfjK	91
yfjL	69
yfjM	4
yfjN	57
yfjO	12
yfjP	4
yfjQ	0
yfjR	2
yfjS	2
yfjT	0
yfjU	0
yfjV	0
yfjW	17
yfjX	0
yfjY	0
yfjZ	1
ygaC	18
ygaD	83
ygaF	355
ygaH	9
ygaM	47
ygaP	9
ygaQ	0
ygaR	0
ygaT	697
ygaU	138
ygaV	7
ygaW	196
ygaX	1
ygaY	0
ygaZ	42
ygbA	8
ygbE	10
ygbF	0
ygbI	88
ygbJ	4
ygbK	3
ygbL	2
ygbM	3
ygbN	3
ygbT	17
ygcB	10
ygcE	4
ygcF	23
ygcG	1
ygcH	2
ygcI	6
ygcJ	5
ygcK	0
ygcL	0
ygcM	25
ygcN	9
ygcO	0
ygcP	4
ygcQ	4
ygcR	3
ygcS	1
ygcU	1
ygcW	0
ygdB	0
ygdD	8
ygdE	56
ygdH	384
ygdI	28
ygdK	23
ygdL	25
ygdQ	11
ygdR	32
ygeA	33
ygeD	15
ygeF	0
ygeG	0
ygeH	1
ygeI	0
ygeK	0
ygeL	0
ygeM	0
ygeN	0
ygeO	0
ygeP	3
ygeQ	0
ygeR	105
ygeV	393
ygeW	24
ygeX	17
ygeY	30
ygfA	25
ygfB	226
ygfF	28
ygfG	0
ygfH	3
ygfI	6
ygfJ	22
ygfK	23
ygfM	6
ygfO	0
ygfQ	19
ygfS	3
ygfT	6
ygfU	3
ygfX	80
ygfY	93
ygfZ	556
yggC	23
yggD	27
yggE	213
yggF	4
yggG	234
yggH	58
yggJ	52
yggL	145
yggM	1
yggN	13
yggP	5
yggR	6
yggS	51
yggT	49
yggU	8
yggV	47
yggW	66
yggX	26
yghA	28
yghB	49
yghD	2
yghE	0
yghF	0
yghG	1
yghJ	80
yghK	20
yghO	2
yghQ	1
yghR	1
yghS	2
yghT	1
yghU	180
yghW	3
yghX	5
yghY	21
yghZ	59
ygiA	4
ygiB	196
ygiC	370
ygiE	75
ygiF	46
ygiH	53
ygiL	4
ygiN	206
ygiP	3
ygiQ	61
ygiS	125
ygiT	17
ygiU	12
ygiV	8
ygiW	105
ygiZ	0
ygjD	77
ygjE	2
ygjF	125
ygjG	122
ygjH	2
ygjI	7
ygjJ	6
ygjK	2
ygjM	6
ygjN	2
ygjO	19
ygjP	14
ygjQ	2
ygjR	54
ygjV	5
yhaB	0
yhaC	3
yhaH	31
yhaI	0
yhaJ	76
yhaK	9
yhaL	46
yhaM	12
yhaO	9
yhaV	26
yhbC	95
yhbE	36
yhbG	102
yhbH	180
yhbJ	182
yhbN	87
yhbO	9
yhbP	12
yhbQ	10
yhbS	58
yhbT	116
yhbU	1
yhbV	2
yhbW	45
yhbX	4
yhbY	139
yhcA	1
yhcB	359
yhcC	2
yhcD	15
yhcE	31
yhcF	13
yhcG	10
yhcH	8
yhcM	69
yhcN	1
yhcO	5
yhdA	118
yhdE	39
yhdH	103
yhdJ	4
yhdL	30
yhdN	33
yhdP	174
yhdT	3
yhdU	27
yhdV	0
yhdW	28
yhdX	2
yhdY	1
yhdZ	3
yheL	11
yheM	9
yheN	30
yheO	105
yheS	113
yheT	26
yheU	11
yheV	4
yhfA	92
yhfG	5
yhfK	122
yhfL	1
yhfS	3
yhfT	3
yhfU	1
yhfW	2
yhfX	2
yhfY	2
yhfZ	19
yhgA	9
yhgE	46
yhgF	196
yhgG	3
yhgN	12
yhhA	30
yhhF	18
yhhH	0
yhhI	0
yhhJ	227
yhhK	38
yhhL	9
yhhM	36
yhhN	83
yhhP	33
yhhQ	27
yhhS	15
yhhT	5
yhhW	30
yhhX	94
yhhY	12
yhhZ	0
yhiD	0
yhiF	0
yhiI	574
yhiJ	4
yhiK	0
yhiL	0
yhiM	1
yhiN	39
yhiO	32
yhiP	81
yhiQ	14
yhiR	77
yhiS	0
yhjA	6
yhjB	6
yhjC	21
yhjD	37
yhjE	15
yhjG	30
yhjH	9
yhjJ	74
yhjK	74
yhjQ	6
yhjR	9
yhjV	3
yhjX	9
yhjY	15
yiaA	2
yiaB	0
yiaC	4
yiaD	14
yiaF	152
yiaG	19
yiaH	11
yiaI	6
yiaJ	55
yiaK	12
yiaL	2
yiaM	1
yiaN	1
yiaO	5
yiaT	5
yiaU	17
yiaV	0
yiaW	0
yiaY	1
yibA	3
yibD	3
yibF	41
yibG	0
yibH	10
yibI	4
yibJ	3
yibK	16
yibL	39
yibN	208
yibQ	46
yibT	169
yicC	219
yicE	6
yicG	4
yicH	108
yicI	5
yicJ	1
yicL	21
yicM	6
yicN	12
yicO	2
yicR	105
yicS	3
yidA	68
yidB	18
yidC	430
yidD	4
yidE	47
yidF	3
yidG	4
yidH	14
yidI	8
yidJ	4
yidK	1
yidL	9
yidP	1
yidQ	140
yidR	44
yidX	7
yidZ	13
yieE	67
yieF	208
yieG	56
yieH	13
yieI	4
yieK	2
yieL	5
yieM	30
yieN	60
yieP	37
yifB	11
yifE	259
yifK	75
yifL	46
yifN	0
yifO	1
yigA	65
yigB	61
yigE	1
yigF	1
yigG	0
yigI	59
yigL	63
yigM	3
yigP	87
yigZ	58
yihA	186
yihD	41
yihE	115
yihF	1
yihG	4
yihI	152
yihL	5
yihM	14
yihN	3
yihO	0
yihP	0
yihQ	1
yihR	0
yihS	4
yihT	4
yihU	2
yihV	3
yihW	42
yihX	160
yiiD	113
yiiE	0
yiiF	4
yiiG	2
yiiL	0
yiiM	51
yiiQ	32
yiiR	15
yiiS	32
yiiT	61
yiiU	309
yiiX	10
yijD	124
yijE	9
yijF	1
yijO	14
yijP	60
yjaA	0
yjaB	7
yjaG	90
yjaH	37
yjbA	5
yjbB	53
yjbC	42
yjbD	58
yjbE	21
yjbF	2
yjbG	5
yjbH	16
yjbI	1
yjbJ	123
yjbL	0
yjbM	0
yjbN	107
yjbO	3
yjbQ	109
yjbR	66
yjcB	1
yjcC	14
yjcD	11
yjcE	38
yjcF	1
yjcH	364
yjcO	80
yjcP	0
yjcQ	1
yjcR	1
yjcS	3
yjcZ	6
yjdA	30
yjdC	125
yjdF	13
yjdI	6
yjdJ	10
yjdK	0
yjdL	6
yjdO	0
yjdP	10
yjeB	16
yjeE	15
yjeF	57
yjeH	18
yjeI	408
yjeJ	6
yjeK	83
yjeM	3
yjeN	0
yjeO	1
yjeP	161
yjeS	29
yjeT	1
yjfC	2
yjfF	6
yjfI	0
yjfJ	2
yjfK	0
yjfL	0
yjfM	2
yjfN	207
yjfO	245
yjfP	23
yjfY	0
yjfZ	1
yjgA	96
yjgB	17
yjgD	354
yjgF	2642
yjgH	6
yjgI	3
yjgJ	17
yjgK	17
yjgL	1
yjgM	11
yjgN	0
yjgP	97
yjgQ	56
yjgR	95
yjgW	3
yjgX	16
yjgZ	0
yjhA	1
yjhB	3
yjhC	22
yjhD	4
yjhE	0
yjhF	2
yjhG	33
yjhH	11
yjhI	3
yjhP	45
yjhQ	28
yjhR	3
yjhS	8
yjhT	7
yjhU	161
yjhV	1
yjhW	0
yjhX	46
yjiA	86
yjiC	0
yjiD	10
yjiE	18
yjiG	1
yjiH	0
yjiJ	9
yjiK	2
yjiL	4
yjiM	4
yjiN	7
yjiO	10
yjiP	0
yjiQ	13
yjiR	31
yjiS	0
yjiT	104
yjiV	27
yjiW	2
yjiX	2
yjiY	35
yjiZ	14
yjjA	24
yjjB	3
yjjG	32
yjjI	13
yjjJ	32
yjjK	1071
yjjM	11
yjjN	5
yjjP	11
yjjQ	1
yjjU	24
yjjV	10
yjjW	6
yjjX	22
yjjY	2
yjjZ	10
yjtD	14
ykfA	19
ykfB	17
ykfC	10
ykfF	0
ykfG	0
ykfH	0
ykfI	0
ykfJ	0
ykgA	15
ykgB	2
ykgC	12
ykgD	6
ykgE	19
ykgF	49
ykgG	19
ykgH	1
ykgI	0
ykgJ	4
ykgK	0
ykgL	1
ykgM	1
ykgN	14
ykiA	1
ykiB	0
ylaB	26
ylaC	62
ylbA	22
ylbE	1
ylbF	3
ylbG	15
ylbH	1
ylcE	1
ylcG	0
yliA	93
yliB	93
yliC	20
yliD	20
yliE	16
yliF	5
yliG	40
yliH	15
yliI	19
yliJ	222
yliK	8
yliL	1
ymbA	24
ymcA	3
ymcB	1
ymcC	0
ymcD	0
ymcE	0
ymdA	2
ymdB	18
ymdC	31
ymdE	0
ymdF	24
ymfA	1
ymfB	19
ymfC	33
ymfD	19
ymfE	21
ymfG	0
ymfH	0
ymfI	28
ymfJ	9
ymfK	38
ymfL	3
ymfM	0
ymfN	4
ymfO	0
ymfP	1
ymfQ	0
ymfR	0
ymfS	2
ymfT	0
ymgA	1
ymgB	2
ymgC	0
ymgD	29
ymgE	6
ymgF	1
ymgG	31
ymgH	0
ymjA	14
ymjB	0
ymjC	1
ynaA	0
ynaE	0
ynaI	83
ynaJ	0
ynaK	0
ynbA	0
ynbB	0
ynbC	3
ynbD	8
ynbE	2
yncA	15
yncB	39
yncC	3
yncD	54
yncE	3300
yncG	5
yncH	0
yncI	0
yncJ	7
yncK	1
yncM	0
yncN	6
yneE	8
yneF	14
yneG	2
yneH	19
yneI	43
yneJ	14
yneK	2
yneL	0
ynfA	8
ynfB	62
ynfC	25
ynfD	31
ynfE	4
ynfF	15
ynfG	1
ynfH	9
ynfK	20
ynfL	11
ynfM	7
ynfN	0
ynfO	0
ynfP	0
ynhG	79
yniA	121
yniB	27
yniC	91
yniD	3
ynjA	3
ynjB	20
ynjC	6
ynjD	1
ynjE	19
ynjF	16
ynjH	4
ynjI	3
yoaA	95
yoaB	214
yoaC	20
yoaD	10
yoaE	188
yoaF	20
yoaG	0
yoaH	39
yoaI	2
yobA	19
yobB	56
yobD	8
yobF	121
yobG	75
yobH	11
yodA	1
yodB	13
yodC	15
yodD	19
yoeA	12
yoeB	7
yoeE	4
yoeF	3
yohC	32
yohD	30
yohF	4
yohG	2
yohH	0
yohJ	1
yohK	8
yohL	10
yohM	13
yohN	33
yohO	12
yojI	94
yojL	15
ypaA	22
ypdA	12
ypdB	17
ypdC	13
ypdD	10
ypdE	1
ypdF	4
ypdG	4
ypdH	0
ypdI	0
ypdJ	0
ypeA	37
ypeB	5
ypeC	34
ypfE	3
ypfG	26
ypfH	35
ypfI	53
ypfJ	48
ypfN	6
yphA	11
yphB	13
yphC	11
yphD	2
yphE	5
yphF	4
yphG	7
yphH	29
ypjA	27
ypjB	0
ypjC	0
ypjD	55
ypjF	1
ypjJ	0
ypjK	0
ypjL	2
ypjM	3
yqaA	34
yqaB	47
yqaC	0
yqaD	0
yqaE	8
yqcA	91
yqcB	21
yqcC	6
yqcD	95
yqcE	0
yqeA	11
yqeB	73
yqeC	21
yqeF	645
yqeG	45
yqeH	1
yqeI	3
yqeJ	1
yqeK	0
yqfA	134
yqfB	22
yqfE	1
yqgA	2
yqgB	21
yqgC	0
yqgD	12
yqgE	86
yqgF	39
yqhA	127
yqhC	13
yqhD	135
yqhG	1
yqhH	0
yqiA	45
yqiB	18
yqiC	117
yqiG	2
yqiH	0
yqiI	1
yqiJ	2
yqiK	4
yqjA	44
yqjB	14
yqjC	65
yqjD	44
yqjE	70
yqjF	3
yqjG	21
yqjH	92
yqjI	39
yqjK	76
yraH	0
yraI	0
yraJ	8
yraK	9
yraL	44
yraM	214
yraN	12
yraO	85
yraP	183
yraQ	33
yraR	9
yrbA	25
yrbB	71
yrbC	148
yrbD	51
yrbE	47
yrbF	105
yrbG	39
yrbK	37
yrbL	748
yrdA	50
yrdB	6
yrdC	25
yrdD	54
yrfA	1
yrfB	2
yrfC	0
yrfD	8
yrfF	219
yrfG	47
yrhA	1
yrhB	0
yrhC	0
ysaB	6
ysdC	0
ysgA	108
ytfA	0
ytfB	121
ytfE	5
ytfF	22
ytfG	10
ytfH	8
ytfI	2
ytfJ	157
ytfK	296
ytfL	50
ytfM	90
ytfN	112
ytfP	61
ytfQ	108
ytfR	30
ytfT	13
ytjA	41
ytjB	21
ytjC	160
yzcX	1
yzfA	0
yzgL	3
zapA	172
zipA	197
zitB	32
zntA	576
zntR	20
znuA	83
znuB	27
znuC	34
zraP	2
zraR	20
zraS	11
zupT	9
zur	42
zwf	303
__no_feature	16946
__ambiguous	104848
__too_low_aQual	0
__not_aligned	0
__alignment_not_unique	0
