aaeA	3
aaeB	2
aaeR	50
aaeX	0
aas	85
aat	46
abgA	0
abgB	0
abgR	0
abgT	0
abrB	2
accA	605
accB	612
accC	1130
accD	1536
aceA	33408
aceB	19944
aceE	4825
aceF	2289
aceK	4102
ackA	1099
acnA	1769
acnB	27854
acpP	5235
acpS	47
acpT	22
acrA	440
acrB	913
acrD	29
acrE	3
acrF	15
acrR	64
acs	3899
actP	2693
ada	19
add	585
ade	63
adhE	916
adhP	207
adiA	15
adiC	5
adiY	2
adk	1596
aegA	14
aer	116
aes	7
afuB	0
afuC	3
agaA	17
agaB	5
agaC	0
agaD	1
agaI	2
agaR	157
agaS	4
agaV	23
agaW	14
agp	601
ahpC	7865
ahpF	229
aidB	45
ais	4
alaS	1678
alaT	1
alaU	1
alaV	5
alaW	2
alaX	4
aldA	18260
aldB	746
alkA	20
alkB	6
allA	7
allB	16
allC	12
allD	0
allR	135
alpA	2
alr	107
alsA	0
alsB	17
alsC	0
alsE	2
alsK	13
alx	17
amiA	105
amiB	63
amiC	291
amn	341
ampC	38
ampD	50
ampE	72
ampG	128
ampH	111
amtB	14
amyA	203
ansA	79
ansB	34
ansP	48
apaG	48
apaH	104
aphA	364
appA	25
appB	6
appC	10
appY	2
apt	132
aqpZ	13
araA	25
araB	18
araC	363
araD	5
araE	35
araF	47
araG	17
araH	14
araJ	18
arcA	1812
arcB	399
argA	17
argB	13
argC	9
argD	36
argE	71
argF	12
argG	130
argH	37
argI	12
argK	2
argO	7
argP	88
argQ	18
argR	191
argS	530
argT	749
argU	6
argV	82
argW	1
argX	9
argY	193
argZ	62
arnT	4
aroA	66
aroB	354
aroC	348
aroD	37
aroE	25
aroF	42
aroG	229
aroH	86
aroK	286
aroL	38
aroM	23
aroP	46
arpA	0
arpB	2
arsB	14
arsC	11
arsR	13
artI	157
artJ	18
artM	70
artP	95
artQ	31
ascB	25
ascF	19
ascG	73
asd	747
aslA	9
aslB	24
asmA	289
asnA	79
asnB	89
asnC	14
asnS	547
asnT	51
asnU	12
asnV	1
asnW	0
aspA	4277
aspC	2397
aspS	418
aspT	0
aspU	0
aspV	3
asr	6
astA	496
astB	453
astC	964
astD	552
astE	293
atoA	1
atoB	5
atoC	38
atoD	0
atoE	1
atoS	15
atpA	11315
atpB	1869
atpC	2296
atpD	9302
atpE	2412
atpF	3373
atpG	4591
atpH	2206
atpI	592
avtA	182
azoR	48
bacA	112
baeR	24
baeS	9
barA	140
basR	27
basS	31
bax	971
bcp	413
bcr	40
bcsA	12
bcsB	21
bcsC	38
bcsE	137
bcsF	2
bcsG	74
bcsZ	3
bdm	22
betA	101
betB	173
betI	71
betT	68
bfd	51
bfr	203
bglA	312
bglB	2
bglF	2
bglG	11
bglH	2
bglJ	3
bglX	355
bioA	4
bioB	7
bioC	3
bioD	2
bioF	1
bioH	46
bipA	930
birA	109
bisC	107
blc	42
blr	22
bolA	250
borD	107
brnQ	101
btuB	330
btuC	57
btuD	75
btuE	77
btuF	40
btuR	63
cadA	2
cadB	1
cadC	16
caiA	15
caiB	7
caiC	11
caiD	3
caiE	5
caiF	130
caiT	1
can	346
carA	3879
carB	7955
cbl	77
cbpA	103
cbpM	16
cbrA	7
cbrC	25
cca	263
cchA	25
cchB	5
ccmA	13
ccmB	6
ccmC	29
ccmD	0
ccmE	15
ccmF	51
ccmG	10
ccmH	36
cdaR	77
cdd	27
cdh	17
cdsA	259
cedA	13
cfa	322
chaA	82
chaB	14
chaC	19
chbA	4
chbB	64
chbC	23
chbF	27
chbG	29
chbR	16
cheA	38
cheB	4
cheR	1
cheW	25
cheY	6
cheZ	11
chiA	25
chpA	19
chpB	19
chpR	28
chpS	9
cirA	1113
citA	21
citB	10
citC	0
citD	0
citE	0
citF	2
citG	0
citT	7
citX	0
clcA	72
clcB	12
cld	744
clpA	1416
clpB	726
clpP	507
clpS	29
clpX	782
cls	142
cmk	417
cmr	55
cmtA	1
cmtB	0
coaA	181
coaD	45
coaE	51
cobB	187
cobC	26
cobS	23
cobT	84
cobU	23
codA	334
codB	224
cof	20
copA	122
corA	398
cpdA	230
cpdB	294
cpsB	15
cpsG	10
cpxA	298
cpxP	1810
cpxR	342
crcA	5
crcB	21
creA	45
creB	34
creC	18
creD	7
crl	1115
crp	2793
crr	1788
csdA	133
csgA	17
csgB	0
csgC	2
csgD	7
csgE	1
csgF	2
csgG	10
csiE	690
csiR	45
cspA	85
cspB	27
cspC	1429
cspD	5275
cspE	3830
cspF	6
cspG	9
cspH	0
cspI	0
csrA	593
csrB	37129
csrC	2079
cstA	2647
cueO	131
cueR	38
cusA	8
cusB	5
cusC	3
cusF	1
cusR	49
cusS	35
cutA	36
cutC	78
cvpA	60
cvrA	39
cyaA	555
cyaY	44
cybB	86
cybC	14
cycA	644
cydA	2006
cydB	1131
cydC	199
cydD	150
cynR	31
cynS	2
cynT	4
cynX	7
cyoA	5717
cyoB	7247
cyoC	954
cyoD	589
cyoE	3172
cysA	914
cysB	242
cysC	140
cysD	610
cysE	225
cysG	93
cysH	848
cysI	1333
cysJ	1011
cysK	6572
cysM	381
cysN	873
cysP	939
cysQ	74
cysS	250
cysT	7
cysU	219
cysW	217
cysZ	126
cytR	167
dacA	405
dacB	74
dacC	293
dacD	32
dadA	3351
dadX	1775
dam	65
damX	351
dapA	1086
dapB	105
dapD	491
dapE	60
dapF	163
dbpA	0
dcd	250
dcm	204
dcp	412
dcrB	488
dctA	2514
dcuA	129
dcuB	6
dcuC	7
dcuD	1
dcuR	82
dcuS	156
ddg	14
ddlA	350
ddlB	181
ddpA	148
ddpB	40
ddpC	18
ddpD	32
ddpF	29
ddpX	43
deaD	138
dedA	110
dedD	163
def	259
degP	1130
degQ	245
degS	85
deoA	91
deoB	739
deoC	43
deoD	603
deoR	126
der	220
dfp	263
dgkA	59
dgoA	1
dgoD	9
dgoK	8
dgoR	62
dgoT	3
dgsA	171
dgt	126
dhaH	179
dhaK	294
dhaL	108
dhaR	37
dicA	153
dicB	1
dicC	0
dicF	1
dinB	37
dinD	80
dinF	41
dinG	76
dinI	29
dinJ	99
dipZ	110
djlA	63
djlB	1
djlC	8
dkgA	164
dkgB	40
dksA	1065
dld	903
dmsA	17
dmsB	0
dmsC	10
dmsD	35
dnaA	333
dnaB	273
dnaC	42
dnaE	424
dnaG	301
dnaJ	239
dnaK	1885
dnaN	169
dnaQ	189
dnaT	34
dnaX	175
dos	30
dppA	2450
dppB	91
dppC	57
dppD	90
dppF	102
dps	811
dsbA	389
dsbB	98
dsbC	85
dsbG	24
dsdA	61
dsdC	81
dsdX	33
dsrA	0
dsrB	40
dtd	49
dusB	415
dusC	18
dut	252
dxr	67
dxs	626
eaeH	1
eamA	64
ebgA	47
ebgC	4
ebgR	40
ecnA	4
ecnB	78
eco	618
ecpD	0
eda	247
edd	70
efp	1208
ego	93
elaA	42
elaB	308
elaC	77
elaD	7
elbA	3
elbB	231
emrA	26
emrB	20
emrD	123
emrE	20
emrK	3
emrY	1
emtA	102
endA	1
eno	4232
entA	89
entB	166
entC	297
entD	5
entE	251
entF	222
envC	147
envR	1
envY	7
envZ	194
epd	341
eptA	11
eptB	281
era	295
erfK	71
essD	1
essQ	0
etp	2
eutA	6
eutB	92
eutC	46
eutE	10
eutG	7
eutH	10
eutI	25
eutJ	3
eutL	26
eutP	7
eutQ	13
eutT	17
evgA	85
evgS	126
exbB	430
exbD	193
exo	112
exoX	80
exuR	166
exuT	38
fabA	384
fabB	1423
fabD	739
fabF	1329
fabG	1603
fabH	418
fabI	2404
fabR	215
fabZ	246
fadA	1691
fadB	4651
fadD	2008
fadE	825
fadH	267
fadL	1834
fadR	237
fbaA	4055
fbaB	917
fbp	1239
fcl	20
fdhD	39
fdhE	563
fdhF	29
fdnG	14
fdnH	3
fdnI	5
fdoG	8844
fdoH	1443
fdoI	752
fdrA	2
fdx	63
feaB	74
feaR	352
fecA	665
fecB	167
fecC	60
fecD	35
fecE	149
fecI	39
fecR	26
feoA	37
feoB	145
fepA	227
fepB	61
fepC	27
fepD	23
fepE	0
fepG	15
fes	63
ffh	627
ffs	2
fhiA	3
fhlA	21
fhuA	403
fhuB	38
fhuC	39
fhuD	21
fhuE	44
fhuF	920
fic	17
fieF	124
fimA	814
fimB	20
fimC	29
fimD	58
fimE	2
fimF	5
fimG	10
fimH	38
fimI	41
fimZ	3
fis	143
fiu	135
fixA	3
fixB	1
fixC	1
fixX	1
fklB	472
fkpA	815
fkpB	91
fldA	728
fldB	176
flgA	309
flgB	301
flgC	178
flgD	577
flgE	1483
flgF	563
flgG	681
flgH	165
flgI	145
flgJ	97
flgK	183
flgL	199
flgM	86
flgN	79
flhA	149
flhB	56
flhC	89
flhD	131
flhE	24
fliA	366
fliC	275
fliD	102
fliE	145
fliF	303
fliG	169
fliH	83
fliI	139
fliJ	25
fliK	140
fliL	131
fliM	182
fliN	48
fliO	18
fliP	22
fliQ	9
fliR	13
fliS	23
fliT	11
fliY	1211
fliZ	170
flk	108
flu	831
flxA	5
fmt	265
fnr	0
focA	66
focB	2
folA	126
folB	16
folC	259
folD	206
folE	409
folK	28
folM	25
folP	108
folX	112
fpr	280
frc	2
frdA	244
frdB	57
frdC	22
frdD	37
fre	476
frlA	1
frlB	3
frlC	1
frlD	6
frlR	70
frmA	353
frmB	82
frmR	78
frr	1804
frsA	183
fruA	101
fruB	16
fruK	12
fruR	750
frvA	1
frvB	2
frvR	9
frvX	7
frwB	2
frwC	4
frwD	2
fsaA	8
fsaB	7
fsr	21
ftn	142
ftsA	343
ftsB	125
ftsE	128
ftsH	1799
ftsI	123
ftsK	503
ftsL	19
ftsN	169
ftsQ	99
ftsW	101
ftsX	149
ftsY	374
ftsZ	1662
fucA	29
fucI	39
fucK	27
fucO	147
fucP	14
fucR	271
fucU	58
fumA	1699
fumB	6
fumC	1056
fur	881
fusA	19584
fxsA	41
gabD	164
gabP	47
gabT	166
gadA	6
gadB	17
gadC	16
gadE	7
gadW	31
gadX	45
gadY	0
galE	71
galF	1740
galK	91
galM	212
galP	9
galR	54
galS	42
galT	54
galU	465
gapA	3738
gapC	297
garD	19
garK	22
garL	3
garP	79
garR	55
gatA	141
gatB	173
gatC	1173
gatD	175
gatR	91
gatY	868
gatZ	855
gcd	57
gcl	2
gcvA	101
gcvB	5299
gcvH	955
gcvP	3804
gcvR	77
gcvT	2301
gdhA	191
ggt	173
gidA	253
gidB	24
glcB	364
glcC	742
glcD	36
glcE	15
glcF	26
glcG	35
gldA	69
glf	663
glgA	451
glgB	871
glgC	542
glgP	799
glgS	326
glgX	373
glk	201
glmM	702
glmS	2074
glmU	963
glnA	1804
glnB	148
glnD	298
glnE	194
glnG	75
glnH	6934
glnK	1
glnL	55
glnP	800
glnQ	1183
glnS	770
glnU	7
glnV	8
glnW	6
glnX	1
gloA	330
gloB	75
glpA	3
glpB	1
glpC	5
glpD	110
glpE	44
glpF	249
glpG	44
glpK	616
glpQ	77
glpR	67
glpT	39
glpX	67
gltA	6002
gltB	112
gltD	36
gltF	10
gltI	1393
gltJ	64
gltK	47
gltL	99
gltP	37
gltS	71
gltT	168
gltU	28
gltV	25
gltW	165
gltX	969
glvB	1
glvC	2
glvG	2
glxK	7
glxR	1
glyA	7341
glyQ	310
glyS	666
glyT	57
glyU	3
glyV	59
glyW	89
glyX	7
glyY	0
gmd	28
gmhB	105
gmk	194
gmr	73
gnd	2991
gnsA	3
gnsB	109
gntK	9
gntP	32
gntR	171
gntT	19
gntU	10
gntX	70
gntY	367
gor	419
gph	170
gpmA	1136
gpmI	168
gpp	296
gpsA	626
gpt	370
greA	138
greB	47
groL	3126
groS	588
grpE	581
grxA	14
grxB	913
grxC	255
gshA	482
gshB	150
gsk	116
gspA	1
gspC	1
gspD	7
gspE	2
gspF	1
gspG	2
gspH	1
gspI	0
gspJ	0
gspK	0
gspL	3
gspM	1
gspO	3
gss	115
gst	886
guaA	2331
guaB	1341
guaC	1435
guaD	25
gudD	21
gudP	30
gudX	13
gutM	5
gutQ	87
gyrA	1852
gyrB	803
hcaB	4
hcaC	2
hcaD	19
hcaE	36
hcaF	9
hcaR	617
hcaT	63
hchA	319
hcp	3
hcr	5
hda	218
hdeA	75
hdeB	19
hdeD	2
hdfR	69
hdhA	398
helD	201
hemA	246
hemB	357
hemC	320
hemD	142
hemE	279
hemF	54
hemG	59
hemH	94
hemL	631
hemN	332
hemX	336
hemY	322
hepA	55
hflC	573
hflD	128
hflK	794
hflX	678
hfq	759
hha	55
hinT	118
hipA	49
hipB	5
hisA	47
hisB	110
hisC	35
hisD	45
hisF	43
hisG	41
hisH	37
hisI	40
hisJ	441
hisL	2
hisM	16
hisP	63
hisQ	58
hisR	13
hisS	641
hlpA	627
hlyE	4
hmp	290
hns	3887
hofB	8
hofC	11
hofQ	5
hokA	0
hokB	1
hokC	0
hokD	54
hokE	0
holA	121
holB	50
holC	70
holD	38
holE	40
hpt	251
hrpA	277
hrpB	159
hscA	421
hscB	81
hscC	26
hsdM	78
hsdR	649
hsdS	31
hslJ	24
hslO	112
hslR	20
hslU	227
hslV	67
hsrA	39
htgA	1
htpG	502
htpX	911
htrC	11
htrE	1
htrG	365
htrL	143
hupA	2698
hupB	3202
hyaA	3
hyaB	1
hyaC	3
hyaD	4
hyaE	1
hyaF	5
hybA	18
hybB	11
hybC	66
hybD	10
hybE	9
hybF	4
hybG	4
hybO	34
hycA	0
hycB	0
hycC	1
hycD	0
hycE	3
hycF	1
hycG	3
hycH	5
hycI	20
hydN	7
hyfA	1
hyfB	6
hyfC	0
hyfD	2
hyfE	1
hyfF	5
hyfG	3
hyfH	1
hyfI	2
hyfJ	0
hyfR	2
hyi	1
hypA	3
hypB	16
hypC	3
hypD	18
hypE	20
hypF	23
hyuA	6
iaaA	226
iadA	78
iap	27
ibpA	81
ibpB	5
icd	17956
icdC	0
iclR	181
idi	29
idnD	3
idnK	9
idnO	2
idnR	10
idnT	4
ihfA	618
ihfB	1344
ileS	1423
ileT	1
ileU	2
ileV	0
ileX	0
ileY	0
ilvA	28
ilvB	63
ilvC	27
ilvD	39
ilvE	39
ilvG	34
ilvH	3
ilvI	30
ilvL	8
ilvM	0
ilvN	5
ilvY	50
imp	1105
inaA	47
infA	463
infB	2127
infC	3363
insA	170
insB	72
insC	92
insD	97
insE	46
insF	57
insG	100
insH	3462
insI	40
insJ	9
insK	2
insL	226
insM	5
insN	16
insO	17
intA	118
intB	35
intD	80
intE	16
intF	92
intG	0
intQ	5
intR	0
intS	34
iscA	256
iscR	496
iscS	1086
iscU	258
ispA	332
ispB	473
ispD	88
ispE	860
ispF	108
ispG	357
ispH	180
ispU	479
isrA	0
isrB	1
isrC	1
ivbL	38
ivy	547
katE	283
katG	3064
kbaY	5
kbaZ	50
kbl	2771
kch	27
kdgK	118
kdgR	371
kdgT	16
kdpA	0
kdpB	2
kdpC	1
kdpD	60
kdpE	25
kdpF	0
kdsA	588
kdsB	200
kdsC	81
kdsD	195
kdtA	186
kduD	17
kduI	28
kefA	129
kefB	18
kefC	53
kefF	19
kefG	30
kgtP	1156
kil	0
kptA	14
ksgA	199
lacA	6
lacI	102
lacY	8
lacZ	28
lamB	616
lar	0
ldcA	40
ldcC	84
ldhA	91
ldrA	2
ldrB	4
ldrC	5
ldrD	11
lepA	812
lepB	292
leuA	14
leuB	10
leuC	10
leuD	14
leuL	2
leuO	13
leuP	5
leuQ	3
leuS	965
leuT	12
leuU	1
leuV	12
leuW	2
leuX	3
leuZ	9
lexA	270
lgt	92
lhr	212
ligA	144
ligB	18
ligT	30
lipA	674
lipB	80
lit	37
livF	5
livG	4
livH	2
livJ	25
livK	6
livM	13
lldD	145
lldP	211
lldR	40
lnt	73
lolA	103
lolB	103
lolC	72
lolD	56
lolE	147
lomR	0
lon	824
lpcA	878
lpd	9451
lplA	80
lpp	10839
lpxA	298
lpxB	269
lpxC	2658
lpxD	737
lpxH	83
lpxK	63
lpxL	156
lpxM	128
lrhA	39
lrp	323
lspA	116
lsrB	145
lsrC	38
lsrD	20
lsrF	121
lsrG	36
ltaE	188
luxS	445
lysA	127
lysC	18
lysP	54
lysQ	10
lysR	18
lysS	609
lysT	243
lysU	624
lysV	1
lysW	47
lysY	51
lysZ	68
lyxK	3
maa	101
macA	28
macB	48
maeB	1608
mak	71
malE	1434
malF	109
malG	73
malI	20
malK	182
malM	164
malP	188
malQ	127
malS	33
malT	1109
malX	42
malY	122
malZ	41
manA	217
manX	408
manY	237
manZ	318
maoC	18
map	449
marA	22
marB	8
marC	26
marR	7
mazG	136
mbhA	5
mcrA	12
mcrB	109
mcrC	42
mdaB	92
mdh	8449
mdlA	56
mdlB	36
mdoB	360
mdoC	25
mdoD	564
mdoG	1000
mdoH	676
mdtA	10
mdtB	29
mdtC	19
mdtD	6
mdtE	4
mdtF	12
mdtG	17
mdtH	4
mdtI	1
mdtJ	6
mdtK	70
mdtL	4
melA	165
melB	48
melR	28
menA	43
menB	171
menC	102
menD	80
menE	65
menF	104
mepA	102
metA	15
metB	56
metC	59
metE	93
metF	4
metG	590
metH	369
metI	29
metJ	243
metK	595
metL	98
metN	60
metQ	299
metR	22
metT	5
metU	7
metV	5
metW	24
metY	63
metZ	4
mfd	383
mglA	486
mglB	3575
mglC	197
mgsA	394
mgtA	637
mhpA	9
mhpB	7
mhpC	13
mhpD	3
mhpE	6
mhpF	7
mhpR	65
mhpT	9
miaA	878
miaB	224
micC	0
micF	0
minC	343
minD	711
minE	167
mioC	347
mipA	1263
mlrA	22
mltA	188
mltB	55
mltC	41
mltD	2323
mmuM	48
mmuP	6
mngA	5
mngB	43
mngR	43
mntH	104
mntR	112
moaA	246
moaB	280
moaC	130
moaD	12
moaE	133
mobA	45
mobB	17
modA	114
modB	43
modC	74
modE	52
modF	51
moeA	201
moeB	76
mog	211
mokB	14
mokC	4
molR	16
motA	3
motB	6
mpaA	61
mpl	421
mppA	607
mprA	185
mqo	39
mraW	149
mraY	77
mraZ	115
mrcA	150
mrcB	220
mrdA	109
mrdB	79
mreB	1075
mreC	196
mreD	37
mrp	641
mrr	123
msbA	253
mscL	312
mscS	175
msrA	123
msyB	270
mtgA	69
mtlA	614
mtlD	218
mtlR	49
mtr	14
mukB	656
mukE	92
mukF	132
murA	565
murB	231
murC	213
murD	166
murE	180
murF	157
murG	121
murI	93
murP	32
mutH	35
mutL	162
mutM	15
mutS	282
mutT	23
mutY	55
mviM	152
mviN	20
nac	6
nadA	22
nadB	6
nadC	78
nadD	54
nadE	144
nadR	156
nagA	136
nagB	178
nagC	135
nagD	163
nagE	829
nagZ	89
nanA	40
nanE	14
nanK	20
nanR	200
nanT	40
napA	163
napB	9
napC	14
napD	2
napF	19
napG	17
napH	23
narG	14
narH	7
narI	4
narJ	2
narK	5
narL	153
narP	137
narQ	41
narU	2
narV	4
narW	1
narX	76
narY	13
narZ	28
ndh	82
ndk	2304
nei	20
nemA	561
nfi	78
nfnB	245
nfo	120
nfrA	62
nfrB	8
nfsA	89
nhaA	97
nhaB	125
nhaR	58
nhoA	17
nikA	1
nikB	1
nikC	0
nikD	0
nikE	4
nikR	14
ninE	0
nirB	2
nirC	2
nirD	0
nlpA	114
nlpB	782
nlpC	88
nlpD	1881
nlpE	58
nlpI	1214
nmpC	4533
nohA	0
nohB	0
norR	48
norV	8
norW	7
npr	18
nrdA	339
nrdB	198
nrdD	26
nrdE	15
nrdF	18
nrdG	7
nrdH	2
nrdI	1
nrfA	13
nrfB	0
nrfC	0
nrfD	3
nrfE	0
nrfF	0
nrfG	1
nth	58
nudB	57
nudC	60
nudD	6
nudE	219
nudF	68
nudG	8
nudH	226
nuoA	926
nuoB	1348
nuoC	2462
nuoE	495
nuoF	1637
nuoG	3781
nuoH	954
nuoI	443
nuoJ	378
nuoK	89
nuoL	1923
nuoM	2099
nuoN	1655
nupC	292
nupG	119
nusA	824
nusB	256
nusG	474
obgE	109
ogrK	43
ogt	0
ompA	25188
ompC	30564
ompF	22028
ompG	0
ompL	2
ompN	0
ompR	446
ompT	2001
ompW	36
ompX	1268
oppA	4633
oppB	342
oppC	300
oppD	451
oppF	562
oriC	1
orn	134
osmB	64
osmC	379
osmE	435
osmY	222
otsA	46
otsB	20
oxc	4
oxyR	452
oxyS	0
paaA	24
paaB	5
paaC	19
paaD	4
paaE	30
paaF	13
paaG	14
paaH	20
paaI	3
paaJ	220
paaK	374
paaX	167
paaY	118
pabA	18
pabB	39
pabC	43
pal	1154
panB	384
panC	468
panD	243
panE	54
panF	31
parC	455
parE	223
pbl	0
pbpC	33
pbpG	51
pck	14071
pcm	143
pcnB	602
pdhR	422
pdxA	150
pdxB	431
pdxH	218
pdxJ	173
pdxK	117
pdxY	106
pepA	887
pepB	522
pepD	1226
pepE	57
pepN	1011
pepP	712
pepQ	598
pepT	100
perR	11
pfkA	383
pfkB	103
pflA	161
pflB	2860
pflC	4
pflD	21
pfs	498
pgi	592
pgk	2691
pgm	627
pgpA	72
pgpB	69
pgsA	210
pheA	32
pheL	1
pheM	3
pheP	45
pheS	269
pheT	784
pheU	2
pheV	0
phnA	81
phnB	20
phnC	2
phnD	4
phnE	0
phnF	0
phnG	0
phnH	0
phnI	0
phnJ	1
phnK	0
phnL	1
phnM	0
phnN	0
phnO	4
phnP	7
phoA	208
phoB	20
phoE	2
phoH	1544
phoP	184
phoQ	132
phoR	14
phoU	64
php	4
phr	30
pin	4
pinH	0
pinQ	3
pinR	0
pioO	9
pitA	452
pitB	3
pldA	180
pldB	168
plsB	829
plsC	96
plsX	235
pmbA	250
pmrD	141
pncA	49
pncB	271
pnp	5040
pntA	1315
pntB	1000
pnuC	36
polA	775
polB	53
potA	93
potB	27
potC	32
potD	713
potE	10
potF	62
potG	15
potH	6
potI	8
poxA	17
poxB	48
ppa	1763
ppc	291
ppdA	10
ppdB	8
ppdC	6
ppdD	2
pphA	10
pphB	9
ppiA	243
ppiB	738
ppiC	94
ppiD	639
ppk	344
pppA	15
pps	9919
ppx	196
pqiA	47
pqiB	89
pqqL	35
prc	861
prfA	82
prfB	410
prfC	418
prfH	0
priA	75
priB	304
priC	29
prkB	82
prlC	291
prmA	65
prmB	462
prmC	36
proA	192
proB	177
proC	190
proK	2
proL	1
proM	0
proP	139
proQ	634
proS	1271
proV	335
proW	217
proX	1332
proY	35
prpB	7
prpC	5
prpD	10
prpE	11
prpR	97
prsA	3885
psd	242
psiF	28
pspA	173
pspB	2
pspC	18
pspD	9
pspE	340
pspF	28
pssA	712
pstA	11
pstB	39
pstC	18
pstS	64
pta	1772
pth	151
ptr	258
ptrB	55
ptsA	11
ptsG	205
ptsH	1077
ptsI	2520
ptsN	266
ptsP	615
purA	1850
purB	390
purC	164
purD	101
purE	14
purF	98
purH	157
purK	47
purL	343
purM	130
purN	58
purR	95
purT	36
purU	188
putA	96
putP	243
puuA	114
puuB	10
puuC	14
puuD	43
puuE	7
puuP	56
puuR	49
pykA	979
pykF	566
pyrB	4720
pyrC	909
pyrD	243
pyrE	36
pyrF	452
pyrG	1725
pyrH	1203
pyrI	2171
pyrL	19
qor	123
qseB	4
qseC	8
queA	26
racC	0
racR	0
radA	111
rarA	1
rarD	18
rbbA	729
rbfA	86
rbn	123
rbsA	186
rbsB	2113
rbsC	100
rbsD	230
rbsK	234
rbsR	120
rcsA	91
rcsB	334
rcsC	162
rcsD	440
rcsF	98
rdgC	244
rdlA	17
rdlB	1
rdlC	0
rdlD	1
recA	1379
recB	318
recC	191
recD	202
recE	0
recF	26
recG	216
recJ	147
recN	84
recO	65
recQ	244
recR	175
recT	0
recX	11
relA	487
relB	36
relE	51
rem	2
renD	8
rep	108
rfaB	79
rfaC	120
rfaD	583
rfaE	420
rfaF	245
rfaG	90
rfaH	49
rfaI	83
rfaJ	85
rfaK	101
rfaL	148
rfaP	37
rfaQ	96
rfaS	41
rfaY	69
rfaZ	60
rfbA	487
rfbB	427
rfbC	137
rfbD	337
rfbX	203
rfe	129
rffA	104
rffC	27
rffD	133
rffE	96
rffG	84
rffH	96
rffM	38
rffT	42
rhaA	3
rhaB	1
rhaD	1
rhaR	10
rhaS	22
rhaT	9
rhlB	546
rhlE	7
rho	655
rhoL	149
rhsA	6
rhsB	8
rhsC	8
rhsD	10
rhsE	5
rhtA	15
rhtB	13
rhtC	51
ribA	214
ribB	765
ribC	150
ribD	270
ribE	353
ribF	319
rihA	738
rihB	10
rihC	192
rimI	26
rimJ	119
rimK	106
rimL	34
rimM	1813
rlmB	97
rlpA	180
rlpB	115
rluA	13
rluB	102
rluC	219
rluD	153
rmf	11556
rmuC	214
rna	70
rnb	693
rnc	264
rnd	324
rne	1294
rng	245
rnhA	46
rnhB	48
rnk	200
rnpA	59
rnpB	19595
rnr	734
rnt	80
rob	564
rof	60
rpe	228
rph	192
rpiA	771
rpiB	15
rpiR	47
rplA	2558
rplB	2022
rplC	1640
rplD	927
rplE	2811
rplF	2097
rplI	1125
rplJ	2443
rplK	1071
rplL	2055
rplM	2552
rplN	3360
rplO	1783
rplP	964
rplQ	1508
rplR	738
rplS	848
rplT	1686
rplU	522
rplV	723
rplW	403
rplX	1271
rplY	1105
rpmA	418
rpmB	1076
rpmC	80
rpmD	113
rpmE	1069
rpmF	432
rpmG	152
rpmH	421
rpmI	701
rpmJ	479
rpoA	5247
rpoB	7221
rpoC	8668
rpoD	2015
rpoE	501
rpoH	631
rpoN	477
rpoS	2420
rpoZ	200
rprA	0
rpsA	9651
rpsB	4161
rpsC	2253
rpsD	3298
rpsE	1592
rpsF	1242
rpsG	3594
rpsH	1204
rpsI	1717
rpsJ	1013
rpsK	1387
rpsL	3763
rpsM	1956
rpsN	1204
rpsO	1468
rpsP	826
rpsQ	516
rpsR	186
rpsS	363
rpsT	1337
rpsU	1364
rraA	514
rrfA	0
rrfB	0
rrfC	0
rrfD	0
rrfE	0
rrfF	0
rrfG	0
rrfH	0
rrlA	57
rrlB	72
rrlC	93
rrlD	60
rrlE	103
rrlG	58
rrlH	73
rrmA	53
rrmJ	272
rrsA	16
rrsB	8
rrsC	22
rrsD	15
rrsE	38
rrsG	29
rrsH	27
rsd	577
rseA	724
rseB	394
rseC	106
rsgA	174
rsmB	144
rsmC	165
rspA	18
rspB	9
rssA	84
rssB	61
rstA	119
rstB	66
rsuA	83
rsxA	59
rsxB	27
rsxC	138
rsxD	52
rsxE	28
rsxG	31
rtcA	12
rtcB	17
rtcR	5
rtn	253
rttR	0
rumA	109
rumB	28
rusA	0
ruvA	100
ruvB	155
ruvC	29
rybA	234
rybB	0
rydB	2
ryeA	1245
ryeB	1
ryeC	45
ryeD	9
ryeE	8
ryfA	12
rygA	0
rygB	0
rygC	10
rygD	42
ryhA	12
ryhB	2
ryiA	294
ryjA	2
rzoD	0
rzoR	0
rzpD	0
rzpR	0
sanA	25
sapA	79
sapB	14
sapC	15
sapD	52
sapF	37
sbcB	193
sbcC	212
sbcD	55
sbmA	27
sbmC	115
sbp	217
sdaA	853
sdaB	65
sdaC	249
sdhA	6558
sdhB	2826
sdhC	2207
sdhD	481
sdiA	68
secA	483
secB	725
secD	558
secE	358
secF	215
secG	698
secM	164
secY	4994
selA	113
selB	188
selC	11
selD	846
seqA	168
serA	173
serB	69
serC	368
serS	821
serT	0
serU	3
serV	197
serW	2
serX	0
setA	41
setB	3
setC	1
sfcA	755
sfmA	1
sfmC	0
sfmD	7
sfmF	0
sfmH	0
sfsA	148
sfsB	9
sgbE	16
sgbH	4
sgbU	12
sgcA	2
sgcB	0
sgcC	8
sgcE	4
sgcQ	14
sgcR	19
sgcX	12
sgrR	42
sgrS	9
shiA	55
sieB	0
sixA	275
slp	12
slt	287
slyA	307
slyB	1251
slyD	1826
slyX	194
smf	32
smg	221
smpA	432
smpB	240
smtA	103
sodA	4581
sodB	1223
sodC	76
sohA	71
sohB	256
sokB	3
sokC	0
solA	122
soxR	15
soxS	113
speA	2138
speB	427
speC	475
speD	326
speE	345
speF	5
speG	170
spf	7
spoT	559
sppA	142
spr	2497
sprT	17
spy	95
sra	626
sraB	7
sraD	1
sraF	17
sraG	1
srlA	6
srlB	4
srlD	19
srlE	10
srlR	46
srmB	199
sroF	484
ssb	474
sseA	2915
sseB	154
ssnA	28
sspA	1160
sspB	441
ssrA	104407
ssrS	2776
sstT	634
ssuA	0
ssuB	3
ssuC	3
ssuD	6
ssuE	4
stfE	0
stfQ	0
stfR	0
sthA	4878
stpA	98
sucA	14735
sucB	7641
sucC	7354
sucD	4333
sufA	32
sufB	138
sufC	35
sufD	93
sufE	21
sufI	223
sufS	66
sugE	38
suhB	154
sulA	101
surA	503
surE	182
syd	51
tadA	43
tag	26
talA	72
talB	3652
tam	81
tap	6
tar	13
tas	140
tatA	296
tatB	141
tatC	153
tatD	91
tatE	215
tauA	4
tauB	1
tauC	2
tauD	8
tbpA	445
tdcA	42
tdcB	41
tdcC	69
tdcD	42
tdcE	51
tdcF	11
tdcG	28
tdcR	0
tdh	2756
tdk	74
tehA	35
tehB	67
tesA	47
tesB	99
tfaD	1
tfaE	2
tfaQ	0
tfaR	0
tfaS	7
tff	89
tgt	410
thiC	997
thiD	154
thiE	219
thiF	271
thiG	384
thiH	757
thiI	83
thiL	94
thiM	240
thiP	128
thiQ	63
thiS	8
thrA	164
thrB	85
thrC	215
thrL	8
thrS	3780
thrT	57
thrU	12
thrV	0
thrW	4
thyA	174
tiaE	601
tig	3856
tilS	95
tktA	5124
tktB	231
tldD	181
tmk	30
tnaA	37347
tnaB	2412
tnaC	2060
tolA	158
tolB	980
tolC	1521
tolQ	85
tolR	38
tonB	185
topA	571
topB	456
torA	4
torC	1
torD	4
torI	11
torR	40
torS	12
torT	8
torY	4
torZ	39
tpiA	1189
tpr	0
tpx	2003
treA	106
treB	385
treC	205
treF	88
treR	51
trg	25
trkA	120
trkD	55
trkG	0
trkH	78
trmA	227
trmC	158
trmD	1857
trmE	120
trmH	71
trmU	384
trpA	58
trpB	63
trpC	42
trpD	2
trpE	5
trpL	1
trpR	69
trpS	406
trpT	0
truA	90
truB	181
truD	286
trxA	1013
trxB	892
trxC	161
tsf	2724
tsgA	4
tsr	13
tsx	492
ttdA	0
ttdB	0
ttk	231
tufA	9514
tufB	13633
tus	41
tynA	10
tyrA	56
tyrB	172
tyrP	42
tyrR	209
tyrS	582
tyrT	114
tyrU	218
tyrV	48
ubiA	195
ubiB	252
ubiC	157
ubiD	960
ubiE	335
ubiF	136
ubiG	147
ubiH	272
ubiX	66
ucpA	255
udk	168
udp	415
ugd	95
ugpA	41
ugpB	289
ugpC	60
ugpE	20
ugpQ	58
uhpA	51
uhpB	31
uhpC	12
uhpT	10
uidA	20
uidB	1
uidC	0
uidR	147
ulaA	12
ulaB	4
ulaC	3
ulaD	11
ulaE	10
ulaF	8
ulaG	2
ulaR	44
umuC	7
umuD	4
ung	114
upp	1134
uraA	581
usg	128
ushA	338
uspA	1775
uspE	0
uspF	67
uspG	1182
uup	253
uvrA	246
uvrB	271
uvrC	296
uvrD	233
uvrY	263
uxaA	131
uxaB	22
uxaC	291
uxuA	355
uxuB	291
uxuR	108
vacJ	427
valS	1210
valT	39
valU	4
valV	0
valW	0
valX	42
valY	2
valZ	65
visC	209
vsr	17
wbbH	167
wbbI	323
wbbJ	160
wbbK	339
wbbL	284
wcaA	8
wcaB	1
wcaC	8
wcaD	5
wcaE	6
wcaF	5
wcaI	7
wcaJ	13
wcaK	9
wcaL	4
wcaM	17
wrbA	105
wza	14
wzb	0
wzc	17
wzxC	6
wzxE	56
wzyE	24
wzzE	118
xapA	8
xapB	19
xapR	20
xdhA	25
xdhB	8
xdhC	6
xdhD	78
xerC	93
xerD	90
xseA	144
xseB	173
xthA	272
xylA	49
xylB	28
xylE	5
xylF	282
xylG	96
xylH	55
xylR	69
yaaA	91
yaaH	16
yaaI	2
yaaJ	12
yaaU	4
yaaW	3
yaaX	7
yaaY	2
yabI	95
yabP	14
yabQ	2
yacC	40
yacF	73
yacG	31
yacH	4
yacL	110
yadB	27
yadC	2
yadD	43
yadE	24
yadG	75
yadH	46
yadI	12
yadK	2
yadL	3
yadM	4
yadN	0
yadR	346
yadS	32
yaeB	50
yaeF	3
yaeH	534
yaeI	6
yaeJ	7
yaeL	441
yaeP	73
yaeQ	38
yaeR	14
yaeT	1903
yafC	37
yafD	85
yafE	6
yafF	1
yafJ	148
yafK	104
yafL	4
yafM	48
yafN	13
yafO	6
yafP	4
yafQ	36
yafS	77
yafT	3
yafU	1
yafV	29
yafW	0
yafX	0
yafY	3
yafZ	0
yagA	0
yagB	10
yagE	21
yagF	43
yagG	9
yagH	20
yagI	76
yagJ	14
yagK	6
yagL	2
yagM	3
yagN	275
yagP	2
yagQ	5
yagR	9
yagS	4
yagT	3
yagU	23
yagV	11
yagW	11
yagX	14
yagY	1
yagZ	17
yahA	13
yahB	27
yahC	1
yahD	11
yahE	0
yahF	3
yahG	5
yahH	0
yahI	1
yahJ	47
yahK	85
yahL	1
yahM	5
yahN	4
yahO	125
yaiA	20
yaiB	555
yaiC	1
yaiE	97
yaiF	6
yaiI	26
yaiL	94
yaiO	7
yaiP	1
yaiS	2
yaiT	2
yaiU	8
yaiV	0
yaiW	54
yaiX	0
yaiY	31
yaiZ	47
yajB	32
yajC	357
yajD	91
yajG	301
yajI	23
yajL	61
yajO	122
yajQ	604
yajR	99
ybaA	24
ybaB	156
ybaD	193
ybaE	20
ybaJ	50
ybaK	29
ybaL	367
ybaM	11
ybaN	32
ybaO	30
ybaP	33
ybaQ	62
ybaS	3
ybaT	6
ybaV	26
ybaW	9
ybaX	65
ybaY	129
ybaZ	16
ybbA	35
ybbB	46
ybbC	1
ybbD	0
ybbJ	91
ybbK	191
ybbL	40
ybbM	19
ybbN	224
ybbO	40
ybbP	50
ybbS	1
ybbV	0
ybbW	0
ybbY	2
ybcC	1
ybcD	0
ybcF	2
ybcH	4
ybcI	1
ybcJ	8
ybcK	2
ybcL	15
ybcM	24
ybcN	3
ybcO	0
ybcQ	0
ybcS	1
ybcV	0
ybcW	2
ybcY	12
ybdA	71
ybdB	59
ybdD	293
ybdF	31
ybdG	142
ybdH	31
ybdJ	14
ybdK	16
ybdL	22
ybdM	12
ybdN	5
ybdO	3
ybdR	34
ybdZ	2
ybeA	34
ybeB	81
ybeD	65
ybeF	4
ybeH	10
ybeL	202
ybeM	12
ybeQ	4
ybeR	0
ybeT	1
ybeU	0
ybeX	310
ybeY	67
ybeZ	201
ybfA	3
ybfB	1
ybfC	3
ybfD	1
ybfE	25
ybfF	96
ybfG	2
ybfH	0
ybfL	0
ybfM	64
ybfN	3
ybfO	0
ybfP	1
ybfQ	1
ybgA	17
ybgC	65
ybgD	0
ybgE	88
ybgF	497
ybgH	5
ybgI	148
ybgJ	88
ybgK	110
ybgL	38
ybgO	3
ybgP	2
ybgQ	0
ybgS	91
ybgT	4
ybhA	87
ybhB	53
ybhC	347
ybhD	10
ybhE	245
ybhF	66
ybhG	70
ybhH	2
ybhI	1
ybhJ	5
ybhK	102
ybhL	202
ybhM	4
ybhN	6
ybhO	6
ybhP	8
ybhQ	292
ybhR	28
ybhS	18
ybhT	143
ybiA	10
ybiB	157
ybiC	168
ybiH	29
ybiI	15
ybiJ	12
ybiM	9
ybiN	72
ybiO	10
ybiP	17
ybiR	69
ybiS	254
ybiT	192
ybiU	82
ybiV	53
ybiW	13
ybiX	7
ybiY	3
ybjC	21
ybjD	149
ybjE	21
ybjG	186
ybjH	21
ybjI	112
ybjJ	42
ybjK	93
ybjL	71
ybjM	21
ybjN	124
ybjO	11
ybjP	148
ybjQ	59
ybjR	62
ybjS	111
ybjT	88
ybjX	290
ycaC	379
ycaD	27
ycaI	17
ycaJ	75
ycaK	10
ycaL	8
ycaM	62
ycaN	11
ycaO	49
ycaP	13
ycaQ	26
ycaR	35
ycbB	102
ycbC	23
ycbF	2
ycbG	84
ycbJ	60
ycbK	638
ycbL	380
ycbQ	5
ycbR	0
ycbS	6
ycbT	8
ycbU	1
ycbV	2
ycbW	319
ycbX	79
ycbY	255
ycbZ	251
yccA	1331
yccC	15
yccE	0
yccF	21
yccJ	46
yccK	72
yccM	2
yccR	56
yccS	58
yccT	10
yccU	141
yccV	134
yccW	160
yccX	19
yccZ	6
ycdB	55
ycdC	45
ycdG	9
ycdH	0
ycdI	0
ycdK	1
ycdL	0
ycdM	1
ycdN	46
ycdO	95
ycdP	3
ycdQ	1
ycdR	4
ycdS	6
ycdT	9
ycdU	1
ycdW	197
ycdX	193
ycdY	125
ycdZ	21
yceA	452
yceB	99
yceD	765
yceF	150
yceG	41
yceH	163
yceI	88
yceJ	9
yceK	3
yceO	0
yceP	149
yceQ	0
ycfD	401
ycfH	61
ycfJ	46
ycfK	2
ycfL	109
ycfM	119
ycfN	41
ycfP	145
ycfQ	135
ycfR	3
ycfS	126
ycfT	2
ycfX	163
ycfZ	0
ycgB	71
ycgE	117
ycgF	29
ycgG	7
ycgH	13
ycgI	0
ycgJ	48
ycgK	36
ycgL	68
ycgM	139
ycgN	27
ycgR	12
ycgV	33
ycgX	3
ycgY	1
ycgZ	6
ychA	142
ychE	69
ychF	629
ychG	12
ychH	236
ychJ	90
ychM	36
ychN	209
ychP	13
ychQ	4
ychS	1
yciA	24
yciB	102
yciC	127
yciE	6
yciF	6
yciG	3
yciH	86
yciI	195
yciK	106
yciM	114
yciN	200
yciO	94
yciQ	23
yciS	85
yciT	44
yciU	23
yciV	73
yciW	264
yciX	202
ycjD	20
ycjF	29
ycjG	107
ycjM	2
ycjN	3
ycjO	2
ycjP	0
ycjQ	6
ycjR	1
ycjS	4
ycjT	10
ycjU	0
ycjV	2
ycjW	69
ycjX	48
ycjY	7
ycjZ	26
ydaC	0
ydaE	0
ydaF	0
ydaG	0
ydaL	0
ydaM	0
ydaN	0
ydaO	0
ydaQ	0
ydaS	0
ydaT	0
ydaU	0
ydaV	0
ydaW	0
ydaY	0
ydbA	147
ydbC	26
ydbD	3
ydbH	131
ydbJ	207
ydbK	586
ydbL	34
ydcA	27
ydcC	2
ydcD	2
ydcE	47
ydcF	210
ydcH	104
ydcI	1333
ydcJ	152
ydcK	29
ydcL	117
ydcM	151
ydcN	9
ydcO	18
ydcP	174
ydcQ	32
ydcR	104
ydcS	99
ydcT	48
ydcU	19
ydcV	56
ydcW	552
ydcX	8
ydcY	106
ydcZ	3
yddA	4
yddB	19
yddE	69
yddG	30
yddH	11
yddJ	1
yddK	0
yddL	0
yddM	32
yddV	29
yddW	181
ydeA	12
ydeE	16
ydeH	249
ydeI	4
ydeJ	9
ydeK	43
ydeM	6
ydeN	133
ydeO	2
ydeP	27
ydeQ	2
ydeR	0
ydeS	0
ydeT	3
ydeU	24
ydeV	198
ydeW	139
ydfA	0
ydfB	0
ydfC	1
ydfD	0
ydfE	1
ydfG	488
ydfH	112
ydfI	5
ydfJ	1
ydfK	2
ydfO	0
ydfP	0
ydfQ	1
ydfR	0
ydfT	4
ydfU	1
ydfV	1
ydfW	0
ydfX	0
ydfZ	8
ydgA	278
ydgC	41
ydgD	60
ydgG	39
ydgH	586
ydgI	12
ydgJ	307
ydgK	35
ydgR	208
ydgT	9
ydhA	17
ydhB	40
ydhC	76
ydhD	490
ydhF	84
ydhH	86
ydhI	21
ydhJ	16
ydhK	27
ydhL	7
ydhM	42
ydhO	155
ydhP	9
ydhQ	339
ydhR	356
ydhS	24
ydhT	10
ydhU	5
ydhV	12
ydhW	5
ydhX	3
ydhY	3
ydhZ	54
ydiA	260
ydiB	0
ydiD	3
ydiE	18
ydiF	2
ydiH	56
ydiI	18
ydiJ	186
ydiK	106
ydiL	0
ydiM	2
ydiN	0
ydiO	1
ydiP	26
ydiQ	0
ydiR	3
ydiS	6
ydiT	0
ydiU	249
ydiV	33
ydiY	2
ydiZ	55
ydjA	311
ydjE	4
ydjF	73
ydjG	13
ydjH	7
ydjI	10
ydjJ	4
ydjK	2
ydjL	6
ydjM	6
ydjN	291
ydjO	0
ydjQ	28
ydjR	4
ydjX	1
ydjY	2
ydjZ	5
yeaA	2042
yeaB	19
yeaC	1125
yeaD	171
yeaE	62
yeaG	312
yeaH	51
yeaI	0
yeaJ	46
yeaK	80
yeaL	6
yeaM	26
yeaN	6
yeaO	30
yeaP	233
yeaQ	56
yeaR	8
yeaS	24
yeaT	62
yeaU	30
yeaV	2
yeaW	8
yeaX	2
yeaY	106
yeaZ	51
yebA	280
yebB	2
yebC	154
yebE	160
yebF	170
yebG	76
yebK	124
yebN	1
yebO	90
yebQ	6
yebR	117
yebS	36
yebT	86
yebU	29
yebV	63
yebW	29
yebY	27
yebZ	20
yecA	363
yecC	86
yecD	29
yecE	14
yecF	60
yecG	2
yecH	10
yecI	540
yecJ	32
yecM	28
yecN	47
yecO	45
yecP	56
yecR	27
yecS	42
yecT	3
yedA	2
yedD	123
yedE	70
yedF	8
yedI	38
yedJ	42
yedK	3
yedL	8
yedM	9
yedN	1
yedO	130
yedP	43
yedQ	68
yedR	2
yedS	20
yedV	58
yedW	49
yedX	6
yedY	17
yedZ	11
yeeA	71
yeeD	91
yeeE	193
yeeF	320
yeeI	2163
yeeJ	59
yeeL	1
yeeN	190
yeeO	16
yeeP	10
yeeR	36
yeeS	2
yeeT	0
yeeU	0
yeeV	0
yeeW	3
yeeX	336
yeeY	18
yeeZ	205
yefM	33
yegD	16
yegE	143
yegH	54
yegI	11
yegJ	2
yegK	1
yegL	0
yegP	68
yegQ	153
yegR	4
yegS	55
yegT	13
yegU	5
yegV	7
yegW	93
yegX	11
yegZ	2
yehA	0
yehB	5
yehC	0
yehD	0
yehE	26
yehI	12
yehK	0
yehL	1
yehM	2
yehP	2
yehQ	5
yehR	3
yehS	48
yehT	41
yehU	59
yehW	6
yehX	12
yehY	12
yehZ	36
yeiA	10
yeiB	58
yeiC	45
yeiE	63
yeiG	298
yeiH	38
yeiI	41
yeiJ	3
yeiL	17
yeiM	65
yeiN	121
yeiP	137
yeiQ	86
yeiR	26
yeiS	3
yeiT	11
yeiU	24
yeiW	2
yejA	134
yejB	41
yejE	39
yejF	106
yejG	234
yejH	59
yejK	262
yejL	78
yejM	176
yejO	57
yfaA	8
yfaD	24
yfaE	16
yfaH	0
yfaL	45
yfaO	22
yfaP	2
yfaQ	2
yfaS	10
yfaT	1
yfaU	7
yfaV	4
yfaW	20
yfaX	2
yfaY	48
yfaZ	43
yfbB	12
yfbE	21
yfbF	8
yfbG	26
yfbH	5
yfbJ	1
yfbK	6
yfbL	2
yfbM	32
yfbN	2
yfbO	2
yfbP	3
yfbQ	117
yfbR	44
yfbS	71
yfbT	145
yfbU	138
yfbV	198
yfbW	1
yfcA	42
yfcC	1
yfcD	202
yfcE	250
yfcF	27
yfcG	16
yfcH	173
yfcI	16
yfcJ	4
yfcL	31
yfcM	50
yfcN	95
yfcO	73
yfcP	0
yfcQ	0
yfcR	0
yfcS	1
yfcT	1
yfcU	14
yfcV	0
yfcX	443
yfcY	232
yfcZ	124
yfdC	16
yfdE	5
yfdF	5
yfdG	35
yfdH	135
yfdI	115
yfdK	3
yfdL	0
yfdM	0
yfdN	0
yfdO	0
yfdP	2
yfdQ	6
yfdR	0
yfdS	0
yfdT	0
yfdV	6
yfdX	8
yfdY	46
yfdZ	86
yfeA	137
yfeC	39
yfeD	24
yfeG	16
yfeH	193
yfeK	21
yfeN	17
yfeO	19
yfeR	23
yfeS	23
yfeT	13
yfeU	46
yfeW	28
yfeX	293
yfeY	161
yfeZ	17
yffB	18
yffH	83
yffI	25
yfgA	281
yfgB	298
yfgC	205
yfgD	140
yfgF	5
yfgG	126
yfgH	3
yfgI	7
yfgJ	15
yfgL	698
yfgM	262
yfgO	142
yfhA	81
yfhB	60
yfhD	54
yfhG	31
yfhH	31
yfhJ	41
yfhK	80
yfhL	5
yfhM	503
yfhQ	254
yfhR	3
yfiA	1493
yfiB	73
yfiC	36
yfiD	28
yfiE	20
yfiF	195
yfiH	46
yfiK	6
yfiL	11
yfiM	21
yfiN	47
yfiO	730
yfiP	25
yfiQ	1454
yfiR	32
yfjB	86
yfjD	51
yfjF	39
yfjG	153
yfjH	56
yfjI	15
yfjJ	3
yfjK	115
yfjL	107
yfjM	2
yfjN	93
yfjO	18
yfjP	4
yfjQ	0
yfjR	0
yfjS	1
yfjT	6
yfjU	7
yfjV	0
yfjW	56
yfjX	0
yfjY	0
yfjZ	0
ygaC	22
ygaD	108
ygaF	128
ygaH	11
ygaM	68
ygaP	17
ygaQ	0
ygaR	0
ygaT	337
ygaU	250
ygaV	6
ygaW	268
ygaX	2
ygaY	1
ygaZ	89
ygbA	14
ygbE	29
ygbF	3
ygbI	179
ygbJ	3
ygbK	2
ygbL	4
ygbM	3
ygbN	6
ygbT	15
ygcB	28
ygcE	6
ygcF	45
ygcG	0
ygcH	10
ygcI	11
ygcJ	7
ygcK	0
ygcL	6
ygcM	88
ygcN	12
ygcO	0
ygcP	6
ygcQ	5
ygcR	2
ygcS	2
ygcU	5
ygcW	1
ygdB	11
ygdD	14
ygdE	82
ygdH	502
ygdI	33
ygdK	30
ygdL	38
ygdQ	20
ygdR	117
ygeA	67
ygeD	24
ygeF	0
ygeG	1
ygeH	1
ygeI	0
ygeK	0
ygeL	0
ygeM	0
ygeN	1
ygeO	3
ygeP	0
ygeQ	4
ygeR	203
ygeV	924
ygeW	107
ygeX	80
ygeY	170
ygfA	33
ygfB	290
ygfF	75
ygfG	1
ygfH	1
ygfI	7
ygfJ	53
ygfK	73
ygfM	5
ygfO	13
ygfQ	35
ygfS	3
ygfT	13
ygfU	11
ygfX	110
ygfY	185
ygfZ	961
yggC	37
yggD	51
yggE	291
yggF	2
yggG	486
yggH	112
yggJ	61
yggL	374
yggM	6
yggN	47
yggP	4
yggR	10
yggS	89
yggT	119
yggU	25
yggV	61
yggW	97
yggX	48
yghA	37
yghB	92
yghD	4
yghE	1
yghF	7
yghG	3
yghJ	130
yghK	32
yghO	3
yghQ	1
yghR	0
yghS	4
yghT	2
yghU	283
yghW	2
yghX	6
yghY	32
yghZ	105
ygiA	6
ygiB	281
ygiC	671
ygiE	120
ygiF	71
ygiH	75
ygiL	2
ygiN	330
ygiP	2
ygiQ	158
ygiS	100
ygiT	59
ygiU	39
ygiV	9
ygiW	136
ygiZ	0
ygjD	149
ygjE	1
ygjF	209
ygjG	100
ygjH	6
ygjI	25
ygjJ	1
ygjK	14
ygjM	19
ygjN	4
ygjO	28
ygjP	35
ygjQ	1
ygjR	81
ygjV	11
yhaB	1
yhaC	0
yhaH	57
yhaI	0
yhaJ	103
yhaK	11
yhaL	115
yhaM	9
yhaO	6
yhaV	76
yhbC	192
yhbE	31
yhbG	151
yhbH	357
yhbJ	266
yhbN	130
yhbO	14
yhbP	28
yhbQ	27
yhbS	92
yhbT	184
yhbU	0
yhbV	2
yhbW	38
yhbX	9
yhbY	274
yhcA	1
yhcB	420
yhcC	1
yhcD	13
yhcE	69
yhcF	10
yhcG	8
yhcH	19
yhcM	96
yhcN	1
yhcO	15
yhdA	162
yhdE	53
yhdH	251
yhdJ	18
yhdL	41
yhdN	42
yhdP	247
yhdT	1
yhdU	84
yhdV	3
yhdW	31
yhdX	2
yhdY	1
yhdZ	11
yheL	14
yheM	22
yheN	45
yheO	206
yheS	165
yheT	56
yheU	9
yheV	6
yhfA	125
yhfG	3
yhfK	135
yhfL	1
yhfS	4
yhfT	7
yhfU	1
yhfW	1
yhfX	0
yhfY	5
yhfZ	17
yhgA	14
yhgE	119
yhgF	305
yhgG	6
yhgN	28
yhhA	38
yhhF	28
yhhH	1
yhhI	3
yhhJ	218
yhhK	59
yhhL	2
yhhM	64
yhhN	105
yhhP	96
yhhQ	55
yhhS	22
yhhT	16
yhhW	57
yhhX	137
yhhY	17
yhhZ	1
yhiD	1
yhiF	1
yhiI	630
yhiJ	10
yhiK	0
yhiL	1
yhiM	0
yhiN	48
yhiO	45
yhiP	71
yhiQ	13
yhiR	117
yhiS	1
yhjA	6
yhjB	17
yhjC	23
yhjD	39
yhjE	18
yhjG	48
yhjH	8
yhjJ	122
yhjK	95
yhjQ	11
yhjR	11
yhjV	4
yhjX	1
yhjY	12
yiaA	0
yiaB	2
yiaC	7
yiaD	17
yiaF	220
yiaG	34
yiaH	13
yiaI	13
yiaJ	82
yiaK	11
yiaL	0
yiaM	1
yiaN	3
yiaO	4
yiaT	3
yiaU	36
yiaV	0
yiaW	0
yiaY	1
yibA	10
yibD	14
yibF	32
yibG	2
yibH	16
yibI	8
yibJ	4
yibK	26
yibL	89
yibN	416
yibQ	76
yibT	198
yicC	273
yicE	2
yicG	1
yicH	145
yicI	17
yicJ	3
yicL	46
yicM	5
yicN	16
yicO	3
yicR	297
yicS	3
yidA	90
yidB	46
yidC	686
yidD	6
yidE	85
yidF	3
yidG	2
yidH	14
yidI	11
yidJ	9
yidK	4
yidL	24
yidP	5
yidQ	240
yidR	64
yidX	25
yidZ	13
yieE	126
yieF	279
yieG	68
yieH	17
yieI	3
yieK	6
yieL	7
yieM	42
yieN	75
yieP	64
yifB	9
yifE	770
yifK	80
yifL	68
yifN	0
yifO	6
yigA	95
yigB	77
yigE	5
yigF	2
yigG	0
yigI	147
yigL	117
yigM	9
yigP	133
yigZ	65
yihA	304
yihD	77
yihE	245
yihF	3
yihG	4
yihI	289
yihL	11
yihM	17
yihN	6
yihO	3
yihP	0
yihQ	2
yihR	0
yihS	6
yihT	6
yihU	2
yihV	5
yihW	75
yihX	234
yiiD	197
yiiE	0
yiiF	14
yiiG	8
yiiL	0
yiiM	112
yiiQ	59
yiiR	11
yiiS	50
yiiT	98
yiiU	592
yiiX	17
yijD	223
yijE	14
yijF	0
yijO	23
yijP	149
yjaA	2
yjaB	19
yjaG	169
yjaH	56
yjbA	4
yjbB	56
yjbC	68
yjbD	102
yjbE	35
yjbF	4
yjbG	2
yjbH	14
yjbI	2
yjbJ	142
yjbL	0
yjbM	1
yjbN	202
yjbO	10
yjbQ	161
yjbR	115
yjcB	4
yjcC	17
yjcD	11
yjcE	59
yjcF	5
yjcH	570
yjcO	126
yjcP	3
yjcQ	0
yjcR	1
yjcS	1
yjcZ	8
yjdA	32
yjdC	163
yjdF	14
yjdI	5
yjdJ	29
yjdK	1
yjdL	2
yjdO	1
yjdP	15
yjeB	45
yjeE	21
yjeF	65
yjeH	20
yjeI	491
yjeJ	5
yjeK	99
yjeM	3
yjeN	0
yjeO	4
yjeP	215
yjeS	56
yjeT	6
yjfC	0
yjfF	16
yjfI	0
yjfJ	1
yjfK	0
yjfL	0
yjfM	1
yjfN	395
yjfO	510
yjfP	26
yjfY	2
yjfZ	5
yjgA	138
yjgB	39
yjgD	720
yjgF	4261
yjgH	11
yjgI	8
yjgJ	29
yjgK	19
yjgL	20
yjgM	26
yjgN	1
yjgP	112
yjgQ	74
yjgR	120
yjgW	4
yjgX	42
yjgZ	0
yjhA	2
yjhB	9
yjhC	52
yjhD	4
yjhE	1
yjhF	7
yjhG	43
yjhH	13
yjhI	8
yjhP	57
yjhQ	48
yjhR	7
yjhS	7
yjhT	19
yjhU	303
yjhV	1
yjhW	0
yjhX	59
yjiA	130
yjiC	0
yjiD	26
yjiE	37
yjiG	1
yjiH	1
yjiJ	10
yjiK	2
yjiL	3
yjiM	1
yjiN	8
yjiO	10
yjiP	0
yjiQ	18
yjiR	24
yjiS	0
yjiT	279
yjiV	58
yjiW	5
yjiX	4
yjiY	47
yjiZ	7
yjjA	46
yjjB	9
yjjG	55
yjjI	9
yjjJ	37
yjjK	1687
yjjM	18
yjjN	2
yjjP	19
yjjQ	1
yjjU	40
yjjV	24
yjjW	2
yjjX	30
yjjY	2
yjjZ	2
yjtD	23
ykfA	26
ykfB	23
ykfC	24
ykfF	0
ykfG	0
ykfH	0
ykfI	0
ykfJ	0
ykgA	23
ykgB	2
ykgC	12
ykgD	10
ykgE	47
ykgF	97
ykgG	46
ykgH	1
ykgI	0
ykgJ	11
ykgK	2
ykgL	2
ykgM	1
ykgN	43
ykiA	5
ykiB	1
ylaB	48
ylaC	115
ylbA	45
ylbE	2
ylbF	1
ylbG	10
ylbH	0
ylcE	6
ylcG	0
yliA	214
yliB	280
yliC	68
yliD	52
yliE	27
yliF	9
yliG	101
yliH	19
yliI	35
yliJ	432
yliK	6
yliL	0
ymbA	34
ymcA	4
ymcB	0
ymcC	0
ymcD	0
ymcE	2
ymdA	2
ymdB	23
ymdC	56
ymdE	0
ymdF	39
ymfA	0
ymfB	27
ymfC	58
ymfD	48
ymfE	108
ymfG	1
ymfH	1
ymfI	50
ymfJ	15
ymfK	67
ymfL	1
ymfM	3
ymfN	5
ymfO	0
ymfP	1
ymfQ	0
ymfR	0
ymfS	1
ymfT	1
ymgA	0
ymgB	1
ymgC	0
ymgD	56
ymgE	14
ymgF	1
ymgG	46
ymgH	1
ymjA	28
ymjB	0
ymjC	1
ynaA	0
ynaE	2
ynaI	189
ynaJ	0
ynaK	0
ynbA	2
ynbB	0
ynbC	10
ynbD	15
ynbE	1
yncA	18
yncB	66
yncC	4
yncD	83
yncE	3262
yncG	4
yncH	0
yncI	1
yncJ	28
yncK	1
yncM	0
yncN	4
yneE	7
yneF	12
yneG	11
yneH	33
yneI	52
yneJ	28
yneK	4
yneL	0
ynfA	12
ynfB	150
ynfC	54
ynfD	55
ynfE	3
ynfF	29
ynfG	5
ynfH	16
ynfK	26
ynfL	10
ynfM	19
ynfN	0
ynfO	0
ynfP	1
ynhG	86
yniA	129
yniB	83
yniC	123
yniD	6
ynjA	9
ynjB	21
ynjC	11
ynjD	16
ynjE	13
ynjF	23
ynjH	13
ynjI	13
yoaA	142
yoaB	329
yoaC	43
yoaD	18
yoaE	230
yoaF	34
yoaG	3
yoaH	72
yoaI	2
yobA	17
yobB	106
yobD	26
yobF	384
yobG	85
yobH	41
yodA	2
yodB	14
yodC	47
yodD	17
yoeA	8
yoeB	19
yoeE	14
yoeF	3
yohC	51
yohD	24
yohF	4
yohG	0
yohH	0
yohJ	6
yohK	6
yohL	12
yohM	6
yohN	82
yohO	30
yojI	190
yojL	16
ypaA	22
ypdA	19
ypdB	29
ypdC	15
ypdD	7
ypdE	3
ypdF	3
ypdG	3
ypdH	1
ypdI	0
ypdJ	0
ypeA	54
ypeB	4
ypeC	61
ypfE	1
ypfG	34
ypfH	62
ypfI	58
ypfJ	58
ypfN	11
yphA	20
yphB	15
yphC	16
yphD	2
yphE	7
yphF	9
yphG	7
yphH	35
ypjA	34
ypjB	1
ypjC	1
ypjD	59
ypjF	2
ypjJ	0
ypjK	0
ypjL	9
ypjM	2
yqaA	49
yqaB	113
yqaC	0
yqaD	1
yqaE	36
yqcA	171
yqcB	35
yqcC	9
yqcD	135
yqcE	0
yqeA	28
yqeB	125
yqeC	60
yqeF	1277
yqeG	103
yqeH	6
yqeI	4
yqeJ	1
yqeK	0
yqfA	136
yqfB	60
yqfE	3
yqgA	6
yqgB	133
yqgC	0
yqgD	13
yqgE	114
yqgF	35
yqhA	307
yqhC	38
yqhD	141
yqhG	4
yqhH	1
yqiA	62
yqiB	32
yqiC	256
yqiG	5
yqiH	0
yqiI	2
yqiJ	7
yqiK	14
yqjA	109
yqjB	19
yqjC	112
yqjD	82
yqjE	99
yqjF	3
yqjG	37
yqjH	66
yqjI	33
yqjK	66
yraH	2
yraI	0
yraJ	16
yraK	11
yraL	90
yraM	257
yraN	9
yraO	114
yraP	260
yraQ	37
yraR	20
yrbA	112
yrbB	79
yrbC	211
yrbD	71
yrbE	67
yrbF	155
yrbG	77
yrbK	91
yrbL	1006
yrdA	108
yrdB	9
yrdC	30
yrdD	89
yrfA	0
yrfB	3
yrfC	2
yrfD	12
yrfF	304
yrfG	84
yrhA	0
yrhB	2
yrhC	0
ysaB	6
ysdC	0
ysgA	75
ytfA	0
ytfB	210
ytfE	20
ytfF	23
ytfG	10
ytfH	21
ytfI	2
ytfJ	372
ytfK	242
ytfL	54
ytfM	125
ytfN	189
ytfP	66
ytfQ	192
ytfR	38
ytfT	10
ytjA	78
ytjB	27
ytjC	270
yzcX	5
yzfA	2
yzgL	7
zapA	206
zipA	276
zitB	33
zntA	398
zntR	35
znuA	161
znuB	36
znuC	69
zraP	2
zraR	25
zraS	11
zupT	12
zur	88
zwf	407
__no_feature	34597
__ambiguous	203161
__too_low_aQual	0
__not_aligned	0
__alignment_not_unique	0
